%!PS-Adobe-2.0 EPSF-2.0
%%Title: ts_align.eps
%%Creator: gnuplot 4.2 patchlevel 6 
%%CreationDate: Wed May 15 12:00:18 2013
%%DocumentFonts: (atend)
%%BoundingBox: 50 50 770 302
%%EndComments
%%BeginProlog
/gnudict 256 dict def
gnudict begin
%
% The following 6 true/false flags may be edited by hand if required
% The unit line width may also be changed
%
/Color false def
/Blacktext false def
/Solid false def
/Dashlength 1 def
/Landscape false def
/Level1 false def
/Rounded false def
/TransparentPatterns false def
/gnulinewidth 5.000 def
/userlinewidth gnulinewidth def
%
/vshift -166 def
/dl1 {
  10.0 Dashlength mul mul
  Rounded { currentlinewidth 0.75 mul sub dup 0 le { pop 0.01 } if } if
} def
/dl2 {
  10.0 Dashlength mul mul
  Rounded { currentlinewidth 0.75 mul add } if
} def
/hpt_ 31.5 def
/vpt_ 31.5 def
/hpt hpt_ def
/vpt vpt_ def
Level1 {} {
/SDict 10 dict def
systemdict /pdfmark known not {
  userdict /pdfmark systemdict /cleartomark get put
} if
SDict begin [
  /Title (ts_align.eps)
  /Subject (gnuplot plot)
  /Creator (gnuplot 4.2 patchlevel 6 )
  /Author (Junghee Lee,,,)
%  /Producer (gnuplot)
%  /Keywords ()
  /CreationDate (Wed May 15 12:00:18 2013)
  /DOCINFO pdfmark
end
} ifelse
%
% Gnuplot Prolog Version 4.2 (August 2006)
%
/M {moveto} bind def
/L {lineto} bind def
/R {rmoveto} bind def
/V {rlineto} bind def
/N {newpath moveto} bind def
/Z {closepath} bind def
/C {setrgbcolor} bind def
/f {rlineto fill} bind def
/vpt2 vpt 2 mul def
/hpt2 hpt 2 mul def
/Lshow {currentpoint stroke M 0 vshift R 
	Blacktext {gsave 0 setgray show grestore} {show} ifelse} def
/Rshow {currentpoint stroke M dup stringwidth pop neg vshift R
	Blacktext {gsave 0 setgray show grestore} {show} ifelse} def
/Cshow {currentpoint stroke M dup stringwidth pop -2 div vshift R 
	Blacktext {gsave 0 setgray show grestore} {show} ifelse} def
/UP {dup vpt_ mul /vpt exch def hpt_ mul /hpt exch def
  /hpt2 hpt 2 mul def /vpt2 vpt 2 mul def} def
/DL {Color {setrgbcolor Solid {pop []} if 0 setdash}
 {pop pop pop 0 setgray Solid {pop []} if 0 setdash} ifelse} def
/BL {stroke userlinewidth 2 mul setlinewidth
	Rounded {1 setlinejoin 1 setlinecap} if} def
/AL {stroke userlinewidth 2 div setlinewidth
	Rounded {1 setlinejoin 1 setlinecap} if} def
/UL {dup gnulinewidth mul /userlinewidth exch def
	dup 1 lt {pop 1} if 10 mul /udl exch def} def
/PL {stroke userlinewidth setlinewidth
	Rounded {1 setlinejoin 1 setlinecap} if} def
% Default Line colors
/LCw {1 1 1} def
/LCb {0 0 0} def
/LCa {0 0 0} def
/LC0 {1 0 0} def
/LC1 {0 1 0} def
/LC2 {0 0 1} def
/LC3 {1 0 1} def
/LC4 {0 1 1} def
/LC5 {1 1 0} def
/LC6 {0 0 0} def
/LC7 {1 0.3 0} def
/LC8 {0.5 0.5 0.5} def
% Default Line Types
/LTw {PL [] 1 setgray} def
/LTb {BL [] LCb DL} def
/LTa {AL [1 udl mul 2 udl mul] 0 setdash LCa setrgbcolor} def
/LT0 {PL [] LC0 DL} def
/LT1 {PL [4 dl1 2 dl2] LC1 DL} def
/LT2 {PL [2 dl1 3 dl2] LC2 DL} def
/LT3 {PL [1 dl1 1.5 dl2] LC3 DL} def
/LT4 {PL [6 dl1 2 dl2 1 dl1 2 dl2] LC4 DL} def
/LT5 {PL [3 dl1 3 dl2 1 dl1 3 dl2] LC5 DL} def
/LT6 {PL [2 dl1 2 dl2 2 dl1 6 dl2] LC6 DL} def
/LT7 {PL [1 dl1 2 dl2 6 dl1 2 dl2 1 dl1 2 dl2] LC7 DL} def
/LT8 {PL [2 dl1 2 dl2 2 dl1 2 dl2 2 dl1 2 dl2 2 dl1 4 dl2] LC8 DL} def
/Pnt {stroke [] 0 setdash gsave 1 setlinecap M 0 0 V stroke grestore} def
/Dia {stroke [] 0 setdash 2 copy vpt add M
  hpt neg vpt neg V hpt vpt neg V
  hpt vpt V hpt neg vpt V closepath stroke
  Pnt} def
/Pls {stroke [] 0 setdash vpt sub M 0 vpt2 V
  currentpoint stroke M
  hpt neg vpt neg R hpt2 0 V stroke
 } def
/Box {stroke [] 0 setdash 2 copy exch hpt sub exch vpt add M
  0 vpt2 neg V hpt2 0 V 0 vpt2 V
  hpt2 neg 0 V closepath stroke
  Pnt} def
/Crs {stroke [] 0 setdash exch hpt sub exch vpt add M
  hpt2 vpt2 neg V currentpoint stroke M
  hpt2 neg 0 R hpt2 vpt2 V stroke} def
/TriU {stroke [] 0 setdash 2 copy vpt 1.12 mul add M
  hpt neg vpt -1.62 mul V
  hpt 2 mul 0 V
  hpt neg vpt 1.62 mul V closepath stroke
  Pnt} def
/Star {2 copy Pls Crs} def
/BoxF {stroke [] 0 setdash exch hpt sub exch vpt add M
  0 vpt2 neg V hpt2 0 V 0 vpt2 V
  hpt2 neg 0 V closepath fill} def
/TriUF {stroke [] 0 setdash vpt 1.12 mul add M
  hpt neg vpt -1.62 mul V
  hpt 2 mul 0 V
  hpt neg vpt 1.62 mul V closepath fill} def
/TriD {stroke [] 0 setdash 2 copy vpt 1.12 mul sub M
  hpt neg vpt 1.62 mul V
  hpt 2 mul 0 V
  hpt neg vpt -1.62 mul V closepath stroke
  Pnt} def
/TriDF {stroke [] 0 setdash vpt 1.12 mul sub M
  hpt neg vpt 1.62 mul V
  hpt 2 mul 0 V
  hpt neg vpt -1.62 mul V closepath fill} def
/DiaF {stroke [] 0 setdash vpt add M
  hpt neg vpt neg V hpt vpt neg V
  hpt vpt V hpt neg vpt V closepath fill} def
/Pent {stroke [] 0 setdash 2 copy gsave
  translate 0 hpt M 4 {72 rotate 0 hpt L} repeat
  closepath stroke grestore Pnt} def
/PentF {stroke [] 0 setdash gsave
  translate 0 hpt M 4 {72 rotate 0 hpt L} repeat
  closepath fill grestore} def
/Circle {stroke [] 0 setdash 2 copy
  hpt 0 360 arc stroke Pnt} def
/CircleF {stroke [] 0 setdash hpt 0 360 arc fill} def
/C0 {BL [] 0 setdash 2 copy moveto vpt 90 450 arc} bind def
/C1 {BL [] 0 setdash 2 copy moveto
	2 copy vpt 0 90 arc closepath fill
	vpt 0 360 arc closepath} bind def
/C2 {BL [] 0 setdash 2 copy moveto
	2 copy vpt 90 180 arc closepath fill
	vpt 0 360 arc closepath} bind def
/C3 {BL [] 0 setdash 2 copy moveto
	2 copy vpt 0 180 arc closepath fill
	vpt 0 360 arc closepath} bind def
/C4 {BL [] 0 setdash 2 copy moveto
	2 copy vpt 180 270 arc closepath fill
	vpt 0 360 arc closepath} bind def
/C5 {BL [] 0 setdash 2 copy moveto
	2 copy vpt 0 90 arc
	2 copy moveto
	2 copy vpt 180 270 arc closepath fill
	vpt 0 360 arc} bind def
/C6 {BL [] 0 setdash 2 copy moveto
	2 copy vpt 90 270 arc closepath fill
	vpt 0 360 arc closepath} bind def
/C7 {BL [] 0 setdash 2 copy moveto
	2 copy vpt 0 270 arc closepath fill
	vpt 0 360 arc closepath} bind def
/C8 {BL [] 0 setdash 2 copy moveto
	2 copy vpt 270 360 arc closepath fill
	vpt 0 360 arc closepath} bind def
/C9 {BL [] 0 setdash 2 copy moveto
	2 copy vpt 270 450 arc closepath fill
	vpt 0 360 arc closepath} bind def
/C10 {BL [] 0 setdash 2 copy 2 copy moveto vpt 270 360 arc closepath fill
	2 copy moveto
	2 copy vpt 90 180 arc closepath fill
	vpt 0 360 arc closepath} bind def
/C11 {BL [] 0 setdash 2 copy moveto
	2 copy vpt 0 180 arc closepath fill
	2 copy moveto
	2 copy vpt 270 360 arc closepath fill
	vpt 0 360 arc closepath} bind def
/C12 {BL [] 0 setdash 2 copy moveto
	2 copy vpt 180 360 arc closepath fill
	vpt 0 360 arc closepath} bind def
/C13 {BL [] 0 setdash 2 copy moveto
	2 copy vpt 0 90 arc closepath fill
	2 copy moveto
	2 copy vpt 180 360 arc closepath fill
	vpt 0 360 arc closepath} bind def
/C14 {BL [] 0 setdash 2 copy moveto
	2 copy vpt 90 360 arc closepath fill
	vpt 0 360 arc} bind def
/C15 {BL [] 0 setdash 2 copy vpt 0 360 arc closepath fill
	vpt 0 360 arc closepath} bind def
/Rec {newpath 4 2 roll moveto 1 index 0 rlineto 0 exch rlineto
	neg 0 rlineto closepath} bind def
/Square {dup Rec} bind def
/Bsquare {vpt sub exch vpt sub exch vpt2 Square} bind def
/S0 {BL [] 0 setdash 2 copy moveto 0 vpt rlineto BL Bsquare} bind def
/S1 {BL [] 0 setdash 2 copy vpt Square fill Bsquare} bind def
/S2 {BL [] 0 setdash 2 copy exch vpt sub exch vpt Square fill Bsquare} bind def
/S3 {BL [] 0 setdash 2 copy exch vpt sub exch vpt2 vpt Rec fill Bsquare} bind def
/S4 {BL [] 0 setdash 2 copy exch vpt sub exch vpt sub vpt Square fill Bsquare} bind def
/S5 {BL [] 0 setdash 2 copy 2 copy vpt Square fill
	exch vpt sub exch vpt sub vpt Square fill Bsquare} bind def
/S6 {BL [] 0 setdash 2 copy exch vpt sub exch vpt sub vpt vpt2 Rec fill Bsquare} bind def
/S7 {BL [] 0 setdash 2 copy exch vpt sub exch vpt sub vpt vpt2 Rec fill
	2 copy vpt Square fill Bsquare} bind def
/S8 {BL [] 0 setdash 2 copy vpt sub vpt Square fill Bsquare} bind def
/S9 {BL [] 0 setdash 2 copy vpt sub vpt vpt2 Rec fill Bsquare} bind def
/S10 {BL [] 0 setdash 2 copy vpt sub vpt Square fill 2 copy exch vpt sub exch vpt Square fill
	Bsquare} bind def
/S11 {BL [] 0 setdash 2 copy vpt sub vpt Square fill 2 copy exch vpt sub exch vpt2 vpt Rec fill
	Bsquare} bind def
/S12 {BL [] 0 setdash 2 copy exch vpt sub exch vpt sub vpt2 vpt Rec fill Bsquare} bind def
/S13 {BL [] 0 setdash 2 copy exch vpt sub exch vpt sub vpt2 vpt Rec fill
	2 copy vpt Square fill Bsquare} bind def
/S14 {BL [] 0 setdash 2 copy exch vpt sub exch vpt sub vpt2 vpt Rec fill
	2 copy exch vpt sub exch vpt Square fill Bsquare} bind def
/S15 {BL [] 0 setdash 2 copy Bsquare fill Bsquare} bind def
/D0 {gsave translate 45 rotate 0 0 S0 stroke grestore} bind def
/D1 {gsave translate 45 rotate 0 0 S1 stroke grestore} bind def
/D2 {gsave translate 45 rotate 0 0 S2 stroke grestore} bind def
/D3 {gsave translate 45 rotate 0 0 S3 stroke grestore} bind def
/D4 {gsave translate 45 rotate 0 0 S4 stroke grestore} bind def
/D5 {gsave translate 45 rotate 0 0 S5 stroke grestore} bind def
/D6 {gsave translate 45 rotate 0 0 S6 stroke grestore} bind def
/D7 {gsave translate 45 rotate 0 0 S7 stroke grestore} bind def
/D8 {gsave translate 45 rotate 0 0 S8 stroke grestore} bind def
/D9 {gsave translate 45 rotate 0 0 S9 stroke grestore} bind def
/D10 {gsave translate 45 rotate 0 0 S10 stroke grestore} bind def
/D11 {gsave translate 45 rotate 0 0 S11 stroke grestore} bind def
/D12 {gsave translate 45 rotate 0 0 S12 stroke grestore} bind def
/D13 {gsave translate 45 rotate 0 0 S13 stroke grestore} bind def
/D14 {gsave translate 45 rotate 0 0 S14 stroke grestore} bind def
/D15 {gsave translate 45 rotate 0 0 S15 stroke grestore} bind def
/DiaE {stroke [] 0 setdash vpt add M
  hpt neg vpt neg V hpt vpt neg V
  hpt vpt V hpt neg vpt V closepath stroke} def
/BoxE {stroke [] 0 setdash exch hpt sub exch vpt add M
  0 vpt2 neg V hpt2 0 V 0 vpt2 V
  hpt2 neg 0 V closepath stroke} def
/TriUE {stroke [] 0 setdash vpt 1.12 mul add M
  hpt neg vpt -1.62 mul V
  hpt 2 mul 0 V
  hpt neg vpt 1.62 mul V closepath stroke} def
/TriDE {stroke [] 0 setdash vpt 1.12 mul sub M
  hpt neg vpt 1.62 mul V
  hpt 2 mul 0 V
  hpt neg vpt -1.62 mul V closepath stroke} def
/PentE {stroke [] 0 setdash gsave
  translate 0 hpt M 4 {72 rotate 0 hpt L} repeat
  closepath stroke grestore} def
/CircE {stroke [] 0 setdash 
  hpt 0 360 arc stroke} def
/Opaque {gsave closepath 1 setgray fill grestore 0 setgray closepath} def
/DiaW {stroke [] 0 setdash vpt add M
  hpt neg vpt neg V hpt vpt neg V
  hpt vpt V hpt neg vpt V Opaque stroke} def
/BoxW {stroke [] 0 setdash exch hpt sub exch vpt add M
  0 vpt2 neg V hpt2 0 V 0 vpt2 V
  hpt2 neg 0 V Opaque stroke} def
/TriUW {stroke [] 0 setdash vpt 1.12 mul add M
  hpt neg vpt -1.62 mul V
  hpt 2 mul 0 V
  hpt neg vpt 1.62 mul V Opaque stroke} def
/TriDW {stroke [] 0 setdash vpt 1.12 mul sub M
  hpt neg vpt 1.62 mul V
  hpt 2 mul 0 V
  hpt neg vpt -1.62 mul V Opaque stroke} def
/PentW {stroke [] 0 setdash gsave
  translate 0 hpt M 4 {72 rotate 0 hpt L} repeat
  Opaque stroke grestore} def
/CircW {stroke [] 0 setdash 
  hpt 0 360 arc Opaque stroke} def
/BoxFill {gsave Rec 1 setgray fill grestore} def
/Density {
  /Fillden exch def
  currentrgbcolor
  /ColB exch def /ColG exch def /ColR exch def
  /ColR ColR Fillden mul Fillden sub 1 add def
  /ColG ColG Fillden mul Fillden sub 1 add def
  /ColB ColB Fillden mul Fillden sub 1 add def
  ColR ColG ColB setrgbcolor} def
/BoxColFill {gsave Rec PolyFill} def
/PolyFill {gsave Density fill grestore grestore} def
/h {rlineto rlineto rlineto gsave closepath fill grestore} bind def
%
% PostScript Level 1 Pattern Fill routine for rectangles
% Usage: x y w h s a XX PatternFill
%	x,y = lower left corner of box to be filled
%	w,h = width and height of box
%	  a = angle in degrees between lines and x-axis
%	 XX = 0/1 for no/yes cross-hatch
%
/PatternFill {gsave /PFa [ 9 2 roll ] def
  PFa 0 get PFa 2 get 2 div add PFa 1 get PFa 3 get 2 div add translate
  PFa 2 get -2 div PFa 3 get -2 div PFa 2 get PFa 3 get Rec
  gsave 1 setgray fill grestore clip
  currentlinewidth 0.5 mul setlinewidth
  /PFs PFa 2 get dup mul PFa 3 get dup mul add sqrt def
  0 0 M PFa 5 get rotate PFs -2 div dup translate
  0 1 PFs PFa 4 get div 1 add floor cvi
	{PFa 4 get mul 0 M 0 PFs V} for
  0 PFa 6 get ne {
	0 1 PFs PFa 4 get div 1 add floor cvi
	{PFa 4 get mul 0 2 1 roll M PFs 0 V} for
 } if
  stroke grestore} def
%
/languagelevel where
 {pop languagelevel} {1} ifelse
 2 lt
	{/InterpretLevel1 true def}
	{/InterpretLevel1 Level1 def}
 ifelse
%
% PostScript level 2 pattern fill definitions
%
/Level2PatternFill {
/Tile8x8 {/PaintType 2 /PatternType 1 /TilingType 1 /BBox [0 0 8 8] /XStep 8 /YStep 8}
	bind def
/KeepColor {currentrgbcolor [/Pattern /DeviceRGB] setcolorspace} bind def
<< Tile8x8
 /PaintProc {0.5 setlinewidth pop 0 0 M 8 8 L 0 8 M 8 0 L stroke} 
>> matrix makepattern
/Pat1 exch def
<< Tile8x8
 /PaintProc {0.5 setlinewidth pop 0 0 M 8 8 L 0 8 M 8 0 L stroke
	0 4 M 4 8 L 8 4 L 4 0 L 0 4 L stroke}
>> matrix makepattern
/Pat2 exch def
<< Tile8x8
 /PaintProc {0.5 setlinewidth pop 0 0 M 0 8 L
	8 8 L 8 0 L 0 0 L fill}
>> matrix makepattern
/Pat3 exch def
<< Tile8x8
 /PaintProc {0.5 setlinewidth pop -4 8 M 8 -4 L
	0 12 M 12 0 L stroke}
>> matrix makepattern
/Pat4 exch def
<< Tile8x8
 /PaintProc {0.5 setlinewidth pop -4 0 M 8 12 L
	0 -4 M 12 8 L stroke}
>> matrix makepattern
/Pat5 exch def
<< Tile8x8
 /PaintProc {0.5 setlinewidth pop -2 8 M 4 -4 L
	0 12 M 8 -4 L 4 12 M 10 0 L stroke}
>> matrix makepattern
/Pat6 exch def
<< Tile8x8
 /PaintProc {0.5 setlinewidth pop -2 0 M 4 12 L
	0 -4 M 8 12 L 4 -4 M 10 8 L stroke}
>> matrix makepattern
/Pat7 exch def
<< Tile8x8
 /PaintProc {0.5 setlinewidth pop 8 -2 M -4 4 L
	12 0 M -4 8 L 12 4 M 0 10 L stroke}
>> matrix makepattern
/Pat8 exch def
<< Tile8x8
 /PaintProc {0.5 setlinewidth pop 0 -2 M 12 4 L
	-4 0 M 12 8 L -4 4 M 8 10 L stroke}
>> matrix makepattern
/Pat9 exch def
/Pattern1 {PatternBgnd KeepColor Pat1 setpattern} bind def
/Pattern2 {PatternBgnd KeepColor Pat2 setpattern} bind def
/Pattern3 {PatternBgnd KeepColor Pat3 setpattern} bind def
/Pattern4 {PatternBgnd KeepColor Landscape {Pat5} {Pat4} ifelse setpattern} bind def
/Pattern5 {PatternBgnd KeepColor Landscape {Pat4} {Pat5} ifelse setpattern} bind def
/Pattern6 {PatternBgnd KeepColor Landscape {Pat9} {Pat6} ifelse setpattern} bind def
/Pattern7 {PatternBgnd KeepColor Landscape {Pat8} {Pat7} ifelse setpattern} bind def
} def
%
%
%End of PostScript Level 2 code
%
/PatternBgnd {
  TransparentPatterns {} {gsave 1 setgray fill grestore} ifelse
} def
%
% Substitute for Level 2 pattern fill codes with
% grayscale if Level 2 support is not selected.
%
/Level1PatternFill {
/Pattern1 {0.250 Density} bind def
/Pattern2 {0.500 Density} bind def
/Pattern3 {0.750 Density} bind def
/Pattern4 {0.125 Density} bind def
/Pattern5 {0.375 Density} bind def
/Pattern6 {0.625 Density} bind def
/Pattern7 {0.875 Density} bind def
} def
%
% Now test for support of Level 2 code
%
Level1 {Level1PatternFill} {Level2PatternFill} ifelse
%
/Symbol-Oblique /Symbol findfont [1 0 .167 1 0 0] makefont
dup length dict begin {1 index /FID eq {pop pop} {def} ifelse} forall
currentdict end definefont pop
/MFshow {
   { dup 5 get 3 ge
     { 5 get 3 eq {gsave} {grestore} ifelse }
     {dup dup 0 get findfont exch 1 get scalefont setfont
     [ currentpoint ] exch dup 2 get 0 exch R dup 5 get 2 ne {dup dup 6
     get exch 4 get {show} {stringwidth pop 0 R} ifelse }if dup 5 get 0 eq
     {dup 3 get {2 get neg 0 exch R pop} {pop aload pop M} ifelse} {dup 5
     get 1 eq {dup 2 get exch dup 3 get exch 6 get stringwidth pop -2 div
     dup 0 R} {dup 6 get stringwidth pop -2 div 0 R 6 get
     show 2 index {aload pop M neg 3 -1 roll neg R pop pop} {pop pop pop
     pop aload pop M} ifelse }ifelse }ifelse }
     ifelse }
   forall} bind def
/MFwidth {0 exch { dup 5 get 3 ge { 5 get 3 eq { 0 } { pop } ifelse }
 {dup 3 get{dup dup 0 get findfont exch 1 get scalefont setfont
     6 get stringwidth pop add} {pop} ifelse} ifelse} forall} bind def
/MLshow { currentpoint stroke M
  0 exch R
  Blacktext {gsave 0 setgray MFshow grestore} {MFshow} ifelse } bind def
/MRshow { currentpoint stroke M
  exch dup MFwidth neg 3 -1 roll R
  Blacktext {gsave 0 setgray MFshow grestore} {MFshow} ifelse } bind def
/MCshow { currentpoint stroke M
  exch dup MFwidth -2 div 3 -1 roll R
  Blacktext {gsave 0 setgray MFshow grestore} {MFshow} ifelse } bind def
/XYsave    { [( ) 1 2 true false 3 ()] } bind def
/XYrestore { [( ) 1 2 true false 4 ()] } bind def
end
%%EndProlog
gnudict begin
gsave
50 50 translate
0.050 0.050 scale
0 setgray
newpath
(Arial) findfont 500 scalefont setfont
1.000 UL
LTb
1200 1600 M
63 0 V
12387 0 R
-63 0 V
stroke
900 1600 M
[ [(Arial) 500.0 0.0 true true 0 ( 0)]
] -166.7 MRshow
1.000 UL
LTb
1200 2073 M
63 0 V
12387 0 R
-63 0 V
stroke
900 2073 M
[ [(Arial) 500.0 0.0 true true 0 ( 20)]
] -166.7 MRshow
1.000 UL
LTb
1200 2547 M
63 0 V
12387 0 R
-63 0 V
stroke
900 2547 M
[ [(Arial) 500.0 0.0 true true 0 ( 40)]
] -166.7 MRshow
1.000 UL
LTb
1200 3020 M
63 0 V
12387 0 R
-63 0 V
stroke
900 3020 M
[ [(Arial) 500.0 0.0 true true 0 ( 60)]
] -166.7 MRshow
1.000 UL
LTb
1200 3493 M
63 0 V
12387 0 R
-63 0 V
stroke
900 3493 M
[ [(Arial) 500.0 0.0 true true 0 ( 80)]
] -166.7 MRshow
1.000 UL
LTb
1200 3967 M
63 0 V
12387 0 R
-63 0 V
stroke
900 3967 M
[ [(Arial) 500.0 0.0 true true 0 ( 100)]
] -166.7 MRshow
1.000 UL
LTb
1200 4440 M
63 0 V
12387 0 R
-63 0 V
stroke
900 4440 M
[ [(Arial) 500.0 0.0 true true 0 ( 120)]
] -166.7 MRshow
1.000 UL
LTb
1200 1600 M
0 63 V
0 2777 R
0 -63 V
stroke
1200 1100 M
[ [(Arial) 500.0 0.0 true true 0 ( 0)]
] -166.7 MCshow
1.000 UL
LTb
3690 1600 M
0 63 V
0 2777 R
0 -63 V
stroke
3690 1100 M
[ [(Arial) 500.0 0.0 true true 0 ( 10)]
] -166.7 MCshow
1.000 UL
LTb
6180 1600 M
0 63 V
0 2777 R
0 -63 V
stroke
6180 1100 M
[ [(Arial) 500.0 0.0 true true 0 ( 20)]
] -166.7 MCshow
1.000 UL
LTb
8670 1600 M
0 63 V
0 2777 R
0 -63 V
stroke
8670 1100 M
[ [(Arial) 500.0 0.0 true true 0 ( 30)]
] -166.7 MCshow
1.000 UL
LTb
11160 1600 M
0 63 V
0 2777 R
0 -63 V
stroke
11160 1100 M
[ [(Arial) 500.0 0.0 true true 0 ( 40)]
] -166.7 MCshow
1.000 UL
LTb
13650 1600 M
0 63 V
0 2777 R
0 -63 V
stroke
13650 1100 M
[ [(Arial) 500.0 0.0 true true 0 ( 50)]
] -166.7 MCshow
1.000 UL
LTb
1.000 UL
LTb
1200 4440 N
0 -2840 V
12450 0 V
0 2840 V
-12450 0 V
Z stroke
LCb setrgbcolor
-550 3020 M
currentpoint gsave translate 90 rotate 0 0 moveto
[ [(Arial) 500.0 0.0 true true 0 (Average response time)]
] -166.7 MCshow
grestore
LTb
LCb setrgbcolor
7425 350 M
[ [(Arial) 500.0 0.0 true true 0 (Elapsed time \(sec\))]
] -166.7 MCshow
LTb
1.000 UP
1.000 UL
LTb
1.000 UL
LT0
1202 1600 M
0 4 V
6 -4 R
0 3 V
9 -3 R
0 3 V
9 -3 R
0 4 V
7 -4 R
0 31 V
6 -31 R
0 52 V
6 -52 R
0 8 V
9 -8 R
0 26 V
8 -26 R
0 31 V
8 -31 R
0 7 V
6 -7 R
0 6 V
7 -6 R
0 233 V
8 -233 R
0 4 V
6 -4 R
0 285 V
6 -285 R
0 105 V
6 -105 R
0 37 V
4 -37 R
0 3 V
6 -3 R
0 8 V
7 -8 R
0 4 V
7 -4 R
0 7 V
7 -7 R
0 52 V
6 -52 R
0 333 V
8 -333 R
0 4 V
6 -4 R
0 6 V
8 -6 R
0 4 V
7 -4 R
0 91 V
8 -91 R
0 6 V
6 -6 R
0 183 V
8 -183 R
0 63 V
7 -63 R
0 8 V
8 -8 R
0 105 V
8 -105 R
0 153 V
7 -153 R
0 157 V
8 -157 R
0 178 V
8 -178 R
0 8 V
8 -8 R
0 8 V
7 -8 R
0 4 V
7 -4 R
0 427 V
7 -427 R
0 332 V
8 -332 R
0 37 V
6 -37 R
0 67 V
5 -67 R
0 4 V
7 -4 R
0 429 V
6 -429 R
0 63 V
7 -63 R
0 203 V
6 -203 R
0 8 V
7 -8 R
0 52 V
7 -52 R
0 192 V
8 -192 R
0 233 V
5 -233 R
0 26 V
8 -26 R
0 259 V
7 -259 R
0 4 V
8 -4 R
0 8 V
stroke 1567 1608 M
7 -8 R
0 105 V
6 -105 R
0 3 V
6 -3 R
0 8 V
8 -8 R
0 10 V
7 -10 R
0 3 V
7 -3 R
0 26 V
9 -26 R
0 52 V
6 -52 R
0 10 V
7 -10 R
0 6 V
8 -6 R
0 12 V
7 -12 R
0 3 V
7 -3 R
0 3 V
7 -3 R
0 344 V
8 -344 R
0 4 V
9 -4 R
0 333 V
7 -333 R
0 8 V
7 -8 R
0 43 V
8 -43 R
0 67 V
8 -67 R
0 230 V
9 -230 R
0 486 V
8 -486 R
0 182 V
10 -182 R
0 333 V
7 -333 R
0 140 V
8 -140 R
0 63 V
7 -63 R
0 13 V
9 -13 R
0 4 V
7 -4 R
0 4 V
8 -4 R
0 7 V
9 -7 R
0 63 V
6 -63 R
0 12 V
9 -12 R
0 4 V
8 -4 R
0 13 V
7 -13 R
0 26 V
8 -26 R
0 4 V
7 -4 R
0 31 V
7 -31 R
0 52 V
10 -52 R
0 79 V
7 -79 R
0 145 V
7 -145 R
0 79 V
8 -79 R
0 105 V
8 -105 R
0 26 V
10 -26 R
0 4 V
6 -4 R
0 26 V
11 -26 R
0 63 V
7 -63 R
0 358 V
7 -358 R
0 370 V
10 -370 R
0 4 V
7 -4 R
0 3 V
8 -3 R
0 4 V
7 -4 R
0 3 V
7 -3 R
0 307 V
7 -307 R
0 3 V
stroke 1967 1603 M
8 -3 R
0 4 V
9 -4 R
0 3 V
7 -3 R
0 201 V
8 -201 R
0 3 V
8 -3 R
0 52 V
7 -52 R
0 522 V
8 -522 R
0 169 V
6 -169 R
0 131 V
7 -131 R
0 3 V
7 -3 R
0 3 V
7 -3 R
0 4 V
6 -4 R
0 13 V
6 -13 R
0 63 V
7 -63 R
0 8 V
5 -8 R
0 272 V
7 -272 R
0 5 V
7 -5 R
0 8 V
7 -8 R
0 8 V
8 -8 R
0 262 V
14 -262 R
0 104 V
-8 -104 R
0 956 V
16 -956 R
0 72 V
9 -72 R
0 3 V
6 -3 R
0 131 V
7 -131 R
0 113 V
8 -113 R
0 12 V
7 -12 R
0 4 V
6 -4 R
0 79 V
7 -79 R
0 26 V
8 -26 R
0 322 V
7 -322 R
0 33 V
8 -33 R
0 79 V
8 -79 R
0 6 V
6 -6 R
0 4 V
9 -4 R
0 79 V
7 -79 R
0 37 V
8 -37 R
0 8 V
7 -8 R
0 308 V
10 -308 R
0 4 V
7 -4 R
0 26 V
7 -26 R
0 8 V
7 -8 R
0 15 V
9 -15 R
0 3 V
7 -3 R
0 4 V
8 -4 R
0 6 V
7 -6 R
0 4 V
8 -4 R
0 3 V
10 -3 R
0 3 V
7 -3 R
0 563 V
6 -563 R
0 69 V
7 -69 R
0 52 V
9 -52 R
0 8 V
stroke 2351 1608 M
13 -8 R
0 516 V
-7 -516 R
0 1233 V
13 -1233 R
0 115 V
8 -115 R
0 176 V
9 -176 R
0 4 V
8 -4 R
0 3 V
10 -3 R
0 107 V
7 -107 R
0 4 V
8 -4 R
0 8 V
8 -8 R
0 79 V
5 -79 R
0 56 V
8 -56 R
0 333 V
7 -333 R
0 82 V
6 -82 R
0 59 V
8 -59 R
0 3 V
6 -3 R
0 11 V
7 -11 R
0 3 V
5 -3 R
0 3 V
8 -3 R
0 31 V
8 -31 R
0 478 V
7 -478 R
0 40 V
7 -40 R
0 172 V
8 -172 R
0 53 V
8 -53 R
0 19 V
8 -19 R
0 3 V
8 -3 R
0 37 V
7 -37 R
0 255 V
9 -255 R
0 37 V
9 -37 R
0 7 V
8 -7 R
0 117 V
10 -117 R
0 4 V
6 -4 R
0 3 V
7 -3 R
0 3 V
8 -3 R
0 49 V
8 -49 R
0 13 V
6 -13 R
0 3 V
5 -3 R
0 4 V
7 -4 R
0 147 V
7 -147 R
0 4 V
7 -4 R
0 122 V
8 -122 R
0 79 V
8 -79 R
0 179 V
6 -179 R
0 12 V
7 -12 R
0 4 V
6 -4 R
0 140 V
10 -140 R
0 4 V
7 -4 R
0 4 V
7 -4 R
0 4 V
8 -4 R
0 8 V
7 -8 R
0 95 V
6 -95 R
0 50 V
7 -50 R
0 16 V
stroke 2733 1616 M
8 -16 R
0 26 V
7 -26 R
0 4 V
7 -4 R
0 4 V
6 -4 R
0 4 V
6 -4 R
0 4 V
10 -4 R
0 4 V
9 -4 R
0 3 V
9 -3 R
0 4 V
9 -4 R
0 4 V
7 -4 R
0 19 V
8 -19 R
0 3 V
9 -3 R
0 37 V
8 -37 R
0 26 V
6 -26 R
0 4 V
8 -4 R
0 3 V
8 -3 R
0 3 V
8 -3 R
0 3 V
8 -3 R
0 4 V
8 -4 R
0 3 V
8 -3 R
0 31 V
7 -31 R
0 7 V
9 -7 R
0 4 V
6 -4 R
0 411 V
5 -411 R
0 9 V
8 -9 R
0 8 V
8 -8 R
0 12 V
6 -12 R
0 496 V
7 -496 R
0 17 V
7 -17 R
0 3 V
8 -3 R
0 3 V
6 -3 R
0 8 V
6 -8 R
0 4 V
5 -4 R
0 3 V
8 -3 R
0 245 V
8 -245 R
0 78 V
7 -78 R
0 3 V
7 -3 R
0 26 V
7 -26 R
0 347 V
8 -347 R
0 3 V
5 -3 R
0 151 V
12 -151 R
0 52 V
8 -52 R
0 8 V
8 -8 R
0 79 V
8 -79 R
0 29 V
7 -29 R
0 8 V
7 -8 R
0 435 V
9 -435 R
0 355 V
7 -355 R
0 12 V
12 -12 R
0 11 V
-6 -11 R
0 623 V
13 -623 R
0 4 V
7 -4 R
0 52 V
stroke 3120 1652 M
6 -52 R
0 3 V
8 -3 R
0 10 V
8 -10 R
0 7 V
7 -7 R
0 3 V
9 -3 R
0 4 V
8 -4 R
0 11 V
6 -11 R
0 4 V
9 -4 R
0 4 V
7 -4 R
0 4 V
7 -4 R
0 26 V
7 -26 R
0 183 V
7 -183 R
0 332 V
6 -332 R
0 79 V
9 -79 R
0 37 V
6 -37 R
0 46 V
8 -46 R
0 15 V
7 -15 R
0 3 V
9 -3 R
0 8 V
7 -8 R
0 3 V
6 -3 R
0 133 V
6 -133 R
0 4 V
8 -4 R
0 26 V
8 -26 R
0 8 V
7 -8 R
0 470 V
9 -470 R
0 85 V
7 -85 R
0 3 V
8 -3 R
0 4 V
6 -4 R
0 89 V
8 -89 R
0 318 V
9 -318 R
0 52 V
8 -52 R
0 12 V
6 -12 R
0 37 V
7 -37 R
0 567 V
8 -567 R
0 327 V
6 -327 R
0 67 V
9 -67 R
0 4 V
7 -4 R
0 105 V
9 -105 R
0 37 V
6 -37 R
0 8 V
6 -8 R
0 445 V
8 -445 R
0 272 V
6 -272 R
0 496 V
7 -496 R
0 43 V
7 -43 R
0 4 V
7 -4 R
0 6 V
5 -6 R
0 4 V
6 -4 R
0 11 V
9 -11 R
0 51 V
6 -51 R
0 437 V
7 -437 R
0 8 V
7 -8 R
0 101 V
8 -101 R
0 8 V
stroke 3498 1608 M
8 -8 R
0 105 V
6 -105 R
0 4 V
6 -4 R
0 26 V
8 -26 R
0 431 V
6 -431 R
0 396 V
14 -396 R
0 216 V
-7 -216 R
0 2151 V
16 -2151 R
0 710 V
8 -710 R
0 82 V
9 -82 R
0 39 V
9 -39 R
0 4 V
8 -4 R
0 406 V
9 -406 R
0 63 V
9 -63 R
0 37 V
8 -37 R
0 4 V
9 -4 R
0 79 V
6 -79 R
0 3 V
8 -3 R
0 13 V
7 -13 R
0 8 V
6 -8 R
0 8 V
6 -8 R
0 16 V
7 -16 R
0 6 V
8 -6 R
0 31 V
7 -31 R
0 311 V
7 -311 R
0 8 V
7 -8 R
0 4 V
8 -4 R
0 8 V
9 -8 R
0 51 V
5 -51 R
0 208 V
7 -208 R
0 10 V
8 -10 R
0 6 V
7 -6 R
0 78 V
6 -78 R
0 45 V
6 -45 R
0 4 V
10 -4 R
0 6 V
5 -6 R
0 131 V
9 -131 R
0 330 V
8 -330 R
0 4 V
8 -4 R
0 8 V
7 -8 R
0 26 V
7 -26 R
0 4 V
8 -4 R
0 10 V
6 -10 R
0 4 V
7 -4 R
0 4 V
7 -4 R
0 6 V
6 -6 R
0 8 V
9 -8 R
0 3 V
8 -3 R
0 26 V
8 -26 R
0 3 V
8 -3 R
0 7 V
8 -7 R
0 3 V
6 -3 R
0 182 V
stroke 3884 1782 M
6 -182 R
0 6 V
9 -6 R
0 49 V
7 -49 R
0 154 V
6 -154 R
0 131 V
8 -131 R
0 233 V
13 -233 R
0 41 V
-6 -41 R
0 674 V
13 -674 R
0 8 V
8 -8 R
0 204 V
7 -204 R
0 12 V
7 -12 R
0 26 V
8 -26 R
0 52 V
5 -52 R
0 316 V
10 -316 R
0 7 V
6 -7 R
0 3 V
6 -3 R
0 37 V
7 -37 R
0 39 V
7 -39 R
0 153 V
9 -153 R
0 49 V
7 -49 R
0 3 V
7 -3 R
0 8 V
10 -8 R
0 481 V
8 -481 R
0 4 V
8 -4 R
0 3 V
6 -3 R
0 4 V
8 -4 R
0 26 V
9 -26 R
0 3 V
9 -3 R
0 322 V
8 -322 R
0 20 V
14 -20 R
0 7 V
-6 -7 R
0 1024 V
16 -1024 R
0 89 V
7 -89 R
0 67 V
8 -67 R
0 156 V
11 -156 R
0 7 V
6 -7 R
0 268 V
7 -268 R
0 255 V
8 -255 R
0 16 V
9 -16 R
0 54 V
9 -54 R
0 3 V
7 -3 R
0 4 V
8 -4 R
0 4 V
8 -4 R
0 8 V
9 -8 R
0 8 V
7 -8 R
0 4 V
9 -4 R
0 467 V
5 -467 R
0 19 V
6 -19 R
0 4 V
7 -4 R
0 31 V
7 -31 R
0 4 V
9 -4 R
0 57 V
6 -57 R
0 4 V
stroke 4277 1604 M
8 -4 R
0 3 V
7 -3 R
0 37 V
9 -37 R
0 26 V
10 -26 R
0 4 V
8 -4 R
0 4 V
8 -4 R
0 4 V
7 -4 R
0 59 V
8 -59 R
0 37 V
8 -37 R
0 31 V
7 -31 R
0 4 V
6 -4 R
0 4 V
6 -4 R
0 12 V
7 -12 R
0 13 V
8 -13 R
0 6 V
7 -6 R
0 37 V
8 -37 R
0 6 V
9 -6 R
0 3 V
8 -3 R
0 8 V
8 -8 R
0 12 V
6 -12 R
0 284 V
5 -284 R
0 180 V
6 -180 R
0 4 V
9 -4 R
0 157 V
9 -157 R
0 4 V
8 -4 R
0 46 V
8 -46 R
0 406 V
6 -406 R
0 690 V
9 -690 R
0 13 V
7 -13 R
0 39 V
9 -39 R
0 4 V
9 -4 R
0 8 V
6 -8 R
0 49 V
7 -49 R
0 8 V
7 -8 R
0 8 V
7 -8 R
0 111 V
7 -111 R
0 48 V
6 -48 R
0 12 V
10 -12 R
0 318 V
8 -318 R
0 227 V
7 -227 R
0 223 V
9 -223 R
0 884 V
4 -884 R
0 537 V
6 -537 R
0 93 V
7 -93 R
0 26 V
6 -26 R
0 63 V
8 -63 R
0 35 V
8 -35 R
0 5 V
7 -5 R
0 8 V
8 -8 R
0 4 V
8 -4 R
0 3 V
9 -3 R
0 513 V
8 -513 R
0 4 V
stroke 4668 1604 M
7 -4 R
0 4 V
6 -4 R
0 4 V
7 -4 R
0 53 V
8 -53 R
0 11 V
7 -11 R
0 4 V
7 -4 R
0 125 V
6 -125 R
0 33 V
7 -33 R
0 554 V
8 -554 R
0 26 V
8 -26 R
0 150 V
8 -150 R
0 4 V
6 -4 R
0 99 V
8 -99 R
0 157 V
8 -157 R
0 317 V
7 -317 R
0 4 V
8 -4 R
0 13 V
9 -13 R
0 358 V
7 -358 R
0 343 V
8 -343 R
0 166 V
7 -166 R
0 79 V
8 -79 R
0 3 V
5 -3 R
0 279 V
7 -279 R
0 4 V
7 -4 R
0 79 V
6 -79 R
0 4 V
9 -4 R
0 253 V
8 -253 R
0 6 V
7 -6 R
0 67 V
8 -67 R
0 353 V
7 -353 R
0 8 V
6 -8 R
0 8 V
7 -8 R
0 26 V
6 -26 R
0 8 V
8 -8 R
0 290 V
7 -290 R
0 4 V
8 -4 R
0 106 V
6 -106 R
0 62 V
9 -62 R
0 3 V
7 -3 R
0 117 V
6 -117 R
0 10 V
7 -10 R
0 3 V
7 -3 R
0 8 V
6 -8 R
0 37 V
9 -37 R
0 4 V
7 -4 R
0 13 V
7 -13 R
0 334 V
7 -334 R
0 52 V
8 -52 R
0 3 V
9 -3 R
0 33 V
9 -33 R
0 8 V
6 -8 R
0 255 V
9 -255 R
0 26 V
stroke 5048 1626 M
8 -26 R
0 79 V
7 -79 R
0 63 V
8 -63 R
0 60 V
8 -60 R
0 37 V
7 -37 R
0 4 V
7 -4 R
0 3 V
7 -3 R
0 6 V
5 -6 R
0 37 V
8 -37 R
0 4 V
7 -4 R
0 156 V
8 -156 R
0 256 V
9 -256 R
0 130 V
7 -130 R
0 31 V
7 -31 R
0 8 V
7 -8 R
0 3 V
6 -3 R
0 37 V
7 -37 R
0 63 V
8 -63 R
0 409 V
7 -409 R
0 63 V
7 -63 R
0 6 V
7 -6 R
0 4 V
8 -4 R
0 177 V
9 -177 R
0 31 V
8 -31 R
0 8 V
6 -8 R
0 177 V
13 -177 R
0 22 V
-8 -22 R
0 752 V
17 -752 R
0 3 V
7 -3 R
0 47 V
9 -47 R
0 4 V
8 -4 R
0 52 V
8 -52 R
0 241 V
8 -241 R
0 39 V
8 -39 R
0 4 V
6 -4 R
0 4 V
8 -4 R
0 26 V
7 -26 R
0 105 V
6 -105 R
0 4 V
7 -4 R
0 556 V
8 -556 R
0 146 V
7 -146 R
0 4 V
7 -4 R
0 8 V
8 -8 R
0 4 V
9 -4 R
0 31 V
14 -31 R
0 263 V
-7 -263 R
0 973 V
13 -973 R
0 196 V
8 -196 R
0 4 V
8 -4 R
0 4 V
6 -4 R
0 4 V
7 -4 R
0 284 V
6 -284 R
0 37 V
stroke 5429 1637 M
14 -37 R
0 32 V
-7 -32 R
0 2115 V
14 -2115 R
0 928 V
8 -928 R
0 186 V
8 -186 R
0 135 V
7 -135 R
0 7 V
9 -7 R
0 4 V
6 -4 R
0 3 V
6 -3 R
0 7 V
8 -7 R
0 4 V
6 -4 R
0 7 V
7 -7 R
0 308 V
5 -308 R
0 12 V
17 -12 R
0 171 V
-10 -171 R
0 1048 V
16 -1048 R
0 138 V
7 -138 R
0 3 V
9 -3 R
0 8 V
11 -8 R
0 3 V
6 -3 R
0 3 V
8 -3 R
0 3 V
6 -3 R
0 37 V
8 -37 R
0 12 V
9 -12 R
0 3 V
9 -3 R
0 4 V
7 -4 R
0 16 V
9 -16 R
0 4 V
8 -4 R
0 57 V
7 -57 R
0 7 V
5 -7 R
0 8 V
7 -8 R
0 4 V
7 -4 R
0 22 V
9 -22 R
0 311 V
9 -311 R
0 26 V
10 -26 R
0 31 V
7 -31 R
0 79 V
9 -79 R
0 228 V
10 -228 R
0 3 V
5 -3 R
0 4 V
6 -4 R
0 69 V
7 -69 R
0 4 V
7 -4 R
0 420 V
6 -420 R
0 3 V
8 -3 R
0 10 V
6 -10 R
0 16 V
8 -16 R
0 6 V
7 -6 R
0 94 V
8 -94 R
0 612 V
8 -612 R
0 15 V
9 -15 R
0 48 V
8 -48 R
0 521 V
9 -521 R
0 196 V
stroke 5822 1796 M
8 -196 R
0 653 V
8 -653 R
0 118 V
8 -118 R
0 49 V
7 -49 R
0 4 V
6 -4 R
0 127 V
10 -127 R
0 8 V
6 -8 R
0 3 V
7 -3 R
0 4 V
9 -4 R
0 3 V
7 -3 R
0 7 V
8 -7 R
0 3 V
8 -3 R
0 37 V
7 -37 R
0 31 V
7 -31 R
0 337 V
6 -337 R
0 8 V
7 -8 R
0 31 V
7 -31 R
0 3 V
9 -3 R
0 63 V
8 -63 R
0 97 V
6 -97 R
0 12 V
8 -12 R
0 121 V
7 -121 R
0 4 V
24 -4 R
0 140 V
-18 -140 R
0 2265 V
10 -2265 R
0 1354 V
15 -1354 R
0 15 V
7 -15 R
0 72 V
7 -72 R
0 36 V
9 -36 R
0 4 V
8 -4 R
0 3 V
7 -3 R
0 6 V
7 -6 R
0 180 V
7 -180 R
0 4 V
5 -4 R
0 4 V
7 -4 R
0 8 V
9 -8 R
0 4 V
16 -4 R
0 329 V
-8 -329 R
0 1122 V
14 -1122 R
0 11 V
6 -11 R
0 4 V
9 -4 R
0 26 V
5 -26 R
0 234 V
8 -234 R
0 4 V
9 -4 R
0 501 V
5 -501 R
0 8 V
7 -8 R
0 31 V
8 -31 R
0 43 V
6 -43 R
0 7 V
8 -7 R
0 19 V
10 -19 R
0 10 V
6 -10 R
0 12 V
11 -12 R
0 4 V
stroke 6210 1604 M
10 -4 R
0 79 V
7 -79 R
0 8 V
7 -8 R
0 4 V
7 -4 R
0 35 V
8 -35 R
0 3 V
7 -3 R
0 4 V
8 -4 R
0 4 V
6 -4 R
0 8 V
8 -8 R
0 259 V
7 -259 R
0 284 V
10 -284 R
0 13 V
6 -13 R
0 6 V
7 -6 R
0 3 V
8 -3 R
0 7 V
8 -7 R
0 16 V
9 -16 R
0 4 V
7 -4 R
0 131 V
7 -131 R
0 3 V
9 -3 R
0 3 V
7 -3 R
0 79 V
8 -79 R
0 386 V
10 -386 R
0 15 V
6 -15 R
0 407 V
8 -407 R
0 16 V
10 -16 R
0 49 V
8 -49 R
0 26 V
8 -26 R
0 79 V
8 -79 R
0 13 V
20 -13 R
0 644 V
-13 -644 R
0 2055 V
7 -2055 R
0 1436 V
15 -1436 R
0 314 V
7 -314 R
0 34 V
8 -34 R
0 27 V
9 -27 R
0 4 V
9 -4 R
0 609 V
6 -609 R
0 61 V
8 -61 R
0 79 V
7 -79 R
0 41 V
7 -41 R
0 129 V
7 -129 R
0 6 V
8 -6 R
0 3 V
7 -3 R
0 49 V
8 -49 R
0 52 V
6 -52 R
0 388 V
8 -388 R
0 63 V
7 -63 R
0 254 V
7 -254 R
0 152 V
8 -152 R
0 3 V
7 -3 R
0 52 V
9 -52 R
0 8 V
6 -8 R
0 4 V
stroke 6607 1604 M
6 -4 R
0 361 V
6 -361 R
0 85 V
8 -85 R
0 183 V
8 -183 R
0 287 V
6 -287 R
0 10 V
7 -10 R
0 4 V
6 -4 R
0 3 V
5 -3 R
0 171 V
7 -171 R
0 8 V
8 -8 R
0 348 V
14 -348 R
0 86 V
-8 -86 R
0 852 V
15 -852 R
0 222 V
9 -222 R
0 7 V
6 -7 R
0 8 V
9 -8 R
0 4 V
6 -4 R
0 38 V
7 -38 R
0 56 V
7 -56 R
0 49 V
8 -49 R
0 110 V
10 -110 R
0 4 V
12 -4 R
0 209 V
-6 -209 R
0 858 V
15 -858 R
0 225 V
6 -225 R
0 67 V
9 -67 R
0 15 V
7 -15 R
0 8 V
6 -8 R
0 87 V
7 -87 R
0 4 V
8 -4 R
0 79 V
7 -79 R
0 180 V
9 -180 R
0 1143 V
8 -1143 R
0 464 V
8 -464 R
0 35 V
9 -35 R
0 4 V
7 -4 R
0 3 V
9 -3 R
0 79 V
10 -79 R
0 105 V
9 -105 R
0 264 V
9 -264 R
0 37 V
9 -37 R
0 4 V
11 -4 R
0 15 V
7 -15 R
0 52 V
8 -52 R
0 37 V
7 -37 R
0 8 V
9 -8 R
0 37 V
9 -37 R
0 4 V
8 -4 R
0 4 V
8 -4 R
0 105 V
7 -105 R
0 248 V
6 -248 R
0 3 V
8 -3 R
0 7 V
stroke 7003 1607 M
9 -7 R
0 15 V
10 -15 R
0 151 V
6 -151 R
0 26 V
8 -26 R
0 4 V
15 -4 R
0 10 V
6 -10 R
0 30 V
-13 -30 R
0 1358 V
22 -1358 R
0 213 V
9 -213 R
0 144 V
5 -144 R
0 37 V
8 -37 R
0 192 V
7 -192 R
0 8 V
8 -8 R
0 182 V
7 -182 R
0 4 V
5 -4 R
0 183 V
8 -183 R
0 3 V
8 -3 R
0 482 V
8 -482 R
0 398 V
8 -398 R
0 350 V
7 -350 R
0 4 V
8 -4 R
0 4 V
5 -4 R
0 6 V
8 -6 R
0 79 V
8 -79 R
0 8 V
7 -8 R
0 6 V
9 -6 R
0 472 V
8 -472 R
0 5 V
9 -5 R
0 79 V
6 -79 R
0 56 V
6 -56 R
0 590 V
6 -590 R
0 92 V
9 -92 R
0 10 V
7 -10 R
0 4 V
9 -4 R
0 224 V
8 -224 R
0 4 V
5 -4 R
0 7 V
8 -7 R
0 7 V
6 -7 R
0 7 V
6 -7 R
0 12 V
7 -12 R
0 8 V
8 -8 R
0 8 V
7 -8 R
0 229 V
7 -229 R
0 420 V
8 -420 R
0 3 V
8 -3 R
0 12 V
6 -12 R
0 183 V
7 -183 R
0 3 V
7 -3 R
0 4 V
8 -4 R
0 252 V
9 -252 R
0 12 V
9 -12 R
0 8 V
8 -8 R
0 8 V
stroke 7391 1608 M
8 -8 R
0 37 V
8 -37 R
0 31 V
8 -31 R
0 543 V
9 -543 R
0 79 V
7 -79 R
0 8 V
10 -8 R
0 52 V
6 -52 R
0 333 V
6 -333 R
0 6 V
6 -6 R
0 10 V
7 -10 R
0 4 V
9 -4 R
0 33 V
6 -33 R
0 254 V
9 -254 R
0 4 V
6 -4 R
0 62 V
7 -62 R
0 140 V
5 -140 R
0 12 V
8 -12 R
0 63 V
6 -63 R
0 451 V
6 -451 R
0 47 V
8 -47 R
0 408 V
7 -408 R
0 154 V
8 -154 R
0 76 V
7 -76 R
0 398 V
9 -398 R
0 3 V
6 -3 R
0 52 V
6 -52 R
0 3 V
6 -3 R
0 551 V
14 -551 R
0 18 V
-6 -18 R
0 1208 V
16 -1208 R
0 6 V
7 -6 R
0 8 V
5 -8 R
0 414 V
10 -414 R
0 3 V
7 -3 R
0 154 V
7 -154 R
0 4 V
9 -4 R
0 105 V
7 -105 R
0 4 V
9 -4 R
0 12 V
7 -12 R
0 212 V
8 -212 R
0 3 V
10 -3 R
0 8 V
9 -8 R
0 26 V
6 -26 R
0 4 V
17 -4 R
0 83 V
-9 -83 R
0 947 V
17 -947 R
0 13 V
10 -13 R
0 171 V
7 -171 R
0 3 V
8 -3 R
0 26 V
6 -26 R
0 12 V
7 -12 R
0 20 V
8 -20 R
0 208 V
stroke 7781 1808 M
7 -208 R
0 7 V
8 -7 R
0 6 V
7 -6 R
0 3 V
9 -3 R
0 8 V
8 -8 R
0 3 V
9 -3 R
0 31 V
15 -31 R
0 36 V
-7 -36 R
0 746 V
13 -746 R
0 162 V
7 -162 R
0 549 V
6 -549 R
0 115 V
10 -115 R
0 4 V
7 -4 R
0 89 V
7 -89 R
0 3 V
8 -3 R
0 83 V
8 -83 R
0 10 V
6 -10 R
0 4 V
7 -4 R
0 11 V
8 -11 R
0 4 V
8 -4 R
0 12 V
9 -12 R
0 52 V
8 -52 R
0 6 V
7 -6 R
0 4 V
9 -4 R
0 4 V
8 -4 R
0 3 V
6 -3 R
0 79 V
8 -79 R
0 3 V
8 -3 R
0 4 V
9 -4 R
0 4 V
8 -4 R
0 6 V
8 -6 R
0 11 V
8 -11 R
0 3 V
8 -3 R
0 4 V
9 -4 R
0 12 V
6 -12 R
0 155 V
6 -155 R
0 150 V
7 -150 R
0 105 V
6 -105 R
0 4 V
8 -4 R
0 4 V
8 -4 R
0 644 V
8 -644 R
0 58 V
5 -58 R
0 167 V
8 -167 R
0 8 V
7 -8 R
0 827 V
6 -827 R
0 262 V
9 -262 R
0 4 V
9 -4 R
0 148 V
7 -148 R
0 344 V
6 -344 R
0 46 V
9 -46 R
0 370 V
6 -370 R
0 17 V
7 -17 R
0 147 V
stroke 8173 1747 M
8 -147 R
0 4 V
7 -4 R
0 26 V
7 -26 R
0 3 V
7 -3 R
0 26 V
7 -26 R
0 3 V
6 -3 R
0 56 V
9 -56 R
0 4 V
8 -4 R
0 63 V
6 -63 R
0 429 V
7 -429 R
0 63 V
9 -63 R
0 324 V
8 -324 R
0 126 V
9 -126 R
0 4 V
6 -4 R
0 31 V
7 -31 R
0 8 V
5 -8 R
0 15 V
7 -15 R
0 26 V
7 -26 R
0 4 V
7 -4 R
0 8 V
10 -8 R
0 183 V
8 -183 R
0 100 V
8 -100 R
0 4 V
7 -4 R
0 74 V
7 -74 R
0 4 V
8 -4 R
0 31 V
7 -31 R
0 4 V
5 -4 R
0 63 V
8 -63 R
0 178 V
7 -178 R
0 3 V
8 -3 R
0 63 V
7 -63 R
0 10 V
7 -10 R
0 4 V
9 -4 R
0 4 V
6 -4 R
0 119 V
8 -119 R
0 63 V
9 -63 R
0 66 V
5 -66 R
0 4 V
9 -4 R
0 4 V
7 -4 R
0 8 V
7 -8 R
0 4 V
7 -4 R
0 4 V
6 -4 R
0 4 V
8 -4 R
0 136 V
10 -136 R
0 4 V
9 -4 R
0 16 V
7 -16 R
0 414 V
7 -414 R
0 72 V
7 -72 R
0 262 V
6 -262 R
0 4 V
6 -4 R
0 151 V
9 -151 R
0 78 V
7 -78 R
0 26 V
stroke 8556 1626 M
7 -26 R
0 204 V
15 -204 R
0 258 V
-7 -258 R
0 1011 V
14 -1011 R
0 15 V
7 -15 R
0 278 V
10 -278 R
0 70 V
7 -70 R
0 236 V
6 -236 R
0 79 V
9 -79 R
0 4 V
15 -4 R
0 451 V
-8 -451 R
0 1234 V
16 -1234 R
0 123 V
6 -123 R
0 52 V
7 -52 R
0 147 V
8 -147 R
0 6 V
5 -6 R
0 3 V
9 -3 R
0 3 V
9 -3 R
0 481 V
7 -481 R
0 152 V
6 -152 R
0 179 V
10 -179 R
0 26 V
5 -26 R
0 62 V
9 -62 R
0 156 V
8 -156 R
0 428 V
7 -428 R
0 159 V
7 -159 R
0 12 V
7 -12 R
0 181 V
10 -181 R
0 279 V
7 -279 R
0 3 V
7 -3 R
0 6 V
6 -6 R
0 223 V
10 -223 R
0 16 V
6 -16 R
0 79 V
9 -79 R
0 8 V
6 -8 R
0 148 V
9 -148 R
0 4 V
10 -4 R
0 157 V
7 -157 R
0 8 V
7 -8 R
0 128 V
8 -128 R
0 239 V
7 -239 R
0 164 V
8 -164 R
0 336 V
9 -336 R
0 3 V
9 -3 R
0 19 V
7 -19 R
0 16 V
6 -16 R
0 4 V
7 -4 R
0 3 V
7 -3 R
0 105 V
9 -105 R
0 31 V
8 -31 R
0 6 V
7 -6 R
0 3 V
7 -3 R
0 11 V
stroke 8950 1611 M
8 -11 R
0 37 V
9 -37 R
0 105 V
8 -105 R
0 110 V
7 -110 R
0 4 V
5 -4 R
0 26 V
8 -26 R
0 6 V
9 -6 R
0 43 V
7 -43 R
0 52 V
6 -52 R
0 66 V
7 -66 R
0 3 V
7 -3 R
0 201 V
7 -201 R
0 31 V
7 -31 R
0 3 V
7 -3 R
0 4 V
8 -4 R
0 452 V
9 -452 R
0 10 V
7 -10 R
0 52 V
6 -52 R
0 131 V
8 -131 R
0 42 V
7 -42 R
0 214 V
8 -214 R
0 4 V
8 -4 R
0 4 V
7 -4 R
0 103 V
7 -103 R
0 81 V
10 -81 R
0 4 V
6 -4 R
0 8 V
8 -8 R
0 8 V
7 -8 R
0 155 V
8 -155 R
0 3 V
7 -3 R
0 52 V
7 -52 R
0 4 V
8 -4 R
0 6 V
9 -6 R
0 125 V
10 -125 R
0 52 V
7 -52 R
0 378 V
8 -378 R
0 303 V
7 -303 R
0 6 V
7 -6 R
0 63 V
8 -63 R
0 8 V
6 -8 R
0 528 V
8 -528 R
0 17 V
8 -17 R
0 31 V
20 -31 R
0 40 V
-15 -40 R
0 1474 V
8 -1474 R
0 763 V
16 -763 R
0 41 V
9 -41 R
0 131 V
9 -131 R
0 6 V
5 -6 R
0 4 V
9 -4 R
0 226 V
6 -226 R
0 4 V
8 -4 R
0 6 V
stroke 9341 1606 M
8 -6 R
0 6 V
6 -6 R
0 614 V
8 -614 R
0 99 V
7 -99 R
0 183 V
9 -183 R
0 63 V
8 -63 R
0 3 V
7 -3 R
0 141 V
8 -141 R
0 4 V
8 -4 R
0 133 V
7 -133 R
0 3 V
8 -3 R
0 4 V
10 -4 R
0 52 V
6 -52 R
0 128 V
5 -128 R
0 8 V
8 -8 R
0 37 V
9 -37 R
0 3 V
7 -3 R
0 52 V
10 -52 R
0 28 V
8 -28 R
0 220 V
6 -220 R
0 4 V
8 -4 R
0 8 V
7 -8 R
0 26 V
7 -26 R
0 3 V
8 -3 R
0 4 V
6 -4 R
0 33 V
10 -33 R
0 101 V
9 -101 R
0 6 V
6 -6 R
0 4 V
7 -4 R
0 10 V
6 -10 R
0 6 V
8 -6 R
0 431 V
7 -431 R
0 4 V
7 -4 R
0 4 V
9 -4 R
0 3 V
7 -3 R
0 4 V
10 -4 R
0 3 V
7 -3 R
0 50 V
7 -50 R
0 8 V
7 -8 R
0 105 V
9 -105 R
0 8 V
7 -8 R
0 37 V
8 -37 R
0 4 V
7 -4 R
0 12 V
7 -12 R
0 4 V
8 -4 R
0 16 V
10 -16 R
0 8 V
7 -8 R
0 79 V
7 -79 R
0 26 V
7 -26 R
0 149 V
7 -149 R
0 6 V
6 -6 R
0 8 V
7 -8 R
0 11 V
stroke 9734 1611 M
8 -11 R
0 88 V
7 -88 R
0 108 V
8 -108 R
0 79 V
5 -79 R
0 3 V
8 -3 R
0 3 V
5 -3 R
0 123 V
8 -123 R
0 17 V
8 -17 R
0 26 V
6 -26 R
0 4 V
8 -4 R
0 26 V
8 -26 R
0 4 V
7 -4 R
0 26 V
9 -26 R
0 4 V
8 -4 R
0 3 V
9 -3 R
0 26 V
6 -26 R
0 6 V
8 -6 R
0 4 V
8 -4 R
0 31 V
7 -31 R
0 3 V
8 -3 R
0 3 V
7 -3 R
0 52 V
5 -52 R
0 104 V
8 -104 R
0 4 V
7 -4 R
0 8 V
10 -8 R
0 3 V
9 -3 R
0 105 V
6 -105 R
0 444 V
8 -444 R
0 91 V
5 -91 R
0 79 V
8 -79 R
0 4 V
7 -4 R
0 4 V
7 -4 R
0 63 V
7 -63 R
0 3 V
15 -3 R
0 29 V
-7 -29 R
0 1035 V
15 -1035 R
0 11 V
7 -11 R
0 4 V
8 -4 R
0 3 V
6 -3 R
0 52 V
8 -52 R
0 4 V
7 -4 R
0 3 V
7 -3 R
0 3 V
7 -3 R
0 8 V
9 -8 R
0 26 V
9 -26 R
0 4 V
8 -4 R
0 6 V
7 -6 R
0 48 V
8 -48 R
0 37 V
8 -37 R
0 26 V
8 -26 R
0 3 V
9 -3 R
0 75 V
8 -75 R
0 4 V
stroke 10124 1604 M
7 -4 R
0 36 V
8 -36 R
0 4 V
7 -4 R
0 31 V
7 -31 R
0 3 V
8 -3 R
0 93 V
6 -93 R
0 3 V
10 -3 R
0 3 V
7 -3 R
0 71 V
8 -71 R
0 82 V
7 -82 R
0 3 V
6 -3 R
0 125 V
7 -125 R
0 4 V
8 -4 R
0 20 V
6 -20 R
0 330 V
10 -330 R
0 3 V
8 -3 R
0 4 V
7 -4 R
0 3 V
6 -3 R
0 125 V
9 -125 R
0 8 V
7 -8 R
0 3 V
6 -3 R
0 26 V
8 -26 R
0 89 V
6 -89 R
0 757 V
8 -757 R
0 23 V
6 -23 R
0 131 V
8 -131 R
0 21 V
7 -21 R
0 26 V
7 -26 R
0 105 V
8 -105 R
0 31 V
8 -31 R
0 26 V
7 -26 R
0 328 V
6 -328 R
0 3 V
6 -3 R
0 4 V
7 -4 R
0 62 V
7 -62 R
0 19 V
8 -19 R
0 3 V
7 -3 R
0 3 V
7 -3 R
0 3 V
6 -3 R
0 4 V
7 -4 R
0 4 V
9 -4 R
0 3 V
6 -3 R
0 4 V
10 -4 R
0 3 V
7 -3 R
0 131 V
7 -131 R
0 4 V
10 -4 R
0 246 V
9 -246 R
0 4 V
7 -4 R
0 52 V
8 -52 R
0 241 V
9 -241 R
0 26 V
14 -26 R
0 25 V
-5 -25 R
0 589 V
stroke 10504 2189 M
12 -589 R
0 4 V
8 -4 R
0 4 V
7 -4 R
0 4 V
8 -4 R
0 137 V
7 -137 R
0 10 V
8 -10 R
0 6 V
8 -6 R
0 3 V
8 -3 R
0 4 V
8 -4 R
0 12 V
7 -12 R
0 318 V
5 -318 R
0 4 V
8 -4 R
0 68 V
7 -68 R
0 6 V
6 -6 R
0 37 V
8 -37 R
0 4 V
9 -4 R
0 31 V
7 -31 R
0 524 V
6 -524 R
0 11 V
8 -11 R
0 4 V
6 -4 R
0 4 V
8 -4 R
0 221 V
7 -221 R
0 3 V
9 -3 R
0 442 V
10 -442 R
0 8 V
7 -8 R
0 52 V
6 -52 R
0 3 V
7 -3 R
0 63 V
8 -63 R
0 234 V
7 -234 R
0 6 V
8 -6 R
0 8 V
8 -8 R
0 3 V
14 -3 R
0 43 V
-6 -43 R
0 630 V
24 -630 R
0 8 V
-11 -8 R
0 1200 V
20 -1200 R
0 29 V
8 -29 R
0 4 V
8 -4 R
0 105 V
6 -105 R
0 37 V
7 -37 R
0 13 V
7 -13 R
0 37 V
8 -37 R
0 38 V
7 -38 R
0 3 V
8 -3 R
0 4 V
8 -4 R
0 4 V
8 -4 R
0 37 V
9 -37 R
0 184 V
8 -184 R
0 122 V
7 -122 R
0 12 V
7 -12 R
0 47 V
9 -47 R
0 8 V
6 -8 R
0 234 V
stroke 10902 1834 M
8 -234 R
0 8 V
5 -8 R
0 3 V
8 -3 R
0 4 V
6 -4 R
0 10 V
7 -10 R
0 11 V
7 -11 R
0 19 V
7 -19 R
0 6 V
6 -6 R
0 51 V
8 -51 R
0 4 V
5 -4 R
0 279 V
9 -279 R
0 4 V
9 -4 R
0 208 V
6 -208 R
0 4 V
7 -4 R
0 154 V
7 -154 R
0 130 V
9 -130 R
0 4 V
7 -4 R
0 459 V
9 -459 R
0 52 V
6 -52 R
0 4 V
7 -4 R
0 4 V
8 -4 R
0 4 V
23 -4 R
0 27 V
-16 -27 R
0 1775 V
8 -1775 R
0 1031 V
16 -1031 R
0 72 V
6 -72 R
0 3 V
10 -3 R
0 13 V
10 -13 R
0 8 V
9 -8 R
0 79 V
8 -79 R
0 63 V
10 -63 R
0 31 V
10 -31 R
0 37 V
8 -37 R
0 4 V
6 -4 R
0 105 V
5 -105 R
0 31 V
6 -31 R
0 26 V
6 -26 R
0 234 V
7 -234 R
0 212 V
7 -212 R
0 4 V
7 -4 R
0 13 V
8 -13 R
0 3 V
9 -3 R
0 19 V
6 -19 R
0 52 V
10 -52 R
0 12 V
7 -12 R
0 4 V
11 -4 R
0 3 V
9 -3 R
0 4 V
7 -4 R
0 205 V
7 -205 R
0 4 V
8 -4 R
0 203 V
7 -203 R
0 52 V
6 -52 R
0 153 V
stroke 11294 1753 M
7 -153 R
0 4 V
7 -4 R
0 6 V
8 -6 R
0 63 V
9 -63 R
0 4 V
8 -4 R
0 3 V
7 -3 R
0 7 V
7 -7 R
0 8 V
6 -8 R
0 157 V
6 -157 R
0 53 V
7 -53 R
0 234 V
6 -234 R
0 105 V
8 -105 R
0 234 V
7 -234 R
0 3 V
6 -3 R
0 6 V
7 -6 R
0 8 V
8 -8 R
0 37 V
8 -37 R
0 37 V
7 -37 R
0 3 V
8 -3 R
0 167 V
9 -167 R
0 4 V
7 -4 R
0 264 V
5 -264 R
0 144 V
7 -144 R
0 4 V
8 -4 R
0 105 V
9 -105 R
0 6 V
9 -6 R
0 52 V
7 -52 R
0 4 V
6 -4 R
0 52 V
9 -52 R
0 10 V
7 -10 R
0 52 V
9 -52 R
0 6 V
6 -6 R
0 52 V
7 -52 R
0 10 V
7 -10 R
0 97 V
8 -97 R
0 174 V
6 -174 R
0 234 V
8 -234 R
0 129 V
6 -129 R
0 52 V
8 -52 R
0 4 V
7 -4 R
0 4 V
8 -4 R
0 515 V
7 -515 R
0 57 V
7 -57 R
0 4 V
8 -4 R
0 35 V
8 -35 R
0 31 V
6 -31 R
0 6 V
8 -6 R
0 4 V
9 -4 R
0 6 V
7 -6 R
0 74 V
8 -74 R
0 3 V
14 -3 R
0 19 V
-7 -19 R
0 810 V
stroke 11669 2410 M
16 -810 R
0 439 V
8 -439 R
0 21 V
7 -21 R
0 209 V
10 -209 R
0 4 V
9 -4 R
0 3 V
8 -3 R
0 4 V
7 -4 R
0 63 V
8 -63 R
0 257 V
8 -257 R
0 52 V
9 -52 R
0 10 V
9 -10 R
0 6 V
7 -6 R
0 3 V
9 -3 R
0 26 V
6 -26 R
0 31 V
5 -31 R
0 12 V
8 -12 R
0 4 V
8 -4 R
0 62 V
6 -62 R
0 4 V
7 -4 R
0 4 V
8 -4 R
0 4 V
9 -4 R
0 423 V
8 -423 R
0 15 V
6 -15 R
0 8 V
6 -8 R
0 26 V
8 -26 R
0 34 V
8 -34 R
0 50 V
7 -50 R
0 10 V
9 -10 R
0 4 V
5 -4 R
0 10 V
7 -10 R
0 3 V
7 -3 R
0 26 V
7 -26 R
0 739 V
8 -739 R
0 14 V
7 -14 R
0 4 V
9 -4 R
0 4 V
7 -4 R
0 8 V
6 -8 R
0 3 V
7 -3 R
0 4 V
7 -4 R
0 234 V
7 -234 R
0 4 V
5 -4 R
0 3 V
8 -3 R
0 12 V
7 -12 R
0 10 V
8 -10 R
0 16 V
9 -16 R
0 432 V
6 -432 R
0 6 V
9 -6 R
0 4 V
7 -4 R
0 4 V
8 -4 R
0 6 V
9 -6 R
0 105 V
7 -105 R
0 3 V
7 -3 R
0 69 V
stroke 12067 1669 M
5 -69 R
0 8 V
7 -8 R
0 4 V
7 -4 R
0 131 V
9 -131 R
0 8 V
7 -8 R
0 3 V
7 -3 R
0 79 V
8 -79 R
0 333 V
6 -333 R
0 3 V
8 -3 R
0 393 V
7 -393 R
0 25 V
9 -25 R
0 4 V
7 -4 R
0 6 V
6 -6 R
0 6 V
6 -6 R
0 79 V
8 -79 R
0 26 V
7 -26 R
0 3 V
8 -3 R
0 79 V
8 -79 R
0 39 V
9 -39 R
0 131 V
7 -131 R
0 4 V
7 -4 R
0 3 V
8 -3 R
0 105 V
6 -105 R
0 8 V
8 -8 R
0 26 V
7 -26 R
0 31 V
6 -31 R
0 22 V
8 -22 R
0 26 V
6 -26 R
0 4 V
7 -4 R
0 170 V
8 -170 R
0 1961 V
7 -1961 R
0 1288 V
8 -1288 R
0 547 V
7 -547 R
0 43 V
8 -43 R
0 40 V
8 -40 R
0 8 V
9 -8 R
0 366 V
7 -366 R
0 10 V
8 -10 R
0 255 V
7 -255 R
0 209 V
7 -209 R
0 7 V
8 -7 R
0 276 V
9 -276 R
0 467 V
7 -467 R
0 50 V
4 -50 R
0 90 V
7 -90 R
0 26 V
7 -26 R
0 4 V
7 -4 R
0 105 V
7 -105 R
0 3 V
9 -3 R
0 105 V
8 -105 R
0 105 V
7 -105 R
0 6 V
7 -6 R
0 37 V
stroke 12447 1637 M
8 -37 R
0 31 V
9 -31 R
0 26 V
8 -26 R
0 6 V
6 -6 R
0 6 V
5 -6 R
0 31 V
9 -31 R
0 4 V
9 -4 R
0 31 V
6 -31 R
0 31 V
7 -31 R
0 575 V
8 -575 R
0 103 V
10 -103 R
0 4 V
8 -4 R
0 113 V
8 -113 R
0 26 V
8 -26 R
0 183 V
8 -183 R
0 3 V
5 -3 R
0 4 V
8 -4 R
0 69 V
7 -69 R
0 4 V
8 -4 R
0 105 V
9 -105 R
0 469 V
7 -469 R
0 168 V
8 -168 R
0 67 V
9 -67 R
0 4 V
7 -4 R
0 12 V
5 -12 R
0 4 V
5 -4 R
0 79 V
8 -79 R
0 183 V
7 -183 R
0 4 V
7 -4 R
0 3 V
6 -3 R
0 83 V
8 -83 R
0 7 V
7 -7 R
0 4 V
8 -4 R
0 6 V
9 -6 R
0 59 V
8 -59 R
0 12 V
6 -12 R
0 19 V
6 -19 R
0 131 V
5 -131 R
0 6 V
8 -6 R
0 52 V
14 -52 R
0 518 V
-6 -518 R
0 1164 V
13 -1164 R
0 29 V
8 -29 R
0 52 V
5 -52 R
0 123 V
14 -123 R
0 24 V
12 -24 R
0 151 V
-17 -151 R
0 1885 V
12 -1885 R
0 775 V
12 -775 R
0 67 V
8 -67 R
0 110 V
8 -110 R
0 336 V
6 -336 R
0 4 V
stroke 12824 1604 M
9 -4 R
0 4 V
8 -4 R
0 77 V
8 -77 R
0 157 V
7 -157 R
0 26 V
8 -26 R
0 50 V
6 -50 R
0 406 V
8 -406 R
0 6 V
6 -6 R
0 3 V
9 -3 R
0 213 V
7 -213 R
0 19 V
8 -19 R
0 156 V
7 -156 R
0 3 V
6 -3 R
0 26 V
6 -26 R
0 437 V
6 -437 R
0 121 V
9 -121 R
0 20 V
8 -20 R
0 8 V
6 -8 R
0 37 V
9 -37 R
0 185 V
9 -185 R
0 306 V
7 -306 R
0 3 V
7 -3 R
0 3 V
8 -3 R
0 8 V
8 -8 R
0 58 V
6 -58 R
0 3 V
6 -3 R
0 52 V
6 -52 R
0 6 V
9 -6 R
0 117 V
8 -117 R
0 31 V
10 -31 R
0 3 V
7 -3 R
0 52 V
7 -52 R
0 52 V
8 -52 R
0 4 V
8 -4 R
0 630 V
9 -630 R
0 189 V
9 -189 R
0 114 V
8 -114 R
0 90 V
6 -90 R
0 617 V
10 -617 R
0 76 V
9 -76 R
0 8 V
7 -8 R
0 49 V
6 -49 R
0 498 V
7 -498 R
0 346 V
5 -346 R
0 79 V
9 -79 R
0 8 V
6 -8 R
0 357 V
7 -357 R
0 4 V
8 -4 R
0 3 V
8 -3 R
0 8 V
6 -8 R
0 4 V
8 -4 R
0 31 V
7 -31 R
0 10 V
stroke 13214 1610 M
7 -10 R
0 8 V
9 -8 R
0 4 V
7 -4 R
0 26 V
7 -26 R
0 105 V
7 -105 R
0 444 V
7 -444 R
0 26 V
6 -26 R
0 158 V
7 -158 R
0 3 V
8 -3 R
0 6 V
5 -6 R
0 4 V
6 -4 R
0 3 V
7 -3 R
0 50 V
7 -50 R
0 3 V
5 -3 R
0 79 V
7 -79 R
0 63 V
6 -63 R
0 313 V
8 -313 R
0 12 V
9 -12 R
0 37 V
5 -37 R
0 192 V
8 -192 R
0 8 V
8 -8 R
0 4 V
8 -4 R
0 49 V
7 -49 R
0 105 V
7 -105 R
0 4 V
9 -4 R
0 26 V
9 -26 R
0 52 V
9 -52 R
0 12 V
9 -12 R
0 52 V
9 -52 R
0 4 V
7 -4 R
0 52 V
9 -52 R
0 3 V
24 -3 R
0 10 V
6 -10 R
0 3 V
-15 -3 R
0 1996 V
21 -1996 R
0 8 V
-28 -8 R
0 2665 V
36 -2665 R
0 556 V
7 -556 R
0 47 V
8 -47 R
0 234 V
9 -234 R
0 3 V
8 -3 R
0 26 V
7 -26 R
0 6 V
7 -6 R
0 8 V
6 -8 R
0 157 V
8 -157 R
0 79 V
8 -79 R
0 271 V
9 -271 R
0 3 V
9 -3 R
0 4 V
7 -4 R
0 4 V
7 -4 R
0 67 V
7 -67 R
0 3 V
8 -3 R
0 4 V
stroke 13602 1604 M
9 -4 R
0 133 V
8 -133 R
0 215 V
9 -215 R
0 8 V
8 -8 R
0 506 V
5 -506 R
0 161 V
8 -161 R
0 157 V
stroke
LTb
1200 4440 N
0 -2840 V
12450 0 V
0 2840 V
-12450 0 V
Z stroke
1.000 UP
1.000 UL
LTb
stroke
grestore
end
showpage
%%Trailer
%%DocumentFonts: Arial
