%!PS-Adobe-3.0 EPSF-3.0 
%%BoundingBox: 0 0 534 224
%%Pages: 0
%%Creator: LibreOffice 4.2
%%Title: none
%%CreationDate: none
%%LanguageLevel: 2
%%EndComments
%%BeginProlog
%%BeginResource: procset SDRes-Prolog 1.0 0
/b4_inc_state save def
/dict_count countdictstack def
/op_count count 1 sub def
userdict begin
0 setgray 0 setlinecap 1 setlinewidth 0 setlinejoin 10 setmiterlimit[] 0 setdash newpath
/languagelevel where {pop languagelevel 1 ne {false setstrokeadjust false setoverprint} if} if
/bdef {bind def} bind def
/c {setgray} bdef
/l {neg lineto} bdef
/rl {neg rlineto} bdef
/lc {setlinecap} bdef
/lj {setlinejoin} bdef
/lw {setlinewidth} bdef
/ml {setmiterlimit} bdef
/ld {setdash} bdef
/m {neg moveto} bdef
/ct {6 2 roll neg 6 2 roll neg 6 2 roll neg curveto} bdef
/r {rotate} bdef
/t {neg translate} bdef
/s {scale} bdef
/sw {show} bdef
/gs {gsave} bdef
/gr {grestore} bdef
/f {findfont dup length dict begin
{1 index /FID ne {def} {pop pop} ifelse} forall /Encoding ISOLatin1Encoding def
currentdict end /NFont exch definefont pop /NFont findfont} bdef
/p {closepath} bdef
/sf {scalefont setfont} bdef
/ef {eofill}bdef
/pc {closepath stroke}bdef
/ps {stroke}bdef
/pum {matrix currentmatrix}bdef
/pom {setmatrix}bdef
/bs {/aString exch def /nXOfs exch def /nWidth exch def currentpoint nXOfs 0 rmoveto pum nWidth aString stringwidth pop div 1 scale aString show pom moveto} bdef
%%EndResource
%%EndProlog
%%BeginSetup
%%EndSetup
%%Page: 1 1
%%BeginPageSetup
%%EndPageSetup
pum
0.02833 0.02833 s 
0 -7906 t
/tm matrix currentmatrix def
tm setmatrix
-1220 -1984 t 
1 1 s 
0.000 c 3761 7315 m  1221 7315 l  1221 7060 l  6300 7060 l  6300 7315 l 
3761 7315 l  p ef
0 lw 1 lj 3760 7315 m  1220 7315 l  1220 7060 l  6300 7060 l  6300 7315 l 
3760 7315 l  pc
1 lw 3761 2999 m  3761 3331 l  ps
3761 3761 m  3911 3311 l  3611 3311 l  3761 3761 l  p ef
3761 6300 m  3761 6632 l  ps
3761 7062 m  3911 6612 l  3611 6612 l  3761 7062 l  p ef
1728 7316 m  1728 8410 l  ps
1728 8840 m  1878 8390 l  1578 8390 l  1728 8840 l  p ef
2998 7314 m  2998 8408 l  ps
2998 8838 m  3148 8388 l  2848 8388 l  2998 8838 l  p ef
4522 7316 m  4522 8410 l  ps
4522 8840 m  4672 8390 l  4372 8390 l  4522 8840 l  p ef
5790 7316 m  5790 8410 l  ps
5790 8840 m  5940 8390 l  5640 8390 l  5790 8840 l  p ef
0.996 c 1933 4017 m  2541 4017 l  2746 4271 l  2541 4526 l  1933 4526 l 
1729 4271 l  1933 4017 l  1933 4017 l  p
1729 4017 m  1729 4017 l  p
2746 4526 m  2746 4526 l  p ef
0 lw 0.000 c 1932 4016 m  2540 4016 l  2745 4270 l  2540 4525 l  1932 4525 l 
1728 4270 l  1932 4016 l  1932 4016 l  pc
1728 4016 m  1728 4016 l  pc
2745 4525 m  2745 4525 l  pc
pum
1849 4492 t
362 0 m  312 -128 l  113 -128 l  63 0 l  1 0 l  180 -438 l  247 -438 l 
422 0 l  362 0 l  p
238 -319 m  235 -327 232 -335 229 -344 ct 226 -352 223 -360 221 -367 ct 218 -374 217 -380 215 -384 ct 
213 -389 213 -392 212 -393 ct 212 -392 211 -389 210 -384 ct 208 -379 206 -373 204 -366 ct 
201 -359 199 -352 196 -343 ct 193 -335 190 -326 187 -318 ct 131 -174 l  294 -174 l 
238 -319 l  p ef
751 -219 m  751 -177 747 -142 739 -113 ct 731 -84 721 -61 707 -44 ct 693 -26 677 -13 658 -5 ct 
640 2 620 6 599 6 ct 578 6 558 2 539 -5 ct 521 -13 505 -26 491 -43 ct 478 -61 467 -84 459 -113 ct 
452 -141 448 -177 448 -219 ct 448 -263 452 -300 459 -328 ct 467 -357 478 -380 492 -397 ct 
505 -415 521 -427 540 -434 ct 559 -441 579 -444 601 -444 ct 622 -444 641 -441 659 -434 ct 
678 -427 694 -415 707 -397 ct 721 -380 732 -357 740 -328 ct 747 -300 751 -263 751 -219 ct 
p
695 -219 m  695 -254 693 -283 688 -306 ct 684 -329 678 -347 670 -361 ct 662 -375 652 -384 641 -390 ct 
629 -396 616 -399 601 -399 ct 585 -399 571 -396 559 -390 ct 547 -384 537 -374 529 -361 ct 
521 -347 515 -329 510 -305 ct 506 -282 504 -254 504 -219 ct 504 -185 506 -157 511 -134 ct 
515 -111 521 -93 529 -79 ct 537 -65 547 -55 559 -49 ct 571 -43 584 -40 599 -40 ct 
614 -40 627 -43 639 -49 ct 651 -55 661 -65 669 -79 ct 677 -93 684 -111 688 -134 ct 
692 -157 695 -185 695 -219 ct p ef
pom
0.996 c 3761 3001 m  1221 3001 l  1221 1985 l  6300 1985 l  6300 3001 l 
3761 3001 l  p ef
0.000 c 3760 3001 m  1220 3001 l  1220 1985 l  6300 1985 l  6300 3001 l 
3760 3001 l  pc
pum
2457 2714 t
362 0 m  312 -128 l  113 -128 l  63 0 l  1 0 l  180 -438 l  247 -438 l 
422 0 l  362 0 l  p
238 -319 m  235 -327 232 -335 229 -344 ct 226 -352 223 -360 221 -367 ct 218 -374 217 -380 215 -384 ct 
213 -389 213 -392 212 -393 ct 212 -392 211 -389 210 -384 ct 208 -379 206 -373 204 -366 ct 
201 -359 199 -352 196 -343 ct 193 -335 190 -326 187 -318 ct 131 -174 l  294 -174 l 
238 -319 l  p ef
481 -272 m  481 -336 l  541 -336 l  541 -272 l  481 -272 l  p
481 0 m  481 -64 l  541 -64 l  541 0 l  481 0 l  p ef
1103 0 m  1053 -128 l  854 -128 l  804 0 l  742 0 l  921 -438 l  988 -438 l 
1163 0 l  1103 0 l  p
979 -319 m  976 -327 973 -335 970 -344 ct 967 -352 964 -360 962 -367 ct 959 -374 958 -380 956 -384 ct 
954 -389 954 -392 953 -393 ct 953 -392 952 -389 951 -384 ct 949 -379 947 -373 945 -366 ct 
942 -359 940 -352 937 -343 ct 934 -335 931 -326 928 -318 ct 872 -174 l  1035 -174 l 
979 -319 l  p ef
1492 -219 m  1492 -177 1488 -142 1480 -113 ct 1472 -84 1462 -61 1448 -44 ct 
1434 -26 1418 -13 1399 -5 ct 1381 2 1361 6 1340 6 ct 1319 6 1299 2 1280 -5 ct 1262 -13 1246 -26 1232 -43 ct 
1219 -61 1208 -84 1200 -113 ct 1193 -141 1189 -177 1189 -219 ct 1189 -263 1193 -300 1200 -328 ct 
1208 -357 1219 -380 1233 -397 ct 1246 -415 1262 -427 1281 -434 ct 1300 -441 1320 -444 1342 -444 ct 
1363 -444 1382 -441 1400 -434 ct 1419 -427 1435 -415 1448 -397 ct 1462 -380 1473 -357 1481 -328 ct 
1488 -300 1492 -263 1492 -219 ct p
1436 -219 m  1436 -254 1434 -283 1429 -306 ct 1425 -329 1419 -347 1411 -361 ct 
1403 -375 1393 -384 1382 -390 ct 1370 -396 1357 -399 1342 -399 ct 1326 -399 1312 -396 1300 -390 ct 
1288 -384 1278 -374 1270 -361 ct 1262 -347 1256 -329 1251 -305 ct 1247 -282 1245 -254 1245 -219 ct 
1245 -185 1247 -157 1252 -134 ct 1256 -111 1262 -93 1270 -79 ct 1278 -65 1288 -55 1300 -49 ct 
1312 -43 1325 -40 1340 -40 ct 1355 -40 1368 -43 1380 -49 ct 1392 -55 1402 -65 1410 -79 ct 
1418 -93 1425 -111 1429 -134 ct 1433 -157 1436 -185 1436 -219 ct p ef
1635 -68 m  1635 -16 l  1635 -5 1635 5 1634 14 ct 1633 23 1632 32 1629 39 ct 
1627 47 1625 54 1622 61 ct 1619 68 1615 75 1611 82 ct 1573 82 l  1582 68 1590 54 1595 41 ct 
1600 27 1602 13 1602 0 ct 1575 0 l  1575 -68 l  1635 -68 l  p ef
2195 0 m  2145 -128 l  1946 -128 l  1896 0 l  1834 0 l  2013 -438 l  2080 -438 l 
2255 0 l  2195 0 l  p
2071 -319 m  2068 -327 2065 -335 2062 -344 ct 2059 -352 2056 -360 2054 -367 ct 
2051 -374 2050 -380 2048 -384 ct 2046 -389 2046 -392 2045 -393 ct 2045 -392 2044 -389 2043 -384 ct 
2041 -379 2039 -373 2037 -366 ct 2034 -359 2032 -352 2029 -343 ct 2026 -335 2023 -326 2020 -318 ct 
1964 -174 l  2127 -174 l  2071 -319 l  p ef
2304 0 m  2304 -47 l  2416 -47 l  2416 -384 l  2317 -314 l  2317 -366 l 
2420 -438 l  2472 -438 l  2472 -47 l  2578 -47 l  2578 0 l  2304 0 l  p ef
pom
1558 4016 m  1516 4016 1474 4058 1474 4100 ct 1474 4440 l  1474 4482 1516 4525 1558 4525 ct 
5962 4525 l  6004 4525 6047 4482 6047 4440 ct 6047 4100 l  6047 4058 6004 4016 5962 4016 ct 
1558 4016 l  pc
1474 4016 m  1474 4016 l  pc
6047 4525 m  6047 4525 l  pc
0.996 c 1933 4525 m  2541 4525 l  2746 4779 l  2541 5034 l  1933 5034 l 
1729 4779 l  1933 4525 l  1933 4525 l  p
1729 4525 m  1729 4525 l  p
2746 5034 m  2746 5034 l  p ef
0.000 c 1932 4524 m  2540 4524 l  2745 4778 l  2540 5033 l  1932 5033 l 
1728 4778 l  1932 4524 l  1932 4524 l  pc
1728 4524 m  1728 4524 l  pc
2745 5033 m  2745 5033 l  pc
pum
1849 5000 t
390 -123 m  390 -101 386 -82 377 -67 ct 368 -51 357 -38 342 -28 ct 327 -19 310 -11 291 -7 ct 
271 -2 251 0 229 0 ct 52 0 l  52 -437 l  211 -437 l  235 -437 257 -435 276 -431 ct 
295 -427 311 -421 324 -412 ct 337 -404 347 -393 354 -379 ct 361 -366 365 -350 365 -331 ct 
365 -319 363 -307 360 -297 ct 356 -286 351 -276 344 -267 ct 337 -258 328 -251 318 -245 ct 
308 -238 295 -234 282 -230 ct 299 -228 315 -224 328 -218 ct 342 -212 353 -205 362 -195 ct 
371 -186 378 -175 383 -163 ct 388 -151 390 -137 390 -123 ct p
305 -324 m  305 -348 297 -365 281 -375 ct 265 -385 241 -390 211 -390 ct 111 -390 l 
111 -251 l  211 -251 l  228 -251 243 -253 255 -256 ct 267 -260 277 -265 284 -271 ct 
291 -277 297 -285 300 -294 ct 303 -303 305 -313 305 -324 ct p
330 -128 m  330 -142 328 -153 323 -163 ct 318 -173 310 -181 301 -187 ct 291 -193 280 -198 267 -201 ct 
253 -204 238 -205 222 -205 ct 111 -205 l  111 -47 l  226 -47 l  241 -47 255 -49 268 -51 ct 
281 -54 292 -58 301 -64 ct 310 -70 317 -79 322 -89 ct 328 -99 330 -112 330 -128 ct 
p ef
751 -219 m  751 -177 747 -142 739 -113 ct 731 -84 721 -61 707 -44 ct 693 -26 677 -13 658 -5 ct 
640 2 620 6 599 6 ct 578 6 558 2 539 -5 ct 521 -13 505 -26 491 -43 ct 478 -61 467 -84 459 -113 ct 
452 -141 448 -177 448 -219 ct 448 -263 452 -300 459 -328 ct 467 -357 478 -380 492 -397 ct 
505 -415 521 -427 540 -434 ct 559 -441 579 -444 601 -444 ct 622 -444 641 -441 659 -434 ct 
678 -427 694 -415 707 -397 ct 721 -380 732 -357 740 -328 ct 747 -300 751 -263 751 -219 ct 
p
695 -219 m  695 -254 693 -283 688 -306 ct 684 -329 678 -347 670 -361 ct 662 -375 652 -384 641 -390 ct 
629 -396 616 -399 601 -399 ct 585 -399 571 -396 559 -390 ct 547 -384 537 -374 529 -361 ct 
521 -347 515 -329 510 -305 ct 506 -282 504 -254 504 -219 ct 504 -185 506 -157 511 -134 ct 
515 -111 521 -93 529 -79 ct 537 -65 547 -55 559 -49 ct 571 -43 584 -40 599 -40 ct 
614 -40 627 -43 639 -49 ct 651 -55 661 -65 669 -79 ct 677 -93 684 -111 688 -134 ct 
692 -157 695 -185 695 -219 ct p ef
pom
0.996 c 2949 4017 m  3557 4017 l  3762 4271 l  3557 4526 l  2949 4526 l 
2745 4271 l  2949 4017 l  2949 4017 l  p
2745 4017 m  2745 4017 l  p
3762 4526 m  3762 4526 l  p ef
0.000 c 2948 4016 m  3556 4016 l  3761 4270 l  3556 4525 l  2948 4525 l 
2744 4270 l  2948 4016 l  2948 4016 l  pc
2744 4016 m  2744 4016 l  pc
3761 4525 m  3761 4525 l  pc
pum
2865 4492 t
362 0 m  312 -128 l  113 -128 l  63 0 l  1 0 l  180 -438 l  247 -438 l 
422 0 l  362 0 l  p
238 -319 m  235 -327 232 -335 229 -344 ct 226 -352 223 -360 221 -367 ct 218 -374 217 -380 215 -384 ct 
213 -389 213 -392 212 -393 ct 212 -392 211 -389 210 -384 ct 208 -379 206 -373 204 -366 ct 
201 -359 199 -352 196 -343 ct 193 -335 190 -326 187 -318 ct 131 -174 l  294 -174 l 
238 -319 l  p ef
471 0 m  471 -47 l  583 -47 l  583 -384 l  484 -314 l  484 -366 l  587 -438 l 
639 -438 l  639 -47 l  745 -47 l  745 0 l  471 0 l  p ef
pom
3760 6302 m  1220 6302 l  1220 3763 l  6300 3763 l  6300 6302 l  3760 6302 l 
pc
0.996 c 3965 4525 m  4573 4525 l  4777 4779 l  4573 5034 l  3965 5034 l 
3761 4779 l  3965 4525 l  3965 4525 l  p
3761 4525 m  3761 4525 l  p
4777 5034 m  4777 5034 l  p ef
0.000 c 3964 4524 m  4572 4524 l  4777 4778 l  4572 5033 l  3964 5033 l 
3760 4778 l  3964 4524 l  3964 4524 l  pc
3760 4524 m  3760 4524 l  pc
4777 5033 m  4777 5033 l  pc
pum
3881 5000 t
390 -123 m  390 -101 386 -82 377 -67 ct 368 -51 357 -38 342 -28 ct 327 -19 310 -11 291 -7 ct 
271 -2 251 0 229 0 ct 52 0 l  52 -437 l  211 -437 l  235 -437 257 -435 276 -431 ct 
295 -427 311 -421 324 -412 ct 337 -404 347 -393 354 -379 ct 361 -366 365 -350 365 -331 ct 
365 -319 363 -307 360 -297 ct 356 -286 351 -276 344 -267 ct 337 -258 328 -251 318 -245 ct 
308 -238 295 -234 282 -230 ct 299 -228 315 -224 328 -218 ct 342 -212 353 -205 362 -195 ct 
371 -186 378 -175 383 -163 ct 388 -151 390 -137 390 -123 ct p
305 -324 m  305 -348 297 -365 281 -375 ct 265 -385 241 -390 211 -390 ct 111 -390 l 
111 -251 l  211 -251 l  228 -251 243 -253 255 -256 ct 267 -260 277 -265 284 -271 ct 
291 -277 297 -285 300 -294 ct 303 -303 305 -313 305 -324 ct p
330 -128 m  330 -142 328 -153 323 -163 ct 318 -173 310 -181 301 -187 ct 291 -193 280 -198 267 -201 ct 
253 -204 238 -205 222 -205 ct 111 -205 l  111 -47 l  226 -47 l  241 -47 255 -49 268 -51 ct 
281 -54 292 -58 301 -64 ct 310 -70 317 -79 322 -89 ct 328 -99 330 -112 330 -128 ct 
p ef
455 0 m  455 -39 l  465 -64 478 -85 494 -104 ct 509 -122 525 -139 541 -154 ct 
558 -169 575 -183 591 -196 ct 608 -208 622 -221 636 -234 ct 649 -247 660 -260 668 -274 ct 
676 -289 680 -304 680 -322 ct 680 -335 678 -346 674 -355 ct 671 -364 665 -372 658 -379 ct 
651 -385 643 -390 633 -393 ct 623 -396 612 -398 600 -398 ct 589 -398 579 -396 569 -393 ct 
559 -390 550 -386 543 -379 ct 535 -373 529 -365 524 -356 ct 519 -347 516 -336 514 -324 ct 
457 -329 l  459 -345 464 -360 470 -374 ct 477 -388 487 -400 499 -410 ct 511 -421 525 -429 542 -435 ct 
559 -441 578 -444 600 -444 ct 622 -444 641 -441 658 -436 ct 675 -431 690 -423 701 -413 ct 
713 -403 722 -391 728 -376 ct 734 -361 737 -344 737 -324 ct 737 -309 735 -295 730 -282 ct 
724 -269 717 -256 708 -244 ct 700 -232 689 -221 678 -210 ct 666 -198 654 -187 642 -177 ct 
629 -166 616 -156 603 -145 ct 591 -135 579 -124 567 -114 ct 556 -103 546 -92 537 -81 ct 
528 -71 521 -59 516 -47 ct 744 -47 l  744 0 l  455 0 l  p ef
pom
10651 7345 m  8111 7345 l  8111 7090 l  13191 7090 l  13191 7345 l  10651 7345 l 
p ef
10650 7345 m  8111 7345 l  8111 7090 l  13190 7090 l  13190 7345 l  10650 7345 l 
pc
1 lw 10651 3029 m  10651 3361 l  ps
10651 3791 m  10801 3341 l  10501 3341 l  10651 3791 l  p ef
10651 6330 m  10651 6662 l  ps
10651 7092 m  10801 6642 l  10501 6642 l  10651 7092 l  p ef
8618 7346 m  8618 8440 l  ps
8618 8870 m  8768 8420 l  8468 8420 l  8618 8870 l  p ef
9888 7344 m  9888 8438 l  ps
9888 8868 m  10038 8418 l  9738 8418 l  9888 8868 l  p ef
11412 7346 m  11412 8440 l  ps
11412 8870 m  11562 8420 l  11262 8420 l  11412 8870 l  p ef
12681 7346 m  12681 8440 l  ps
12681 8870 m  12831 8420 l  12531 8420 l  12681 8870 l  p ef
0.996 c 10651 3031 m  8111 3031 l  8111 2015 l  13191 2015 l  13191 3031 l 
10651 3031 l  p ef
0 lw 0.000 c 10650 3031 m  8111 3031 l  8111 2015 l  13190 2015 l  13190 3031 l 
10650 3031 l  pc
pum
9286 2744 t
362 0 m  312 -128 l  113 -128 l  63 0 l  1 0 l  180 -438 l  247 -438 l 
422 0 l  362 0 l  p
238 -319 m  235 -327 232 -335 229 -344 ct 226 -352 223 -360 221 -367 ct 218 -374 217 -380 215 -384 ct 
213 -389 213 -392 212 -393 ct 212 -392 211 -389 210 -384 ct 208 -379 206 -373 204 -366 ct 
201 -359 199 -352 196 -343 ct 193 -335 190 -326 187 -318 ct 131 -174 l  294 -174 l 
238 -319 l  p ef
505 -300 m  462 -300 l  455 -437 l  512 -437 l  505 -300 l  p ef
604 -272 m  604 -336 l  664 -336 l  664 -272 l  604 -272 l  p
604 0 m  604 -64 l  664 -64 l  664 0 l  604 0 l  p ef
1226 0 m  1176 -128 l  977 -128 l  927 0 l  865 0 l  1044 -438 l  1111 -438 l 
1286 0 l  1226 0 l  p
1102 -319 m  1099 -327 1096 -335 1093 -344 ct 1090 -352 1087 -360 1085 -367 ct 
1082 -374 1081 -380 1079 -384 ct 1077 -389 1077 -392 1076 -393 ct 1076 -392 1075 -389 1074 -384 ct 
1072 -379 1070 -373 1068 -366 ct 1065 -359 1063 -352 1060 -343 ct 1057 -335 1054 -326 1051 -318 ct 
995 -174 l  1158 -174 l  1102 -319 l  p ef
1335 0 m  1335 -47 l  1447 -47 l  1447 -384 l  1348 -314 l  1348 -366 l 
1451 -438 l  1503 -438 l  1503 -47 l  1609 -47 l  1609 0 l  1335 0 l  p ef
1757 -68 m  1757 -16 l  1757 -5 1757 5 1756 14 ct 1755 23 1754 32 1751 39 ct 
1749 47 1747 54 1744 61 ct 1741 68 1737 75 1733 82 ct 1695 82 l  1704 68 1712 54 1717 41 ct 
1722 27 1724 13 1724 0 ct 1697 0 l  1697 -68 l  1757 -68 l  p ef
2318 0 m  2268 -128 l  2069 -128 l  2019 0 l  1957 0 l  2136 -438 l  2203 -438 l 
2378 0 l  2318 0 l  p
2194 -319 m  2191 -327 2188 -335 2185 -344 ct 2182 -352 2179 -360 2177 -367 ct 
2174 -374 2173 -380 2171 -384 ct 2169 -389 2169 -392 2168 -393 ct 2168 -392 2167 -389 2166 -384 ct 
2164 -379 2162 -373 2160 -366 ct 2157 -359 2155 -352 2152 -343 ct 2149 -335 2146 -326 2143 -318 ct 
2087 -174 l  2250 -174 l  2194 -319 l  p ef
2411 0 m  2411 -39 l  2421 -64 2434 -85 2450 -104 ct 2465 -122 2481 -139 2497 -154 ct 
2514 -169 2531 -183 2547 -196 ct 2564 -208 2578 -221 2592 -234 ct 2605 -247 2616 -260 2624 -274 ct 
2632 -289 2636 -304 2636 -322 ct 2636 -335 2634 -346 2630 -355 ct 2627 -364 2621 -372 2614 -379 ct 
2607 -385 2599 -390 2589 -393 ct 2579 -396 2568 -398 2556 -398 ct 2545 -398 2535 -396 2525 -393 ct 
2515 -390 2506 -386 2499 -379 ct 2491 -373 2485 -365 2480 -356 ct 2475 -347 2472 -336 2470 -324 ct 
2413 -329 l  2415 -345 2420 -360 2426 -374 ct 2433 -388 2443 -400 2455 -410 ct 
2467 -421 2481 -429 2498 -435 ct 2515 -441 2534 -444 2556 -444 ct 2578 -444 2597 -441 2614 -436 ct 
2631 -431 2646 -423 2657 -413 ct 2669 -403 2678 -391 2684 -376 ct 2690 -361 2693 -344 2693 -324 ct 
2693 -309 2691 -295 2686 -282 ct 2680 -269 2673 -256 2664 -244 ct 2656 -232 2645 -221 2634 -210 ct 
2622 -198 2610 -187 2598 -177 ct 2585 -166 2572 -156 2559 -145 ct 2547 -135 2535 -124 2523 -114 ct 
2512 -103 2502 -92 2493 -81 ct 2484 -71 2477 -59 2472 -47 ct 2700 -47 l  2700 0 l 
2411 0 l  p ef
pom
0.996 c 9839 4047 m  10447 4047 l  10652 4301 l  10447 4556 l  9839 4556 l 
9635 4301 l  9839 4047 l  9839 4047 l  p
9635 4047 m  9635 4047 l  p
10652 4556 m  10652 4556 l  p ef
0.000 c 9838 4046 m  10446 4046 l  10651 4300 l  10446 4555 l  9838 4555 l 
9634 4300 l  9838 4046 l  9838 4046 l  pc
9634 4046 m  9634 4046 l  pc
10651 4555 m  10651 4555 l  pc
pum
9755 4522 t
362 0 m  312 -128 l  113 -128 l  63 0 l  1 0 l  180 -438 l  247 -438 l 
422 0 l  362 0 l  p
238 -319 m  235 -327 232 -335 229 -344 ct 226 -352 223 -360 221 -367 ct 218 -374 217 -380 215 -384 ct 
213 -389 213 -392 212 -393 ct 212 -392 211 -389 210 -384 ct 208 -379 206 -373 204 -366 ct 
201 -359 199 -352 196 -343 ct 193 -335 190 -326 187 -318 ct 131 -174 l  294 -174 l 
238 -319 l  p ef
471 0 m  471 -47 l  583 -47 l  583 -384 l  484 -314 l  484 -366 l  587 -438 l 
639 -438 l  639 -47 l  745 -47 l  745 0 l  471 0 l  p ef
pom
10650 6332 m  8111 6332 l  8111 3793 l  13190 3793 l  13190 6332 l  10650 6332 l 
pc
0.996 c 10855 4047 m  11463 4047 l  11668 4301 l  11463 4556 l  10855 4556 l 
10651 4301 l  10855 4047 l  10855 4047 l  p
10651 4047 m  10651 4047 l  p
11668 4556 m  11668 4556 l  p ef
0.000 c 10854 4046 m  11462 4046 l  11667 4300 l  11462 4555 l  10854 4555 l 
10650 4300 l  10854 4046 l  10854 4046 l  pc
10650 4046 m  10650 4046 l  pc
11667 4555 m  11667 4555 l  pc
pum
10771 4522 t
362 0 m  312 -128 l  113 -128 l  63 0 l  1 0 l  180 -438 l  247 -438 l 
422 0 l  362 0 l  p
238 -319 m  235 -327 232 -335 229 -344 ct 226 -352 223 -360 221 -367 ct 218 -374 217 -380 215 -384 ct 
213 -389 213 -392 212 -393 ct 212 -392 211 -389 210 -384 ct 208 -379 206 -373 204 -366 ct 
201 -359 199 -352 196 -343 ct 193 -335 190 -326 187 -318 ct 131 -174 l  294 -174 l 
238 -319 l  p ef
455 0 m  455 -39 l  465 -64 478 -85 494 -104 ct 509 -122 525 -139 541 -154 ct 
558 -169 575 -183 591 -196 ct 608 -208 622 -221 636 -234 ct 649 -247 660 -260 668 -274 ct 
676 -289 680 -304 680 -322 ct 680 -335 678 -346 674 -355 ct 671 -364 665 -372 658 -379 ct 
651 -385 643 -390 633 -393 ct 623 -396 612 -398 600 -398 ct 589 -398 579 -396 569 -393 ct 
559 -390 550 -386 543 -379 ct 535 -373 529 -365 524 -356 ct 519 -347 516 -336 514 -324 ct 
457 -329 l  459 -345 464 -360 470 -374 ct 477 -388 487 -400 499 -410 ct 511 -421 525 -429 542 -435 ct 
559 -441 578 -444 600 -444 ct 622 -444 641 -441 658 -436 ct 675 -431 690 -423 701 -413 ct 
713 -403 722 -391 728 -376 ct 734 -361 737 -344 737 -324 ct 737 -309 735 -295 730 -282 ct 
724 -269 717 -256 708 -244 ct 700 -232 689 -221 678 -210 ct 666 -198 654 -187 642 -177 ct 
629 -166 616 -156 603 -145 ct 591 -135 579 -124 567 -114 ct 556 -103 546 -92 537 -81 ct 
528 -71 521 -59 516 -47 ct 744 -47 l  744 0 l  455 0 l  p ef
pom
17522 7345 m  14982 7345 l  14982 7090 l  20062 7090 l  20062 7345 l  17522 7345 l 
p ef
17522 7345 m  14982 7345 l  14982 7090 l  20061 7090 l  20061 7345 l  17522 7345 l 
pc
1 lw 17522 6330 m  17522 6662 l  ps
17522 7092 m  17672 6642 l  17372 6642 l  17522 7092 l  p ef
15489 7346 m  15489 8440 l  ps
15489 8870 m  15639 8420 l  15339 8420 l  15489 8870 l  p ef
16759 7344 m  16759 8438 l  ps
16759 8868 m  16909 8418 l  16609 8418 l  16759 8868 l  p ef
18283 7346 m  18283 8440 l  ps
18283 8870 m  18433 8420 l  18133 8420 l  18283 8870 l  p ef
19552 7346 m  19552 8440 l  ps
19552 8870 m  19702 8420 l  19402 8420 l  19552 8870 l  p ef
0.996 c 15186 7602 m  15794 7602 l  15999 7856 l  15794 8111 l  15186 8111 l 
14982 7856 l  15186 7602 l  15186 7602 l  p
14982 7602 m  14982 7602 l  p
15999 8111 m  15999 8111 l  p ef
0 lw 0.000 c 15186 7602 m  15794 7602 l  15999 7856 l  15794 8110 l  15186 8110 l 
14982 7856 l  15186 7602 l  15186 7602 l  pc
14982 7602 m  14982 7602 l  pc
15999 8110 m  15999 8110 l  pc
pum
15102 8077 t
362 0 m  312 -128 l  113 -128 l  63 0 l  1 0 l  180 -438 l  247 -438 l 
422 0 l  362 0 l  p
238 -319 m  235 -327 232 -335 229 -344 ct 226 -352 223 -360 221 -367 ct 218 -374 217 -380 215 -384 ct 
213 -389 213 -392 212 -393 ct 212 -392 211 -389 210 -384 ct 208 -379 206 -373 204 -366 ct 
201 -359 199 -352 196 -343 ct 193 -335 190 -326 187 -318 ct 131 -174 l  294 -174 l 
238 -319 l  p ef
751 -219 m  751 -177 747 -142 739 -113 ct 731 -84 721 -61 707 -44 ct 693 -26 677 -13 658 -5 ct 
640 2 620 6 599 6 ct 578 6 558 2 539 -5 ct 521 -13 505 -26 491 -43 ct 478 -61 467 -84 459 -113 ct 
452 -141 448 -177 448 -219 ct 448 -263 452 -300 459 -328 ct 467 -357 478 -380 492 -397 ct 
505 -415 521 -427 540 -434 ct 559 -441 579 -444 601 -444 ct 622 -444 641 -441 659 -434 ct 
678 -427 694 -415 707 -397 ct 721 -380 732 -357 740 -328 ct 747 -300 751 -263 751 -219 ct 
p
695 -219 m  695 -254 693 -283 688 -306 ct 684 -329 678 -347 670 -361 ct 662 -375 652 -384 641 -390 ct 
629 -396 616 -399 601 -399 ct 585 -399 571 -396 559 -390 ct 547 -384 537 -374 529 -361 ct 
521 -347 515 -329 510 -305 ct 506 -282 504 -254 504 -219 ct 504 -185 506 -157 511 -134 ct 
515 -111 521 -93 529 -79 ct 537 -65 547 -55 559 -49 ct 571 -43 584 -40 599 -40 ct 
614 -40 627 -43 639 -49 ct 651 -55 661 -65 669 -79 ct 677 -93 684 -111 688 -134 ct 
692 -157 695 -185 695 -219 ct p ef
pom
0.996 c 16456 7602 m  17064 7602 l  17269 7856 l  17064 8111 l  16456 8111 l 
16252 7856 l  16456 7602 l  16456 7602 l  p
16252 7602 m  16252 7602 l  p
17269 8111 m  17269 8111 l  p ef
0.000 c 16456 7602 m  17064 7602 l  17269 7856 l  17064 8110 l  16456 8110 l 
16252 7856 l  16456 7602 l  16456 7602 l  pc
16252 7602 m  16252 7602 l  pc
17269 8110 m  17269 8110 l  pc
pum
16372 8077 t
362 0 m  312 -128 l  113 -128 l  63 0 l  1 0 l  180 -438 l  247 -438 l 
422 0 l  362 0 l  p
238 -319 m  235 -327 232 -335 229 -344 ct 226 -352 223 -360 221 -367 ct 218 -374 217 -380 215 -384 ct 
213 -389 213 -392 212 -393 ct 212 -392 211 -389 210 -384 ct 208 -379 206 -373 204 -366 ct 
201 -359 199 -352 196 -343 ct 193 -335 190 -326 187 -318 ct 131 -174 l  294 -174 l 
238 -319 l  p ef
471 0 m  471 -47 l  583 -47 l  583 -384 l  484 -314 l  484 -366 l  587 -438 l 
639 -438 l  639 -47 l  745 -47 l  745 0 l  471 0 l  p ef
pom
17522 6332 m  14982 6332 l  14982 3793 l  20061 3793 l  20061 6332 l  17522 6332 l 
pc
0.996 c 17980 7602 m  18588 7602 l  18793 7856 l  18588 8111 l  17980 8111 l 
17776 7856 l  17980 7602 l  17980 7602 l  p
17776 7602 m  17776 7602 l  p
18793 8111 m  18793 8111 l  p ef
0.000 c 17980 7602 m  18588 7602 l  18793 7856 l  18588 8110 l  17980 8110 l 
17776 7856 l  17980 7602 l  17980 7602 l  pc
17776 7602 m  17776 7602 l  pc
18793 8110 m  18793 8110 l  pc
pum
17896 8077 t
362 0 m  312 -128 l  113 -128 l  63 0 l  1 0 l  180 -438 l  247 -438 l 
422 0 l  362 0 l  p
238 -319 m  235 -327 232 -335 229 -344 ct 226 -352 223 -360 221 -367 ct 218 -374 217 -380 215 -384 ct 
213 -389 213 -392 212 -393 ct 212 -392 211 -389 210 -384 ct 208 -379 206 -373 204 -366 ct 
201 -359 199 -352 196 -343 ct 193 -335 190 -326 187 -318 ct 131 -174 l  294 -174 l 
238 -319 l  p ef
455 0 m  455 -39 l  465 -64 478 -85 494 -104 ct 509 -122 525 -139 541 -154 ct 
558 -169 575 -183 591 -196 ct 608 -208 622 -221 636 -234 ct 649 -247 660 -260 668 -274 ct 
676 -289 680 -304 680 -322 ct 680 -335 678 -346 674 -355 ct 671 -364 665 -372 658 -379 ct 
651 -385 643 -390 633 -393 ct 623 -396 612 -398 600 -398 ct 589 -398 579 -396 569 -393 ct 
559 -390 550 -386 543 -379 ct 535 -373 529 -365 524 -356 ct 519 -347 516 -336 514 -324 ct 
457 -329 l  459 -345 464 -360 470 -374 ct 477 -388 487 -400 499 -410 ct 511 -421 525 -429 542 -435 ct 
559 -441 578 -444 600 -444 ct 622 -444 641 -441 658 -436 ct 675 -431 690 -423 701 -413 ct 
713 -403 722 -391 728 -376 ct 734 -361 737 -344 737 -324 ct 737 -309 735 -295 730 -282 ct 
724 -269 717 -256 708 -244 ct 700 -232 689 -221 678 -210 ct 666 -198 654 -187 642 -177 ct 
629 -166 616 -156 603 -145 ct 591 -135 579 -124 567 -114 ct 556 -103 546 -92 537 -81 ct 
528 -71 521 -59 516 -47 ct 744 -47 l  744 0 l  455 0 l  p ef
pom
0.996 c 19250 7602 m  19858 7602 l  20063 7856 l  19858 8111 l  19250 8111 l 
19046 7856 l  19250 7602 l  19250 7602 l  p
19046 7602 m  19046 7602 l  p
20063 8111 m  20063 8111 l  p ef
0.000 c 19249 7602 m  19857 7602 l  20062 7856 l  19857 8110 l  19249 8110 l 
19045 7856 l  19249 7602 l  19249 7602 l  pc
19045 7602 m  19045 7602 l  pc
20062 8110 m  20062 8110 l  pc
pum
19166 8077 t
362 0 m  312 -128 l  113 -128 l  63 0 l  1 0 l  180 -438 l  247 -438 l 
422 0 l  362 0 l  p
238 -319 m  235 -327 232 -335 229 -344 ct 226 -352 223 -360 221 -367 ct 218 -374 217 -380 215 -384 ct 
213 -389 213 -392 212 -393 ct 212 -392 211 -389 210 -384 ct 208 -379 206 -373 204 -366 ct 
201 -359 199 -352 196 -343 ct 193 -335 190 -326 187 -318 ct 131 -174 l  294 -174 l 
238 -319 l  p ef
749 -170 m  749 -144 747 -121 743 -99 ct 739 -78 732 -59 723 -43 ct 713 -28 700 -16 685 -7 ct 
669 2 649 6 626 6 ct 602 6 581 2 563 -7 ct 545 -17 531 -31 522 -52 ct 520 -52 l 
521 -52 521 -50 521 -47 ct 521 -43 521 -39 521 -34 ct 521 -29 521 -24 521 -17 ct 
522 -11 522 -5 522 1 ct 522 132 l  466 132 l  466 -267 l  466 -275 466 -283 466 -290 ct 
466 -298 465 -305 465 -311 ct 465 -317 465 -322 465 -326 ct 464 -331 464 -334 464 -336 ct 
518 -336 l  518 -335 518 -333 519 -329 ct 519 -326 519 -321 520 -316 ct 520 -311 520 -305 521 -299 ct 
521 -293 521 -287 521 -282 ct 522 -282 l  527 -293 533 -302 540 -310 ct 547 -317 554 -323 563 -328 ct 
571 -333 580 -337 591 -339 ct 601 -341 613 -342 626 -342 ct 649 -342 669 -338 685 -330 ct 
700 -321 713 -310 723 -295 ct 732 -280 739 -261 743 -240 ct 747 -219 749 -195 749 -170 ct 
p
691 -168 m  691 -189 690 -207 687 -224 ct 685 -240 680 -253 674 -265 ct 668 -276 660 -284 650 -290 ct 
640 -296 627 -299 612 -299 ct 599 -299 588 -297 577 -294 ct 566 -290 556 -283 548 -273 ct 
540 -263 533 -250 529 -232 ct 524 -215 522 -192 522 -164 ct 522 -140 524 -120 527 -104 ct 
531 -87 537 -74 545 -64 ct 552 -53 562 -46 573 -42 ct 584 -37 597 -35 611 -35 ct 
627 -35 640 -38 650 -44 ct 660 -50 668 -59 674 -70 ct 680 -82 685 -95 687 -112 ct 
690 -128 691 -147 691 -168 ct p ef
pom
1558 4524 m  1516 4524 1474 4566 1474 4608 ct 1474 4948 l  1474 4990 1516 5033 1558 5033 ct 
5962 5033 l  6004 5033 6047 4990 6047 4948 ct 6047 4608 l  6047 4566 6004 4524 5962 4524 ct 
1558 4524 l  pc
1474 4524 m  1474 4524 l  pc
6047 5033 m  6047 5033 l  pc
1558 5032 m  1516 5032 1474 5074 1474 5116 ct 1474 5456 l  1474 5498 1516 5541 1558 5541 ct 
5962 5541 l  6004 5541 6047 5498 6047 5456 ct 6047 5116 l  6047 5074 6004 5032 5962 5032 ct 
1558 5032 l  pc
1474 5032 m  1474 5032 l  pc
6047 5541 m  6047 5541 l  pc
1558 5540 m  1516 5540 1474 5582 1474 5624 ct 1474 5964 l  1474 6006 1516 6049 1558 6049 ct 
5962 6049 l  6004 6049 6047 6006 6047 5964 ct 6047 5624 l  6047 5582 6004 5540 5962 5540 ct 
1558 5540 l  pc
1474 5540 m  1474 5540 l  pc
6047 6049 m  6047 6049 l  pc
0.996 c 8823 4047 m  9431 4047 l  9636 4301 l  9431 4556 l  8823 4556 l 
8619 4301 l  8823 4047 l  8823 4047 l  p
8619 4047 m  8619 4047 l  p
9636 4556 m  9636 4556 l  p ef
0.000 c 8823 4046 m  9430 4046 l  9635 4300 l  9430 4555 l  8823 4555 l 
8619 4300 l  8823 4046 l  8823 4046 l  pc
8619 4046 m  8619 4046 l  pc
9635 4555 m  9635 4555 l  pc
pum
8739 4522 t
362 0 m  312 -128 l  113 -128 l  63 0 l  1 0 l  180 -438 l  247 -438 l 
422 0 l  362 0 l  p
238 -319 m  235 -327 232 -335 229 -344 ct 226 -352 223 -360 221 -367 ct 218 -374 217 -380 215 -384 ct 
213 -389 213 -392 212 -393 ct 212 -392 211 -389 210 -384 ct 208 -379 206 -373 204 -366 ct 
201 -359 199 -352 196 -343 ct 193 -335 190 -326 187 -318 ct 131 -174 l  294 -174 l 
238 -319 l  p ef
751 -219 m  751 -177 747 -142 739 -113 ct 731 -84 721 -61 707 -44 ct 693 -26 677 -13 658 -5 ct 
640 2 620 6 599 6 ct 578 6 558 2 539 -5 ct 521 -13 505 -26 491 -43 ct 478 -61 467 -84 459 -113 ct 
452 -141 448 -177 448 -219 ct 448 -263 452 -300 459 -328 ct 467 -357 478 -380 492 -397 ct 
505 -415 521 -427 540 -434 ct 559 -441 579 -444 601 -444 ct 622 -444 641 -441 659 -434 ct 
678 -427 694 -415 707 -397 ct 721 -380 732 -357 740 -328 ct 747 -300 751 -263 751 -219 ct 
p
695 -219 m  695 -254 693 -283 688 -306 ct 684 -329 678 -347 670 -361 ct 662 -375 652 -384 641 -390 ct 
629 -396 616 -399 601 -399 ct 585 -399 571 -396 559 -390 ct 547 -384 537 -374 529 -361 ct 
521 -347 515 -329 510 -305 ct 506 -282 504 -254 504 -219 ct 504 -185 506 -157 511 -134 ct 
515 -111 521 -93 529 -79 ct 537 -65 547 -55 559 -49 ct 571 -43 584 -40 599 -40 ct 
614 -40 627 -43 639 -49 ct 651 -55 661 -65 669 -79 ct 677 -93 684 -111 688 -134 ct 
692 -157 695 -185 695 -219 ct p ef
pom
8449 4046 m  8407 4046 8365 4088 8365 4130 ct 8365 4470 l  8365 4512 8407 4555 8449 4555 ct 
12852 4555 l  12894 4555 12937 4512 12937 4470 ct 12937 4130 l  12937 4088 12894 4046 12852 4046 ct 
8449 4046 l  pc
8365 4046 m  8365 4046 l  pc
12937 4555 m  12937 4555 l  pc
0.996 c 8823 4555 m  9431 4555 l  9636 4809 l  9431 5064 l  8823 5064 l 
8619 4809 l  8823 4555 l  8823 4555 l  p
8619 4555 m  8619 4555 l  p
9636 5064 m  9636 5064 l  p ef
0.000 c 8823 4554 m  9430 4554 l  9635 4808 l  9430 5063 l  8823 5063 l 
8619 4808 l  8823 4554 l  8823 4554 l  pc
8619 4554 m  8619 4554 l  pc
9635 5063 m  9635 5063 l  pc
pum
8739 5030 t
390 -123 m  390 -101 386 -82 377 -67 ct 368 -51 357 -38 342 -28 ct 327 -19 310 -11 291 -7 ct 
271 -2 251 0 229 0 ct 52 0 l  52 -437 l  211 -437 l  235 -437 257 -435 276 -431 ct 
295 -427 311 -421 324 -412 ct 337 -404 347 -393 354 -379 ct 361 -366 365 -350 365 -331 ct 
365 -319 363 -307 360 -297 ct 356 -286 351 -276 344 -267 ct 337 -258 328 -251 318 -245 ct 
308 -238 295 -234 282 -230 ct 299 -228 315 -224 328 -218 ct 342 -212 353 -205 362 -195 ct 
371 -186 378 -175 383 -163 ct 388 -151 390 -137 390 -123 ct p
305 -324 m  305 -348 297 -365 281 -375 ct 265 -385 241 -390 211 -390 ct 111 -390 l 
111 -251 l  211 -251 l  228 -251 243 -253 255 -256 ct 267 -260 277 -265 284 -271 ct 
291 -277 297 -285 300 -294 ct 303 -303 305 -313 305 -324 ct p
330 -128 m  330 -142 328 -153 323 -163 ct 318 -173 310 -181 301 -187 ct 291 -193 280 -198 267 -201 ct 
253 -204 238 -205 222 -205 ct 111 -205 l  111 -47 l  226 -47 l  241 -47 255 -49 268 -51 ct 
281 -54 292 -58 301 -64 ct 310 -70 317 -79 322 -89 ct 328 -99 330 -112 330 -128 ct 
p ef
751 -219 m  751 -177 747 -142 739 -113 ct 731 -84 721 -61 707 -44 ct 693 -26 677 -13 658 -5 ct 
640 2 620 6 599 6 ct 578 6 558 2 539 -5 ct 521 -13 505 -26 491 -43 ct 478 -61 467 -84 459 -113 ct 
452 -141 448 -177 448 -219 ct 448 -263 452 -300 459 -328 ct 467 -357 478 -380 492 -397 ct 
505 -415 521 -427 540 -434 ct 559 -441 579 -444 601 -444 ct 622 -444 641 -441 659 -434 ct 
678 -427 694 -415 707 -397 ct 721 -380 732 -357 740 -328 ct 747 -300 751 -263 751 -219 ct 
p
695 -219 m  695 -254 693 -283 688 -306 ct 684 -329 678 -347 670 -361 ct 662 -375 652 -384 641 -390 ct 
629 -396 616 -399 601 -399 ct 585 -399 571 -396 559 -390 ct 547 -384 537 -374 529 -361 ct 
521 -347 515 -329 510 -305 ct 506 -282 504 -254 504 -219 ct 504 -185 506 -157 511 -134 ct 
515 -111 521 -93 529 -79 ct 537 -65 547 -55 559 -49 ct 571 -43 584 -40 599 -40 ct 
614 -40 627 -43 639 -49 ct 651 -55 661 -65 669 -79 ct 677 -93 684 -111 688 -134 ct 
692 -157 695 -185 695 -219 ct p ef
pom
0.996 c 10855 4555 m  11463 4555 l  11668 4809 l  11463 5064 l  10855 5064 l 
10651 4809 l  10855 4555 l  10855 4555 l  p
10651 4555 m  10651 4555 l  p
11668 5064 m  11668 5064 l  p ef
0.000 c 10854 4554 m  11462 4554 l  11667 4808 l  11462 5063 l  10854 5063 l 
10650 4808 l  10854 4554 l  10854 4554 l  pc
10650 4554 m  10650 4554 l  pc
11667 5063 m  11667 5063 l  pc
pum
10771 5030 t
390 -123 m  390 -101 386 -82 377 -67 ct 368 -51 357 -38 342 -28 ct 327 -19 310 -11 291 -7 ct 
271 -2 251 0 229 0 ct 52 0 l  52 -437 l  211 -437 l  235 -437 257 -435 276 -431 ct 
295 -427 311 -421 324 -412 ct 337 -404 347 -393 354 -379 ct 361 -366 365 -350 365 -331 ct 
365 -319 363 -307 360 -297 ct 356 -286 351 -276 344 -267 ct 337 -258 328 -251 318 -245 ct 
308 -238 295 -234 282 -230 ct 299 -228 315 -224 328 -218 ct 342 -212 353 -205 362 -195 ct 
371 -186 378 -175 383 -163 ct 388 -151 390 -137 390 -123 ct p
305 -324 m  305 -348 297 -365 281 -375 ct 265 -385 241 -390 211 -390 ct 111 -390 l 
111 -251 l  211 -251 l  228 -251 243 -253 255 -256 ct 267 -260 277 -265 284 -271 ct 
291 -277 297 -285 300 -294 ct 303 -303 305 -313 305 -324 ct p
330 -128 m  330 -142 328 -153 323 -163 ct 318 -173 310 -181 301 -187 ct 291 -193 280 -198 267 -201 ct 
253 -204 238 -205 222 -205 ct 111 -205 l  111 -47 l  226 -47 l  241 -47 255 -49 268 -51 ct 
281 -54 292 -58 301 -64 ct 310 -70 317 -79 322 -89 ct 328 -99 330 -112 330 -128 ct 
p ef
455 0 m  455 -39 l  465 -64 478 -85 494 -104 ct 509 -122 525 -139 541 -154 ct 
558 -169 575 -183 591 -196 ct 608 -208 622 -221 636 -234 ct 649 -247 660 -260 668 -274 ct 
676 -289 680 -304 680 -322 ct 680 -335 678 -346 674 -355 ct 671 -364 665 -372 658 -379 ct 
651 -385 643 -390 633 -393 ct 623 -396 612 -398 600 -398 ct 589 -398 579 -396 569 -393 ct 
559 -390 550 -386 543 -379 ct 535 -373 529 -365 524 -356 ct 519 -347 516 -336 514 -324 ct 
457 -329 l  459 -345 464 -360 470 -374 ct 477 -388 487 -400 499 -410 ct 511 -421 525 -429 542 -435 ct 
559 -441 578 -444 600 -444 ct 622 -444 641 -441 658 -436 ct 675 -431 690 -423 701 -413 ct 
713 -403 722 -391 728 -376 ct 734 -361 737 -344 737 -324 ct 737 -309 735 -295 730 -282 ct 
724 -269 717 -256 708 -244 ct 700 -232 689 -221 678 -210 ct 666 -198 654 -187 642 -177 ct 
629 -166 616 -156 603 -145 ct 591 -135 579 -124 567 -114 ct 556 -103 546 -92 537 -81 ct 
528 -71 521 -59 516 -47 ct 744 -47 l  744 0 l  455 0 l  p ef
pom
8449 4554 m  8407 4554 8365 4596 8365 4638 ct 8365 4978 l  8365 5020 8407 5063 8449 5063 ct 
12852 5063 l  12894 5063 12937 5020 12937 4978 ct 12937 4638 l  12937 4596 12894 4554 12852 4554 ct 
8449 4554 l  pc
8365 4554 m  8365 4554 l  pc
12937 5063 m  12937 5063 l  pc
8449 5062 m  8407 5062 8365 5104 8365 5146 ct 8365 5486 l  8365 5528 8407 5571 8449 5571 ct 
12852 5571 l  12894 5571 12937 5528 12937 5486 ct 12937 5146 l  12937 5104 12894 5062 12852 5062 ct 
8449 5062 l  pc
8365 5062 m  8365 5062 l  pc
12937 5571 m  12937 5571 l  pc
8449 5570 m  8407 5570 8365 5612 8365 5654 ct 8365 5994 l  8365 6036 8407 6079 8449 6079 ct 
12852 6079 l  12894 6079 12937 6036 12937 5994 ct 12937 5654 l  12937 5612 12894 5570 12852 5570 ct 
8449 5570 l  pc
8365 5570 m  8365 5570 l  pc
12937 6079 m  12937 6079 l  pc
15320 4046 m  15278 4046 15236 4088 15236 4130 ct 15236 4470 l  15236 4512 15278 4555 15320 4555 ct 
19723 4555 l  19765 4555 19808 4512 19808 4470 ct 19808 4130 l  19808 4088 19765 4046 19723 4046 ct 
15320 4046 l  pc
15236 4046 m  15236 4046 l  pc
19808 4555 m  19808 4555 l  pc
0.996 c 15694 4555 m  16302 4555 l  16507 4809 l  16302 5064 l  15694 5064 l 
15490 4809 l  15694 4555 l  15694 4555 l  p
15490 4555 m  15490 4555 l  p
16507 5064 m  16507 5064 l  p ef
0.000 c 15694 4554 m  16302 4554 l  16507 4808 l  16302 5063 l  15694 5063 l 
15490 4808 l  15694 4554 l  15694 4554 l  pc
15490 4554 m  15490 4554 l  pc
16507 5063 m  16507 5063 l  pc
pum
15610 5030 t
390 -123 m  390 -101 386 -82 377 -67 ct 368 -51 357 -38 342 -28 ct 327 -19 310 -11 291 -7 ct 
271 -2 251 0 229 0 ct 52 0 l  52 -437 l  211 -437 l  235 -437 257 -435 276 -431 ct 
295 -427 311 -421 324 -412 ct 337 -404 347 -393 354 -379 ct 361 -366 365 -350 365 -331 ct 
365 -319 363 -307 360 -297 ct 356 -286 351 -276 344 -267 ct 337 -258 328 -251 318 -245 ct 
308 -238 295 -234 282 -230 ct 299 -228 315 -224 328 -218 ct 342 -212 353 -205 362 -195 ct 
371 -186 378 -175 383 -163 ct 388 -151 390 -137 390 -123 ct p
305 -324 m  305 -348 297 -365 281 -375 ct 265 -385 241 -390 211 -390 ct 111 -390 l 
111 -251 l  211 -251 l  228 -251 243 -253 255 -256 ct 267 -260 277 -265 284 -271 ct 
291 -277 297 -285 300 -294 ct 303 -303 305 -313 305 -324 ct p
330 -128 m  330 -142 328 -153 323 -163 ct 318 -173 310 -181 301 -187 ct 291 -193 280 -198 267 -201 ct 
253 -204 238 -205 222 -205 ct 111 -205 l  111 -47 l  226 -47 l  241 -47 255 -49 268 -51 ct 
281 -54 292 -58 301 -64 ct 310 -70 317 -79 322 -89 ct 328 -99 330 -112 330 -128 ct 
p ef
751 -219 m  751 -177 747 -142 739 -113 ct 731 -84 721 -61 707 -44 ct 693 -26 677 -13 658 -5 ct 
640 2 620 6 599 6 ct 578 6 558 2 539 -5 ct 521 -13 505 -26 491 -43 ct 478 -61 467 -84 459 -113 ct 
452 -141 448 -177 448 -219 ct 448 -263 452 -300 459 -328 ct 467 -357 478 -380 492 -397 ct 
505 -415 521 -427 540 -434 ct 559 -441 579 -444 601 -444 ct 622 -444 641 -441 659 -434 ct 
678 -427 694 -415 707 -397 ct 721 -380 732 -357 740 -328 ct 747 -300 751 -263 751 -219 ct 
p
695 -219 m  695 -254 693 -283 688 -306 ct 684 -329 678 -347 670 -361 ct 662 -375 652 -384 641 -390 ct 
629 -396 616 -399 601 -399 ct 585 -399 571 -396 559 -390 ct 547 -384 537 -374 529 -361 ct 
521 -347 515 -329 510 -305 ct 506 -282 504 -254 504 -219 ct 504 -185 506 -157 511 -134 ct 
515 -111 521 -93 529 -79 ct 537 -65 547 -55 559 -49 ct 571 -43 584 -40 599 -40 ct 
614 -40 627 -43 639 -49 ct 651 -55 661 -65 669 -79 ct 677 -93 684 -111 688 -134 ct 
692 -157 695 -185 695 -219 ct p ef
pom
0.996 c 17726 4555 m  18334 4555 l  18539 4809 l  18334 5064 l  17726 5064 l 
17522 4809 l  17726 4555 l  17726 4555 l  p
17522 4555 m  17522 4555 l  p
18539 5064 m  18539 5064 l  p ef
0.000 c 17726 4554 m  18334 4554 l  18539 4808 l  18334 5063 l  17726 5063 l 
17522 4808 l  17726 4554 l  17726 4554 l  pc
17522 4554 m  17522 4554 l  pc
18539 5063 m  18539 5063 l  pc
pum
17642 5030 t
390 -123 m  390 -101 386 -82 377 -67 ct 368 -51 357 -38 342 -28 ct 327 -19 310 -11 291 -7 ct 
271 -2 251 0 229 0 ct 52 0 l  52 -437 l  211 -437 l  235 -437 257 -435 276 -431 ct 
295 -427 311 -421 324 -412 ct 337 -404 347 -393 354 -379 ct 361 -366 365 -350 365 -331 ct 
365 -319 363 -307 360 -297 ct 356 -286 351 -276 344 -267 ct 337 -258 328 -251 318 -245 ct 
308 -238 295 -234 282 -230 ct 299 -228 315 -224 328 -218 ct 342 -212 353 -205 362 -195 ct 
371 -186 378 -175 383 -163 ct 388 -151 390 -137 390 -123 ct p
305 -324 m  305 -348 297 -365 281 -375 ct 265 -385 241 -390 211 -390 ct 111 -390 l 
111 -251 l  211 -251 l  228 -251 243 -253 255 -256 ct 267 -260 277 -265 284 -271 ct 
291 -277 297 -285 300 -294 ct 303 -303 305 -313 305 -324 ct p
330 -128 m  330 -142 328 -153 323 -163 ct 318 -173 310 -181 301 -187 ct 291 -193 280 -198 267 -201 ct 
253 -204 238 -205 222 -205 ct 111 -205 l  111 -47 l  226 -47 l  241 -47 255 -49 268 -51 ct 
281 -54 292 -58 301 -64 ct 310 -70 317 -79 322 -89 ct 328 -99 330 -112 330 -128 ct 
p ef
455 0 m  455 -39 l  465 -64 478 -85 494 -104 ct 509 -122 525 -139 541 -154 ct 
558 -169 575 -183 591 -196 ct 608 -208 622 -221 636 -234 ct 649 -247 660 -260 668 -274 ct 
676 -289 680 -304 680 -322 ct 680 -335 678 -346 674 -355 ct 671 -364 665 -372 658 -379 ct 
651 -385 643 -390 633 -393 ct 623 -396 612 -398 600 -398 ct 589 -398 579 -396 569 -393 ct 
559 -390 550 -386 543 -379 ct 535 -373 529 -365 524 -356 ct 519 -347 516 -336 514 -324 ct 
457 -329 l  459 -345 464 -360 470 -374 ct 477 -388 487 -400 499 -410 ct 511 -421 525 -429 542 -435 ct 
559 -441 578 -444 600 -444 ct 622 -444 641 -441 658 -436 ct 675 -431 690 -423 701 -413 ct 
713 -403 722 -391 728 -376 ct 734 -361 737 -344 737 -324 ct 737 -309 735 -295 730 -282 ct 
724 -269 717 -256 708 -244 ct 700 -232 689 -221 678 -210 ct 666 -198 654 -187 642 -177 ct 
629 -166 616 -156 603 -145 ct 591 -135 579 -124 567 -114 ct 556 -103 546 -92 537 -81 ct 
528 -71 521 -59 516 -47 ct 744 -47 l  744 0 l  455 0 l  p ef
pom
15320 4554 m  15278 4554 15236 4596 15236 4638 ct 15236 4978 l  15236 5020 15278 5063 15320 5063 ct 
19723 5063 l  19765 5063 19808 5020 19808 4978 ct 19808 4638 l  19808 4596 19765 4554 19723 4554 ct 
15320 4554 l  pc
15236 4554 m  15236 4554 l  pc
19808 5063 m  19808 5063 l  pc
15320 5062 m  15278 5062 15236 5104 15236 5146 ct 15236 5486 l  15236 5528 15278 5571 15320 5571 ct 
19723 5571 l  19765 5571 19808 5528 19808 5486 ct 19808 5146 l  19808 5104 19765 5062 19723 5062 ct 
15320 5062 l  pc
15236 5062 m  15236 5062 l  pc
19808 5571 m  19808 5571 l  pc
15320 5570 m  15278 5570 15236 5612 15236 5654 ct 15236 5994 l  15236 6036 15278 6079 15320 6079 ct 
19723 6079 l  19765 6079 19808 6036 19808 5994 ct 19808 5654 l  19808 5612 19765 5570 19723 5570 ct 
15320 5570 l  pc
15236 5570 m  15236 5570 l  pc
19808 6079 m  19808 6079 l  pc
0.996 c 1221 9859 m  1221 8947 l  1326 8842 l  2238 8842 l  2238 9753 l 
2132 9859 l  1221 9859 l  p
1221 8842 m  1221 8842 l  p
2238 9859 m  2238 9859 l  p ef
0.000 c 1220 9858 m  1220 8946 l  1325 8841 l  2237 8841 l  2237 9752 l 
2131 9858 l  1220 9858 l  pc
1220 8841 m  1220 8841 l  pc
2237 9858 m  2237 9858 l  pc
0.996 c 1221 8947 m  1326 8842 l  2238 8842 l  2132 8947 l  1221 8947 l 
p
1221 8842 m  1221 8842 l  p
2238 9859 m  2238 9859 l  p ef
0.000 c 1220 8946 m  1325 8841 l  2237 8841 l  2131 8946 l  1220 8946 l 
pc
1220 8841 m  1220 8841 l  pc
2237 9858 m  2237 9858 l  pc
0.796 c 2132 9859 m  2132 8947 l  2238 8842 l  2238 9753 l  2132 9859 l 
p
1221 8842 m  1221 8842 l  p
2238 9859 m  2238 9859 l  p ef
0.000 c 2131 9858 m  2131 8946 l  2237 8841 l  2237 9752 l  2131 9858 l 
pc
1220 8841 m  1220 8841 l  pc
2237 9858 m  2237 9858 l  pc
0.996 c 2491 9859 m  2491 8947 l  2596 8842 l  3508 8842 l  3508 9753 l 
3402 9859 l  2491 9859 l  p
2491 8842 m  2491 8842 l  p
3508 9859 m  3508 9859 l  p ef
0.000 c 2490 9858 m  2490 8946 l  2595 8841 l  3507 8841 l  3507 9752 l 
3401 9858 l  2490 9858 l  pc
2490 8841 m  2490 8841 l  pc
3507 9858 m  3507 9858 l  pc
0.996 c 2491 8947 m  2596 8842 l  3508 8842 l  3402 8947 l  2491 8947 l 
p
2491 8842 m  2491 8842 l  p
3508 9859 m  3508 9859 l  p ef
0.000 c 2490 8946 m  2595 8841 l  3507 8841 l  3401 8946 l  2490 8946 l 
pc
2490 8841 m  2490 8841 l  pc
3507 9858 m  3507 9858 l  pc
0.796 c 3402 9859 m  3402 8947 l  3508 8842 l  3508 9753 l  3402 9859 l 
p
2491 8842 m  2491 8842 l  p
3508 9859 m  3508 9859 l  p ef
0.000 c 3401 9858 m  3401 8946 l  3507 8841 l  3507 9752 l  3401 9858 l 
pc
2490 8841 m  2490 8841 l  pc
3507 9858 m  3507 9858 l  pc
0.996 c 4015 9859 m  4015 8947 l  4120 8842 l  5031 8842 l  5031 9753 l 
4925 9859 l  4015 9859 l  p
4015 8842 m  4015 8842 l  p
5031 9859 m  5031 9859 l  p ef
0.000 c 4014 9858 m  4014 8946 l  4119 8841 l  5031 8841 l  5031 9752 l 
4925 9858 l  4014 9858 l  pc
4014 8841 m  4014 8841 l  pc
5031 9858 m  5031 9858 l  pc
0.996 c 4015 8947 m  4120 8842 l  5031 8842 l  4925 8947 l  4015 8947 l 
p
4015 8842 m  4015 8842 l  p
5031 9859 m  5031 9859 l  p ef
0.000 c 4014 8946 m  4119 8841 l  5031 8841 l  4925 8946 l  4014 8946 l 
pc
4014 8841 m  4014 8841 l  pc
5031 9858 m  5031 9858 l  pc
0.796 c 4925 9859 m  4925 8947 l  5031 8842 l  5031 9753 l  4925 9859 l 
p
4015 8842 m  4015 8842 l  p
5031 9859 m  5031 9859 l  p ef
0.000 c 4925 9858 m  4925 8946 l  5031 8841 l  5031 9752 l  4925 9858 l 
pc
4014 8841 m  4014 8841 l  pc
5031 9858 m  5031 9858 l  pc
0.996 c 5284 9859 m  5284 8947 l  5389 8842 l  6301 8842 l  6301 9753 l 
6195 9859 l  5284 9859 l  p
5284 8842 m  5284 8842 l  p
6301 9859 m  6301 9859 l  p ef
0.000 c 5284 9858 m  5284 8946 l  5389 8841 l  6301 8841 l  6301 9752 l 
6195 9858 l  5284 9858 l  pc
5284 8841 m  5284 8841 l  pc
6301 9858 m  6301 9858 l  pc
0.996 c 5284 8947 m  5389 8842 l  6301 8842 l  6195 8947 l  5284 8947 l 
p
5284 8842 m  5284 8842 l  p
6301 9859 m  6301 9859 l  p ef
0.000 c 5284 8946 m  5389 8841 l  6301 8841 l  6195 8946 l  5284 8946 l 
pc
5284 8841 m  5284 8841 l  pc
6301 9858 m  6301 9858 l  pc
0.796 c 6195 9859 m  6195 8947 l  6301 8842 l  6301 9753 l  6195 9859 l 
p
5284 8842 m  5284 8842 l  p
6301 9859 m  6301 9859 l  p ef
0.000 c 6195 9858 m  6195 8946 l  6301 8841 l  6301 9752 l  6195 9858 l 
pc
5284 8841 m  5284 8841 l  pc
6301 9858 m  6301 9858 l  pc
0.996 c 8111 9888 m  8111 8977 l  8216 8872 l  9128 8872 l  9128 9783 l 
9022 9888 l  8111 9888 l  p
8111 8872 m  8111 8872 l  p
9128 9888 m  9128 9888 l  p ef
0.000 c 8111 9888 m  8111 8976 l  8216 8871 l  9128 8871 l  9128 9782 l 
9022 9888 l  8111 9888 l  pc
8111 8871 m  8111 8871 l  pc
9128 9888 m  9128 9888 l  pc
0.996 c 8111 8977 m  8216 8872 l  9128 8872 l  9022 8977 l  8111 8977 l 
p
8111 8872 m  8111 8872 l  p
9128 9888 m  9128 9888 l  p ef
0.000 c 8111 8976 m  8216 8871 l  9128 8871 l  9022 8976 l  8111 8976 l 
pc
8111 8871 m  8111 8871 l  pc
9128 9888 m  9128 9888 l  pc
0.796 c 9022 9888 m  9022 8977 l  9128 8872 l  9128 9783 l  9022 9888 l 
p
8111 8872 m  8111 8872 l  p
9128 9888 m  9128 9888 l  p ef
0.000 c 9022 9888 m  9022 8976 l  9128 8871 l  9128 9782 l  9022 9888 l 
pc
8111 8871 m  8111 8871 l  pc
9128 9888 m  9128 9888 l  pc
0.996 c 9381 9888 m  9381 8977 l  9486 8872 l  10398 8872 l  10398 9783 l 
10292 9888 l  9381 9888 l  p
9381 8872 m  9381 8872 l  p
10398 9888 m  10398 9888 l  p ef
0.000 c 9381 9888 m  9381 8976 l  9485 8871 l  10397 8871 l  10397 9782 l 
10291 9888 l  9381 9888 l  pc
9381 8871 m  9381 8871 l  pc
10397 9888 m  10397 9888 l  pc
0.996 c 9381 8977 m  9486 8872 l  10398 8872 l  10292 8977 l  9381 8977 l 
p
9381 8872 m  9381 8872 l  p
10398 9888 m  10398 9888 l  p ef
0.000 c 9381 8976 m  9485 8871 l  10397 8871 l  10291 8976 l  9381 8976 l 
pc
9381 8871 m  9381 8871 l  pc
10397 9888 m  10397 9888 l  pc
0.796 c 10292 9888 m  10292 8977 l  10398 8872 l  10398 9783 l  10292 9888 l 
p
9381 8872 m  9381 8872 l  p
10398 9888 m  10398 9888 l  p ef
0.000 c 10291 9888 m  10291 8976 l  10397 8871 l  10397 9782 l  10291 9888 l 
pc
9381 8871 m  9381 8871 l  pc
10397 9888 m  10397 9888 l  pc
0.996 c 10905 9888 m  10905 8977 l  11010 8872 l  11922 8872 l  11922 9783 l 
11816 9888 l  10905 9888 l  p
10905 8872 m  10905 8872 l  p
11922 9888 m  11922 9888 l  p ef
0.000 c 10904 9888 m  10904 8976 l  11009 8871 l  11921 8871 l  11921 9782 l 
11815 9888 l  10904 9888 l  pc
10904 8871 m  10904 8871 l  pc
11921 9888 m  11921 9888 l  pc
0.996 c 10905 8977 m  11010 8872 l  11922 8872 l  11816 8977 l  10905 8977 l 
p
10905 8872 m  10905 8872 l  p
11922 9888 m  11922 9888 l  p ef
0.000 c 10904 8976 m  11009 8871 l  11921 8871 l  11815 8976 l  10904 8976 l 
pc
10904 8871 m  10904 8871 l  pc
11921 9888 m  11921 9888 l  pc
0.796 c 11816 9888 m  11816 8977 l  11922 8872 l  11922 9783 l  11816 9888 l 
p
10905 8872 m  10905 8872 l  p
11922 9888 m  11922 9888 l  p ef
0.000 c 11815 9888 m  11815 8976 l  11921 8871 l  11921 9782 l  11815 9888 l 
pc
10904 8871 m  10904 8871 l  pc
11921 9888 m  11921 9888 l  pc
0.996 c 12175 9888 m  12175 8977 l  12280 8872 l  13192 8872 l  13192 9783 l 
13086 9888 l  12175 9888 l  p
12175 8872 m  12175 8872 l  p
13192 9888 m  13192 9888 l  p ef
0.000 c 12174 9888 m  12174 8976 l  12279 8871 l  13191 8871 l  13191 9782 l 
13085 9888 l  12174 9888 l  pc
12174 8871 m  12174 8871 l  pc
13191 9888 m  13191 9888 l  pc
0.996 c 12175 8977 m  12280 8872 l  13192 8872 l  13086 8977 l  12175 8977 l 
p
12175 8872 m  12175 8872 l  p
13192 9888 m  13192 9888 l  p ef
0.000 c 12174 8976 m  12279 8871 l  13191 8871 l  13085 8976 l  12174 8976 l 
pc
12174 8871 m  12174 8871 l  pc
13191 9888 m  13191 9888 l  pc
0.796 c 13086 9888 m  13086 8977 l  13192 8872 l  13192 9783 l  13086 9888 l 
p
12175 8872 m  12175 8872 l  p
13192 9888 m  13192 9888 l  p ef
0.000 c 13085 9888 m  13085 8976 l  13191 8871 l  13191 9782 l  13085 9888 l 
pc
12174 8871 m  12174 8871 l  pc
13191 9888 m  13191 9888 l  pc
0.996 c 14982 9888 m  14982 8977 l  15087 8872 l  15999 8872 l  15999 9783 l 
15893 9888 l  14982 9888 l  p
14982 8872 m  14982 8872 l  p
15999 9888 m  15999 9888 l  p ef
0.000 c 14982 9888 m  14982 8976 l  15087 8871 l  15999 8871 l  15999 9782 l 
15893 9888 l  14982 9888 l  pc
14982 8871 m  14982 8871 l  pc
15999 9888 m  15999 9888 l  pc
0.996 c 14982 8977 m  15087 8872 l  15999 8872 l  15893 8977 l  14982 8977 l 
p
14982 8872 m  14982 8872 l  p
15999 9888 m  15999 9888 l  p ef
0.000 c 14982 8976 m  15087 8871 l  15999 8871 l  15893 8976 l  14982 8976 l 
pc
14982 8871 m  14982 8871 l  pc
15999 9888 m  15999 9888 l  pc
0.796 c 15893 9888 m  15893 8977 l  15999 8872 l  15999 9783 l  15893 9888 l 
p
14982 8872 m  14982 8872 l  p
15999 9888 m  15999 9888 l  p ef
0.000 c 15893 9888 m  15893 8976 l  15999 8871 l  15999 9782 l  15893 9888 l 
pc
14982 8871 m  14982 8871 l  pc
15999 9888 m  15999 9888 l  pc
0.996 c 16252 9888 m  16252 8977 l  16357 8872 l  17269 8872 l  17269 9783 l 
17163 9888 l  16252 9888 l  p
16252 8872 m  16252 8872 l  p
17269 9888 m  17269 9888 l  p ef
0.000 c 16252 9888 m  16252 8976 l  16357 8871 l  17269 8871 l  17269 9782 l 
17163 9888 l  16252 9888 l  pc
16252 8871 m  16252 8871 l  pc
17269 9888 m  17269 9888 l  pc
0.996 c 16252 8977 m  16357 8872 l  17269 8872 l  17163 8977 l  16252 8977 l 
p
16252 8872 m  16252 8872 l  p
17269 9888 m  17269 9888 l  p ef
0.000 c 16252 8976 m  16357 8871 l  17269 8871 l  17163 8976 l  16252 8976 l 
pc
16252 8871 m  16252 8871 l  pc
17269 9888 m  17269 9888 l  pc
0.796 c 17163 9888 m  17163 8977 l  17269 8872 l  17269 9783 l  17163 9888 l 
p
16252 8872 m  16252 8872 l  p
17269 9888 m  17269 9888 l  p ef
0.000 c 17163 9888 m  17163 8976 l  17269 8871 l  17269 9782 l  17163 9888 l 
pc
16252 8871 m  16252 8871 l  pc
17269 9888 m  17269 9888 l  pc
0.996 c 17776 9888 m  17776 8977 l  17881 8872 l  18793 8872 l  18793 9783 l 
18687 9888 l  17776 9888 l  p
17776 8872 m  17776 8872 l  p
18793 9888 m  18793 9888 l  p ef
0.000 c 17776 9888 m  17776 8976 l  17881 8871 l  18793 8871 l  18793 9782 l 
18687 9888 l  17776 9888 l  pc
17776 8871 m  17776 8871 l  pc
18793 9888 m  18793 9888 l  pc
0.996 c 17776 8977 m  17881 8872 l  18793 8872 l  18687 8977 l  17776 8977 l 
p
17776 8872 m  17776 8872 l  p
18793 9888 m  18793 9888 l  p ef
0.000 c 17776 8976 m  17881 8871 l  18793 8871 l  18687 8976 l  17776 8976 l 
pc
17776 8871 m  17776 8871 l  pc
18793 9888 m  18793 9888 l  pc
0.796 c 18687 9888 m  18687 8977 l  18793 8872 l  18793 9783 l  18687 9888 l 
p
17776 8872 m  17776 8872 l  p
18793 9888 m  18793 9888 l  p ef
0.000 c 18687 9888 m  18687 8976 l  18793 8871 l  18793 9782 l  18687 9888 l 
pc
17776 8871 m  17776 8871 l  pc
18793 9888 m  18793 9888 l  pc
0.996 c 19046 9888 m  19046 8977 l  19151 8872 l  20063 8872 l  20063 9783 l 
19957 9888 l  19046 9888 l  p
19046 8872 m  19046 8872 l  p
20063 9888 m  20063 9888 l  p ef
0.000 c 19045 9888 m  19045 8976 l  19150 8871 l  20062 8871 l  20062 9782 l 
19956 9888 l  19045 9888 l  pc
19045 8871 m  19045 8871 l  pc
20062 9888 m  20062 9888 l  pc
0.996 c 19046 8977 m  19151 8872 l  20063 8872 l  19957 8977 l  19046 8977 l 
p
19046 8872 m  19046 8872 l  p
20063 9888 m  20063 9888 l  p ef
0.000 c 19045 8976 m  19150 8871 l  20062 8871 l  19956 8976 l  19045 8976 l 
pc
19045 8871 m  19045 8871 l  pc
20062 9888 m  20062 9888 l  pc
0.796 c 19957 9888 m  19957 8977 l  20063 8872 l  20063 9783 l  19957 9888 l 
p
19046 8872 m  19046 8872 l  p
20063 9888 m  20063 9888 l  p ef
0.000 c 19956 9888 m  19956 8976 l  20062 8871 l  20062 9782 l  19956 9888 l 
pc
19045 8871 m  19045 8871 l  pc
20062 9888 m  20062 9888 l  pc
0.796 c 6587 6041 m  7305 6041 l  7305 5317 l  7858 6586 l  7305 7857 l 
7305 7132 l  6587 7132 l  6587 6041 l  p
6587 5317 m  6587 5317 l  p
7858 7857 m  7858 7857 l  p ef
0.000 c 6587 6041 m  7305 6041 l  7305 5316 l  7858 6586 l  7305 7857 l 
7305 7132 l  6587 7132 l  6587 6041 l  pc
6587 5316 m  6587 5316 l  pc
7858 7857 m  7858 7857 l  pc
0.796 c 13459 6041 m  14176 6041 l  14176 5317 l  14729 6586 l  14176 7857 l 
14176 7132 l  13459 7132 l  13459 6041 l  p
13459 5317 m  13459 5317 l  p
14729 7857 m  14729 7857 l  p ef
0.000 c 13458 6041 m  14176 6041 l  14176 5316 l  14729 6586 l  14176 7857 l 
14176 7132 l  13458 7132 l  13458 6041 l  pc
13458 5316 m  13458 5316 l  pc
14729 7857 m  14729 7857 l  pc
0 7906 t 
pom
count op_count sub {pop} repeat countdictstack dict_count sub {end} repeat b4_inc_state restore
%%PageTrailer
%%Trailer
%%EOF
