%!PS-Adobe-3.0 EPSF-3.0 
%%BoundingBox: 0 0 534 224
%%Pages: 0
%%Creator: LibreOffice 4.2
%%Title: none
%%CreationDate: none
%%LanguageLevel: 2
%%EndComments
%%BeginProlog
%%BeginResource: procset SDRes-Prolog 1.0 0
/b4_inc_state save def
/dict_count countdictstack def
/op_count count 1 sub def
userdict begin
0 setgray 0 setlinecap 1 setlinewidth 0 setlinejoin 10 setmiterlimit[] 0 setdash newpath
/languagelevel where {pop languagelevel 1 ne {false setstrokeadjust false setoverprint} if} if
/bdef {bind def} bind def
/c {setgray} bdef
/l {neg lineto} bdef
/rl {neg rlineto} bdef
/lc {setlinecap} bdef
/lj {setlinejoin} bdef
/lw {setlinewidth} bdef
/ml {setmiterlimit} bdef
/ld {setdash} bdef
/m {neg moveto} bdef
/ct {6 2 roll neg 6 2 roll neg 6 2 roll neg curveto} bdef
/r {rotate} bdef
/t {neg translate} bdef
/s {scale} bdef
/sw {show} bdef
/gs {gsave} bdef
/gr {grestore} bdef
/f {findfont dup length dict begin
{1 index /FID ne {def} {pop pop} ifelse} forall /Encoding ISOLatin1Encoding def
currentdict end /NFont exch definefont pop /NFont findfont} bdef
/p {closepath} bdef
/sf {scalefont setfont} bdef
/ef {eofill}bdef
/pc {closepath stroke}bdef
/ps {stroke}bdef
/pum {matrix currentmatrix}bdef
/pom {setmatrix}bdef
/bs {/aString exch def /nXOfs exch def /nWidth exch def currentpoint nXOfs 0 rmoveto pum nWidth aString stringwidth pop div 1 scale aString show pom moveto} bdef
%%EndResource
%%EndProlog
%%BeginSetup
%%EndSetup
%%Page: 1 1
%%BeginPageSetup
%%EndPageSetup
pum
0.02833 0.02833 s 
0 -7906 t
/tm matrix currentmatrix def
tm setmatrix
-1220 -10872 t 
1 1 s 
0.000 c 3761 12904 m  1221 12904 l  1221 12649 l  6300 12649 l  6300 12904 l 
3761 12904 l  p ef
0 lw 1 lj 3760 12903 m  1220 12903 l  1220 12648 l  6300 12648 l  6300 12903 l 
3760 12903 l  pc
1 lw 3761 11887 m  3761 12219 l  ps
3761 12649 m  3911 12199 l  3611 12199 l  3761 12649 l  p ef
1728 16204 m  1728 17298 l  ps
1728 17728 m  1878 17278 l  1578 17278 l  1728 17728 l  p ef
2998 16202 m  2998 17296 l  ps
2998 17726 m  3148 17276 l  2848 17276 l  2998 17726 l  p ef
4522 16204 m  4522 17298 l  ps
4522 17728 m  4672 17278 l  4372 17278 l  4522 17728 l  p ef
5790 16204 m  5790 17298 l  ps
5790 17728 m  5940 17278 l  5640 17278 l  5790 17728 l  p ef
0.996 c 1425 13920 m  2033 13920 l  2238 14174 l  2033 14429 l  1425 14429 l 
1221 14174 l  1425 13920 l  1425 13920 l  p
1221 13920 m  1221 13920 l  p
2238 14429 m  2238 14429 l  p ef
0 lw 0.000 c 1424 13920 m  2032 13920 l  2237 14174 l  2032 14429 l  1424 14429 l 
1220 14174 l  1424 13920 l  1424 13920 l  pc
1220 13920 m  1220 13920 l  pc
2237 14429 m  2237 14429 l  pc
pum
1341 14395 t
362 0 m  312 -128 l  113 -128 l  63 0 l  1 0 l  180 -438 l  247 -438 l 
422 0 l  362 0 l  p
238 -319 m  235 -327 232 -335 229 -344 ct 226 -352 223 -360 221 -367 ct 218 -374 217 -380 215 -384 ct 
213 -389 213 -392 212 -393 ct 212 -392 211 -389 210 -384 ct 208 -379 206 -373 204 -366 ct 
201 -359 199 -352 196 -343 ct 193 -335 190 -326 187 -318 ct 131 -174 l  294 -174 l 
238 -319 l  p ef
751 -219 m  751 -177 747 -142 739 -113 ct 731 -84 721 -61 707 -44 ct 693 -26 677 -13 658 -5 ct 
640 2 620 6 599 6 ct 578 6 558 2 539 -5 ct 521 -13 505 -26 491 -43 ct 478 -61 467 -84 459 -113 ct 
452 -141 448 -177 448 -219 ct 448 -263 452 -300 459 -328 ct 467 -357 478 -380 492 -397 ct 
505 -415 521 -427 540 -434 ct 559 -441 579 -444 601 -444 ct 622 -444 641 -441 659 -434 ct 
678 -427 694 -415 707 -397 ct 721 -380 732 -357 740 -328 ct 747 -300 751 -263 751 -219 ct 
p
695 -219 m  695 -254 693 -283 688 -306 ct 684 -329 678 -347 670 -361 ct 662 -375 652 -384 641 -390 ct 
629 -396 616 -399 601 -399 ct 585 -399 571 -396 559 -390 ct 547 -384 537 -374 529 -361 ct 
521 -347 515 -329 510 -305 ct 506 -282 504 -254 504 -219 ct 504 -185 506 -157 511 -134 ct 
515 -111 521 -93 529 -79 ct 537 -65 547 -55 559 -49 ct 571 -43 584 -40 599 -40 ct 
614 -40 627 -43 639 -49 ct 651 -55 661 -65 669 -79 ct 677 -93 684 -111 688 -134 ct 
692 -157 695 -185 695 -219 ct p ef
pom
0.996 c 3761 11889 m  1221 11889 l  1221 10873 l  6300 10873 l  6300 11889 l 
3761 11889 l  p ef
0.000 c 3760 11888 m  1220 11888 l  1220 10873 l  6300 10873 l  6300 11888 l 
3760 11888 l  pc
pum
2457 11602 t
362 0 m  312 -128 l  113 -128 l  63 0 l  1 0 l  180 -438 l  247 -438 l 
422 0 l  362 0 l  p
238 -319 m  235 -327 232 -335 229 -344 ct 226 -352 223 -360 221 -367 ct 218 -374 217 -380 215 -384 ct 
213 -389 213 -392 212 -393 ct 212 -392 211 -389 210 -384 ct 208 -379 206 -373 204 -366 ct 
201 -359 199 -352 196 -343 ct 193 -335 190 -326 187 -318 ct 131 -174 l  294 -174 l 
238 -319 l  p ef
481 -272 m  481 -336 l  541 -336 l  541 -272 l  481 -272 l  p
481 0 m  481 -64 l  541 -64 l  541 0 l  481 0 l  p ef
1103 0 m  1053 -128 l  854 -128 l  804 0 l  742 0 l  921 -438 l  988 -438 l 
1163 0 l  1103 0 l  p
979 -319 m  976 -327 973 -335 970 -344 ct 967 -352 964 -360 962 -367 ct 959 -374 958 -380 956 -384 ct 
954 -389 954 -392 953 -393 ct 953 -392 952 -389 951 -384 ct 949 -379 947 -373 945 -366 ct 
942 -359 940 -352 937 -343 ct 934 -335 931 -326 928 -318 ct 872 -174 l  1035 -174 l 
979 -319 l  p ef
1492 -219 m  1492 -177 1488 -142 1480 -113 ct 1472 -84 1462 -61 1448 -44 ct 
1434 -26 1418 -13 1399 -5 ct 1381 2 1361 6 1340 6 ct 1319 6 1299 2 1280 -5 ct 1262 -13 1246 -26 1232 -43 ct 
1219 -61 1208 -84 1200 -113 ct 1193 -141 1189 -177 1189 -219 ct 1189 -263 1193 -300 1200 -328 ct 
1208 -357 1219 -380 1233 -397 ct 1246 -415 1262 -427 1281 -434 ct 1300 -441 1320 -444 1342 -444 ct 
1363 -444 1382 -441 1400 -434 ct 1419 -427 1435 -415 1448 -397 ct 1462 -380 1473 -357 1481 -328 ct 
1488 -300 1492 -263 1492 -219 ct p
1436 -219 m  1436 -254 1434 -283 1429 -306 ct 1425 -329 1419 -347 1411 -361 ct 
1403 -375 1393 -384 1382 -390 ct 1370 -396 1357 -399 1342 -399 ct 1326 -399 1312 -396 1300 -390 ct 
1288 -384 1278 -374 1270 -361 ct 1262 -347 1256 -329 1251 -305 ct 1247 -282 1245 -254 1245 -219 ct 
1245 -185 1247 -157 1252 -134 ct 1256 -111 1262 -93 1270 -79 ct 1278 -65 1288 -55 1300 -49 ct 
1312 -43 1325 -40 1340 -40 ct 1355 -40 1368 -43 1380 -49 ct 1392 -55 1402 -65 1410 -79 ct 
1418 -93 1425 -111 1429 -134 ct 1433 -157 1436 -185 1436 -219 ct p ef
1635 -68 m  1635 -16 l  1635 -5 1635 5 1634 14 ct 1633 23 1632 32 1629 39 ct 
1627 47 1625 54 1622 61 ct 1619 68 1615 75 1611 82 ct 1573 82 l  1582 68 1590 54 1595 41 ct 
1600 27 1602 13 1602 0 ct 1575 0 l  1575 -68 l  1635 -68 l  p ef
2195 0 m  2145 -128 l  1946 -128 l  1896 0 l  1834 0 l  2013 -438 l  2080 -438 l 
2255 0 l  2195 0 l  p
2071 -319 m  2068 -327 2065 -335 2062 -344 ct 2059 -352 2056 -360 2054 -367 ct 
2051 -374 2050 -380 2048 -384 ct 2046 -389 2046 -392 2045 -393 ct 2045 -392 2044 -389 2043 -384 ct 
2041 -379 2039 -373 2037 -366 ct 2034 -359 2032 -352 2029 -343 ct 2026 -335 2023 -326 2020 -318 ct 
1964 -174 l  2127 -174 l  2071 -319 l  p ef
2304 0 m  2304 -47 l  2416 -47 l  2416 -384 l  2317 -314 l  2317 -366 l 
2420 -438 l  2472 -438 l  2472 -47 l  2578 -47 l  2578 0 l  2304 0 l  p ef
pom
1389 13666 m  1304 13666 1220 13750 1220 13835 ct 1220 16036 l  1220 16121 1304 16206 1389 16206 ct 
2067 16206 l  2152 16206 2237 16121 2237 16036 ct 2237 13835 l  2237 13750 2152 13666 2067 13666 ct 
1389 13666 l  pc
1220 13666 m  1220 13666 l  pc
2237 16206 m  2237 16206 l  pc
0.996 c 1425 14682 m  2033 14682 l  2238 14936 l  2033 15191 l  1425 15191 l 
1221 14936 l  1425 14682 l  1425 14682 l  p
1221 14682 m  1221 14682 l  p
2238 15191 m  2238 15191 l  p ef
0.000 c 1424 14682 m  2032 14682 l  2237 14936 l  2032 15191 l  1424 15191 l 
1220 14936 l  1424 14682 l  1424 14682 l  pc
1220 14682 m  1220 14682 l  pc
2237 15191 m  2237 15191 l  pc
pum
1341 15157 t
390 -123 m  390 -101 386 -82 377 -67 ct 368 -51 357 -38 342 -28 ct 327 -19 310 -11 291 -7 ct 
271 -2 251 0 229 0 ct 52 0 l  52 -437 l  211 -437 l  235 -437 257 -435 276 -431 ct 
295 -427 311 -421 324 -412 ct 337 -404 347 -393 354 -379 ct 361 -366 365 -350 365 -331 ct 
365 -319 363 -307 360 -297 ct 356 -286 351 -276 344 -267 ct 337 -258 328 -251 318 -245 ct 
308 -238 295 -234 282 -230 ct 299 -228 315 -224 328 -218 ct 342 -212 353 -205 362 -195 ct 
371 -186 378 -175 383 -163 ct 388 -151 390 -137 390 -123 ct p
305 -324 m  305 -348 297 -365 281 -375 ct 265 -385 241 -390 211 -390 ct 111 -390 l 
111 -251 l  211 -251 l  228 -251 243 -253 255 -256 ct 267 -260 277 -265 284 -271 ct 
291 -277 297 -285 300 -294 ct 303 -303 305 -313 305 -324 ct p
330 -128 m  330 -142 328 -153 323 -163 ct 318 -173 310 -181 301 -187 ct 291 -193 280 -198 267 -201 ct 
253 -204 238 -205 222 -205 ct 111 -205 l  111 -47 l  226 -47 l  241 -47 255 -49 268 -51 ct 
281 -54 292 -58 301 -64 ct 310 -70 317 -79 322 -89 ct 328 -99 330 -112 330 -128 ct 
p ef
751 -219 m  751 -177 747 -142 739 -113 ct 731 -84 721 -61 707 -44 ct 693 -26 677 -13 658 -5 ct 
640 2 620 6 599 6 ct 578 6 558 2 539 -5 ct 521 -13 505 -26 491 -43 ct 478 -61 467 -84 459 -113 ct 
452 -141 448 -177 448 -219 ct 448 -263 452 -300 459 -328 ct 467 -357 478 -380 492 -397 ct 
505 -415 521 -427 540 -434 ct 559 -441 579 -444 601 -444 ct 622 -444 641 -441 659 -434 ct 
678 -427 694 -415 707 -397 ct 721 -380 732 -357 740 -328 ct 747 -300 751 -263 751 -219 ct 
p
695 -219 m  695 -254 693 -283 688 -306 ct 684 -329 678 -347 670 -361 ct 662 -375 652 -384 641 -390 ct 
629 -396 616 -399 601 -399 ct 585 -399 571 -396 559 -390 ct 547 -384 537 -374 529 -361 ct 
521 -347 515 -329 510 -305 ct 506 -282 504 -254 504 -219 ct 504 -185 506 -157 511 -134 ct 
515 -111 521 -93 529 -79 ct 537 -65 547 -55 559 -49 ct 571 -43 584 -40 599 -40 ct 
614 -40 627 -43 639 -49 ct 651 -55 661 -65 669 -79 ct 677 -93 684 -111 688 -134 ct 
692 -157 695 -185 695 -219 ct p ef
pom
0.996 c 2695 13920 m  3303 13920 l  3508 14174 l  3303 14429 l  2695 14429 l 
2491 14174 l  2695 13920 l  2695 13920 l  p
2491 13920 m  2491 13920 l  p
3508 14429 m  3508 14429 l  p ef
0.000 c 2694 13920 m  3302 13920 l  3507 14174 l  3302 14429 l  2694 14429 l 
2490 14174 l  2694 13920 l  2694 13920 l  pc
2490 13920 m  2490 13920 l  pc
3507 14429 m  3507 14429 l  pc
pum
2611 14395 t
362 0 m  312 -128 l  113 -128 l  63 0 l  1 0 l  180 -438 l  247 -438 l 
422 0 l  362 0 l  p
238 -319 m  235 -327 232 -335 229 -344 ct 226 -352 223 -360 221 -367 ct 218 -374 217 -380 215 -384 ct 
213 -389 213 -392 212 -393 ct 212 -392 211 -389 210 -384 ct 208 -379 206 -373 204 -366 ct 
201 -359 199 -352 196 -343 ct 193 -335 190 -326 187 -318 ct 131 -174 l  294 -174 l 
238 -319 l  p ef
471 0 m  471 -47 l  583 -47 l  583 -384 l  484 -314 l  484 -366 l  587 -438 l 
639 -438 l  639 -47 l  745 -47 l  745 0 l  471 0 l  p ef
pom
0.996 c 4219 14682 m  4826 14682 l  5031 14936 l  4826 15191 l  4219 15191 l 
4015 14936 l  4219 14682 l  4219 14682 l  p
4015 14682 m  4015 14682 l  p
5031 15191 m  5031 15191 l  p ef
0.000 c 4218 14682 m  4826 14682 l  5031 14936 l  4826 15191 l  4218 15191 l 
4014 14936 l  4218 14682 l  4218 14682 l  pc
4014 14682 m  4014 14682 l  pc
5031 15191 m  5031 15191 l  pc
pum
4135 15157 t
390 -123 m  390 -101 386 -82 377 -67 ct 368 -51 357 -38 342 -28 ct 327 -19 310 -11 291 -7 ct 
271 -2 251 0 229 0 ct 52 0 l  52 -437 l  211 -437 l  235 -437 257 -435 276 -431 ct 
295 -427 311 -421 324 -412 ct 337 -404 347 -393 354 -379 ct 361 -366 365 -350 365 -331 ct 
365 -319 363 -307 360 -297 ct 356 -286 351 -276 344 -267 ct 337 -258 328 -251 318 -245 ct 
308 -238 295 -234 282 -230 ct 299 -228 315 -224 328 -218 ct 342 -212 353 -205 362 -195 ct 
371 -186 378 -175 383 -163 ct 388 -151 390 -137 390 -123 ct p
305 -324 m  305 -348 297 -365 281 -375 ct 265 -385 241 -390 211 -390 ct 111 -390 l 
111 -251 l  211 -251 l  228 -251 243 -253 255 -256 ct 267 -260 277 -265 284 -271 ct 
291 -277 297 -285 300 -294 ct 303 -303 305 -313 305 -324 ct p
330 -128 m  330 -142 328 -153 323 -163 ct 318 -173 310 -181 301 -187 ct 291 -193 280 -198 267 -201 ct 
253 -204 238 -205 222 -205 ct 111 -205 l  111 -47 l  226 -47 l  241 -47 255 -49 268 -51 ct 
281 -54 292 -58 301 -64 ct 310 -70 317 -79 322 -89 ct 328 -99 330 -112 330 -128 ct 
p ef
455 0 m  455 -39 l  465 -64 478 -85 494 -104 ct 509 -122 525 -139 541 -154 ct 
558 -169 575 -183 591 -196 ct 608 -208 622 -221 636 -234 ct 649 -247 660 -260 668 -274 ct 
676 -289 680 -304 680 -322 ct 680 -335 678 -346 674 -355 ct 671 -364 665 -372 658 -379 ct 
651 -385 643 -390 633 -393 ct 623 -396 612 -398 600 -398 ct 589 -398 579 -396 569 -393 ct 
559 -390 550 -386 543 -379 ct 535 -373 529 -365 524 -356 ct 519 -347 516 -336 514 -324 ct 
457 -329 l  459 -345 464 -360 470 -374 ct 477 -388 487 -400 499 -410 ct 511 -421 525 -429 542 -435 ct 
559 -441 578 -444 600 -444 ct 622 -444 641 -441 658 -436 ct 675 -431 690 -423 701 -413 ct 
713 -403 722 -391 728 -376 ct 734 -361 737 -344 737 -324 ct 737 -309 735 -295 730 -282 ct 
724 -269 717 -256 708 -244 ct 700 -232 689 -221 678 -210 ct 666 -198 654 -187 642 -177 ct 
629 -166 616 -156 603 -145 ct 591 -135 579 -124 567 -114 ct 556 -103 546 -92 537 -81 ct 
528 -71 521 -59 516 -47 ct 744 -47 l  744 0 l  455 0 l  p ef
pom
1 lw 1729 12905 m  1729 13237 l  ps
1729 13667 m  1879 13217 l  1579 13217 l  1729 13667 l  p ef
2999 12905 m  2999 13237 l  ps
2999 13667 m  3149 13217 l  2849 13217 l  2999 13667 l  p ef
4523 12905 m  4523 13237 l  ps
4523 13667 m  4673 13217 l  4373 13217 l  4523 13667 l  p ef
5792 12905 m  5792 13237 l  ps
5792 13667 m  5942 13217 l  5642 13217 l  5792 13667 l  p ef
0 lw 2659 13666 m  2574 13666 2490 13750 2490 13835 ct 2490 16036 l  2490 16121 2574 16206 2659 16206 ct 
3337 16206 l  3422 16206 3507 16121 3507 16036 ct 3507 13835 l  3507 13750 3422 13666 3337 13666 ct 
2659 13666 l  pc
2490 13666 m  2490 13666 l  pc
3507 16206 m  3507 16206 l  pc
4183 13666 m  4098 13666 4014 13750 4014 13835 ct 4014 16036 l  4014 16121 4098 16206 4183 16206 ct 
4861 16206 l  4946 16206 5031 16121 5031 16036 ct 5031 13835 l  5031 13750 4946 13666 4861 13666 ct 
4183 13666 l  pc
4014 13666 m  4014 13666 l  pc
5031 16206 m  5031 16206 l  pc
5453 13666 m  5368 13666 5284 13750 5284 13835 ct 5284 16036 l  5284 16121 5368 16206 5453 16206 ct 
6131 16206 l  6216 16206 6301 16121 6301 16036 ct 6301 13835 l  6301 13750 6216 13666 6131 13666 ct 
5453 13666 l  pc
5284 13666 m  5284 13666 l  pc
6301 16206 m  6301 16206 l  pc
0.996 c 5488 14682 m  6096 14682 l  6301 14936 l  6096 15191 l  5488 15191 l 
5284 14936 l  5488 14682 l  5488 14682 l  p
5284 14682 m  5284 14682 l  p
6301 15191 m  6301 15191 l  p ef
0.000 c 5488 14682 m  6096 14682 l  6301 14936 l  6096 15191 l  5488 15191 l 
5284 14936 l  5488 14682 l  5488 14682 l  pc
5284 14682 m  5284 14682 l  pc
6301 15191 m  6301 15191 l  pc
pum
5404 15157 t
390 -123 m  390 -101 386 -82 377 -67 ct 368 -51 357 -38 342 -28 ct 327 -19 310 -11 291 -7 ct 
271 -2 251 0 229 0 ct 52 0 l  52 -437 l  211 -437 l  235 -437 257 -435 276 -431 ct 
295 -427 311 -421 324 -412 ct 337 -404 347 -393 354 -379 ct 361 -366 365 -350 365 -331 ct 
365 -319 363 -307 360 -297 ct 356 -286 351 -276 344 -267 ct 337 -258 328 -251 318 -245 ct 
308 -238 295 -234 282 -230 ct 299 -228 315 -224 328 -218 ct 342 -212 353 -205 362 -195 ct 
371 -186 378 -175 383 -163 ct 388 -151 390 -137 390 -123 ct p
305 -324 m  305 -348 297 -365 281 -375 ct 265 -385 241 -390 211 -390 ct 111 -390 l 
111 -251 l  211 -251 l  228 -251 243 -253 255 -256 ct 267 -260 277 -265 284 -271 ct 
291 -277 297 -285 300 -294 ct 303 -303 305 -313 305 -324 ct p
330 -128 m  330 -142 328 -153 323 -163 ct 318 -173 310 -181 301 -187 ct 291 -193 280 -198 267 -201 ct 
253 -204 238 -205 222 -205 ct 111 -205 l  111 -47 l  226 -47 l  241 -47 255 -49 268 -51 ct 
281 -54 292 -58 301 -64 ct 310 -70 317 -79 322 -89 ct 328 -99 330 -112 330 -128 ct 
p ef
749 -170 m  749 -144 747 -121 743 -99 ct 739 -78 732 -59 723 -43 ct 713 -28 700 -16 685 -7 ct 
669 2 649 6 626 6 ct 602 6 581 2 563 -7 ct 545 -17 531 -31 522 -52 ct 520 -52 l 
521 -52 521 -50 521 -47 ct 521 -43 521 -39 521 -34 ct 521 -29 521 -24 521 -17 ct 
522 -11 522 -5 522 1 ct 522 132 l  466 132 l  466 -267 l  466 -275 466 -283 466 -290 ct 
466 -298 465 -305 465 -311 ct 465 -317 465 -322 465 -326 ct 464 -331 464 -334 464 -336 ct 
518 -336 l  518 -335 518 -333 519 -329 ct 519 -326 519 -321 520 -316 ct 520 -311 520 -305 521 -299 ct 
521 -293 521 -287 521 -282 ct 522 -282 l  527 -293 533 -302 540 -310 ct 547 -317 554 -323 563 -328 ct 
571 -333 580 -337 591 -339 ct 601 -341 613 -342 626 -342 ct 649 -342 669 -338 685 -330 ct 
700 -321 713 -310 723 -295 ct 732 -280 739 -261 743 -240 ct 747 -219 749 -195 749 -170 ct 
p
691 -168 m  691 -189 690 -207 687 -224 ct 685 -240 680 -253 674 -265 ct 668 -276 660 -284 650 -290 ct 
640 -296 627 -299 612 -299 ct 599 -299 588 -297 577 -294 ct 566 -290 556 -283 548 -273 ct 
540 -263 533 -250 529 -232 ct 524 -215 522 -192 522 -164 ct 522 -140 524 -120 527 -104 ct 
531 -87 537 -74 545 -64 ct 552 -53 562 -46 573 -42 ct 584 -37 597 -35 611 -35 ct 
627 -35 640 -38 650 -44 ct 660 -50 668 -59 674 -70 ct 680 -82 685 -95 687 -112 ct 
690 -128 691 -147 691 -168 ct p ef
pom
0.996 c 5488 13920 m  6096 13920 l  6301 14174 l  6096 14429 l  5488 14429 l 
5284 14174 l  5488 13920 l  5488 13920 l  p
5284 13920 m  5284 13920 l  p
6301 14429 m  6301 14429 l  p ef
0.000 c 5488 13920 m  6096 13920 l  6301 14174 l  6096 14429 l  5488 14429 l 
5284 14174 l  5488 13920 l  5488 13920 l  pc
5284 13920 m  5284 13920 l  pc
6301 14429 m  6301 14429 l  pc
pum
5404 14395 t
362 0 m  312 -128 l  113 -128 l  63 0 l  1 0 l  180 -438 l  247 -438 l 
422 0 l  362 0 l  p
238 -319 m  235 -327 232 -335 229 -344 ct 226 -352 223 -360 221 -367 ct 218 -374 217 -380 215 -384 ct 
213 -389 213 -392 212 -393 ct 212 -392 211 -389 210 -384 ct 208 -379 206 -373 204 -366 ct 
201 -359 199 -352 196 -343 ct 193 -335 190 -326 187 -318 ct 131 -174 l  294 -174 l 
238 -319 l  p ef
749 -170 m  749 -144 747 -121 743 -99 ct 739 -78 732 -59 723 -43 ct 713 -28 700 -16 685 -7 ct 
669 2 649 6 626 6 ct 602 6 581 2 563 -7 ct 545 -17 531 -31 522 -52 ct 520 -52 l 
521 -52 521 -50 521 -47 ct 521 -43 521 -39 521 -34 ct 521 -29 521 -24 521 -17 ct 
522 -11 522 -5 522 1 ct 522 132 l  466 132 l  466 -267 l  466 -275 466 -283 466 -290 ct 
466 -298 465 -305 465 -311 ct 465 -317 465 -322 465 -326 ct 464 -331 464 -334 464 -336 ct 
518 -336 l  518 -335 518 -333 519 -329 ct 519 -326 519 -321 520 -316 ct 520 -311 520 -305 521 -299 ct 
521 -293 521 -287 521 -282 ct 522 -282 l  527 -293 533 -302 540 -310 ct 547 -317 554 -323 563 -328 ct 
571 -333 580 -337 591 -339 ct 601 -341 613 -342 626 -342 ct 649 -342 669 -338 685 -330 ct 
700 -321 713 -310 723 -295 ct 732 -280 739 -261 743 -240 ct 747 -219 749 -195 749 -170 ct 
p
691 -168 m  691 -189 690 -207 687 -224 ct 685 -240 680 -253 674 -265 ct 668 -276 660 -284 650 -290 ct 
640 -296 627 -299 612 -299 ct 599 -299 588 -297 577 -294 ct 566 -290 556 -283 548 -273 ct 
540 -263 533 -250 529 -232 ct 524 -215 522 -192 522 -164 ct 522 -140 524 -120 527 -104 ct 
531 -87 537 -74 545 -64 ct 552 -53 562 -46 573 -42 ct 584 -37 597 -35 611 -35 ct 
627 -35 640 -38 650 -44 ct 660 -50 668 -59 674 -70 ct 680 -82 685 -95 687 -112 ct 
690 -128 691 -147 691 -168 ct p ef
pom
1 lw 4523 17730 m  4015 17730 3785 16268 3763 13342 ct ps
3761 12905 m  3613 13356 l  3913 13354 l  3761 12905 l  p ef
0.996 c 3457 16460 m  4065 16460 l  4270 16714 l  4065 16969 l  3457 16969 l 
3253 16714 l  3457 16460 l  3457 16460 l  p
3253 16460 m  3253 16460 l  p
4270 16969 m  4270 16969 l  p ef
0 lw 0.000 c 3456 16459 m  4064 16459 l  4269 16713 l  4064 16968 l  3456 16968 l 
3252 16713 l  3456 16459 l  3456 16459 l  pc
3252 16459 m  3252 16459 l  pc
4269 16968 m  4269 16968 l  pc
pum
3373 16935 t
362 0 m  312 -128 l  113 -128 l  63 0 l  1 0 l  180 -438 l  247 -438 l 
422 0 l  362 0 l  p
238 -319 m  235 -327 232 -335 229 -344 ct 226 -352 223 -360 221 -367 ct 218 -374 217 -380 215 -384 ct 
213 -389 213 -392 212 -393 ct 212 -392 211 -389 210 -384 ct 208 -379 206 -373 204 -366 ct 
201 -359 199 -352 196 -343 ct 193 -335 190 -326 187 -318 ct 131 -174 l  294 -174 l 
238 -319 l  p ef
455 0 m  455 -39 l  465 -64 478 -85 494 -104 ct 509 -122 525 -139 541 -154 ct 
558 -169 575 -183 591 -196 ct 608 -208 622 -221 636 -234 ct 649 -247 660 -260 668 -274 ct 
676 -289 680 -304 680 -322 ct 680 -335 678 -346 674 -355 ct 671 -364 665 -372 658 -379 ct 
651 -385 643 -390 633 -393 ct 623 -396 612 -398 600 -398 ct 589 -398 579 -396 569 -393 ct 
559 -390 550 -386 543 -379 ct 535 -373 529 -365 524 -356 ct 519 -347 516 -336 514 -324 ct 
457 -329 l  459 -345 464 -360 470 -374 ct 477 -388 487 -400 499 -410 ct 511 -421 525 -429 542 -435 ct 
559 -441 578 -444 600 -444 ct 622 -444 641 -441 658 -436 ct 675 -431 690 -423 701 -413 ct 
713 -403 722 -391 728 -376 ct 734 -361 737 -344 737 -324 ct 737 -309 735 -295 730 -282 ct 
724 -269 717 -256 708 -244 ct 700 -232 689 -221 678 -210 ct 666 -198 654 -187 642 -177 ct 
629 -166 616 -156 603 -145 ct 591 -135 579 -124 567 -114 ct 556 -103 546 -92 537 -81 ct 
528 -71 521 -59 516 -47 ct 744 -47 l  744 0 l  455 0 l  p ef
pom
10651 12934 m  8111 12934 l  8111 12679 l  13191 12679 l  13191 12934 l 
10651 12934 l  p ef
10650 12933 m  8111 12933 l  8111 12678 l  13190 12678 l  13190 12933 l 
10650 12933 l  pc
1 lw 10651 11917 m  10651 12249 l  ps
10651 12679 m  10801 12229 l  10501 12229 l  10651 12679 l  p ef
8618 16234 m  8618 17328 l  ps
8618 17758 m  8768 17308 l  8468 17308 l  8618 17758 l  p ef
9888 16232 m  9888 17326 l  ps
9888 17756 m  10038 17306 l  9738 17306 l  9888 17756 l  p ef
11412 16234 m  11412 17328 l  ps
11412 17758 m  11562 17308 l  11262 17308 l  11412 17758 l  p ef
12681 16234 m  12681 17328 l  ps
12681 17758 m  12831 17308 l  12531 17308 l  12681 17758 l  p ef
0.996 c 8315 13950 m  8923 13950 l  9128 14204 l  8923 14459 l  8315 14459 l 
8111 14204 l  8315 13950 l  8315 13950 l  p
8111 13950 m  8111 13950 l  p
9128 14459 m  9128 14459 l  p ef
0 lw 0.000 c 8315 13950 m  8923 13950 l  9128 14204 l  8923 14459 l  8315 14459 l 
8111 14204 l  8315 13950 l  8315 13950 l  pc
8111 13950 m  8111 13950 l  pc
9128 14459 m  9128 14459 l  pc
pum
8231 14425 t
362 0 m  312 -128 l  113 -128 l  63 0 l  1 0 l  180 -438 l  247 -438 l 
422 0 l  362 0 l  p
238 -319 m  235 -327 232 -335 229 -344 ct 226 -352 223 -360 221 -367 ct 218 -374 217 -380 215 -384 ct 
213 -389 213 -392 212 -393 ct 212 -392 211 -389 210 -384 ct 208 -379 206 -373 204 -366 ct 
201 -359 199 -352 196 -343 ct 193 -335 190 -326 187 -318 ct 131 -174 l  294 -174 l 
238 -319 l  p ef
751 -219 m  751 -177 747 -142 739 -113 ct 731 -84 721 -61 707 -44 ct 693 -26 677 -13 658 -5 ct 
640 2 620 6 599 6 ct 578 6 558 2 539 -5 ct 521 -13 505 -26 491 -43 ct 478 -61 467 -84 459 -113 ct 
452 -141 448 -177 448 -219 ct 448 -263 452 -300 459 -328 ct 467 -357 478 -380 492 -397 ct 
505 -415 521 -427 540 -434 ct 559 -441 579 -444 601 -444 ct 622 -444 641 -441 659 -434 ct 
678 -427 694 -415 707 -397 ct 721 -380 732 -357 740 -328 ct 747 -300 751 -263 751 -219 ct 
p
695 -219 m  695 -254 693 -283 688 -306 ct 684 -329 678 -347 670 -361 ct 662 -375 652 -384 641 -390 ct 
629 -396 616 -399 601 -399 ct 585 -399 571 -396 559 -390 ct 547 -384 537 -374 529 -361 ct 
521 -347 515 -329 510 -305 ct 506 -282 504 -254 504 -219 ct 504 -185 506 -157 511 -134 ct 
515 -111 521 -93 529 -79 ct 537 -65 547 -55 559 -49 ct 571 -43 584 -40 599 -40 ct 
614 -40 627 -43 639 -49 ct 651 -55 661 -65 669 -79 ct 677 -93 684 -111 688 -134 ct 
692 -157 695 -185 695 -219 ct p ef
pom
0.996 c 10651 11919 m  8111 11919 l  8111 10903 l  13191 10903 l  13191 11919 l 
10651 11919 l  p ef
0.000 c 10650 11918 m  8111 11918 l  8111 10903 l  13190 10903 l  13190 11918 l 
10650 11918 l  pc
pum
9286 11632 t
362 0 m  312 -128 l  113 -128 l  63 0 l  1 0 l  180 -438 l  247 -438 l 
422 0 l  362 0 l  p
238 -319 m  235 -327 232 -335 229 -344 ct 226 -352 223 -360 221 -367 ct 218 -374 217 -380 215 -384 ct 
213 -389 213 -392 212 -393 ct 212 -392 211 -389 210 -384 ct 208 -379 206 -373 204 -366 ct 
201 -359 199 -352 196 -343 ct 193 -335 190 -326 187 -318 ct 131 -174 l  294 -174 l 
238 -319 l  p ef
505 -300 m  462 -300 l  455 -437 l  512 -437 l  505 -300 l  p ef
604 -272 m  604 -336 l  664 -336 l  664 -272 l  604 -272 l  p
604 0 m  604 -64 l  664 -64 l  664 0 l  604 0 l  p ef
1226 0 m  1176 -128 l  977 -128 l  927 0 l  865 0 l  1044 -438 l  1111 -438 l 
1286 0 l  1226 0 l  p
1102 -319 m  1099 -327 1096 -335 1093 -344 ct 1090 -352 1087 -360 1085 -367 ct 
1082 -374 1081 -380 1079 -384 ct 1077 -389 1077 -392 1076 -393 ct 1076 -392 1075 -389 1074 -384 ct 
1072 -379 1070 -373 1068 -366 ct 1065 -359 1063 -352 1060 -343 ct 1057 -335 1054 -326 1051 -318 ct 
995 -174 l  1158 -174 l  1102 -319 l  p ef
1335 0 m  1335 -47 l  1447 -47 l  1447 -384 l  1348 -314 l  1348 -366 l 
1451 -438 l  1503 -438 l  1503 -47 l  1609 -47 l  1609 0 l  1335 0 l  p ef
1757 -68 m  1757 -16 l  1757 -5 1757 5 1756 14 ct 1755 23 1754 32 1751 39 ct 
1749 47 1747 54 1744 61 ct 1741 68 1737 75 1733 82 ct 1695 82 l  1704 68 1712 54 1717 41 ct 
1722 27 1724 13 1724 0 ct 1697 0 l  1697 -68 l  1757 -68 l  p ef
2318 0 m  2268 -128 l  2069 -128 l  2019 0 l  1957 0 l  2136 -438 l  2203 -438 l 
2378 0 l  2318 0 l  p
2194 -319 m  2191 -327 2188 -335 2185 -344 ct 2182 -352 2179 -360 2177 -367 ct 
2174 -374 2173 -380 2171 -384 ct 2169 -389 2169 -392 2168 -393 ct 2168 -392 2167 -389 2166 -384 ct 
2164 -379 2162 -373 2160 -366 ct 2157 -359 2155 -352 2152 -343 ct 2149 -335 2146 -326 2143 -318 ct 
2087 -174 l  2250 -174 l  2194 -319 l  p ef
2411 0 m  2411 -39 l  2421 -64 2434 -85 2450 -104 ct 2465 -122 2481 -139 2497 -154 ct 
2514 -169 2531 -183 2547 -196 ct 2564 -208 2578 -221 2592 -234 ct 2605 -247 2616 -260 2624 -274 ct 
2632 -289 2636 -304 2636 -322 ct 2636 -335 2634 -346 2630 -355 ct 2627 -364 2621 -372 2614 -379 ct 
2607 -385 2599 -390 2589 -393 ct 2579 -396 2568 -398 2556 -398 ct 2545 -398 2535 -396 2525 -393 ct 
2515 -390 2506 -386 2499 -379 ct 2491 -373 2485 -365 2480 -356 ct 2475 -347 2472 -336 2470 -324 ct 
2413 -329 l  2415 -345 2420 -360 2426 -374 ct 2433 -388 2443 -400 2455 -410 ct 
2467 -421 2481 -429 2498 -435 ct 2515 -441 2534 -444 2556 -444 ct 2578 -444 2597 -441 2614 -436 ct 
2631 -431 2646 -423 2657 -413 ct 2669 -403 2678 -391 2684 -376 ct 2690 -361 2693 -344 2693 -324 ct 
2693 -309 2691 -295 2686 -282 ct 2680 -269 2673 -256 2664 -244 ct 2656 -232 2645 -221 2634 -210 ct 
2622 -198 2610 -187 2598 -177 ct 2585 -166 2572 -156 2559 -145 ct 2547 -135 2535 -124 2523 -114 ct 
2512 -103 2502 -92 2493 -81 ct 2484 -71 2477 -59 2472 -47 ct 2700 -47 l  2700 0 l 
2411 0 l  p ef
pom
8280 13696 m  8195 13696 8111 13780 8111 13865 ct 8111 16066 l  8111 16151 8195 16236 8280 16236 ct 
8958 16236 l  9043 16236 9128 16151 9128 16066 ct 9128 13865 l  9128 13780 9043 13696 8958 13696 ct 
8280 13696 l  pc
8111 13696 m  8111 13696 l  pc
9128 16236 m  9128 16236 l  pc
0.996 c 8315 14712 m  8923 14712 l  9128 14966 l  8923 15221 l  8315 15221 l 
8111 14966 l  8315 14712 l  8315 14712 l  p
8111 14712 m  8111 14712 l  p
9128 15221 m  9128 15221 l  p ef
0.000 c 8315 14712 m  8923 14712 l  9128 14966 l  8923 15221 l  8315 15221 l 
8111 14966 l  8315 14712 l  8315 14712 l  pc
8111 14712 m  8111 14712 l  pc
9128 15221 m  9128 15221 l  pc
pum
8231 15187 t
390 -123 m  390 -101 386 -82 377 -67 ct 368 -51 357 -38 342 -28 ct 327 -19 310 -11 291 -7 ct 
271 -2 251 0 229 0 ct 52 0 l  52 -437 l  211 -437 l  235 -437 257 -435 276 -431 ct 
295 -427 311 -421 324 -412 ct 337 -404 347 -393 354 -379 ct 361 -366 365 -350 365 -331 ct 
365 -319 363 -307 360 -297 ct 356 -286 351 -276 344 -267 ct 337 -258 328 -251 318 -245 ct 
308 -238 295 -234 282 -230 ct 299 -228 315 -224 328 -218 ct 342 -212 353 -205 362 -195 ct 
371 -186 378 -175 383 -163 ct 388 -151 390 -137 390 -123 ct p
305 -324 m  305 -348 297 -365 281 -375 ct 265 -385 241 -390 211 -390 ct 111 -390 l 
111 -251 l  211 -251 l  228 -251 243 -253 255 -256 ct 267 -260 277 -265 284 -271 ct 
291 -277 297 -285 300 -294 ct 303 -303 305 -313 305 -324 ct p
330 -128 m  330 -142 328 -153 323 -163 ct 318 -173 310 -181 301 -187 ct 291 -193 280 -198 267 -201 ct 
253 -204 238 -205 222 -205 ct 111 -205 l  111 -47 l  226 -47 l  241 -47 255 -49 268 -51 ct 
281 -54 292 -58 301 -64 ct 310 -70 317 -79 322 -89 ct 328 -99 330 -112 330 -128 ct 
p ef
751 -219 m  751 -177 747 -142 739 -113 ct 731 -84 721 -61 707 -44 ct 693 -26 677 -13 658 -5 ct 
640 2 620 6 599 6 ct 578 6 558 2 539 -5 ct 521 -13 505 -26 491 -43 ct 478 -61 467 -84 459 -113 ct 
452 -141 448 -177 448 -219 ct 448 -263 452 -300 459 -328 ct 467 -357 478 -380 492 -397 ct 
505 -415 521 -427 540 -434 ct 559 -441 579 -444 601 -444 ct 622 -444 641 -441 659 -434 ct 
678 -427 694 -415 707 -397 ct 721 -380 732 -357 740 -328 ct 747 -300 751 -263 751 -219 ct 
p
695 -219 m  695 -254 693 -283 688 -306 ct 684 -329 678 -347 670 -361 ct 662 -375 652 -384 641 -390 ct 
629 -396 616 -399 601 -399 ct 585 -399 571 -396 559 -390 ct 547 -384 537 -374 529 -361 ct 
521 -347 515 -329 510 -305 ct 506 -282 504 -254 504 -219 ct 504 -185 506 -157 511 -134 ct 
515 -111 521 -93 529 -79 ct 537 -65 547 -55 559 -49 ct 571 -43 584 -40 599 -40 ct 
614 -40 627 -43 639 -49 ct 651 -55 661 -65 669 -79 ct 677 -93 684 -111 688 -134 ct 
692 -157 695 -185 695 -219 ct p ef
pom
0.996 c 9585 13950 m  10193 13950 l  10398 14204 l  10193 14459 l  9585 14459 l 
9381 14204 l  9585 13950 l  9585 13950 l  p
9381 13950 m  9381 13950 l  p
10398 14459 m  10398 14459 l  p ef
0.000 c 9584 13950 m  10192 13950 l  10397 14204 l  10192 14459 l  9584 14459 l 
9381 14204 l  9584 13950 l  9584 13950 l  pc
9381 13950 m  9381 13950 l  pc
10397 14459 m  10397 14459 l  pc
pum
9501 14425 t
362 0 m  312 -128 l  113 -128 l  63 0 l  1 0 l  180 -438 l  247 -438 l 
422 0 l  362 0 l  p
238 -319 m  235 -327 232 -335 229 -344 ct 226 -352 223 -360 221 -367 ct 218 -374 217 -380 215 -384 ct 
213 -389 213 -392 212 -393 ct 212 -392 211 -389 210 -384 ct 208 -379 206 -373 204 -366 ct 
201 -359 199 -352 196 -343 ct 193 -335 190 -326 187 -318 ct 131 -174 l  294 -174 l 
238 -319 l  p ef
471 0 m  471 -47 l  583 -47 l  583 -384 l  484 -314 l  484 -366 l  587 -438 l 
639 -438 l  639 -47 l  745 -47 l  745 0 l  471 0 l  p ef
pom
0.996 c 11109 14712 m  11717 14712 l  11922 14966 l  11717 15221 l  11109 15221 l 
10905 14966 l  11109 14712 l  11109 14712 l  p
10905 14712 m  10905 14712 l  p
11922 15221 m  11922 15221 l  p ef
0.000 c 11108 14712 m  11716 14712 l  11921 14966 l  11716 15221 l  11108 15221 l 
10904 14966 l  11108 14712 l  11108 14712 l  pc
10904 14712 m  10904 14712 l  pc
11921 15221 m  11921 15221 l  pc
pum
11025 15187 t
390 -123 m  390 -101 386 -82 377 -67 ct 368 -51 357 -38 342 -28 ct 327 -19 310 -11 291 -7 ct 
271 -2 251 0 229 0 ct 52 0 l  52 -437 l  211 -437 l  235 -437 257 -435 276 -431 ct 
295 -427 311 -421 324 -412 ct 337 -404 347 -393 354 -379 ct 361 -366 365 -350 365 -331 ct 
365 -319 363 -307 360 -297 ct 356 -286 351 -276 344 -267 ct 337 -258 328 -251 318 -245 ct 
308 -238 295 -234 282 -230 ct 299 -228 315 -224 328 -218 ct 342 -212 353 -205 362 -195 ct 
371 -186 378 -175 383 -163 ct 388 -151 390 -137 390 -123 ct p
305 -324 m  305 -348 297 -365 281 -375 ct 265 -385 241 -390 211 -390 ct 111 -390 l 
111 -251 l  211 -251 l  228 -251 243 -253 255 -256 ct 267 -260 277 -265 284 -271 ct 
291 -277 297 -285 300 -294 ct 303 -303 305 -313 305 -324 ct p
330 -128 m  330 -142 328 -153 323 -163 ct 318 -173 310 -181 301 -187 ct 291 -193 280 -198 267 -201 ct 
253 -204 238 -205 222 -205 ct 111 -205 l  111 -47 l  226 -47 l  241 -47 255 -49 268 -51 ct 
281 -54 292 -58 301 -64 ct 310 -70 317 -79 322 -89 ct 328 -99 330 -112 330 -128 ct 
p ef
455 0 m  455 -39 l  465 -64 478 -85 494 -104 ct 509 -122 525 -139 541 -154 ct 
558 -169 575 -183 591 -196 ct 608 -208 622 -221 636 -234 ct 649 -247 660 -260 668 -274 ct 
676 -289 680 -304 680 -322 ct 680 -335 678 -346 674 -355 ct 671 -364 665 -372 658 -379 ct 
651 -385 643 -390 633 -393 ct 623 -396 612 -398 600 -398 ct 589 -398 579 -396 569 -393 ct 
559 -390 550 -386 543 -379 ct 535 -373 529 -365 524 -356 ct 519 -347 516 -336 514 -324 ct 
457 -329 l  459 -345 464 -360 470 -374 ct 477 -388 487 -400 499 -410 ct 511 -421 525 -429 542 -435 ct 
559 -441 578 -444 600 -444 ct 622 -444 641 -441 658 -436 ct 675 -431 690 -423 701 -413 ct 
713 -403 722 -391 728 -376 ct 734 -361 737 -344 737 -324 ct 737 -309 735 -295 730 -282 ct 
724 -269 717 -256 708 -244 ct 700 -232 689 -221 678 -210 ct 666 -198 654 -187 642 -177 ct 
629 -166 616 -156 603 -145 ct 591 -135 579 -124 567 -114 ct 556 -103 546 -92 537 -81 ct 
528 -71 521 -59 516 -47 ct 744 -47 l  744 0 l  455 0 l  p ef
pom
1 lw 8619 12935 m  8619 13267 l  ps
8619 13697 m  8769 13247 l  8469 13247 l  8619 13697 l  p ef
9889 12935 m  9889 13267 l  ps
9889 13697 m  10039 13247 l  9739 13247 l  9889 13697 l  p ef
11413 12935 m  11413 13267 l  ps
11413 13697 m  11563 13247 l  11263 13247 l  11413 13697 l  p ef
12683 12935 m  12683 13267 l  ps
12683 13697 m  12833 13247 l  12533 13247 l  12683 13697 l  p ef
0 lw 9549 13696 m  9464 13696 9381 13780 9381 13865 ct 9381 16066 l  9381 16151 9464 16236 9549 16236 ct 
10227 16236 l  10312 16236 10397 16151 10397 16066 ct 10397 13865 l  10397 13780 10312 13696 10227 13696 ct 
9549 13696 l  pc
9381 13696 m  9381 13696 l  pc
10397 16236 m  10397 16236 l  pc
11073 13696 m  10988 13696 10904 13780 10904 13865 ct 10904 16066 l  10904 16151 10988 16236 11073 16236 ct 
11751 16236 l  11836 16236 11921 16151 11921 16066 ct 11921 13865 l  11921 13780 11836 13696 11751 13696 ct 
11073 13696 l  pc
10904 13696 m  10904 13696 l  pc
11921 16236 m  11921 16236 l  pc
12343 13696 m  12258 13696 12174 13780 12174 13865 ct 12174 16066 l  12174 16151 12258 16236 12343 16236 ct 
13021 16236 l  13106 16236 13191 16151 13191 16066 ct 13191 13865 l  13191 13780 13106 13696 13021 13696 ct 
12343 13696 l  pc
12174 13696 m  12174 13696 l  pc
13191 16236 m  13191 16236 l  pc
0.996 c 12379 14712 m  12987 14712 l  13192 14966 l  12987 15221 l  12379 15221 l 
12175 14966 l  12379 14712 l  12379 14712 l  p
12175 14712 m  12175 14712 l  p
13192 15221 m  13192 15221 l  p ef
0.000 c 12378 14712 m  12986 14712 l  13191 14966 l  12986 15221 l  12378 15221 l 
12174 14966 l  12378 14712 l  12378 14712 l  pc
12174 14712 m  12174 14712 l  pc
13191 15221 m  13191 15221 l  pc
pum
12295 15187 t
390 -123 m  390 -101 386 -82 377 -67 ct 368 -51 357 -38 342 -28 ct 327 -19 310 -11 291 -7 ct 
271 -2 251 0 229 0 ct 52 0 l  52 -437 l  211 -437 l  235 -437 257 -435 276 -431 ct 
295 -427 311 -421 324 -412 ct 337 -404 347 -393 354 -379 ct 361 -366 365 -350 365 -331 ct 
365 -319 363 -307 360 -297 ct 356 -286 351 -276 344 -267 ct 337 -258 328 -251 318 -245 ct 
308 -238 295 -234 282 -230 ct 299 -228 315 -224 328 -218 ct 342 -212 353 -205 362 -195 ct 
371 -186 378 -175 383 -163 ct 388 -151 390 -137 390 -123 ct p
305 -324 m  305 -348 297 -365 281 -375 ct 265 -385 241 -390 211 -390 ct 111 -390 l 
111 -251 l  211 -251 l  228 -251 243 -253 255 -256 ct 267 -260 277 -265 284 -271 ct 
291 -277 297 -285 300 -294 ct 303 -303 305 -313 305 -324 ct p
330 -128 m  330 -142 328 -153 323 -163 ct 318 -173 310 -181 301 -187 ct 291 -193 280 -198 267 -201 ct 
253 -204 238 -205 222 -205 ct 111 -205 l  111 -47 l  226 -47 l  241 -47 255 -49 268 -51 ct 
281 -54 292 -58 301 -64 ct 310 -70 317 -79 322 -89 ct 328 -99 330 -112 330 -128 ct 
p ef
749 -170 m  749 -144 747 -121 743 -99 ct 739 -78 732 -59 723 -43 ct 713 -28 700 -16 685 -7 ct 
669 2 649 6 626 6 ct 602 6 581 2 563 -7 ct 545 -17 531 -31 522 -52 ct 520 -52 l 
521 -52 521 -50 521 -47 ct 521 -43 521 -39 521 -34 ct 521 -29 521 -24 521 -17 ct 
522 -11 522 -5 522 1 ct 522 132 l  466 132 l  466 -267 l  466 -275 466 -283 466 -290 ct 
466 -298 465 -305 465 -311 ct 465 -317 465 -322 465 -326 ct 464 -331 464 -334 464 -336 ct 
518 -336 l  518 -335 518 -333 519 -329 ct 519 -326 519 -321 520 -316 ct 520 -311 520 -305 521 -299 ct 
521 -293 521 -287 521 -282 ct 522 -282 l  527 -293 533 -302 540 -310 ct 547 -317 554 -323 563 -328 ct 
571 -333 580 -337 591 -339 ct 601 -341 613 -342 626 -342 ct 649 -342 669 -338 685 -330 ct 
700 -321 713 -310 723 -295 ct 732 -280 739 -261 743 -240 ct 747 -219 749 -195 749 -170 ct 
p
691 -168 m  691 -189 690 -207 687 -224 ct 685 -240 680 -253 674 -265 ct 668 -276 660 -284 650 -290 ct 
640 -296 627 -299 612 -299 ct 599 -299 588 -297 577 -294 ct 566 -290 556 -283 548 -273 ct 
540 -263 533 -250 529 -232 ct 524 -215 522 -192 522 -164 ct 522 -140 524 -120 527 -104 ct 
531 -87 537 -74 545 -64 ct 552 -53 562 -46 573 -42 ct 584 -37 597 -35 611 -35 ct 
627 -35 640 -38 650 -44 ct 660 -50 668 -59 674 -70 ct 680 -82 685 -95 687 -112 ct 
690 -128 691 -147 691 -168 ct p ef
pom
0.996 c 12379 13950 m  12987 13950 l  13192 14204 l  12987 14459 l  12379 14459 l 
12175 14204 l  12379 13950 l  12379 13950 l  p
12175 13950 m  12175 13950 l  p
13192 14459 m  13192 14459 l  p ef
0.000 c 12378 13950 m  12986 13950 l  13191 14204 l  12986 14459 l  12378 14459 l 
12174 14204 l  12378 13950 l  12378 13950 l  pc
12174 13950 m  12174 13950 l  pc
13191 14459 m  13191 14459 l  pc
pum
12295 14425 t
362 0 m  312 -128 l  113 -128 l  63 0 l  1 0 l  180 -438 l  247 -438 l 
422 0 l  362 0 l  p
238 -319 m  235 -327 232 -335 229 -344 ct 226 -352 223 -360 221 -367 ct 218 -374 217 -380 215 -384 ct 
213 -389 213 -392 212 -393 ct 212 -392 211 -389 210 -384 ct 208 -379 206 -373 204 -366 ct 
201 -359 199 -352 196 -343 ct 193 -335 190 -326 187 -318 ct 131 -174 l  294 -174 l 
238 -319 l  p ef
749 -170 m  749 -144 747 -121 743 -99 ct 739 -78 732 -59 723 -43 ct 713 -28 700 -16 685 -7 ct 
669 2 649 6 626 6 ct 602 6 581 2 563 -7 ct 545 -17 531 -31 522 -52 ct 520 -52 l 
521 -52 521 -50 521 -47 ct 521 -43 521 -39 521 -34 ct 521 -29 521 -24 521 -17 ct 
522 -11 522 -5 522 1 ct 522 132 l  466 132 l  466 -267 l  466 -275 466 -283 466 -290 ct 
466 -298 465 -305 465 -311 ct 465 -317 465 -322 465 -326 ct 464 -331 464 -334 464 -336 ct 
518 -336 l  518 -335 518 -333 519 -329 ct 519 -326 519 -321 520 -316 ct 520 -311 520 -305 521 -299 ct 
521 -293 521 -287 521 -282 ct 522 -282 l  527 -293 533 -302 540 -310 ct 547 -317 554 -323 563 -328 ct 
571 -333 580 -337 591 -339 ct 601 -341 613 -342 626 -342 ct 649 -342 669 -338 685 -330 ct 
700 -321 713 -310 723 -295 ct 732 -280 739 -261 743 -240 ct 747 -219 749 -195 749 -170 ct 
p
691 -168 m  691 -189 690 -207 687 -224 ct 685 -240 680 -253 674 -265 ct 668 -276 660 -284 650 -290 ct 
640 -296 627 -299 612 -299 ct 599 -299 588 -297 577 -294 ct 566 -290 556 -283 548 -273 ct 
540 -263 533 -250 529 -232 ct 524 -215 522 -192 522 -164 ct 522 -140 524 -120 527 -104 ct 
531 -87 537 -74 545 -64 ct 552 -53 562 -46 573 -42 ct 584 -37 597 -35 611 -35 ct 
627 -35 640 -38 650 -44 ct 660 -50 668 -59 674 -70 ct 680 -82 685 -95 687 -112 ct 
690 -128 691 -147 691 -168 ct p ef
pom
0.996 c 11109 13950 m  11717 13950 l  11922 14204 l  11717 14459 l  11109 14459 l 
10905 14204 l  11109 13950 l  11109 13950 l  p
10905 13950 m  10905 13950 l  p
11922 14459 m  11922 14459 l  p ef
0.000 c 11108 13950 m  11716 13950 l  11921 14204 l  11716 14459 l  11108 14459 l 
10904 14204 l  11108 13950 l  11108 13950 l  pc
10904 13950 m  10904 13950 l  pc
11921 14459 m  11921 14459 l  pc
pum
11025 14425 t
362 0 m  312 -128 l  113 -128 l  63 0 l  1 0 l  180 -438 l  247 -438 l 
422 0 l  362 0 l  p
238 -319 m  235 -327 232 -335 229 -344 ct 226 -352 223 -360 221 -367 ct 218 -374 217 -380 215 -384 ct 
213 -389 213 -392 212 -393 ct 212 -392 211 -389 210 -384 ct 208 -379 206 -373 204 -366 ct 
201 -359 199 -352 196 -343 ct 193 -335 190 -326 187 -318 ct 131 -174 l  294 -174 l 
238 -319 l  p ef
455 0 m  455 -39 l  465 -64 478 -85 494 -104 ct 509 -122 525 -139 541 -154 ct 
558 -169 575 -183 591 -196 ct 608 -208 622 -221 636 -234 ct 649 -247 660 -260 668 -274 ct 
676 -289 680 -304 680 -322 ct 680 -335 678 -346 674 -355 ct 671 -364 665 -372 658 -379 ct 
651 -385 643 -390 633 -393 ct 623 -396 612 -398 600 -398 ct 589 -398 579 -396 569 -393 ct 
559 -390 550 -386 543 -379 ct 535 -373 529 -365 524 -356 ct 519 -347 516 -336 514 -324 ct 
457 -329 l  459 -345 464 -360 470 -374 ct 477 -388 487 -400 499 -410 ct 511 -421 525 -429 542 -435 ct 
559 -441 578 -444 600 -444 ct 622 -444 641 -441 658 -436 ct 675 -431 690 -423 701 -413 ct 
713 -403 722 -391 728 -376 ct 734 -361 737 -344 737 -324 ct 737 -309 735 -295 730 -282 ct 
724 -269 717 -256 708 -244 ct 700 -232 689 -221 678 -210 ct 666 -198 654 -187 642 -177 ct 
629 -166 616 -156 603 -145 ct 591 -135 579 -124 567 -114 ct 556 -103 546 -92 537 -81 ct 
528 -71 521 -59 516 -47 ct 744 -47 l  744 0 l  455 0 l  p ef
pom
17522 12934 m  14982 12934 l  14982 12679 l  20062 12679 l  20062 12934 l 
17522 12934 l  p ef
17522 12933 m  14982 12933 l  14982 12678 l  20061 12678 l  20061 12933 l 
17522 12933 l  pc
1 lw 15489 16234 m  15489 17328 l  ps
15489 17758 m  15639 17308 l  15339 17308 l  15489 17758 l  p ef
16759 16232 m  16759 17326 l  ps
16759 17756 m  16909 17306 l  16609 17306 l  16759 17756 l  p ef
18283 16234 m  18283 17328 l  ps
18283 17758 m  18433 17308 l  18133 17308 l  18283 17758 l  p ef
19552 16234 m  19552 17328 l  ps
19552 17758 m  19702 17308 l  19402 17308 l  19552 17758 l  p ef
0.996 c 15186 16490 m  15794 16490 l  15999 16744 l  15794 16999 l  15186 16999 l 
14982 16744 l  15186 16490 l  15186 16490 l  p
14982 16490 m  14982 16490 l  p
15999 16999 m  15999 16999 l  p ef
0 lw 0.000 c 15186 16489 m  15794 16489 l  15999 16743 l  15794 16998 l 
15186 16998 l  14982 16743 l  15186 16489 l  15186 16489 l  pc
14982 16489 m  14982 16489 l  pc
15999 16998 m  15999 16998 l  pc
pum
15102 16965 t
362 0 m  312 -128 l  113 -128 l  63 0 l  1 0 l  180 -438 l  247 -438 l 
422 0 l  362 0 l  p
238 -319 m  235 -327 232 -335 229 -344 ct 226 -352 223 -360 221 -367 ct 218 -374 217 -380 215 -384 ct 
213 -389 213 -392 212 -393 ct 212 -392 211 -389 210 -384 ct 208 -379 206 -373 204 -366 ct 
201 -359 199 -352 196 -343 ct 193 -335 190 -326 187 -318 ct 131 -174 l  294 -174 l 
238 -319 l  p ef
751 -219 m  751 -177 747 -142 739 -113 ct 731 -84 721 -61 707 -44 ct 693 -26 677 -13 658 -5 ct 
640 2 620 6 599 6 ct 578 6 558 2 539 -5 ct 521 -13 505 -26 491 -43 ct 478 -61 467 -84 459 -113 ct 
452 -141 448 -177 448 -219 ct 448 -263 452 -300 459 -328 ct 467 -357 478 -380 492 -397 ct 
505 -415 521 -427 540 -434 ct 559 -441 579 -444 601 -444 ct 622 -444 641 -441 659 -434 ct 
678 -427 694 -415 707 -397 ct 721 -380 732 -357 740 -328 ct 747 -300 751 -263 751 -219 ct 
p
695 -219 m  695 -254 693 -283 688 -306 ct 684 -329 678 -347 670 -361 ct 662 -375 652 -384 641 -390 ct 
629 -396 616 -399 601 -399 ct 585 -399 571 -396 559 -390 ct 547 -384 537 -374 529 -361 ct 
521 -347 515 -329 510 -305 ct 506 -282 504 -254 504 -219 ct 504 -185 506 -157 511 -134 ct 
515 -111 521 -93 529 -79 ct 537 -65 547 -55 559 -49 ct 571 -43 584 -40 599 -40 ct 
614 -40 627 -43 639 -49 ct 651 -55 661 -65 669 -79 ct 677 -93 684 -111 688 -134 ct 
692 -157 695 -185 695 -219 ct p ef
pom
15151 13696 m  15066 13696 14982 13780 14982 13865 ct 14982 16066 l  14982 16151 15066 16236 15151 16236 ct 
15829 16236 l  15914 16236 15999 16151 15999 16066 ct 15999 13865 l  15999 13780 15914 13696 15829 13696 ct 
15151 13696 l  pc
14982 13696 m  14982 13696 l  pc
15999 16236 m  15999 16236 l  pc
0.996 c 15186 14712 m  15794 14712 l  15999 14966 l  15794 15221 l  15186 15221 l 
14982 14966 l  15186 14712 l  15186 14712 l  p
14982 14712 m  14982 14712 l  p
15999 15221 m  15999 15221 l  p ef
0.000 c 15186 14712 m  15794 14712 l  15999 14966 l  15794 15221 l  15186 15221 l 
14982 14966 l  15186 14712 l  15186 14712 l  pc
14982 14712 m  14982 14712 l  pc
15999 15221 m  15999 15221 l  pc
pum
15102 15187 t
390 -123 m  390 -101 386 -82 377 -67 ct 368 -51 357 -38 342 -28 ct 327 -19 310 -11 291 -7 ct 
271 -2 251 0 229 0 ct 52 0 l  52 -437 l  211 -437 l  235 -437 257 -435 276 -431 ct 
295 -427 311 -421 324 -412 ct 337 -404 347 -393 354 -379 ct 361 -366 365 -350 365 -331 ct 
365 -319 363 -307 360 -297 ct 356 -286 351 -276 344 -267 ct 337 -258 328 -251 318 -245 ct 
308 -238 295 -234 282 -230 ct 299 -228 315 -224 328 -218 ct 342 -212 353 -205 362 -195 ct 
371 -186 378 -175 383 -163 ct 388 -151 390 -137 390 -123 ct p
305 -324 m  305 -348 297 -365 281 -375 ct 265 -385 241 -390 211 -390 ct 111 -390 l 
111 -251 l  211 -251 l  228 -251 243 -253 255 -256 ct 267 -260 277 -265 284 -271 ct 
291 -277 297 -285 300 -294 ct 303 -303 305 -313 305 -324 ct p
330 -128 m  330 -142 328 -153 323 -163 ct 318 -173 310 -181 301 -187 ct 291 -193 280 -198 267 -201 ct 
253 -204 238 -205 222 -205 ct 111 -205 l  111 -47 l  226 -47 l  241 -47 255 -49 268 -51 ct 
281 -54 292 -58 301 -64 ct 310 -70 317 -79 322 -89 ct 328 -99 330 -112 330 -128 ct 
p ef
751 -219 m  751 -177 747 -142 739 -113 ct 731 -84 721 -61 707 -44 ct 693 -26 677 -13 658 -5 ct 
640 2 620 6 599 6 ct 578 6 558 2 539 -5 ct 521 -13 505 -26 491 -43 ct 478 -61 467 -84 459 -113 ct 
452 -141 448 -177 448 -219 ct 448 -263 452 -300 459 -328 ct 467 -357 478 -380 492 -397 ct 
505 -415 521 -427 540 -434 ct 559 -441 579 -444 601 -444 ct 622 -444 641 -441 659 -434 ct 
678 -427 694 -415 707 -397 ct 721 -380 732 -357 740 -328 ct 747 -300 751 -263 751 -219 ct 
p
695 -219 m  695 -254 693 -283 688 -306 ct 684 -329 678 -347 670 -361 ct 662 -375 652 -384 641 -390 ct 
629 -396 616 -399 601 -399 ct 585 -399 571 -396 559 -390 ct 547 -384 537 -374 529 -361 ct 
521 -347 515 -329 510 -305 ct 506 -282 504 -254 504 -219 ct 504 -185 506 -157 511 -134 ct 
515 -111 521 -93 529 -79 ct 537 -65 547 -55 559 -49 ct 571 -43 584 -40 599 -40 ct 
614 -40 627 -43 639 -49 ct 651 -55 661 -65 669 -79 ct 677 -93 684 -111 688 -134 ct 
692 -157 695 -185 695 -219 ct p ef
pom
0.996 c 16456 16490 m  17064 16490 l  17269 16744 l  17064 16999 l  16456 16999 l 
16252 16744 l  16456 16490 l  16456 16490 l  p
16252 16490 m  16252 16490 l  p
17269 16999 m  17269 16999 l  p ef
0.000 c 16456 16489 m  17064 16489 l  17269 16743 l  17064 16998 l  16456 16998 l 
16252 16743 l  16456 16489 l  16456 16489 l  pc
16252 16489 m  16252 16489 l  pc
17269 16998 m  17269 16998 l  pc
pum
16372 16965 t
362 0 m  312 -128 l  113 -128 l  63 0 l  1 0 l  180 -438 l  247 -438 l 
422 0 l  362 0 l  p
238 -319 m  235 -327 232 -335 229 -344 ct 226 -352 223 -360 221 -367 ct 218 -374 217 -380 215 -384 ct 
213 -389 213 -392 212 -393 ct 212 -392 211 -389 210 -384 ct 208 -379 206 -373 204 -366 ct 
201 -359 199 -352 196 -343 ct 193 -335 190 -326 187 -318 ct 131 -174 l  294 -174 l 
238 -319 l  p ef
471 0 m  471 -47 l  583 -47 l  583 -384 l  484 -314 l  484 -366 l  587 -438 l 
639 -438 l  639 -47 l  745 -47 l  745 0 l  471 0 l  p ef
pom
0.996 c 17980 14712 m  18588 14712 l  18793 14966 l  18588 15221 l  17980 15221 l 
17776 14966 l  17980 14712 l  17980 14712 l  p
17776 14712 m  17776 14712 l  p
18793 15221 m  18793 15221 l  p ef
0.000 c 17980 14712 m  18588 14712 l  18793 14966 l  18588 15221 l  17980 15221 l 
17776 14966 l  17980 14712 l  17980 14712 l  pc
17776 14712 m  17776 14712 l  pc
18793 15221 m  18793 15221 l  pc
pum
17896 15187 t
390 -123 m  390 -101 386 -82 377 -67 ct 368 -51 357 -38 342 -28 ct 327 -19 310 -11 291 -7 ct 
271 -2 251 0 229 0 ct 52 0 l  52 -437 l  211 -437 l  235 -437 257 -435 276 -431 ct 
295 -427 311 -421 324 -412 ct 337 -404 347 -393 354 -379 ct 361 -366 365 -350 365 -331 ct 
365 -319 363 -307 360 -297 ct 356 -286 351 -276 344 -267 ct 337 -258 328 -251 318 -245 ct 
308 -238 295 -234 282 -230 ct 299 -228 315 -224 328 -218 ct 342 -212 353 -205 362 -195 ct 
371 -186 378 -175 383 -163 ct 388 -151 390 -137 390 -123 ct p
305 -324 m  305 -348 297 -365 281 -375 ct 265 -385 241 -390 211 -390 ct 111 -390 l 
111 -251 l  211 -251 l  228 -251 243 -253 255 -256 ct 267 -260 277 -265 284 -271 ct 
291 -277 297 -285 300 -294 ct 303 -303 305 -313 305 -324 ct p
330 -128 m  330 -142 328 -153 323 -163 ct 318 -173 310 -181 301 -187 ct 291 -193 280 -198 267 -201 ct 
253 -204 238 -205 222 -205 ct 111 -205 l  111 -47 l  226 -47 l  241 -47 255 -49 268 -51 ct 
281 -54 292 -58 301 -64 ct 310 -70 317 -79 322 -89 ct 328 -99 330 -112 330 -128 ct 
p ef
455 0 m  455 -39 l  465 -64 478 -85 494 -104 ct 509 -122 525 -139 541 -154 ct 
558 -169 575 -183 591 -196 ct 608 -208 622 -221 636 -234 ct 649 -247 660 -260 668 -274 ct 
676 -289 680 -304 680 -322 ct 680 -335 678 -346 674 -355 ct 671 -364 665 -372 658 -379 ct 
651 -385 643 -390 633 -393 ct 623 -396 612 -398 600 -398 ct 589 -398 579 -396 569 -393 ct 
559 -390 550 -386 543 -379 ct 535 -373 529 -365 524 -356 ct 519 -347 516 -336 514 -324 ct 
457 -329 l  459 -345 464 -360 470 -374 ct 477 -388 487 -400 499 -410 ct 511 -421 525 -429 542 -435 ct 
559 -441 578 -444 600 -444 ct 622 -444 641 -441 658 -436 ct 675 -431 690 -423 701 -413 ct 
713 -403 722 -391 728 -376 ct 734 -361 737 -344 737 -324 ct 737 -309 735 -295 730 -282 ct 
724 -269 717 -256 708 -244 ct 700 -232 689 -221 678 -210 ct 666 -198 654 -187 642 -177 ct 
629 -166 616 -156 603 -145 ct 591 -135 579 -124 567 -114 ct 556 -103 546 -92 537 -81 ct 
528 -71 521 -59 516 -47 ct 744 -47 l  744 0 l  455 0 l  p ef
pom
1 lw 15490 12935 m  15490 13267 l  ps
15490 13697 m  15640 13247 l  15340 13247 l  15490 13697 l  p ef
16760 12935 m  16760 13267 l  ps
16760 13697 m  16910 13247 l  16610 13247 l  16760 13697 l  p ef
18284 12935 m  18284 13267 l  ps
18284 13697 m  18434 13247 l  18134 13247 l  18284 13697 l  p ef
19554 12935 m  19554 13267 l  ps
19554 13697 m  19704 13247 l  19404 13247 l  19554 13697 l  p ef
0 lw 16421 13696 m  16336 13696 16252 13780 16252 13865 ct 16252 16066 l 
16252 16151 16336 16236 16421 16236 ct 17099 16236 l  17184 16236 17269 16151 17269 16066 ct 
17269 13865 l  17269 13780 17184 13696 17099 13696 ct 16421 13696 l  pc
16252 13696 m  16252 13696 l  pc
17269 16236 m  17269 16236 l  pc
17945 13696 m  17860 13696 17776 13780 17776 13865 ct 17776 16066 l  17776 16151 17860 16236 17945 16236 ct 
18623 16236 l  18708 16236 18793 16151 18793 16066 ct 18793 13865 l  18793 13780 18708 13696 18623 13696 ct 
17945 13696 l  pc
17776 13696 m  17776 13696 l  pc
18793 16236 m  18793 16236 l  pc
19214 13696 m  19129 13696 19045 13780 19045 13865 ct 19045 16066 l  19045 16151 19129 16236 19214 16236 ct 
19892 16236 l  19977 16236 20062 16151 20062 16066 ct 20062 13865 l  20062 13780 19977 13696 19892 13696 ct 
19214 13696 l  pc
19045 13696 m  19045 13696 l  pc
20062 16236 m  20062 16236 l  pc
0.996 c 19250 14712 m  19858 14712 l  20063 14966 l  19858 15221 l  19250 15221 l 
19046 14966 l  19250 14712 l  19250 14712 l  p
19046 14712 m  19046 14712 l  p
20063 15221 m  20063 15221 l  p ef
0.000 c 19249 14712 m  19857 14712 l  20062 14966 l  19857 15221 l  19249 15221 l 
19045 14966 l  19249 14712 l  19249 14712 l  pc
19045 14712 m  19045 14712 l  pc
20062 15221 m  20062 15221 l  pc
pum
19166 15187 t
390 -123 m  390 -101 386 -82 377 -67 ct 368 -51 357 -38 342 -28 ct 327 -19 310 -11 291 -7 ct 
271 -2 251 0 229 0 ct 52 0 l  52 -437 l  211 -437 l  235 -437 257 -435 276 -431 ct 
295 -427 311 -421 324 -412 ct 337 -404 347 -393 354 -379 ct 361 -366 365 -350 365 -331 ct 
365 -319 363 -307 360 -297 ct 356 -286 351 -276 344 -267 ct 337 -258 328 -251 318 -245 ct 
308 -238 295 -234 282 -230 ct 299 -228 315 -224 328 -218 ct 342 -212 353 -205 362 -195 ct 
371 -186 378 -175 383 -163 ct 388 -151 390 -137 390 -123 ct p
305 -324 m  305 -348 297 -365 281 -375 ct 265 -385 241 -390 211 -390 ct 111 -390 l 
111 -251 l  211 -251 l  228 -251 243 -253 255 -256 ct 267 -260 277 -265 284 -271 ct 
291 -277 297 -285 300 -294 ct 303 -303 305 -313 305 -324 ct p
330 -128 m  330 -142 328 -153 323 -163 ct 318 -173 310 -181 301 -187 ct 291 -193 280 -198 267 -201 ct 
253 -204 238 -205 222 -205 ct 111 -205 l  111 -47 l  226 -47 l  241 -47 255 -49 268 -51 ct 
281 -54 292 -58 301 -64 ct 310 -70 317 -79 322 -89 ct 328 -99 330 -112 330 -128 ct 
p ef
749 -170 m  749 -144 747 -121 743 -99 ct 739 -78 732 -59 723 -43 ct 713 -28 700 -16 685 -7 ct 
669 2 649 6 626 6 ct 602 6 581 2 563 -7 ct 545 -17 531 -31 522 -52 ct 520 -52 l 
521 -52 521 -50 521 -47 ct 521 -43 521 -39 521 -34 ct 521 -29 521 -24 521 -17 ct 
522 -11 522 -5 522 1 ct 522 132 l  466 132 l  466 -267 l  466 -275 466 -283 466 -290 ct 
466 -298 465 -305 465 -311 ct 465 -317 465 -322 465 -326 ct 464 -331 464 -334 464 -336 ct 
518 -336 l  518 -335 518 -333 519 -329 ct 519 -326 519 -321 520 -316 ct 520 -311 520 -305 521 -299 ct 
521 -293 521 -287 521 -282 ct 522 -282 l  527 -293 533 -302 540 -310 ct 547 -317 554 -323 563 -328 ct 
571 -333 580 -337 591 -339 ct 601 -341 613 -342 626 -342 ct 649 -342 669 -338 685 -330 ct 
700 -321 713 -310 723 -295 ct 732 -280 739 -261 743 -240 ct 747 -219 749 -195 749 -170 ct 
p
691 -168 m  691 -189 690 -207 687 -224 ct 685 -240 680 -253 674 -265 ct 668 -276 660 -284 650 -290 ct 
640 -296 627 -299 612 -299 ct 599 -299 588 -297 577 -294 ct 566 -290 556 -283 548 -273 ct 
540 -263 533 -250 529 -232 ct 524 -215 522 -192 522 -164 ct 522 -140 524 -120 527 -104 ct 
531 -87 537 -74 545 -64 ct 552 -53 562 -46 573 -42 ct 584 -37 597 -35 611 -35 ct 
627 -35 640 -38 650 -44 ct 660 -50 668 -59 674 -70 ct 680 -82 685 -95 687 -112 ct 
690 -128 691 -147 691 -168 ct p ef
pom
0.996 c 19250 16490 m  19858 16490 l  20063 16744 l  19858 16999 l  19250 16999 l 
19046 16744 l  19250 16490 l  19250 16490 l  p
19046 16490 m  19046 16490 l  p
20063 16999 m  20063 16999 l  p ef
0.000 c 19249 16489 m  19857 16489 l  20062 16743 l  19857 16998 l  19249 16998 l 
19045 16743 l  19249 16489 l  19249 16489 l  pc
19045 16489 m  19045 16489 l  pc
20062 16998 m  20062 16998 l  pc
pum
19166 16965 t
362 0 m  312 -128 l  113 -128 l  63 0 l  1 0 l  180 -438 l  247 -438 l 
422 0 l  362 0 l  p
238 -319 m  235 -327 232 -335 229 -344 ct 226 -352 223 -360 221 -367 ct 218 -374 217 -380 215 -384 ct 
213 -389 213 -392 212 -393 ct 212 -392 211 -389 210 -384 ct 208 -379 206 -373 204 -366 ct 
201 -359 199 -352 196 -343 ct 193 -335 190 -326 187 -318 ct 131 -174 l  294 -174 l 
238 -319 l  p ef
749 -170 m  749 -144 747 -121 743 -99 ct 739 -78 732 -59 723 -43 ct 713 -28 700 -16 685 -7 ct 
669 2 649 6 626 6 ct 602 6 581 2 563 -7 ct 545 -17 531 -31 522 -52 ct 520 -52 l 
521 -52 521 -50 521 -47 ct 521 -43 521 -39 521 -34 ct 521 -29 521 -24 521 -17 ct 
522 -11 522 -5 522 1 ct 522 132 l  466 132 l  466 -267 l  466 -275 466 -283 466 -290 ct 
466 -298 465 -305 465 -311 ct 465 -317 465 -322 465 -326 ct 464 -331 464 -334 464 -336 ct 
518 -336 l  518 -335 518 -333 519 -329 ct 519 -326 519 -321 520 -316 ct 520 -311 520 -305 521 -299 ct 
521 -293 521 -287 521 -282 ct 522 -282 l  527 -293 533 -302 540 -310 ct 547 -317 554 -323 563 -328 ct 
571 -333 580 -337 591 -339 ct 601 -341 613 -342 626 -342 ct 649 -342 669 -338 685 -330 ct 
700 -321 713 -310 723 -295 ct 732 -280 739 -261 743 -240 ct 747 -219 749 -195 749 -170 ct 
p
691 -168 m  691 -189 690 -207 687 -224 ct 685 -240 680 -253 674 -265 ct 668 -276 660 -284 650 -290 ct 
640 -296 627 -299 612 -299 ct 599 -299 588 -297 577 -294 ct 566 -290 556 -283 548 -273 ct 
540 -263 533 -250 529 -232 ct 524 -215 522 -192 522 -164 ct 522 -140 524 -120 527 -104 ct 
531 -87 537 -74 545 -64 ct 552 -53 562 -46 573 -42 ct 584 -37 597 -35 611 -35 ct 
627 -35 640 -38 650 -44 ct 660 -50 668 -59 674 -70 ct 680 -82 685 -95 687 -112 ct 
690 -128 691 -147 691 -168 ct p ef
pom
0.996 c 17980 16490 m  18588 16490 l  18793 16744 l  18588 16999 l  17980 16999 l 
17776 16744 l  17980 16490 l  17980 16490 l  p
17776 16490 m  17776 16490 l  p
18793 16999 m  18793 16999 l  p ef
0.000 c 17980 16489 m  18588 16489 l  18793 16743 l  18588 16998 l  17980 16998 l 
17776 16743 l  17980 16489 l  17980 16489 l  pc
17776 16489 m  17776 16489 l  pc
18793 16998 m  18793 16998 l  pc
pum
17896 16965 t
362 0 m  312 -128 l  113 -128 l  63 0 l  1 0 l  180 -438 l  247 -438 l 
422 0 l  362 0 l  p
238 -319 m  235 -327 232 -335 229 -344 ct 226 -352 223 -360 221 -367 ct 218 -374 217 -380 215 -384 ct 
213 -389 213 -392 212 -393 ct 212 -392 211 -389 210 -384 ct 208 -379 206 -373 204 -366 ct 
201 -359 199 -352 196 -343 ct 193 -335 190 -326 187 -318 ct 131 -174 l  294 -174 l 
238 -319 l  p ef
455 0 m  455 -39 l  465 -64 478 -85 494 -104 ct 509 -122 525 -139 541 -154 ct 
558 -169 575 -183 591 -196 ct 608 -208 622 -221 636 -234 ct 649 -247 660 -260 668 -274 ct 
676 -289 680 -304 680 -322 ct 680 -335 678 -346 674 -355 ct 671 -364 665 -372 658 -379 ct 
651 -385 643 -390 633 -393 ct 623 -396 612 -398 600 -398 ct 589 -398 579 -396 569 -393 ct 
559 -390 550 -386 543 -379 ct 535 -373 529 -365 524 -356 ct 519 -347 516 -336 514 -324 ct 
457 -329 l  459 -345 464 -360 470 -374 ct 477 -388 487 -400 499 -410 ct 511 -421 525 -429 542 -435 ct 
559 -441 578 -444 600 -444 ct 622 -444 641 -441 658 -436 ct 675 -431 690 -423 701 -413 ct 
713 -403 722 -391 728 -376 ct 734 -361 737 -344 737 -324 ct 737 -309 735 -295 730 -282 ct 
724 -269 717 -256 708 -244 ct 700 -232 689 -221 678 -210 ct 666 -198 654 -187 642 -177 ct 
629 -166 616 -156 603 -145 ct 591 -135 579 -124 567 -114 ct 556 -103 546 -92 537 -81 ct 
528 -71 521 -59 516 -47 ct 744 -47 l  744 0 l  455 0 l  p ef
pom
0.996 c 1221 18746 m  1221 17834 l  1326 17730 l  2238 17730 l  2238 18640 l 
2132 18746 l  1221 18746 l  p
1221 17730 m  1221 17730 l  p
2238 18746 m  2238 18746 l  p ef
0.000 c 1220 18746 m  1220 17834 l  1325 17729 l  2237 17729 l  2237 18640 l 
2131 18746 l  1220 18746 l  pc
1220 17729 m  1220 17729 l  pc
2237 18746 m  2237 18746 l  pc
0.996 c 1221 17834 m  1326 17730 l  2238 17730 l  2132 17834 l  1221 17834 l 
p
1221 17730 m  1221 17730 l  p
2238 18746 m  2238 18746 l  p ef
0.000 c 1220 17834 m  1325 17729 l  2237 17729 l  2131 17834 l  1220 17834 l 
pc
1220 17729 m  1220 17729 l  pc
2237 18746 m  2237 18746 l  pc
0.796 c 2132 18746 m  2132 17834 l  2238 17730 l  2238 18640 l  2132 18746 l 
p
1221 17730 m  1221 17730 l  p
2238 18746 m  2238 18746 l  p ef
0.000 c 2131 18746 m  2131 17834 l  2237 17729 l  2237 18640 l  2131 18746 l 
pc
1220 17729 m  1220 17729 l  pc
2237 18746 m  2237 18746 l  pc
0.996 c 2491 18746 m  2491 17834 l  2596 17730 l  3508 17730 l  3508 18640 l 
3402 18746 l  2491 18746 l  p
2491 17730 m  2491 17730 l  p
3508 18746 m  3508 18746 l  p ef
0.000 c 2490 18746 m  2490 17834 l  2595 17729 l  3507 17729 l  3507 18640 l 
3401 18746 l  2490 18746 l  pc
2490 17729 m  2490 17729 l  pc
3507 18746 m  3507 18746 l  pc
0.996 c 2491 17834 m  2596 17730 l  3508 17730 l  3402 17834 l  2491 17834 l 
p
2491 17730 m  2491 17730 l  p
3508 18746 m  3508 18746 l  p ef
0.000 c 2490 17834 m  2595 17729 l  3507 17729 l  3401 17834 l  2490 17834 l 
pc
2490 17729 m  2490 17729 l  pc
3507 18746 m  3507 18746 l  pc
0.796 c 3402 18746 m  3402 17834 l  3508 17730 l  3508 18640 l  3402 18746 l 
p
2491 17730 m  2491 17730 l  p
3508 18746 m  3508 18746 l  p ef
0.000 c 3401 18746 m  3401 17834 l  3507 17729 l  3507 18640 l  3401 18746 l 
pc
2490 17729 m  2490 17729 l  pc
3507 18746 m  3507 18746 l  pc
0.996 c 4015 18746 m  4015 17834 l  4120 17730 l  5031 17730 l  5031 18640 l 
4925 18746 l  4015 18746 l  p
4015 17730 m  4015 17730 l  p
5031 18746 m  5031 18746 l  p ef
0.000 c 4014 18746 m  4014 17834 l  4119 17729 l  5031 17729 l  5031 18640 l 
4925 18746 l  4014 18746 l  pc
4014 17729 m  4014 17729 l  pc
5031 18746 m  5031 18746 l  pc
0.996 c 4015 17834 m  4120 17730 l  5031 17730 l  4925 17834 l  4015 17834 l 
p
4015 17730 m  4015 17730 l  p
5031 18746 m  5031 18746 l  p ef
0.000 c 4014 17834 m  4119 17729 l  5031 17729 l  4925 17834 l  4014 17834 l 
pc
4014 17729 m  4014 17729 l  pc
5031 18746 m  5031 18746 l  pc
0.796 c 4925 18746 m  4925 17834 l  5031 17730 l  5031 18640 l  4925 18746 l 
p
4015 17730 m  4015 17730 l  p
5031 18746 m  5031 18746 l  p ef
0.000 c 4925 18746 m  4925 17834 l  5031 17729 l  5031 18640 l  4925 18746 l 
pc
4014 17729 m  4014 17729 l  pc
5031 18746 m  5031 18746 l  pc
0.996 c 5284 18746 m  5284 17834 l  5389 17730 l  6301 17730 l  6301 18640 l 
6195 18746 l  5284 18746 l  p
5284 17730 m  5284 17730 l  p
6301 18746 m  6301 18746 l  p ef
0.000 c 5284 18746 m  5284 17834 l  5389 17729 l  6301 17729 l  6301 18640 l 
6195 18746 l  5284 18746 l  pc
5284 17729 m  5284 17729 l  pc
6301 18746 m  6301 18746 l  pc
0.996 c 5284 17834 m  5389 17730 l  6301 17730 l  6195 17834 l  5284 17834 l 
p
5284 17730 m  5284 17730 l  p
6301 18746 m  6301 18746 l  p ef
0.000 c 5284 17834 m  5389 17729 l  6301 17729 l  6195 17834 l  5284 17834 l 
pc
5284 17729 m  5284 17729 l  pc
6301 18746 m  6301 18746 l  pc
0.796 c 6195 18746 m  6195 17834 l  6301 17730 l  6301 18640 l  6195 18746 l 
p
5284 17730 m  5284 17730 l  p
6301 18746 m  6301 18746 l  p ef
0.000 c 6195 18746 m  6195 17834 l  6301 17729 l  6301 18640 l  6195 18746 l 
pc
5284 17729 m  5284 17729 l  pc
6301 18746 m  6301 18746 l  pc
0.996 c 8111 18776 m  8111 17864 l  8216 17760 l  9128 17760 l  9128 18670 l 
9022 18776 l  8111 18776 l  p
8111 17760 m  8111 17760 l  p
9128 18776 m  9128 18776 l  p ef
0.000 c 8111 18776 m  8111 17864 l  8216 17759 l  9128 17759 l  9128 18670 l 
9022 18776 l  8111 18776 l  pc
8111 17759 m  8111 17759 l  pc
9128 18776 m  9128 18776 l  pc
0.996 c 8111 17864 m  8216 17760 l  9128 17760 l  9022 17864 l  8111 17864 l 
p
8111 17760 m  8111 17760 l  p
9128 18776 m  9128 18776 l  p ef
0.000 c 8111 17864 m  8216 17759 l  9128 17759 l  9022 17864 l  8111 17864 l 
pc
8111 17759 m  8111 17759 l  pc
9128 18776 m  9128 18776 l  pc
0.796 c 9022 18776 m  9022 17864 l  9128 17760 l  9128 18670 l  9022 18776 l 
p
8111 17760 m  8111 17760 l  p
9128 18776 m  9128 18776 l  p ef
0.000 c 9022 18776 m  9022 17864 l  9128 17759 l  9128 18670 l  9022 18776 l 
pc
8111 17759 m  8111 17759 l  pc
9128 18776 m  9128 18776 l  pc
0.996 c 9381 18776 m  9381 17864 l  9486 17760 l  10398 17760 l  10398 18670 l 
10292 18776 l  9381 18776 l  p
9381 17760 m  9381 17760 l  p
10398 18776 m  10398 18776 l  p ef
0.000 c 9381 18776 m  9381 17864 l  9485 17759 l  10397 17759 l  10397 18670 l 
10291 18776 l  9381 18776 l  pc
9381 17759 m  9381 17759 l  pc
10397 18776 m  10397 18776 l  pc
0.996 c 9381 17864 m  9486 17760 l  10398 17760 l  10292 17864 l  9381 17864 l 
p
9381 17760 m  9381 17760 l  p
10398 18776 m  10398 18776 l  p ef
0.000 c 9381 17864 m  9485 17759 l  10397 17759 l  10291 17864 l  9381 17864 l 
pc
9381 17759 m  9381 17759 l  pc
10397 18776 m  10397 18776 l  pc
0.796 c 10292 18776 m  10292 17864 l  10398 17760 l  10398 18670 l  10292 18776 l 
p
9381 17760 m  9381 17760 l  p
10398 18776 m  10398 18776 l  p ef
0.000 c 10291 18776 m  10291 17864 l  10397 17759 l  10397 18670 l  10291 18776 l 
pc
9381 17759 m  9381 17759 l  pc
10397 18776 m  10397 18776 l  pc
0.996 c 10905 18776 m  10905 17864 l  11010 17760 l  11922 17760 l  11922 18670 l 
11816 18776 l  10905 18776 l  p
10905 17760 m  10905 17760 l  p
11922 18776 m  11922 18776 l  p ef
0.000 c 10904 18776 m  10904 17864 l  11009 17759 l  11921 17759 l  11921 18670 l 
11815 18776 l  10904 18776 l  pc
10904 17759 m  10904 17759 l  pc
11921 18776 m  11921 18776 l  pc
0.996 c 10905 17864 m  11010 17760 l  11922 17760 l  11816 17864 l  10905 17864 l 
p
10905 17760 m  10905 17760 l  p
11922 18776 m  11922 18776 l  p ef
0.000 c 10904 17864 m  11009 17759 l  11921 17759 l  11815 17864 l  10904 17864 l 
pc
10904 17759 m  10904 17759 l  pc
11921 18776 m  11921 18776 l  pc
0.796 c 11816 18776 m  11816 17864 l  11922 17760 l  11922 18670 l  11816 18776 l 
p
10905 17760 m  10905 17760 l  p
11922 18776 m  11922 18776 l  p ef
0.000 c 11815 18776 m  11815 17864 l  11921 17759 l  11921 18670 l  11815 18776 l 
pc
10904 17759 m  10904 17759 l  pc
11921 18776 m  11921 18776 l  pc
0.996 c 12175 18776 m  12175 17864 l  12280 17760 l  13192 17760 l  13192 18670 l 
13086 18776 l  12175 18776 l  p
12175 17760 m  12175 17760 l  p
13192 18776 m  13192 18776 l  p ef
0.000 c 12174 18776 m  12174 17864 l  12279 17759 l  13191 17759 l  13191 18670 l 
13085 18776 l  12174 18776 l  pc
12174 17759 m  12174 17759 l  pc
13191 18776 m  13191 18776 l  pc
0.996 c 12175 17864 m  12280 17760 l  13192 17760 l  13086 17864 l  12175 17864 l 
p
12175 17760 m  12175 17760 l  p
13192 18776 m  13192 18776 l  p ef
0.000 c 12174 17864 m  12279 17759 l  13191 17759 l  13085 17864 l  12174 17864 l 
pc
12174 17759 m  12174 17759 l  pc
13191 18776 m  13191 18776 l  pc
0.796 c 13086 18776 m  13086 17864 l  13192 17760 l  13192 18670 l  13086 18776 l 
p
12175 17760 m  12175 17760 l  p
13192 18776 m  13192 18776 l  p ef
0.000 c 13085 18776 m  13085 17864 l  13191 17759 l  13191 18670 l  13085 18776 l 
pc
12174 17759 m  12174 17759 l  pc
13191 18776 m  13191 18776 l  pc
0.996 c 14982 18776 m  14982 17864 l  15087 17760 l  15999 17760 l  15999 18670 l 
15893 18776 l  14982 18776 l  p
14982 17760 m  14982 17760 l  p
15999 18776 m  15999 18776 l  p ef
0.000 c 14982 18776 m  14982 17864 l  15087 17759 l  15999 17759 l  15999 18670 l 
15893 18776 l  14982 18776 l  pc
14982 17759 m  14982 17759 l  pc
15999 18776 m  15999 18776 l  pc
0.996 c 14982 17864 m  15087 17760 l  15999 17760 l  15893 17864 l  14982 17864 l 
p
14982 17760 m  14982 17760 l  p
15999 18776 m  15999 18776 l  p ef
0.000 c 14982 17864 m  15087 17759 l  15999 17759 l  15893 17864 l  14982 17864 l 
pc
14982 17759 m  14982 17759 l  pc
15999 18776 m  15999 18776 l  pc
0.796 c 15893 18776 m  15893 17864 l  15999 17760 l  15999 18670 l  15893 18776 l 
p
14982 17760 m  14982 17760 l  p
15999 18776 m  15999 18776 l  p ef
0.000 c 15893 18776 m  15893 17864 l  15999 17759 l  15999 18670 l  15893 18776 l 
pc
14982 17759 m  14982 17759 l  pc
15999 18776 m  15999 18776 l  pc
0.996 c 16252 18776 m  16252 17864 l  16357 17760 l  17269 17760 l  17269 18670 l 
17163 18776 l  16252 18776 l  p
16252 17760 m  16252 17760 l  p
17269 18776 m  17269 18776 l  p ef
0.000 c 16252 18776 m  16252 17864 l  16357 17759 l  17269 17759 l  17269 18670 l 
17163 18776 l  16252 18776 l  pc
16252 17759 m  16252 17759 l  pc
17269 18776 m  17269 18776 l  pc
0.996 c 16252 17864 m  16357 17760 l  17269 17760 l  17163 17864 l  16252 17864 l 
p
16252 17760 m  16252 17760 l  p
17269 18776 m  17269 18776 l  p ef
0.000 c 16252 17864 m  16357 17759 l  17269 17759 l  17163 17864 l  16252 17864 l 
pc
16252 17759 m  16252 17759 l  pc
17269 18776 m  17269 18776 l  pc
0.796 c 17163 18776 m  17163 17864 l  17269 17760 l  17269 18670 l  17163 18776 l 
p
16252 17760 m  16252 17760 l  p
17269 18776 m  17269 18776 l  p ef
0.000 c 17163 18776 m  17163 17864 l  17269 17759 l  17269 18670 l  17163 18776 l 
pc
16252 17759 m  16252 17759 l  pc
17269 18776 m  17269 18776 l  pc
0.996 c 17776 18776 m  17776 17864 l  17881 17760 l  18793 17760 l  18793 18670 l 
18687 18776 l  17776 18776 l  p
17776 17760 m  17776 17760 l  p
18793 18776 m  18793 18776 l  p ef
0.000 c 17776 18776 m  17776 17864 l  17881 17759 l  18793 17759 l  18793 18670 l 
18687 18776 l  17776 18776 l  pc
17776 17759 m  17776 17759 l  pc
18793 18776 m  18793 18776 l  pc
0.996 c 17776 17864 m  17881 17760 l  18793 17760 l  18687 17864 l  17776 17864 l 
p
17776 17760 m  17776 17760 l  p
18793 18776 m  18793 18776 l  p ef
0.000 c 17776 17864 m  17881 17759 l  18793 17759 l  18687 17864 l  17776 17864 l 
pc
17776 17759 m  17776 17759 l  pc
18793 18776 m  18793 18776 l  pc
0.796 c 18687 18776 m  18687 17864 l  18793 17760 l  18793 18670 l  18687 18776 l 
p
17776 17760 m  17776 17760 l  p
18793 18776 m  18793 18776 l  p ef
0.000 c 18687 18776 m  18687 17864 l  18793 17759 l  18793 18670 l  18687 18776 l 
pc
17776 17759 m  17776 17759 l  pc
18793 18776 m  18793 18776 l  pc
0.996 c 19046 18776 m  19046 17864 l  19151 17760 l  20063 17760 l  20063 18670 l 
19957 18776 l  19046 18776 l  p
19046 17760 m  19046 17760 l  p
20063 18776 m  20063 18776 l  p ef
0.000 c 19045 18776 m  19045 17864 l  19150 17759 l  20062 17759 l  20062 18670 l 
19956 18776 l  19045 18776 l  pc
19045 17759 m  19045 17759 l  pc
20062 18776 m  20062 18776 l  pc
0.996 c 19046 17864 m  19151 17760 l  20063 17760 l  19957 17864 l  19046 17864 l 
p
19046 17760 m  19046 17760 l  p
20063 18776 m  20063 18776 l  p ef
0.000 c 19045 17864 m  19150 17759 l  20062 17759 l  19956 17864 l  19045 17864 l 
pc
19045 17759 m  19045 17759 l  pc
20062 18776 m  20062 18776 l  pc
0.796 c 19957 18776 m  19957 17864 l  20063 17760 l  20063 18670 l  19957 18776 l 
p
19046 17760 m  19046 17760 l  p
20063 18776 m  20063 18776 l  p ef
0.000 c 19956 18776 m  19956 17864 l  20062 17759 l  20062 18670 l  19956 18776 l 
pc
19045 17759 m  19045 17759 l  pc
20062 18776 m  20062 18776 l  pc
0.796 c 6587 14167 m  7305 14167 l  7305 13443 l  7858 14712 l  7305 15983 l 
7305 15258 l  6587 15258 l  6587 14167 l  p
6587 13443 m  6587 13443 l  p
7858 15983 m  7858 15983 l  p ef
0.000 c 6587 14167 m  7305 14167 l  7305 13442 l  7858 14712 l  7305 15982 l 
7305 15258 l  6587 15258 l  6587 14167 l  pc
6587 13442 m  6587 13442 l  pc
7858 15982 m  7858 15982 l  pc
0.796 c 13459 14167 m  14176 14167 l  14176 13443 l  14729 14712 l  14176 15983 l 
14176 15258 l  13459 15258 l  13459 14167 l  p
13459 13443 m  13459 13443 l  p
14729 15983 m  14729 15983 l  p ef
0.000 c 13458 14167 m  14176 14167 l  14176 13442 l  14729 14712 l  14176 15982 l 
14176 15258 l  13458 15258 l  13458 14167 l  pc
13458 13442 m  13458 13442 l  pc
14729 15982 m  14729 15982 l  pc
0 7906 t 
pom
count op_count sub {pop} repeat countdictstack dict_count sub {end} repeat b4_inc_state restore
%%PageTrailer
%%Trailer
%%EOF
