%!PS-Adobe-3.0 EPSF-3.0 
%%BoundingBox: 0 0 223 130
%%Pages: 0
%%Creator: Sun Microsystems, Inc.
%%Title: none
%%CreationDate: none
%%LanguageLevel: 2
%%EndComments
%%BeginProlog
%%BeginResource: procset SDRes-Prolog 1.0 0
/b4_inc_state save def
/dict_count countdictstack def
/op_count count 1 sub def
userdict begin
0 setgray 0 setlinecap 1 setlinewidth 0 setlinejoin 10 setmiterlimit[] 0 setdash newpath
/languagelevel where {pop languagelevel 1 ne {false setstrokeadjust false setoverprint} if} if
/bdef {bind def} bind def
/c {setrgbcolor} bdef
/l {neg lineto} bdef
/rl {neg rlineto} bdef
/lc {setlinecap} bdef
/lj {setlinejoin} bdef
/lw {setlinewidth} bdef
/ml {setmiterlimit} bdef
/ld {setdash} bdef
/m {neg moveto} bdef
/ct {6 2 roll neg 6 2 roll neg 6 2 roll neg curveto} bdef
/r {rotate} bdef
/t {neg translate} bdef
/s {scale} bdef
/sw {show} bdef
/gs {gsave} bdef
/gr {grestore} bdef
/f {findfont dup length dict begin
{1 index /FID ne {def} {pop pop} ifelse} forall /Encoding ISOLatin1Encoding def
currentdict end /NFont exch definefont pop /NFont findfont} bdef
/p {closepath} bdef
/sf {scalefont setfont} bdef
/ef {eofill}bdef
/pc {closepath stroke}bdef
/ps {stroke}bdef
/pum {matrix currentmatrix}bdef
/pom {setmatrix}bdef
/bs {/aString exch def /nXOfs exch def /nWidth exch def currentpoint nXOfs 0 rmoveto pum nWidth aString stringwidth pop div 1 scale aString show pom moveto} bdef
%%EndResource
%%EndProlog
%%BeginSetup
%%EndSetup
%%Page: 1 1
%%BeginPageSetup
%%EndPageSetup
pum
0.02831 0.02843 s 
0 -4572 t
/tm matrix currentmatrix def
tm setmatrix
-2268 -19025 t 
1 1 s 
1 lj 0.003 0.003 0.003 c 6332 19026 m  6332 19428 l  ps
6332 19787 m  6482 19337 l  6182 19337 l  6332 19787 l  p ef
0 lw 6205 21056 m  2269 21056 l  2269 19787 l  10141 19787 l  10141 21056 l 
6205 21056 l  pc

1.000 1.000 1.000 c 2269 23594 m  2269 22001 l  2453 21817 l  4047 21817 l 
4047 23409 l  3863 23594 l  2269 23594 l  p ef
0.003 0.003 0.003 c 2269 23594 m  2269 22001 l  2453 21817 l  4047 21817 l 
4047 23409 l  3863 23594 l  2269 23594 l  pc
1.000 1.000 1.000 c 2269 22001 m  2453 21817 l  4047 21817 l  3863 22001 l 
2269 22001 l  p ef
0.003 0.003 0.003 c 2269 22001 m  2453 21817 l  4047 21817 l  3863 22001 l 
2269 22001 l  pc
0.800 0.800 0.800 c 3863 23594 m  3863 22001 l  4047 21817 l  4047 23409 l 
3863 23594 l  p ef
0.003 0.003 0.003 c 3863 23594 m  3863 22001 l  4047 21817 l  4047 23409 l 
3863 23594 l  pc

1 lw 3285 21057 m  3285 21459 l  ps
3285 21818 m  3435 21368 l  3135 21368 l  3285 21818 l  p ef
5317 21057 m  5317 21459 l  ps
5316 21818 m  5466 21368 l  5166 21368 l  5316 21818 l  p ef
7348 21057 m  7348 21459 l  ps
7348 21818 m  7498 21368 l  7198 21368 l  7348 21818 l  p ef
9380 21057 m  9380 21459 l  ps
9379 21818 m  9529 21368 l  9229 21368 l  9379 21818 l  p ef
1.000 1.000 1.000 c 4300 23594 m  4300 22001 l  4484 21817 l  6079 21817 l 
6079 23409 l  5894 23594 l  4300 23594 l  p ef
0 lw 0.003 0.003 0.003 c 4300 23594 m  4300 22001 l  4484 21817 l  6079 21817 l 
6079 23409 l  5894 23594 l  4300 23594 l  pc
1.000 1.000 1.000 c 4300 22001 m  4484 21817 l  6079 21817 l  5894 22001 l 
4300 22001 l  p ef
0.003 0.003 0.003 c 4300 22001 m  4484 21817 l  6079 21817 l  5894 22001 l 
4300 22001 l  pc
0.800 0.800 0.800 c 5894 23594 m  5894 22001 l  6079 21817 l  6079 23409 l 
5894 23594 l  p ef
0.003 0.003 0.003 c 5894 23594 m  5894 22001 l  6079 21817 l  6079 23409 l 
5894 23594 l  pc

1.000 1.000 1.000 c 6332 23594 m  6332 22001 l  6516 21817 l  8110 21817 l 
8110 23409 l  7925 23594 l  6332 23594 l  p ef
0.003 0.003 0.003 c 6332 23594 m  6332 22001 l  6516 21817 l  8110 21817 l 
8110 23409 l  7925 23594 l  6332 23594 l  pc
1.000 1.000 1.000 c 6332 22001 m  6516 21817 l  8110 21817 l  7925 22001 l 
6332 22001 l  p ef
0.003 0.003 0.003 c 6332 22001 m  6516 21817 l  8110 21817 l  7925 22001 l 
6332 22001 l  pc
0.800 0.800 0.800 c 7925 23594 m  7925 22001 l  8110 21817 l  8110 23409 l 
7925 23594 l  p ef
0.003 0.003 0.003 c 7925 23594 m  7925 22001 l  8110 21817 l  8110 23409 l 
7925 23594 l  pc

1.000 1.000 1.000 c 8363 23594 m  8363 22001 l  8547 21817 l  10142 21817 l 
10142 23409 l  9957 23594 l  8363 23594 l  p ef
0.003 0.003 0.003 c 8363 23594 m  8363 22001 l  8547 21817 l  10142 21817 l 
10142 23409 l  9957 23594 l  8363 23594 l  pc
1.000 1.000 1.000 c 8363 22001 m  8547 21817 l  10142 21817 l  9957 22001 l 
8363 22001 l  p ef
0.003 0.003 0.003 c 8363 22001 m  8547 21817 l  10142 21817 l  9957 22001 l 
8363 22001 l  pc
0.800 0.800 0.800 c 9957 23594 m  9957 22001 l  10142 21817 l  10142 23409 l 
9957 23594 l  p ef
0.003 0.003 0.003 c 9957 23594 m  9957 22001 l  10142 21817 l  10142 23409 l 
9957 23594 l  pc

0.753 0.753 0.753 c 2608 20292 m  2565 20292 2523 20334 2523 20377 ct 2523 20716 l 
2523 20758 2565 20801 2608 20801 ct 3709 20801 l  3751 20801 3794 20758 3794 20716 ct 
3794 20377 l  3794 20334 3751 20292 3709 20292 ct 2608 20292 l  p ef
0.003 0.003 0.003 c 2608 20292 m  2565 20292 2523 20334 2523 20377 ct 2523 20716 l 
2523 20758 2565 20801 2608 20801 ct 3709 20801 l  3751 20801 3794 20758 3794 20716 ct 
3794 20377 l  3794 20334 3751 20292 3709 20292 ct 2608 20292 l  pc

0.753 0.753 0.753 c 4639 20292 m  4596 20292 4554 20334 4554 20377 ct 4554 20716 l 
4554 20758 4596 20801 4639 20801 ct 5740 20801 l  5782 20801 5825 20758 5825 20716 ct 
5825 20377 l  5825 20334 5782 20292 5740 20292 ct 4639 20292 l  p ef
0.003 0.003 0.003 c 4639 20292 m  4596 20292 4554 20334 4554 20377 ct 4554 20716 l 
4554 20758 4596 20801 4639 20801 ct 5740 20801 l  5782 20801 5825 20758 5825 20716 ct 
5825 20377 l  5825 20334 5782 20292 5740 20292 ct 4639 20292 l  pc

0.753 0.753 0.753 c 6671 20293 m  6628 20293 6586 20335 6586 20378 ct 6586 20717 l 
6586 20759 6628 20802 6671 20802 ct 7772 20802 l  7814 20802 7857 20759 7857 20717 ct 
7857 20378 l  7857 20335 7814 20293 7772 20293 ct 6671 20293 l  p ef
0.003 0.003 0.003 c 6671 20293 m  6628 20293 6586 20335 6586 20378 ct 6586 20717 l 
6586 20759 6628 20802 6671 20802 ct 7772 20802 l  7814 20802 7857 20759 7857 20717 ct 
7857 20378 l  7857 20335 7814 20293 7772 20293 ct 6671 20293 l  pc

0.753 0.753 0.753 c 8702 20292 m  8659 20292 8617 20334 8617 20377 ct 8617 20716 l 
8617 20758 8659 20801 8702 20801 ct 9803 20801 l  9845 20801 9888 20758 9888 20716 ct 
9888 20377 l  9888 20334 9845 20292 9803 20292 ct 8702 20292 l  p ef
0.003 0.003 0.003 c 8702 20292 m  8659 20292 8617 20334 8617 20377 ct 8617 20716 l 
8617 20758 8659 20801 8702 20801 ct 9803 20801 l  9845 20801 9888 20758 9888 20716 ct 
9888 20377 l  9888 20334 9845 20292 9803 20292 ct 8702 20292 l  pc

1 lw 6015 20549 m  6395 20549 l  ps
5824 20549 m  6063 20698 l  6063 20399 l  5824 20549 l  p ef
6586 20549 m  6347 20399 l  6347 20698 l  6586 20549 l  p ef
3984 20549 m  4364 20549 l  ps
3793 20549 m  4031 20698 l  4031 20399 l  3793 20549 l  p ef
4554 20549 m  4315 20399 l  4315 20698 l  4554 20549 l  p ef
8047 20549 m  8427 20549 l  ps
7856 20549 m  8094 20698 l  8094 20399 l  7856 20549 l  p ef
8617 20549 m  8378 20399 l  8378 20698 l  8617 20549 l  p ef
0 4572 t 
pom
count op_count sub {pop} repeat countdictstack dict_count sub {end} repeat b4_inc_state restore
%%PageTrailer
%%Trailer
%%EOF
