%!PS-Adobe-3.0 EPSF-3.0 
%%BoundingBox: 0 0 223 130
%%Pages: 0
%%Creator: Sun Microsystems, Inc.
%%Title: none
%%CreationDate: none
%%LanguageLevel: 2
%%EndComments
%%BeginProlog
%%BeginResource: procset SDRes-Prolog 1.0 0
/b4_inc_state save def
/dict_count countdictstack def
/op_count count 1 sub def
userdict begin
0 setgray 0 setlinecap 1 setlinewidth 0 setlinejoin 10 setmiterlimit[] 0 setdash newpath
/languagelevel where {pop languagelevel 1 ne {false setstrokeadjust false setoverprint} if} if
/bdef {bind def} bind def
/c {setrgbcolor} bdef
/l {neg lineto} bdef
/rl {neg rlineto} bdef
/lc {setlinecap} bdef
/lj {setlinejoin} bdef
/lw {setlinewidth} bdef
/ml {setmiterlimit} bdef
/ld {setdash} bdef
/m {neg moveto} bdef
/ct {6 2 roll neg 6 2 roll neg 6 2 roll neg curveto} bdef
/r {rotate} bdef
/t {neg translate} bdef
/s {scale} bdef
/sw {show} bdef
/gs {gsave} bdef
/gr {grestore} bdef
/f {findfont dup length dict begin
{1 index /FID ne {def} {pop pop} ifelse} forall /Encoding ISOLatin1Encoding def
currentdict end /NFont exch definefont pop /NFont findfont} bdef
/p {closepath} bdef
/sf {scalefont setfont} bdef
/ef {eofill}bdef
/pc {closepath stroke}bdef
/ps {stroke}bdef
/pum {matrix currentmatrix}bdef
/pom {setmatrix}bdef
/bs {/aString exch def /nXOfs exch def /nWidth exch def currentpoint nXOfs 0 rmoveto pum nWidth aString stringwidth pop div 1 scale aString show pom moveto} bdef
%%EndResource
%%EndProlog
%%BeginSetup
%%EndSetup
%%Page: 1 1
%%BeginPageSetup
%%EndPageSetup
pum
0.02831 0.02843 s 
0 -4572 t
/tm matrix currentmatrix def
tm setmatrix
-2268 -2268 t 
1 1 s 
1 lj 0.003 0.003 0.003 c 6332 2269 m  6332 2671 l  ps
6332 3030 m  6482 2580 l  6182 2580 l  6332 3030 l  p ef
0 lw 6205 4300 m  2269 4300 l  2269 3030 l  10141 3030 l  10141 4300 l 
6205 4300 l  pc

1.000 1.000 1.000 c 2269 6838 m  2269 5244 l  2453 5060 l  4047 5060 l 
4047 6653 l  3863 6838 l  2269 6838 l  p ef
0.003 0.003 0.003 c 2269 6838 m  2269 5244 l  2453 5060 l  4047 5060 l  4047 6653 l 
3863 6838 l  2269 6838 l  pc
1.000 1.000 1.000 c 2269 5244 m  2453 5060 l  4047 5060 l  3863 5244 l 
2269 5244 l  p ef
0.003 0.003 0.003 c 2269 5244 m  2453 5060 l  4047 5060 l  3863 5244 l  2269 5244 l 
pc
0.800 0.800 0.800 c 3863 6838 m  3863 5244 l  4047 5060 l  4047 6653 l 
3863 6838 l  p ef
0.003 0.003 0.003 c 3863 6838 m  3863 5244 l  4047 5060 l  4047 6653 l  3863 6838 l 
pc

1 lw 3285 4300 m  3285 4702 l  ps
3285 5061 m  3435 4611 l  3135 4611 l  3285 5061 l  p ef
5317 4300 m  5317 4702 l  ps
5316 5061 m  5466 4611 l  5166 4611 l  5316 5061 l  p ef
7348 4300 m  7348 4702 l  ps
7348 5061 m  7498 4611 l  7198 4611 l  7348 5061 l  p ef
9380 4300 m  9380 4702 l  ps
9379 5061 m  9529 4611 l  9229 4611 l  9379 5061 l  p ef
1.000 1.000 1.000 c 4300 6838 m  4300 5244 l  4484 5060 l  6079 5060 l 
6079 6653 l  5894 6838 l  4300 6838 l  p ef
0 lw 0.003 0.003 0.003 c 4300 6838 m  4300 5244 l  4484 5060 l  6079 5060 l 
6079 6653 l  5894 6838 l  4300 6838 l  pc
1.000 1.000 1.000 c 4300 5244 m  4484 5060 l  6079 5060 l  5894 5244 l 
4300 5244 l  p ef
0.003 0.003 0.003 c 4300 5244 m  4484 5060 l  6079 5060 l  5894 5244 l  4300 5244 l 
pc
0.800 0.800 0.800 c 5894 6838 m  5894 5244 l  6079 5060 l  6079 6653 l 
5894 6838 l  p ef
0.003 0.003 0.003 c 5894 6838 m  5894 5244 l  6079 5060 l  6079 6653 l  5894 6838 l 
pc

1.000 1.000 1.000 c 6332 6838 m  6332 5244 l  6516 5060 l  8110 5060 l 
8110 6653 l  7925 6838 l  6332 6838 l  p ef
0.003 0.003 0.003 c 6332 6838 m  6332 5244 l  6516 5060 l  8110 5060 l  8110 6653 l 
7925 6838 l  6332 6838 l  pc
1.000 1.000 1.000 c 6332 5244 m  6516 5060 l  8110 5060 l  7925 5244 l 
6332 5244 l  p ef
0.003 0.003 0.003 c 6332 5244 m  6516 5060 l  8110 5060 l  7925 5244 l  6332 5244 l 
pc
0.800 0.800 0.800 c 7925 6838 m  7925 5244 l  8110 5060 l  8110 6653 l 
7925 6838 l  p ef
0.003 0.003 0.003 c 7925 6838 m  7925 5244 l  8110 5060 l  8110 6653 l  7925 6838 l 
pc

1.000 1.000 1.000 c 8363 6838 m  8363 5244 l  8547 5060 l  10142 5060 l 
10142 6653 l  9957 6838 l  8363 6838 l  p ef
0.003 0.003 0.003 c 8363 6838 m  8363 5244 l  8547 5060 l  10142 5060 l  10142 6653 l 
9957 6838 l  8363 6838 l  pc
1.000 1.000 1.000 c 8363 5244 m  8547 5060 l  10142 5060 l  9957 5244 l 
8363 5244 l  p ef
0.003 0.003 0.003 c 8363 5244 m  8547 5060 l  10142 5060 l  9957 5244 l  8363 5244 l 
pc
0.800 0.800 0.800 c 9957 6838 m  9957 5244 l  10142 5060 l  10142 6653 l 
9957 6838 l  p ef
0.003 0.003 0.003 c 9957 6838 m  9957 5244 l  10142 5060 l  10142 6653 l  9957 6838 l 
pc

0 4572 t 
pom
count op_count sub {pop} repeat countdictstack dict_count sub {end} repeat b4_inc_state restore
%%PageTrailer
%%Trailer
%%EOF
