%!PS-Adobe-3.0 EPSF-3.0 
%%BoundingBox: 0 0 223 130
%%Pages: 0
%%Creator: Sun Microsystems, Inc.
%%Title: none
%%CreationDate: none
%%LanguageLevel: 2
%%EndComments
%%BeginProlog
%%BeginResource: procset SDRes-Prolog 1.0 0
/b4_inc_state save def
/dict_count countdictstack def
/op_count count 1 sub def
userdict begin
0 setgray 0 setlinecap 1 setlinewidth 0 setlinejoin 10 setmiterlimit[] 0 setdash newpath
/languagelevel where {pop languagelevel 1 ne {false setstrokeadjust false setoverprint} if} if
/bdef {bind def} bind def
/c {setrgbcolor} bdef
/l {neg lineto} bdef
/rl {neg rlineto} bdef
/lc {setlinecap} bdef
/lj {setlinejoin} bdef
/lw {setlinewidth} bdef
/ml {setmiterlimit} bdef
/ld {setdash} bdef
/m {neg moveto} bdef
/ct {6 2 roll neg 6 2 roll neg 6 2 roll neg curveto} bdef
/r {rotate} bdef
/t {neg translate} bdef
/s {scale} bdef
/sw {show} bdef
/gs {gsave} bdef
/gr {grestore} bdef
/f {findfont dup length dict begin
{1 index /FID ne {def} {pop pop} ifelse} forall /Encoding ISOLatin1Encoding def
currentdict end /NFont exch definefont pop /NFont findfont} bdef
/p {closepath} bdef
/sf {scalefont setfont} bdef
/ef {eofill}bdef
/pc {closepath stroke}bdef
/ps {stroke}bdef
/pum {matrix currentmatrix}bdef
/pom {setmatrix}bdef
/bs {/aString exch def /nXOfs exch def /nWidth exch def currentpoint nXOfs 0 rmoveto pum nWidth aString stringwidth pop div 1 scale aString show pom moveto} bdef
%%EndResource
%%EndProlog
%%BeginSetup
%%EndSetup
%%Page: 1 1
%%BeginPageSetup
%%EndPageSetup
pum
0.02831 0.02843 s 
0 -4572 t
/tm matrix currentmatrix def
tm setmatrix
-2268 -13185 t 
1 1 s 
1 lj 0.003 0.003 0.003 c 6332 13186 m  6332 13588 l  ps
6332 13947 m  6482 13498 l  6182 13498 l  6332 13947 l  p ef
0 lw 6205 15217 m  2269 15217 l  2269 13947 l  10141 13947 l  10141 15217 l 
6205 15217 l  pc

1.000 1.000 1.000 c 2269 17755 m  2269 16161 l  2453 15978 l  4047 15978 l 
4047 17570 l  3863 17755 l  2269 17755 l  p ef
0.003 0.003 0.003 c 2269 17755 m  2269 16161 l  2453 15978 l  4047 15978 l 
4047 17570 l  3863 17755 l  2269 17755 l  pc
1.000 1.000 1.000 c 2269 16161 m  2453 15978 l  4047 15978 l  3863 16161 l 
2269 16161 l  p ef
0.003 0.003 0.003 c 2269 16161 m  2453 15978 l  4047 15978 l  3863 16161 l 
2269 16161 l  pc
0.800 0.800 0.800 c 3863 17755 m  3863 16161 l  4047 15978 l  4047 17570 l 
3863 17755 l  p ef
0.003 0.003 0.003 c 3863 17755 m  3863 16161 l  4047 15978 l  4047 17570 l 
3863 17755 l  pc

1 lw 3285 15217 m  3285 15619 l  ps
3285 15979 m  3435 15529 l  3135 15529 l  3285 15979 l  p ef
5317 15217 m  5317 15619 l  ps
5316 15979 m  5466 15529 l  5166 15529 l  5316 15979 l  p ef
7348 15217 m  7348 15619 l  ps
7348 15979 m  7498 15529 l  7198 15529 l  7348 15979 l  p ef
9380 15217 m  9380 15619 l  ps
9379 15979 m  9529 15529 l  9229 15529 l  9379 15979 l  p ef
1.000 1.000 1.000 c 4300 17755 m  4300 16161 l  4484 15978 l  6079 15978 l 
6079 17570 l  5894 17755 l  4300 17755 l  p ef
0 lw 0.003 0.003 0.003 c 4300 17755 m  4300 16161 l  4484 15978 l  6079 15978 l 
6079 17570 l  5894 17755 l  4300 17755 l  pc
1.000 1.000 1.000 c 4300 16161 m  4484 15978 l  6079 15978 l  5894 16161 l 
4300 16161 l  p ef
0.003 0.003 0.003 c 4300 16161 m  4484 15978 l  6079 15978 l  5894 16161 l 
4300 16161 l  pc
0.800 0.800 0.800 c 5894 17755 m  5894 16161 l  6079 15978 l  6079 17570 l 
5894 17755 l  p ef
0.003 0.003 0.003 c 5894 17755 m  5894 16161 l  6079 15978 l  6079 17570 l 
5894 17755 l  pc

1.000 1.000 1.000 c 6332 17755 m  6332 16161 l  6516 15978 l  8110 15978 l 
8110 17570 l  7925 17755 l  6332 17755 l  p ef
0.003 0.003 0.003 c 6332 17755 m  6332 16161 l  6516 15978 l  8110 15978 l 
8110 17570 l  7925 17755 l  6332 17755 l  pc
1.000 1.000 1.000 c 6332 16161 m  6516 15978 l  8110 15978 l  7925 16161 l 
6332 16161 l  p ef
0.003 0.003 0.003 c 6332 16161 m  6516 15978 l  8110 15978 l  7925 16161 l 
6332 16161 l  pc
0.800 0.800 0.800 c 7925 17755 m  7925 16161 l  8110 15978 l  8110 17570 l 
7925 17755 l  p ef
0.003 0.003 0.003 c 7925 17755 m  7925 16161 l  8110 15978 l  8110 17570 l 
7925 17755 l  pc

1.000 1.000 1.000 c 8363 17755 m  8363 16161 l  8547 15978 l  10142 15978 l 
10142 17570 l  9957 17755 l  8363 17755 l  p ef
0.003 0.003 0.003 c 8363 17755 m  8363 16161 l  8547 15978 l  10142 15978 l 
10142 17570 l  9957 17755 l  8363 17755 l  pc
1.000 1.000 1.000 c 8363 16161 m  8547 15978 l  10142 15978 l  9957 16161 l 
8363 16161 l  p ef
0.003 0.003 0.003 c 8363 16161 m  8547 15978 l  10142 15978 l  9957 16161 l 
8363 16161 l  pc
0.800 0.800 0.800 c 9957 17755 m  9957 16161 l  10142 15978 l  10142 17570 l 
9957 17755 l  p ef
0.003 0.003 0.003 c 9957 17755 m  9957 16161 l  10142 15978 l  10142 17570 l 
9957 17755 l  pc

0.753 0.753 0.753 c 2608 14199 m  2565 14199 2523 14241 2523 14284 ct 2523 14624 l 
2523 14666 2565 14709 2608 14709 ct 9803 14709 l  9845 14709 9888 14666 9888 14624 ct 
9888 14284 l  9888 14241 9845 14199 9803 14199 ct 2608 14199 l  p ef
0.003 0.003 0.003 c 2608 14199 m  2565 14199 2523 14241 2523 14284 ct 2523 14624 l 
2523 14666 2565 14709 2608 14709 ct 9803 14709 l  9845 14709 9888 14666 9888 14624 ct 
9888 14284 l  9888 14241 9845 14199 9803 14199 ct 2608 14199 l  pc

0 4572 t 
pom
count op_count sub {pop} repeat countdictstack dict_count sub {end} repeat b4_inc_state restore
%%PageTrailer
%%Trailer
%%EOF
