%!PS-Adobe-3.0 EPSF-3.0 
%%BoundingBox: 0 0 223 130
%%Pages: 0
%%Creator: Sun Microsystems, Inc.
%%Title: none
%%CreationDate: none
%%LanguageLevel: 2
%%EndComments
%%BeginProlog
%%BeginResource: procset SDRes-Prolog 1.0 0
/b4_inc_state save def
/dict_count countdictstack def
/op_count count 1 sub def
userdict begin
0 setgray 0 setlinecap 1 setlinewidth 0 setlinejoin 10 setmiterlimit[] 0 setdash newpath
/languagelevel where {pop languagelevel 1 ne {false setstrokeadjust false setoverprint} if} if
/bdef {bind def} bind def
/c {setrgbcolor} bdef
/l {neg lineto} bdef
/rl {neg rlineto} bdef
/lc {setlinecap} bdef
/lj {setlinejoin} bdef
/lw {setlinewidth} bdef
/ml {setmiterlimit} bdef
/ld {setdash} bdef
/m {neg moveto} bdef
/ct {6 2 roll neg 6 2 roll neg 6 2 roll neg curveto} bdef
/r {rotate} bdef
/t {neg translate} bdef
/s {scale} bdef
/sw {show} bdef
/gs {gsave} bdef
/gr {grestore} bdef
/f {findfont dup length dict begin
{1 index /FID ne {def} {pop pop} ifelse} forall /Encoding ISOLatin1Encoding def
currentdict end /NFont exch definefont pop /NFont findfont} bdef
/p {closepath} bdef
/sf {scalefont setfont} bdef
/ef {eofill}bdef
/pc {closepath stroke}bdef
/ps {stroke}bdef
/pum {matrix currentmatrix}bdef
/pom {setmatrix}bdef
/bs {/aString exch def /nXOfs exch def /nWidth exch def currentpoint nXOfs 0 rmoveto pum nWidth aString stringwidth pop div 1 scale aString show pom moveto} bdef
%%EndResource
%%EndProlog
%%BeginSetup
%%EndSetup
%%Page: 1 1
%%BeginPageSetup
%%EndPageSetup
pum
0.02831 0.02843 s 
0 -4572 t
/tm matrix currentmatrix def
tm setmatrix
-2267 -7601 t 
1 1 s 
1 lj 0.003 0.003 0.003 c 6332 7602 m  6332 8003 l  ps
6332 8363 m  6482 7913 l  6182 7913 l  6332 8363 l  p ef
0 lw 6205 9632 m  2269 9632 l  2269 8363 l  10141 8363 l  10141 9632 l 
6205 9632 l  pc

1.000 1.000 1.000 c 2269 12170 m  2269 10577 l  2453 10393 l  4047 10393 l 
4047 11985 l  3863 12170 l  2269 12170 l  p ef
0.003 0.003 0.003 c 2269 12170 m  2269 10577 l  2453 10393 l  4047 10393 l 
4047 11985 l  3863 12170 l  2269 12170 l  pc
1.000 1.000 1.000 c 2269 10577 m  2453 10393 l  4047 10393 l  3863 10577 l 
2269 10577 l  p ef
0.003 0.003 0.003 c 2269 10577 m  2453 10393 l  4047 10393 l  3863 10577 l 
2269 10577 l  pc
0.800 0.800 0.800 c 3863 12170 m  3863 10577 l  4047 10393 l  4047 11985 l 
3863 12170 l  p ef
0.003 0.003 0.003 c 3863 12170 m  3863 10577 l  4047 10393 l  4047 11985 l 
3863 12170 l  pc

1 lw 3285 9633 m  3285 10035 l  ps
3285 10394 m  3435 9944 l  3135 9944 l  3285 10394 l  p ef
5317 9633 m  5317 10035 l  ps
5316 10394 m  5466 9944 l  5166 9944 l  5316 10394 l  p ef
7348 9633 m  7348 10035 l  ps
7348 10394 m  7498 9944 l  7198 9944 l  7348 10394 l  p ef
9380 9633 m  9380 10035 l  ps
9379 10394 m  9529 9944 l  9229 9944 l  9379 10394 l  p ef
1.000 1.000 1.000 c 4300 12170 m  4300 10577 l  4484 10393 l  6079 10393 l 
6079 11985 l  5894 12170 l  4300 12170 l  p ef
0 lw 0.003 0.003 0.003 c 4300 12170 m  4300 10577 l  4484 10393 l  6079 10393 l 
6079 11985 l  5894 12170 l  4300 12170 l  pc
1.000 1.000 1.000 c 4300 10577 m  4484 10393 l  6079 10393 l  5894 10577 l 
4300 10577 l  p ef
0.003 0.003 0.003 c 4300 10577 m  4484 10393 l  6079 10393 l  5894 10577 l 
4300 10577 l  pc
0.800 0.800 0.800 c 5894 12170 m  5894 10577 l  6079 10393 l  6079 11985 l 
5894 12170 l  p ef
0.003 0.003 0.003 c 5894 12170 m  5894 10577 l  6079 10393 l  6079 11985 l 
5894 12170 l  pc

1.000 1.000 1.000 c 6332 12170 m  6332 10577 l  6516 10393 l  8110 10393 l 
8110 11985 l  7925 12170 l  6332 12170 l  p ef
0.003 0.003 0.003 c 6332 12170 m  6332 10577 l  6516 10393 l  8110 10393 l 
8110 11985 l  7925 12170 l  6332 12170 l  pc
1.000 1.000 1.000 c 6332 10577 m  6516 10393 l  8110 10393 l  7925 10577 l 
6332 10577 l  p ef
0.003 0.003 0.003 c 6332 10577 m  6516 10393 l  8110 10393 l  7925 10577 l 
6332 10577 l  pc
0.800 0.800 0.800 c 7925 12170 m  7925 10577 l  8110 10393 l  8110 11985 l 
7925 12170 l  p ef
0.003 0.003 0.003 c 7925 12170 m  7925 10577 l  8110 10393 l  8110 11985 l 
7925 12170 l  pc

1.000 1.000 1.000 c 8363 12170 m  8363 10577 l  8547 10393 l  10142 10393 l 
10142 11985 l  9957 12170 l  8363 12170 l  p ef
0.003 0.003 0.003 c 8363 12170 m  8363 10577 l  8547 10393 l  10142 10393 l 
10142 11985 l  9957 12170 l  8363 12170 l  pc
1.000 1.000 1.000 c 8363 10577 m  8547 10393 l  10142 10393 l  9957 10577 l 
8363 10577 l  p ef
0.003 0.003 0.003 c 8363 10577 m  8547 10393 l  10142 10393 l  9957 10577 l 
8363 10577 l  pc
0.800 0.800 0.800 c 9957 12170 m  9957 10577 l  10142 10393 l  10142 11985 l 
9957 12170 l  p ef
0.003 0.003 0.003 c 9957 12170 m  9957 10577 l  10142 10393 l  10142 11985 l 
9957 12170 l  pc

0.753 0.753 0.753 c 2608 10645 m  2565 10645 2523 10687 2523 10730 ct 2523 11070 l 
2523 11112 2565 11155 2608 11155 ct 3709 11155 l  3751 11155 3794 11112 3794 11070 ct 
3794 10730 l  3794 10687 3751 10645 3709 10645 ct 2608 10645 l  p ef
0.003 0.003 0.003 c 2608 10645 m  2565 10645 2523 10687 2523 10730 ct 2523 11070 l 
2523 11112 2565 11155 2608 11155 ct 3709 11155 l  3751 11155 3794 11112 3794 11070 ct 
3794 10730 l  3794 10687 3751 10645 3709 10645 ct 2608 10645 l  pc

0.753 0.753 0.753 c 4639 10645 m  4596 10645 4554 10687 4554 10730 ct 4554 11070 l 
4554 11112 4596 11155 4639 11155 ct 5740 11155 l  5782 11155 5825 11112 5825 11070 ct 
5825 10730 l  5825 10687 5782 10645 5740 10645 ct 4639 10645 l  p ef
0.003 0.003 0.003 c 4639 10645 m  4596 10645 4554 10687 4554 10730 ct 4554 11070 l 
4554 11112 4596 11155 4639 11155 ct 5740 11155 l  5782 11155 5825 11112 5825 11070 ct 
5825 10730 l  5825 10687 5782 10645 5740 10645 ct 4639 10645 l  pc

0.753 0.753 0.753 c 6671 10646 m  6628 10646 6586 10688 6586 10731 ct 6586 11071 l 
6586 11113 6628 11156 6671 11156 ct 7772 11156 l  7814 11156 7857 11113 7857 11071 ct 
7857 10731 l  7857 10688 7814 10646 7772 10646 ct 6671 10646 l  p ef
0.003 0.003 0.003 c 6671 10646 m  6628 10646 6586 10688 6586 10731 ct 6586 11071 l 
6586 11113 6628 11156 6671 11156 ct 7772 11156 l  7814 11156 7857 11113 7857 11071 ct 
7857 10731 l  7857 10688 7814 10646 7772 10646 ct 6671 10646 l  pc

0.753 0.753 0.753 c 8702 10645 m  8659 10645 8617 10687 8617 10730 ct 8617 11070 l 
8617 11112 8659 11155 8702 11155 ct 9803 11155 l  9845 11155 9888 11112 9888 11070 ct 
9888 10730 l  9888 10687 9845 10645 9803 10645 ct 8702 10645 l  p ef
0.003 0.003 0.003 c 8702 10645 m  8659 10645 8617 10687 8617 10730 ct 8617 11070 l 
8617 11112 8659 11155 8702 11155 ct 9803 11155 l  9845 11155 9888 11112 9888 11070 ct 
9888 10730 l  9888 10687 9845 10645 9803 10645 ct 8702 10645 l  pc

1 lw 6331 7602 m  6331 8003 l  ps
6331 8363 m  6481 7913 l  6181 7913 l  6331 8363 l  p ef
0 lw 6204 9632 m  2268 9632 l  2268 8363 l  10140 8363 l  10140 9632 l 
6204 9632 l  pc

1.000 1.000 1.000 c 2268 12170 m  2268 10577 l  2452 10393 l  4046 10393 l 
4046 11985 l  3862 12170 l  2268 12170 l  p ef
0.003 0.003 0.003 c 2268 12170 m  2268 10577 l  2452 10393 l  4046 10393 l 
4046 11985 l  3862 12170 l  2268 12170 l  pc
1.000 1.000 1.000 c 2268 10577 m  2452 10393 l  4046 10393 l  3862 10577 l 
2268 10577 l  p ef
0.003 0.003 0.003 c 2268 10577 m  2452 10393 l  4046 10393 l  3862 10577 l 
2268 10577 l  pc
0.800 0.800 0.800 c 3862 12170 m  3862 10577 l  4046 10393 l  4046 11985 l 
3862 12170 l  p ef
0.003 0.003 0.003 c 3862 12170 m  3862 10577 l  4046 10393 l  4046 11985 l 
3862 12170 l  pc

1 lw 3284 9633 m  3284 10035 l  ps
3284 10394 m  3434 9944 l  3134 9944 l  3284 10394 l  p ef
5316 9633 m  5316 10035 l  ps
5315 10394 m  5465 9944 l  5165 9944 l  5315 10394 l  p ef
7347 9633 m  7347 10035 l  ps
7347 10394 m  7497 9944 l  7197 9944 l  7347 10394 l  p ef
9379 9633 m  9379 10035 l  ps
9378 10394 m  9528 9944 l  9228 9944 l  9378 10394 l  p ef
1.000 1.000 1.000 c 4299 12170 m  4299 10577 l  4483 10393 l  6078 10393 l 
6078 11985 l  5893 12170 l  4299 12170 l  p ef
0 lw 0.003 0.003 0.003 c 4299 12170 m  4299 10577 l  4483 10393 l  6078 10393 l 
6078 11985 l  5893 12170 l  4299 12170 l  pc
1.000 1.000 1.000 c 4299 10577 m  4483 10393 l  6078 10393 l  5893 10577 l 
4299 10577 l  p ef
0.003 0.003 0.003 c 4299 10577 m  4483 10393 l  6078 10393 l  5893 10577 l 
4299 10577 l  pc
0.800 0.800 0.800 c 5893 12170 m  5893 10577 l  6078 10393 l  6078 11985 l 
5893 12170 l  p ef
0.003 0.003 0.003 c 5893 12170 m  5893 10577 l  6078 10393 l  6078 11985 l 
5893 12170 l  pc

1.000 1.000 1.000 c 6331 12170 m  6331 10577 l  6515 10393 l  8109 10393 l 
8109 11985 l  7924 12170 l  6331 12170 l  p ef
0.003 0.003 0.003 c 6331 12170 m  6331 10577 l  6515 10393 l  8109 10393 l 
8109 11985 l  7924 12170 l  6331 12170 l  pc
1.000 1.000 1.000 c 6331 10577 m  6515 10393 l  8109 10393 l  7924 10577 l 
6331 10577 l  p ef
0.003 0.003 0.003 c 6331 10577 m  6515 10393 l  8109 10393 l  7924 10577 l 
6331 10577 l  pc
0.800 0.800 0.800 c 7924 12170 m  7924 10577 l  8109 10393 l  8109 11985 l 
7924 12170 l  p ef
0.003 0.003 0.003 c 7924 12170 m  7924 10577 l  8109 10393 l  8109 11985 l 
7924 12170 l  pc

1.000 1.000 1.000 c 8362 12170 m  8362 10577 l  8546 10393 l  10141 10393 l 
10141 11985 l  9956 12170 l  8362 12170 l  p ef
0.003 0.003 0.003 c 8362 12170 m  8362 10577 l  8546 10393 l  10141 10393 l 
10141 11985 l  9956 12170 l  8362 12170 l  pc
1.000 1.000 1.000 c 8362 10577 m  8546 10393 l  10141 10393 l  9956 10577 l 
8362 10577 l  p ef
0.003 0.003 0.003 c 8362 10577 m  8546 10393 l  10141 10393 l  9956 10577 l 
8362 10577 l  pc
0.800 0.800 0.800 c 9956 12170 m  9956 10577 l  10141 10393 l  10141 11985 l 
9956 12170 l  p ef
0.003 0.003 0.003 c 9956 12170 m  9956 10577 l  10141 10393 l  10141 11985 l 
9956 12170 l  pc

0.753 0.753 0.753 c 2607 10645 m  2564 10645 2522 10687 2522 10730 ct 2522 11070 l 
2522 11112 2564 11155 2607 11155 ct 3708 11155 l  3750 11155 3793 11112 3793 11070 ct 
3793 10730 l  3793 10687 3750 10645 3708 10645 ct 2607 10645 l  p ef
0.003 0.003 0.003 c 2607 10645 m  2564 10645 2522 10687 2522 10730 ct 2522 11070 l 
2522 11112 2564 11155 2607 11155 ct 3708 11155 l  3750 11155 3793 11112 3793 11070 ct 
3793 10730 l  3793 10687 3750 10645 3708 10645 ct 2607 10645 l  pc

0.753 0.753 0.753 c 4638 10645 m  4595 10645 4553 10687 4553 10730 ct 4553 11070 l 
4553 11112 4595 11155 4638 11155 ct 5739 11155 l  5781 11155 5824 11112 5824 11070 ct 
5824 10730 l  5824 10687 5781 10645 5739 10645 ct 4638 10645 l  p ef
0.003 0.003 0.003 c 4638 10645 m  4595 10645 4553 10687 4553 10730 ct 4553 11070 l 
4553 11112 4595 11155 4638 11155 ct 5739 11155 l  5781 11155 5824 11112 5824 11070 ct 
5824 10730 l  5824 10687 5781 10645 5739 10645 ct 4638 10645 l  pc

0.753 0.753 0.753 c 6670 10646 m  6627 10646 6585 10688 6585 10731 ct 6585 11071 l 
6585 11113 6627 11156 6670 11156 ct 7771 11156 l  7813 11156 7856 11113 7856 11071 ct 
7856 10731 l  7856 10688 7813 10646 7771 10646 ct 6670 10646 l  p ef
0.003 0.003 0.003 c 6670 10646 m  6627 10646 6585 10688 6585 10731 ct 6585 11071 l 
6585 11113 6627 11156 6670 11156 ct 7771 11156 l  7813 11156 7856 11113 7856 11071 ct 
7856 10731 l  7856 10688 7813 10646 7771 10646 ct 6670 10646 l  pc

0.753 0.753 0.753 c 8701 10645 m  8658 10645 8616 10687 8616 10730 ct 8616 11070 l 
8616 11112 8658 11155 8701 11155 ct 9802 11155 l  9844 11155 9887 11112 9887 11070 ct 
9887 10730 l  9887 10687 9844 10645 9802 10645 ct 8701 10645 l  p ef
0.003 0.003 0.003 c 8701 10645 m  8658 10645 8616 10687 8616 10730 ct 8616 11070 l 
8616 11112 8658 11155 8701 11155 ct 9802 11155 l  9844 11155 9887 11112 9887 11070 ct 
9887 10730 l  9887 10687 9844 10645 9802 10645 ct 8701 10645 l  pc

0 4572 t 
pom
count op_count sub {pop} repeat countdictstack dict_count sub {end} repeat b4_inc_state restore
%%PageTrailer
%%Trailer
%%EOF
