%!PS-Adobe-3.0 EPSF-3.0 
%%BoundingBox: 0 0 562 199
%%Pages: 0
%%Creator: LibreOffice 4.2
%%Title: none
%%CreationDate: none
%%LanguageLevel: 2
%%EndComments
%%BeginProlog
%%BeginResource: procset SDRes-Prolog 1.0 0
/b4_inc_state save def
/dict_count countdictstack def
/op_count count 1 sub def
userdict begin
0 setgray 0 setlinecap 1 setlinewidth 0 setlinejoin 10 setmiterlimit[] 0 setdash newpath
/languagelevel where {pop languagelevel 1 ne {false setstrokeadjust false setoverprint} if} if
/bdef {bind def} bind def
/c {setgray} bdef
/l {neg lineto} bdef
/rl {neg rlineto} bdef
/lc {setlinecap} bdef
/lj {setlinejoin} bdef
/lw {setlinewidth} bdef
/ml {setmiterlimit} bdef
/ld {setdash} bdef
/m {neg moveto} bdef
/ct {6 2 roll neg 6 2 roll neg 6 2 roll neg curveto} bdef
/r {rotate} bdef
/t {neg translate} bdef
/s {scale} bdef
/sw {show} bdef
/gs {gsave} bdef
/gr {grestore} bdef
/f {findfont dup length dict begin
{1 index /FID ne {def} {pop pop} ifelse} forall /Encoding ISOLatin1Encoding def
currentdict end /NFont exch definefont pop /NFont findfont} bdef
/p {closepath} bdef
/sf {scalefont setfont} bdef
/ef {eofill}bdef
/pc {closepath stroke}bdef
/ps {stroke}bdef
/pum {matrix currentmatrix}bdef
/pom {setmatrix}bdef
/bs {/aString exch def /nXOfs exch def /nWidth exch def currentpoint nXOfs 0 rmoveto pum nWidth aString stringwidth pop div 1 scale aString show pom moveto} bdef
%%EndResource
%%EndProlog
%%BeginSetup
%%EndSetup
%%Page: 1 1
%%BeginPageSetup
%%EndPageSetup
pum
0.02836 0.02837 s 
0 -7012 t
/tm matrix currentmatrix def
tm setmatrix
-746 -12425 t 
1 1 s 
1 lj 0.000 c 3540 18167 m  19619 18167 l  ps
20049 18167 m  19599 18017 l  19599 18317 l  20049 18167 l  p ef
pum
18521 19122 t
223 -389 m  223 0 l  164 0 l  164 -389 l  14 -389 l  14 -437 l  373 -437 l 
373 -389 l  223 -389 l  p ef
406 -407 m  406 -460 l  462 -460 l  462 -407 l  406 -407 l  p
406 1 m  406 -335 l  462 -335 l  462 1 l  406 1 l  p ef
742 0 m  742 -213 l  742 -229 741 -243 739 -254 ct 737 -265 733 -274 729 -280 ct 
724 -287 717 -292 710 -295 ct 702 -297 692 -299 681 -299 ct 669 -299 658 -297 649 -292 ct 
639 -287 631 -281 624 -272 ct 618 -263 613 -252 609 -239 ct 605 -226 604 -211 604 -195 ct 
604 0 l  548 0 l  548 -264 l  548 -271 548 -279 548 -286 ct 548 -294 548 -301 547 -308 ct 
547 -315 547 -321 547 -326 ct 547 -331 546 -334 546 -336 ct 599 -336 l  599 -335 599 -332 600 -327 ct 
600 -323 600 -318 600 -312 ct 601 -306 601 -300 601 -294 ct 601 -288 601 -283 601 -278 ct 
602 -278 l  607 -288 613 -297 618 -305 ct 624 -313 631 -319 639 -325 ct 646 -330 655 -335 665 -338 ct 
675 -341 687 -342 700 -342 ct 726 -342 746 -337 761 -327 ct 775 -317 786 -301 791 -278 ct 
792 -278 l  797 -288 803 -297 809 -305 ct 815 -313 823 -319 831 -325 ct 839 -330 848 -335 859 -338 ct 
869 -341 881 -342 894 -342 ct 911 -342 926 -340 938 -335 ct 950 -331 960 -324 968 -314 ct 
976 -305 982 -292 986 -277 ct 989 -262 991 -244 991 -224 ct 991 0 l  936 0 l 
936 -213 l  936 -229 935 -243 933 -254 ct 931 -265 927 -274 922 -280 ct 918 -287 911 -292 903 -295 ct 
896 -297 886 -299 875 -299 ct 863 -299 852 -297 843 -292 ct 833 -288 825 -281 818 -272 ct 
812 -264 806 -253 803 -240 ct 799 -227 797 -212 797 -195 ct 797 0 l  742 0 l 
p ef
1119 -156 m  1119 -139 1120 -122 1124 -108 ct 1128 -93 1133 -80 1141 -70 ct 
1148 -59 1158 -51 1170 -45 ct 1182 -39 1196 -36 1212 -36 ct 1236 -36 1256 -41 1270 -50 ct 
1285 -60 1295 -72 1300 -87 ct 1349 -73 l  1345 -64 1341 -55 1334 -45 ct 1328 -36 1320 -27 1309 -20 ct 
1298 -12 1285 -6 1269 -1 ct 1254 4 1235 6 1212 6 ct 1163 6 1125 -9 1099 -38 ct 
1073 -68 1060 -112 1060 -170 ct 1060 -202 1064 -228 1072 -250 ct 1080 -272 1090 -290 1104 -303 ct 
1118 -317 1134 -327 1152 -333 ct 1170 -339 1189 -342 1210 -342 ct 1238 -342 1262 -338 1281 -329 ct 
1300 -320 1315 -307 1326 -291 ct 1338 -275 1346 -256 1351 -234 ct 1356 -212 1358 -189 1358 -164 ct 
1358 -156 l  1119 -156 l  p
1300 -199 m  1297 -234 1288 -260 1273 -277 ct 1258 -293 1237 -301 1209 -301 ct 
1200 -301 1190 -300 1180 -296 ct 1170 -293 1160 -288 1151 -280 ct 1143 -273 1135 -262 1129 -249 ct 
1123 -236 1120 -219 1119 -199 ct 1300 -199 l  p ef
pom
pum
996 17698 t
394 -121 m  394 -103 391 -86 384 -70 ct 377 -55 366 -41 351 -30 ct 336 -19 317 -10 294 -3 ct 
272 3 245 6 214 6 ct 160 6 117 -4 87 -23 ct 56 -42 37 -69 29 -105 ct 86 -117 l 
89 -105 94 -95 100 -86 ct 106 -76 114 -68 124 -61 ct 134 -55 147 -50 162 -46 ct 
177 -42 195 -40 216 -40 ct 234 -40 250 -42 264 -45 ct 279 -48 292 -52 302 -59 ct 
313 -65 321 -73 327 -83 ct 333 -92 336 -104 336 -118 ct 336 -132 333 -144 326 -153 ct 
320 -161 310 -169 299 -175 ct 287 -180 273 -185 256 -189 ct 240 -193 222 -197 202 -202 ct 
190 -205 178 -208 165 -211 ct 153 -214 141 -218 130 -222 ct 119 -227 108 -232 98 -238 ct 
88 -244 80 -251 73 -259 ct 65 -268 60 -278 56 -289 ct 51 -300 49 -313 49 -327 ct 
49 -348 53 -365 62 -380 ct 70 -395 82 -407 97 -417 ct 112 -426 129 -433 149 -437 ct 
170 -442 192 -444 215 -444 ct 242 -444 265 -442 285 -438 ct 304 -433 320 -427 333 -419 ct 
347 -410 357 -400 365 -387 ct 373 -375 379 -360 384 -343 ct 326 -333 l  323 -344 319 -353 313 -361 ct 
308 -370 301 -377 292 -382 ct 283 -388 272 -392 259 -395 ct 247 -398 232 -399 215 -399 ct 
194 -399 177 -397 164 -394 ct 150 -390 139 -385 130 -379 ct 122 -373 116 -366 112 -357 ct 
109 -349 107 -340 107 -330 ct 107 -317 110 -306 117 -298 ct 123 -290 132 -283 143 -277 ct 
154 -271 167 -267 182 -263 ct 197 -259 212 -256 229 -252 ct 242 -249 256 -246 269 -242 ct 
282 -239 295 -235 307 -231 ct 319 -226 331 -221 342 -215 ct 352 -209 361 -202 369 -193 ct 
377 -185 383 -174 388 -163 ct 392 -151 394 -137 394 -121 ct p ef
817 -121 m  817 -103 814 -86 807 -70 ct 800 -55 789 -41 774 -30 ct 759 -19 740 -10 717 -3 ct 
695 3 668 6 637 6 ct 583 6 540 -4 510 -23 ct 479 -42 460 -69 452 -105 ct 509 -117 l 
512 -105 517 -95 523 -86 ct 529 -76 537 -68 547 -61 ct 557 -55 570 -50 585 -46 ct 
600 -42 618 -40 639 -40 ct 657 -40 673 -42 687 -45 ct 702 -48 715 -52 725 -59 ct 
736 -65 744 -73 750 -83 ct 756 -92 759 -104 759 -118 ct 759 -132 756 -144 749 -153 ct 
743 -161 733 -169 722 -175 ct 710 -180 696 -185 679 -189 ct 663 -193 645 -197 625 -202 ct 
613 -205 601 -208 588 -211 ct 576 -214 564 -218 553 -222 ct 542 -227 531 -232 521 -238 ct 
511 -244 503 -251 496 -259 ct 488 -268 483 -278 479 -289 ct 474 -300 472 -313 472 -327 ct 
472 -348 476 -365 485 -380 ct 493 -395 505 -407 520 -417 ct 535 -426 552 -433 572 -437 ct 
593 -442 615 -444 638 -444 ct 665 -444 688 -442 708 -438 ct 727 -433 743 -427 756 -419 ct 
770 -410 780 -400 788 -387 ct 796 -375 802 -360 807 -343 ct 749 -333 l  746 -344 742 -353 736 -361 ct 
731 -370 724 -377 715 -382 ct 706 -388 695 -392 682 -395 ct 670 -398 655 -399 638 -399 ct 
617 -399 600 -397 587 -394 ct 573 -390 562 -385 553 -379 ct 545 -373 539 -366 535 -357 ct 
532 -349 530 -340 530 -330 ct 530 -317 533 -306 540 -298 ct 546 -290 555 -283 566 -277 ct 
577 -271 590 -267 605 -263 ct 620 -259 635 -256 652 -252 ct 665 -249 679 -246 692 -242 ct 
705 -239 718 -235 730 -231 ct 742 -226 754 -221 765 -215 ct 775 -209 784 -202 792 -193 ct 
800 -185 806 -174 811 -163 ct 815 -151 817 -137 817 -121 ct p ef
1275 -223 m  1275 -187 1270 -155 1259 -127 ct 1248 -99 1233 -76 1214 -57 ct 
1195 -38 1172 -24 1146 -14 ct 1120 -5 1092 0 1062 0 ct 899 0 l  899 -437 l  1044 -437 l 
1077 -437 1108 -433 1137 -425 ct 1165 -417 1190 -404 1210 -386 ct 1231 -369 1247 -346 1258 -319 ct 
1269 -293 1275 -261 1275 -223 ct p
1216 -223 m  1216 -253 1211 -278 1203 -299 ct 1194 -320 1183 -337 1167 -351 ct 
1152 -364 1134 -374 1112 -381 ct 1091 -387 1068 -390 1042 -390 ct 958 -390 l 
958 -47 l  1056 -47 l  1079 -47 1100 -51 1119 -59 ct 1139 -66 1156 -77 1170 -92 ct 
1184 -107 1196 -125 1204 -147 ct 1212 -169 1216 -194 1216 -223 ct p ef
1807 -121 m  1807 -101 1804 -83 1797 -67 ct 1791 -52 1781 -38 1769 -27 ct 1756 -17 1741 -8 1722 -3 ct 
1704 3 1683 6 1659 6 ct 1632 6 1609 3 1591 -4 ct 1572 -11 1557 -20 1545 -31 ct 
1533 -42 1524 -54 1518 -69 ct 1512 -83 1508 -97 1506 -113 ct 1564 -118 l  1566 -106 1569 -96 1573 -86 ct 
1577 -77 1584 -68 1591 -62 ct 1599 -55 1608 -50 1619 -46 ct 1631 -42 1644 -40 1659 -40 ct 
1687 -40 1709 -47 1725 -61 ct 1741 -75 1749 -96 1749 -123 ct 1749 -139 1746 -152 1739 -162 ct 
1731 -172 1723 -179 1712 -185 ct 1701 -190 1690 -194 1677 -196 ct 1665 -198 1653 -199 1643 -199 ct 
1611 -199 l  1611 -247 l  1641 -247 l  1652 -247 1663 -248 1674 -250 ct 1686 -252 1696 -256 1705 -262 ct 
1715 -268 1723 -275 1729 -285 ct 1735 -295 1738 -307 1738 -322 ct 1738 -346 1731 -364 1717 -378 ct 
1703 -391 1683 -398 1656 -398 ct 1631 -398 1611 -392 1596 -379 ct 1581 -367 1572 -349 1570 -326 ct 
1514 -330 l  1516 -349 1521 -366 1529 -380 ct 1538 -395 1548 -407 1561 -416 ct 
1574 -425 1588 -432 1604 -437 ct 1621 -442 1638 -444 1657 -444 ct 1681 -444 1702 -441 1720 -435 ct 
1737 -429 1751 -420 1763 -410 ct 1774 -400 1782 -387 1787 -373 ct 1793 -359 1795 -344 1795 -328 ct 
1795 -315 1793 -303 1790 -292 ct 1786 -281 1781 -271 1773 -262 ct 1766 -253 1757 -246 1745 -239 ct 
1734 -233 1720 -228 1704 -225 ct 1704 -223 l  1721 -222 1737 -218 1750 -211 ct 
1763 -205 1773 -198 1782 -189 ct 1790 -180 1797 -169 1801 -158 ct 1805 -146 1807 -134 1807 -121 ct 
p ef
pom
pum
996 16682 t
394 -121 m  394 -103 391 -86 384 -70 ct 377 -55 366 -41 351 -30 ct 336 -19 317 -10 294 -3 ct 
272 3 245 6 214 6 ct 160 6 117 -4 87 -23 ct 56 -42 37 -69 29 -105 ct 86 -117 l 
89 -105 94 -95 100 -86 ct 106 -76 114 -68 124 -61 ct 134 -55 147 -50 162 -46 ct 
177 -42 195 -40 216 -40 ct 234 -40 250 -42 264 -45 ct 279 -48 292 -52 302 -59 ct 
313 -65 321 -73 327 -83 ct 333 -92 336 -104 336 -118 ct 336 -132 333 -144 326 -153 ct 
320 -161 310 -169 299 -175 ct 287 -180 273 -185 256 -189 ct 240 -193 222 -197 202 -202 ct 
190 -205 178 -208 165 -211 ct 153 -214 141 -218 130 -222 ct 119 -227 108 -232 98 -238 ct 
88 -244 80 -251 73 -259 ct 65 -268 60 -278 56 -289 ct 51 -300 49 -313 49 -327 ct 
49 -348 53 -365 62 -380 ct 70 -395 82 -407 97 -417 ct 112 -426 129 -433 149 -437 ct 
170 -442 192 -444 215 -444 ct 242 -444 265 -442 285 -438 ct 304 -433 320 -427 333 -419 ct 
347 -410 357 -400 365 -387 ct 373 -375 379 -360 384 -343 ct 326 -333 l  323 -344 319 -353 313 -361 ct 
308 -370 301 -377 292 -382 ct 283 -388 272 -392 259 -395 ct 247 -398 232 -399 215 -399 ct 
194 -399 177 -397 164 -394 ct 150 -390 139 -385 130 -379 ct 122 -373 116 -366 112 -357 ct 
109 -349 107 -340 107 -330 ct 107 -317 110 -306 117 -298 ct 123 -290 132 -283 143 -277 ct 
154 -271 167 -267 182 -263 ct 197 -259 212 -256 229 -252 ct 242 -249 256 -246 269 -242 ct 
282 -239 295 -235 307 -231 ct 319 -226 331 -221 342 -215 ct 352 -209 361 -202 369 -193 ct 
377 -185 383 -174 388 -163 ct 392 -151 394 -137 394 -121 ct p ef
817 -121 m  817 -103 814 -86 807 -70 ct 800 -55 789 -41 774 -30 ct 759 -19 740 -10 717 -3 ct 
695 3 668 6 637 6 ct 583 6 540 -4 510 -23 ct 479 -42 460 -69 452 -105 ct 509 -117 l 
512 -105 517 -95 523 -86 ct 529 -76 537 -68 547 -61 ct 557 -55 570 -50 585 -46 ct 
600 -42 618 -40 639 -40 ct 657 -40 673 -42 687 -45 ct 702 -48 715 -52 725 -59 ct 
736 -65 744 -73 750 -83 ct 756 -92 759 -104 759 -118 ct 759 -132 756 -144 749 -153 ct 
743 -161 733 -169 722 -175 ct 710 -180 696 -185 679 -189 ct 663 -193 645 -197 625 -202 ct 
613 -205 601 -208 588 -211 ct 576 -214 564 -218 553 -222 ct 542 -227 531 -232 521 -238 ct 
511 -244 503 -251 496 -259 ct 488 -268 483 -278 479 -289 ct 474 -300 472 -313 472 -327 ct 
472 -348 476 -365 485 -380 ct 493 -395 505 -407 520 -417 ct 535 -426 552 -433 572 -437 ct 
593 -442 615 -444 638 -444 ct 665 -444 688 -442 708 -438 ct 727 -433 743 -427 756 -419 ct 
770 -410 780 -400 788 -387 ct 796 -375 802 -360 807 -343 ct 749 -333 l  746 -344 742 -353 736 -361 ct 
731 -370 724 -377 715 -382 ct 706 -388 695 -392 682 -395 ct 670 -398 655 -399 638 -399 ct 
617 -399 600 -397 587 -394 ct 573 -390 562 -385 553 -379 ct 545 -373 539 -366 535 -357 ct 
532 -349 530 -340 530 -330 ct 530 -317 533 -306 540 -298 ct 546 -290 555 -283 566 -277 ct 
577 -271 590 -267 605 -263 ct 620 -259 635 -256 652 -252 ct 665 -249 679 -246 692 -242 ct 
705 -239 718 -235 730 -231 ct 742 -226 754 -221 765 -215 ct 775 -209 784 -202 792 -193 ct 
800 -185 806 -174 811 -163 ct 815 -151 817 -137 817 -121 ct p ef
1275 -223 m  1275 -187 1270 -155 1259 -127 ct 1248 -99 1233 -76 1214 -57 ct 
1195 -38 1172 -24 1146 -14 ct 1120 -5 1092 0 1062 0 ct 899 0 l  899 -437 l  1044 -437 l 
1077 -437 1108 -433 1137 -425 ct 1165 -417 1190 -404 1210 -386 ct 1231 -369 1247 -346 1258 -319 ct 
1269 -293 1275 -261 1275 -223 ct p
1216 -223 m  1216 -253 1211 -278 1203 -299 ct 1194 -320 1183 -337 1167 -351 ct 
1152 -364 1134 -374 1112 -381 ct 1091 -387 1068 -390 1042 -390 ct 958 -390 l 
958 -47 l  1056 -47 l  1079 -47 1100 -51 1119 -59 ct 1139 -66 1156 -77 1170 -92 ct 
1184 -107 1196 -125 1204 -147 ct 1212 -169 1216 -194 1216 -223 ct p ef
1514 0 m  1514 -39 l  1524 -64 1537 -85 1553 -104 ct 1568 -122 1584 -139 1600 -154 ct 
1617 -169 1634 -183 1650 -196 ct 1667 -208 1681 -221 1695 -234 ct 1708 -247 1719 -260 1727 -274 ct 
1735 -289 1739 -304 1739 -322 ct 1739 -335 1737 -346 1733 -355 ct 1730 -364 1724 -372 1717 -379 ct 
1710 -385 1702 -390 1692 -393 ct 1682 -396 1671 -398 1659 -398 ct 1648 -398 1638 -396 1628 -393 ct 
1618 -390 1609 -386 1602 -379 ct 1594 -373 1588 -365 1583 -356 ct 1578 -347 1575 -336 1573 -324 ct 
1516 -329 l  1518 -345 1523 -360 1529 -374 ct 1536 -388 1546 -400 1558 -410 ct 
1570 -421 1584 -429 1601 -435 ct 1618 -441 1637 -444 1659 -444 ct 1681 -444 1700 -441 1717 -436 ct 
1734 -431 1749 -423 1760 -413 ct 1772 -403 1781 -391 1787 -376 ct 1793 -361 1796 -344 1796 -324 ct 
1796 -309 1794 -295 1789 -282 ct 1783 -269 1776 -256 1767 -244 ct 1759 -232 1748 -221 1737 -210 ct 
1725 -198 1713 -187 1701 -177 ct 1688 -166 1675 -156 1662 -145 ct 1650 -135 1638 -124 1626 -114 ct 
1615 -103 1605 -92 1596 -81 ct 1587 -71 1580 -59 1575 -47 ct 1803 -47 l  1803 0 l 
1514 0 l  p ef
pom
pum
996 15667 t
394 -121 m  394 -103 391 -86 384 -70 ct 377 -55 366 -41 351 -30 ct 336 -19 317 -10 294 -3 ct 
272 3 245 6 214 6 ct 160 6 117 -4 87 -23 ct 56 -42 37 -69 29 -105 ct 86 -117 l 
89 -105 94 -95 100 -86 ct 106 -76 114 -68 124 -61 ct 134 -55 147 -50 162 -46 ct 
177 -42 195 -40 216 -40 ct 234 -40 250 -42 264 -45 ct 279 -48 292 -52 302 -59 ct 
313 -65 321 -73 327 -83 ct 333 -92 336 -104 336 -118 ct 336 -132 333 -144 326 -153 ct 
320 -161 310 -169 299 -175 ct 287 -180 273 -185 256 -189 ct 240 -193 222 -197 202 -202 ct 
190 -205 178 -208 165 -211 ct 153 -214 141 -218 130 -222 ct 119 -227 108 -232 98 -238 ct 
88 -244 80 -251 73 -259 ct 65 -268 60 -278 56 -289 ct 51 -300 49 -313 49 -327 ct 
49 -348 53 -365 62 -380 ct 70 -395 82 -407 97 -417 ct 112 -426 129 -433 149 -437 ct 
170 -442 192 -444 215 -444 ct 242 -444 265 -442 285 -438 ct 304 -433 320 -427 333 -419 ct 
347 -410 357 -400 365 -387 ct 373 -375 379 -360 384 -343 ct 326 -333 l  323 -344 319 -353 313 -361 ct 
308 -370 301 -377 292 -382 ct 283 -388 272 -392 259 -395 ct 247 -398 232 -399 215 -399 ct 
194 -399 177 -397 164 -394 ct 150 -390 139 -385 130 -379 ct 122 -373 116 -366 112 -357 ct 
109 -349 107 -340 107 -330 ct 107 -317 110 -306 117 -298 ct 123 -290 132 -283 143 -277 ct 
154 -271 167 -267 182 -263 ct 197 -259 212 -256 229 -252 ct 242 -249 256 -246 269 -242 ct 
282 -239 295 -235 307 -231 ct 319 -226 331 -221 342 -215 ct 352 -209 361 -202 369 -193 ct 
377 -185 383 -174 388 -163 ct 392 -151 394 -137 394 -121 ct p ef
817 -121 m  817 -103 814 -86 807 -70 ct 800 -55 789 -41 774 -30 ct 759 -19 740 -10 717 -3 ct 
695 3 668 6 637 6 ct 583 6 540 -4 510 -23 ct 479 -42 460 -69 452 -105 ct 509 -117 l 
512 -105 517 -95 523 -86 ct 529 -76 537 -68 547 -61 ct 557 -55 570 -50 585 -46 ct 
600 -42 618 -40 639 -40 ct 657 -40 673 -42 687 -45 ct 702 -48 715 -52 725 -59 ct 
736 -65 744 -73 750 -83 ct 756 -92 759 -104 759 -118 ct 759 -132 756 -144 749 -153 ct 
743 -161 733 -169 722 -175 ct 710 -180 696 -185 679 -189 ct 663 -193 645 -197 625 -202 ct 
613 -205 601 -208 588 -211 ct 576 -214 564 -218 553 -222 ct 542 -227 531 -232 521 -238 ct 
511 -244 503 -251 496 -259 ct 488 -268 483 -278 479 -289 ct 474 -300 472 -313 472 -327 ct 
472 -348 476 -365 485 -380 ct 493 -395 505 -407 520 -417 ct 535 -426 552 -433 572 -437 ct 
593 -442 615 -444 638 -444 ct 665 -444 688 -442 708 -438 ct 727 -433 743 -427 756 -419 ct 
770 -410 780 -400 788 -387 ct 796 -375 802 -360 807 -343 ct 749 -333 l  746 -344 742 -353 736 -361 ct 
731 -370 724 -377 715 -382 ct 706 -388 695 -392 682 -395 ct 670 -398 655 -399 638 -399 ct 
617 -399 600 -397 587 -394 ct 573 -390 562 -385 553 -379 ct 545 -373 539 -366 535 -357 ct 
532 -349 530 -340 530 -330 ct 530 -317 533 -306 540 -298 ct 546 -290 555 -283 566 -277 ct 
577 -271 590 -267 605 -263 ct 620 -259 635 -256 652 -252 ct 665 -249 679 -246 692 -242 ct 
705 -239 718 -235 730 -231 ct 742 -226 754 -221 765 -215 ct 775 -209 784 -202 792 -193 ct 
800 -185 806 -174 811 -163 ct 815 -151 817 -137 817 -121 ct p ef
1275 -223 m  1275 -187 1270 -155 1259 -127 ct 1248 -99 1233 -76 1214 -57 ct 
1195 -38 1172 -24 1146 -14 ct 1120 -5 1092 0 1062 0 ct 899 0 l  899 -437 l  1044 -437 l 
1077 -437 1108 -433 1137 -425 ct 1165 -417 1190 -404 1210 -386 ct 1231 -369 1247 -346 1258 -319 ct 
1269 -293 1275 -261 1275 -223 ct p
1216 -223 m  1216 -253 1211 -278 1203 -299 ct 1194 -320 1183 -337 1167 -351 ct 
1152 -364 1134 -374 1112 -381 ct 1091 -387 1068 -390 1042 -390 ct 958 -390 l 
958 -47 l  1056 -47 l  1079 -47 1100 -51 1119 -59 ct 1139 -66 1156 -77 1170 -92 ct 
1184 -107 1196 -125 1204 -147 ct 1212 -169 1216 -194 1216 -223 ct p ef
1530 0 m  1530 -47 l  1642 -47 l  1642 -384 l  1543 -314 l  1543 -366 l 
1646 -438 l  1698 -438 l  1698 -47 l  1804 -47 l  1804 0 l  1530 0 l  p ef
pom
pum
996 14651 t
394 -121 m  394 -103 391 -86 384 -70 ct 377 -55 366 -41 351 -30 ct 336 -19 317 -10 294 -3 ct 
272 3 245 6 214 6 ct 160 6 117 -4 87 -23 ct 56 -42 37 -69 29 -105 ct 86 -117 l 
89 -105 94 -95 100 -86 ct 106 -76 114 -68 124 -61 ct 134 -55 147 -50 162 -46 ct 
177 -42 195 -40 216 -40 ct 234 -40 250 -42 264 -45 ct 279 -48 292 -52 302 -59 ct 
313 -65 321 -73 327 -83 ct 333 -92 336 -104 336 -118 ct 336 -132 333 -144 326 -153 ct 
320 -161 310 -169 299 -175 ct 287 -180 273 -185 256 -189 ct 240 -193 222 -197 202 -202 ct 
190 -205 178 -208 165 -211 ct 153 -214 141 -218 130 -222 ct 119 -227 108 -232 98 -238 ct 
88 -244 80 -251 73 -259 ct 65 -268 60 -278 56 -289 ct 51 -300 49 -313 49 -327 ct 
49 -348 53 -365 62 -380 ct 70 -395 82 -407 97 -417 ct 112 -426 129 -433 149 -437 ct 
170 -442 192 -444 215 -444 ct 242 -444 265 -442 285 -438 ct 304 -433 320 -427 333 -419 ct 
347 -410 357 -400 365 -387 ct 373 -375 379 -360 384 -343 ct 326 -333 l  323 -344 319 -353 313 -361 ct 
308 -370 301 -377 292 -382 ct 283 -388 272 -392 259 -395 ct 247 -398 232 -399 215 -399 ct 
194 -399 177 -397 164 -394 ct 150 -390 139 -385 130 -379 ct 122 -373 116 -366 112 -357 ct 
109 -349 107 -340 107 -330 ct 107 -317 110 -306 117 -298 ct 123 -290 132 -283 143 -277 ct 
154 -271 167 -267 182 -263 ct 197 -259 212 -256 229 -252 ct 242 -249 256 -246 269 -242 ct 
282 -239 295 -235 307 -231 ct 319 -226 331 -221 342 -215 ct 352 -209 361 -202 369 -193 ct 
377 -185 383 -174 388 -163 ct 392 -151 394 -137 394 -121 ct p ef
817 -121 m  817 -103 814 -86 807 -70 ct 800 -55 789 -41 774 -30 ct 759 -19 740 -10 717 -3 ct 
695 3 668 6 637 6 ct 583 6 540 -4 510 -23 ct 479 -42 460 -69 452 -105 ct 509 -117 l 
512 -105 517 -95 523 -86 ct 529 -76 537 -68 547 -61 ct 557 -55 570 -50 585 -46 ct 
600 -42 618 -40 639 -40 ct 657 -40 673 -42 687 -45 ct 702 -48 715 -52 725 -59 ct 
736 -65 744 -73 750 -83 ct 756 -92 759 -104 759 -118 ct 759 -132 756 -144 749 -153 ct 
743 -161 733 -169 722 -175 ct 710 -180 696 -185 679 -189 ct 663 -193 645 -197 625 -202 ct 
613 -205 601 -208 588 -211 ct 576 -214 564 -218 553 -222 ct 542 -227 531 -232 521 -238 ct 
511 -244 503 -251 496 -259 ct 488 -268 483 -278 479 -289 ct 474 -300 472 -313 472 -327 ct 
472 -348 476 -365 485 -380 ct 493 -395 505 -407 520 -417 ct 535 -426 552 -433 572 -437 ct 
593 -442 615 -444 638 -444 ct 665 -444 688 -442 708 -438 ct 727 -433 743 -427 756 -419 ct 
770 -410 780 -400 788 -387 ct 796 -375 802 -360 807 -343 ct 749 -333 l  746 -344 742 -353 736 -361 ct 
731 -370 724 -377 715 -382 ct 706 -388 695 -392 682 -395 ct 670 -398 655 -399 638 -399 ct 
617 -399 600 -397 587 -394 ct 573 -390 562 -385 553 -379 ct 545 -373 539 -366 535 -357 ct 
532 -349 530 -340 530 -330 ct 530 -317 533 -306 540 -298 ct 546 -290 555 -283 566 -277 ct 
577 -271 590 -267 605 -263 ct 620 -259 635 -256 652 -252 ct 665 -249 679 -246 692 -242 ct 
705 -239 718 -235 730 -231 ct 742 -226 754 -221 765 -215 ct 775 -209 784 -202 792 -193 ct 
800 -185 806 -174 811 -163 ct 815 -151 817 -137 817 -121 ct p ef
1275 -223 m  1275 -187 1270 -155 1259 -127 ct 1248 -99 1233 -76 1214 -57 ct 
1195 -38 1172 -24 1146 -14 ct 1120 -5 1092 0 1062 0 ct 899 0 l  899 -437 l  1044 -437 l 
1077 -437 1108 -433 1137 -425 ct 1165 -417 1190 -404 1210 -386 ct 1231 -369 1247 -346 1258 -319 ct 
1269 -293 1275 -261 1275 -223 ct p
1216 -223 m  1216 -253 1211 -278 1203 -299 ct 1194 -320 1183 -337 1167 -351 ct 
1152 -364 1134 -374 1112 -381 ct 1091 -387 1068 -390 1042 -390 ct 958 -390 l 
958 -47 l  1056 -47 l  1079 -47 1100 -51 1119 -59 ct 1139 -66 1156 -77 1170 -92 ct 
1184 -107 1196 -125 1204 -147 ct 1212 -169 1216 -194 1216 -223 ct p ef
1810 -219 m  1810 -177 1806 -142 1798 -113 ct 1790 -84 1780 -61 1766 -44 ct 
1752 -26 1736 -13 1717 -5 ct 1699 2 1679 6 1658 6 ct 1637 6 1617 2 1598 -5 ct 1580 -13 1564 -26 1550 -43 ct 
1537 -61 1526 -84 1518 -113 ct 1511 -141 1507 -177 1507 -219 ct 1507 -263 1511 -300 1518 -328 ct 
1526 -357 1537 -380 1551 -397 ct 1564 -415 1580 -427 1599 -434 ct 1618 -441 1638 -444 1660 -444 ct 
1681 -444 1700 -441 1718 -434 ct 1737 -427 1753 -415 1766 -397 ct 1780 -380 1791 -357 1799 -328 ct 
1806 -300 1810 -263 1810 -219 ct p
1754 -219 m  1754 -254 1752 -283 1747 -306 ct 1743 -329 1737 -347 1729 -361 ct 
1721 -375 1711 -384 1700 -390 ct 1688 -396 1675 -399 1660 -399 ct 1644 -399 1630 -396 1618 -390 ct 
1606 -384 1596 -374 1588 -361 ct 1580 -347 1574 -329 1569 -305 ct 1565 -282 1563 -254 1563 -219 ct 
1563 -185 1565 -157 1570 -134 ct 1574 -111 1580 -93 1588 -79 ct 1596 -65 1606 -55 1618 -49 ct 
1630 -43 1643 -40 1658 -40 ct 1673 -40 1686 -43 1698 -49 ct 1710 -55 1720 -65 1728 -79 ct 
1736 -93 1743 -111 1747 -134 ct 1751 -157 1754 -185 1754 -219 ct p ef
pom
4302 18167 m  4302 14788 l  ps
4302 14358 m  4152 14808 l  4452 14808 l  4302 14358 l  p ef
pum
4044 18868 t
362 0 m  312 -128 l  113 -128 l  63 0 l  1 0 l  180 -438 l  247 -438 l 
422 0 l  362 0 l  p
238 -319 m  235 -327 232 -335 229 -344 ct 226 -352 223 -360 221 -367 ct 218 -374 217 -380 215 -384 ct 
213 -389 213 -392 212 -393 ct 212 -392 211 -389 210 -384 ct 208 -379 206 -373 204 -366 ct 
201 -359 199 -352 196 -343 ct 193 -335 190 -326 187 -318 ct 131 -174 l  294 -174 l 
238 -319 l  p ef
pom
pum
5822 18868 t
390 -123 m  390 -101 386 -82 377 -67 ct 368 -51 357 -38 342 -28 ct 327 -19 310 -11 291 -7 ct 
271 -2 251 0 229 0 ct 52 0 l  52 -437 l  211 -437 l  235 -437 257 -435 276 -431 ct 
295 -427 311 -421 324 -412 ct 337 -404 347 -393 354 -379 ct 361 -366 365 -350 365 -331 ct 
365 -319 363 -307 360 -297 ct 356 -286 351 -276 344 -267 ct 337 -258 328 -251 318 -245 ct 
308 -238 295 -234 282 -230 ct 299 -228 315 -224 328 -218 ct 342 -212 353 -205 362 -195 ct 
371 -186 378 -175 383 -163 ct 388 -151 390 -137 390 -123 ct p
305 -324 m  305 -348 297 -365 281 -375 ct 265 -385 241 -390 211 -390 ct 111 -390 l 
111 -251 l  211 -251 l  228 -251 243 -253 255 -256 ct 267 -260 277 -265 284 -271 ct 
291 -277 297 -285 300 -294 ct 303 -303 305 -313 305 -324 ct p
330 -128 m  330 -142 328 -153 323 -163 ct 318 -173 310 -181 301 -187 ct 291 -193 280 -198 267 -201 ct 
253 -204 238 -205 222 -205 ct 111 -205 l  111 -47 l  226 -47 l  241 -47 255 -49 268 -51 ct 
281 -54 292 -58 301 -64 ct 310 -70 317 -79 322 -89 ct 328 -99 330 -112 330 -128 ct 
p ef
pom
0.996 c 4506 14104 m  5114 14104 l  5319 14358 l  5114 14613 l  4506 14613 l 
4302 14358 l  4506 14104 l  4506 14104 l  p
4302 14104 m  4302 14104 l  p
5319 14613 m  5319 14613 l  p ef
0 lw 0.000 c 4505 14103 m  5113 14103 l  5318 14357 l  5113 14612 l  4505 14612 l 
4301 14357 l  4505 14103 l  4505 14103 l  pc
4301 14103 m  4301 14103 l  pc
5318 14612 m  5318 14612 l  pc
pum
4422 14579 t
362 0 m  312 -128 l  113 -128 l  63 0 l  1 0 l  180 -438 l  247 -438 l 
422 0 l  362 0 l  p
238 -319 m  235 -327 232 -335 229 -344 ct 226 -352 223 -360 221 -367 ct 218 -374 217 -380 215 -384 ct 
213 -389 213 -392 212 -393 ct 212 -392 211 -389 210 -384 ct 208 -379 206 -373 204 -366 ct 
201 -359 199 -352 196 -343 ct 193 -335 190 -326 187 -318 ct 131 -174 l  294 -174 l 
238 -319 l  p ef
751 -219 m  751 -177 747 -142 739 -113 ct 731 -84 721 -61 707 -44 ct 693 -26 677 -13 658 -5 ct 
640 2 620 6 599 6 ct 578 6 558 2 539 -5 ct 521 -13 505 -26 491 -43 ct 478 -61 467 -84 459 -113 ct 
452 -141 448 -177 448 -219 ct 448 -263 452 -300 459 -328 ct 467 -357 478 -380 492 -397 ct 
505 -415 521 -427 540 -434 ct 559 -441 579 -444 601 -444 ct 622 -444 641 -441 659 -434 ct 
678 -427 694 -415 707 -397 ct 721 -380 732 -357 740 -328 ct 747 -300 751 -263 751 -219 ct 
p
695 -219 m  695 -254 693 -283 688 -306 ct 684 -329 678 -347 670 -361 ct 662 -375 652 -384 641 -390 ct 
629 -396 616 -399 601 -399 ct 585 -399 571 -396 559 -390 ct 547 -384 537 -374 529 -361 ct 
521 -347 515 -329 510 -305 ct 506 -282 504 -254 504 -219 ct 504 -185 506 -157 511 -134 ct 
515 -111 521 -93 529 -79 ct 537 -65 547 -55 559 -49 ct 571 -43 584 -40 599 -40 ct 
614 -40 627 -43 639 -49 ct 651 -55 661 -65 669 -79 ct 677 -93 684 -111 688 -134 ct 
692 -157 695 -185 695 -219 ct p ef
pom
0.996 c 4506 15120 m  5114 15120 l  5319 15374 l  5114 15629 l  4506 15629 l 
4302 15374 l  4506 15120 l  4506 15120 l  p
4302 15120 m  4302 15120 l  p
5319 15629 m  5319 15629 l  p ef
0.000 c 4505 15119 m  5113 15119 l  5318 15373 l  5113 15628 l  4505 15628 l 
4301 15373 l  4505 15119 l  4505 15119 l  pc
4301 15119 m  4301 15119 l  pc
5318 15628 m  5318 15628 l  pc
pum
4422 15595 t
362 0 m  312 -128 l  113 -128 l  63 0 l  1 0 l  180 -438 l  247 -438 l 
422 0 l  362 0 l  p
238 -319 m  235 -327 232 -335 229 -344 ct 226 -352 223 -360 221 -367 ct 218 -374 217 -380 215 -384 ct 
213 -389 213 -392 212 -393 ct 212 -392 211 -389 210 -384 ct 208 -379 206 -373 204 -366 ct 
201 -359 199 -352 196 -343 ct 193 -335 190 -326 187 -318 ct 131 -174 l  294 -174 l 
238 -319 l  p ef
471 0 m  471 -47 l  583 -47 l  583 -384 l  484 -314 l  484 -366 l  587 -438 l 
639 -438 l  639 -47 l  745 -47 l  745 0 l  471 0 l  p ef
pom
0.996 c 4506 16135 m  5114 16135 l  5319 16389 l  5114 16644 l  4506 16644 l 
4302 16389 l  4506 16135 l  4506 16135 l  p
4302 16135 m  4302 16135 l  p
5319 16644 m  5319 16644 l  p ef
0.000 c 4505 16135 m  5113 16135 l  5318 16389 l  5113 16644 l  4505 16644 l 
4301 16389 l  4505 16135 l  4505 16135 l  pc
4301 16135 m  4301 16135 l  pc
5318 16644 m  5318 16644 l  pc
pum
4422 16610 t
362 0 m  312 -128 l  113 -128 l  63 0 l  1 0 l  180 -438 l  247 -438 l 
422 0 l  362 0 l  p
238 -319 m  235 -327 232 -335 229 -344 ct 226 -352 223 -360 221 -367 ct 218 -374 217 -380 215 -384 ct 
213 -389 213 -392 212 -393 ct 212 -392 211 -389 210 -384 ct 208 -379 206 -373 204 -366 ct 
201 -359 199 -352 196 -343 ct 193 -335 190 -326 187 -318 ct 131 -174 l  294 -174 l 
238 -319 l  p ef
455 0 m  455 -39 l  465 -64 478 -85 494 -104 ct 509 -122 525 -139 541 -154 ct 
558 -169 575 -183 591 -196 ct 608 -208 622 -221 636 -234 ct 649 -247 660 -260 668 -274 ct 
676 -289 680 -304 680 -322 ct 680 -335 678 -346 674 -355 ct 671 -364 665 -372 658 -379 ct 
651 -385 643 -390 633 -393 ct 623 -396 612 -398 600 -398 ct 589 -398 579 -396 569 -393 ct 
559 -390 550 -386 543 -379 ct 535 -373 529 -365 524 -356 ct 519 -347 516 -336 514 -324 ct 
457 -329 l  459 -345 464 -360 470 -374 ct 477 -388 487 -400 499 -410 ct 511 -421 525 -429 542 -435 ct 
559 -441 578 -444 600 -444 ct 622 -444 641 -441 658 -436 ct 675 -431 690 -423 701 -413 ct 
713 -403 722 -391 728 -376 ct 734 -361 737 -344 737 -324 ct 737 -309 735 -295 730 -282 ct 
724 -269 717 -256 708 -244 ct 700 -232 689 -221 678 -210 ct 666 -198 654 -187 642 -177 ct 
629 -166 616 -156 603 -145 ct 591 -135 579 -124 567 -114 ct 556 -103 546 -92 537 -81 ct 
528 -71 521 -59 516 -47 ct 744 -47 l  744 0 l  455 0 l  p ef
pom
1 lw 4302 18167 m  4302 15803 l  ps
4302 15374 m  4152 15823 l  4452 15823 l  4302 15374 l  p ef
4302 18167 m  4302 16819 l  ps
4302 16389 m  4152 16839 l  4452 16839 l  4302 16389 l  p ef
0.996 c 6284 16135 m  6892 16135 l  7097 16389 l  6892 16644 l  6284 16644 l 
6080 16389 l  6284 16135 l  6284 16135 l  p
6080 16135 m  6080 16135 l  p
7097 16644 m  7097 16644 l  p ef
0 lw 0.000 c 6283 16135 m  6891 16135 l  7096 16389 l  6891 16644 l  6283 16644 l 
6079 16389 l  6283 16135 l  6283 16135 l  pc
6079 16135 m  6079 16135 l  pc
7096 16644 m  7096 16644 l  pc
pum
6200 16610 t
390 -123 m  390 -101 386 -82 377 -67 ct 368 -51 357 -38 342 -28 ct 327 -19 310 -11 291 -7 ct 
271 -2 251 0 229 0 ct 52 0 l  52 -437 l  211 -437 l  235 -437 257 -435 276 -431 ct 
295 -427 311 -421 324 -412 ct 337 -404 347 -393 354 -379 ct 361 -366 365 -350 365 -331 ct 
365 -319 363 -307 360 -297 ct 356 -286 351 -276 344 -267 ct 337 -258 328 -251 318 -245 ct 
308 -238 295 -234 282 -230 ct 299 -228 315 -224 328 -218 ct 342 -212 353 -205 362 -195 ct 
371 -186 378 -175 383 -163 ct 388 -151 390 -137 390 -123 ct p
305 -324 m  305 -348 297 -365 281 -375 ct 265 -385 241 -390 211 -390 ct 111 -390 l 
111 -251 l  211 -251 l  228 -251 243 -253 255 -256 ct 267 -260 277 -265 284 -271 ct 
291 -277 297 -285 300 -294 ct 303 -303 305 -313 305 -324 ct p
330 -128 m  330 -142 328 -153 323 -163 ct 318 -173 310 -181 301 -187 ct 291 -193 280 -198 267 -201 ct 
253 -204 238 -205 222 -205 ct 111 -205 l  111 -47 l  226 -47 l  241 -47 255 -49 268 -51 ct 
281 -54 292 -58 301 -64 ct 310 -70 317 -79 322 -89 ct 328 -99 330 -112 330 -128 ct 
p ef
455 0 m  455 -39 l  465 -64 478 -85 494 -104 ct 509 -122 525 -139 541 -154 ct 
558 -169 575 -183 591 -196 ct 608 -208 622 -221 636 -234 ct 649 -247 660 -260 668 -274 ct 
676 -289 680 -304 680 -322 ct 680 -335 678 -346 674 -355 ct 671 -364 665 -372 658 -379 ct 
651 -385 643 -390 633 -393 ct 623 -396 612 -398 600 -398 ct 589 -398 579 -396 569 -393 ct 
559 -390 550 -386 543 -379 ct 535 -373 529 -365 524 -356 ct 519 -347 516 -336 514 -324 ct 
457 -329 l  459 -345 464 -360 470 -374 ct 477 -388 487 -400 499 -410 ct 511 -421 525 -429 542 -435 ct 
559 -441 578 -444 600 -444 ct 622 -444 641 -441 658 -436 ct 675 -431 690 -423 701 -413 ct 
713 -403 722 -391 728 -376 ct 734 -361 737 -344 737 -324 ct 737 -309 735 -295 730 -282 ct 
724 -269 717 -256 708 -244 ct 700 -232 689 -221 678 -210 ct 666 -198 654 -187 642 -177 ct 
629 -166 616 -156 603 -145 ct 591 -135 579 -124 567 -114 ct 556 -103 546 -92 537 -81 ct 
528 -71 521 -59 516 -47 ct 744 -47 l  744 0 l  455 0 l  p ef
pom
1 lw 6080 18167 m  6080 16819 l  ps
6080 16389 m  5930 16839 l  6230 16839 l  6080 16389 l  p ef
0.996 c 6284 17151 m  6892 17151 l  7097 17405 l  6892 17660 l  6284 17660 l 
6080 17405 l  6284 17151 l  6284 17151 l  p
6080 17151 m  6080 17151 l  p
7097 17660 m  7097 17660 l  p ef
0 lw 0.000 c 6283 17151 m  6891 17151 l  7096 17405 l  6891 17659 l  6283 17659 l 
6079 17405 l  6283 17151 l  6283 17151 l  pc
6079 17151 m  6079 17151 l  pc
7096 17659 m  7096 17659 l  pc
pum
6200 17626 t
390 -123 m  390 -101 386 -82 377 -67 ct 368 -51 357 -38 342 -28 ct 327 -19 310 -11 291 -7 ct 
271 -2 251 0 229 0 ct 52 0 l  52 -437 l  211 -437 l  235 -437 257 -435 276 -431 ct 
295 -427 311 -421 324 -412 ct 337 -404 347 -393 354 -379 ct 361 -366 365 -350 365 -331 ct 
365 -319 363 -307 360 -297 ct 356 -286 351 -276 344 -267 ct 337 -258 328 -251 318 -245 ct 
308 -238 295 -234 282 -230 ct 299 -228 315 -224 328 -218 ct 342 -212 353 -205 362 -195 ct 
371 -186 378 -175 383 -163 ct 388 -151 390 -137 390 -123 ct p
305 -324 m  305 -348 297 -365 281 -375 ct 265 -385 241 -390 211 -390 ct 111 -390 l 
111 -251 l  211 -251 l  228 -251 243 -253 255 -256 ct 267 -260 277 -265 284 -271 ct 
291 -277 297 -285 300 -294 ct 303 -303 305 -313 305 -324 ct p
330 -128 m  330 -142 328 -153 323 -163 ct 318 -173 310 -181 301 -187 ct 291 -193 280 -198 267 -201 ct 
253 -204 238 -205 222 -205 ct 111 -205 l  111 -47 l  226 -47 l  241 -47 255 -49 268 -51 ct 
281 -54 292 -58 301 -64 ct 310 -70 317 -79 322 -89 ct 328 -99 330 -112 330 -128 ct 
p ef
748 -121 m  748 -101 745 -83 738 -67 ct 732 -52 722 -38 710 -27 ct 697 -17 682 -8 663 -3 ct 
645 3 624 6 600 6 ct 573 6 550 3 532 -4 ct 513 -11 498 -20 486 -31 ct 474 -42 465 -54 459 -69 ct 
453 -83 449 -97 447 -113 ct 505 -118 l  507 -106 510 -96 514 -86 ct 518 -77 525 -68 532 -62 ct 
540 -55 549 -50 560 -46 ct 572 -42 585 -40 600 -40 ct 628 -40 650 -47 666 -61 ct 
682 -75 690 -96 690 -123 ct 690 -139 687 -152 680 -162 ct 672 -172 664 -179 653 -185 ct 
642 -190 631 -194 618 -196 ct 606 -198 594 -199 584 -199 ct 552 -199 l  552 -247 l 
582 -247 l  593 -247 604 -248 615 -250 ct 627 -252 637 -256 646 -262 ct 656 -268 664 -275 670 -285 ct 
676 -295 679 -307 679 -322 ct 679 -346 672 -364 658 -378 ct 644 -391 624 -398 597 -398 ct 
572 -398 552 -392 537 -379 ct 522 -367 513 -349 511 -326 ct 455 -330 l  457 -349 462 -366 470 -380 ct 
479 -395 489 -407 502 -416 ct 515 -425 529 -432 545 -437 ct 562 -442 579 -444 598 -444 ct 
622 -444 643 -441 661 -435 ct 678 -429 692 -420 704 -410 ct 715 -400 723 -387 728 -373 ct 
734 -359 736 -344 736 -328 ct 736 -315 734 -303 731 -292 ct 727 -281 722 -271 714 -262 ct 
707 -253 698 -246 686 -239 ct 675 -233 661 -228 645 -225 ct 645 -223 l  662 -222 678 -218 691 -211 ct 
704 -205 714 -198 723 -189 ct 731 -180 738 -169 742 -158 ct 746 -146 748 -134 748 -121 ct 
p ef
pom
1 lw 6080 18167 m  6080 17835 l  ps
6080 17405 m  5930 17855 l  6230 17855 l  6080 17405 l  p ef
0.996 c 8316 14104 m  8924 14104 l  9129 14358 l  8924 14613 l  8316 14613 l 
8112 14358 l  8316 14104 l  8316 14104 l  p
8112 14104 m  8112 14104 l  p
9129 14613 m  9129 14613 l  p ef
0 lw 0.000 c 8315 14103 m  8923 14103 l  9128 14357 l  8923 14612 l  8315 14612 l 
8111 14357 l  8315 14103 l  8315 14103 l  pc
8111 14103 m  8111 14103 l  pc
9128 14612 m  9128 14612 l  pc
pum
8232 14579 t
362 0 m  312 -128 l  113 -128 l  63 0 l  1 0 l  180 -438 l  247 -438 l 
422 0 l  362 0 l  p
238 -319 m  235 -327 232 -335 229 -344 ct 226 -352 223 -360 221 -367 ct 218 -374 217 -380 215 -384 ct 
213 -389 213 -392 212 -393 ct 212 -392 211 -389 210 -384 ct 208 -379 206 -373 204 -366 ct 
201 -359 199 -352 196 -343 ct 193 -335 190 -326 187 -318 ct 131 -174 l  294 -174 l 
238 -319 l  p ef
751 -219 m  751 -177 747 -142 739 -113 ct 731 -84 721 -61 707 -44 ct 693 -26 677 -13 658 -5 ct 
640 2 620 6 599 6 ct 578 6 558 2 539 -5 ct 521 -13 505 -26 491 -43 ct 478 -61 467 -84 459 -113 ct 
452 -141 448 -177 448 -219 ct 448 -263 452 -300 459 -328 ct 467 -357 478 -380 492 -397 ct 
505 -415 521 -427 540 -434 ct 559 -441 579 -444 601 -444 ct 622 -444 641 -441 659 -434 ct 
678 -427 694 -415 707 -397 ct 721 -380 732 -357 740 -328 ct 747 -300 751 -263 751 -219 ct 
p
695 -219 m  695 -254 693 -283 688 -306 ct 684 -329 678 -347 670 -361 ct 662 -375 652 -384 641 -390 ct 
629 -396 616 -399 601 -399 ct 585 -399 571 -396 559 -390 ct 547 -384 537 -374 529 -361 ct 
521 -347 515 -329 510 -305 ct 506 -282 504 -254 504 -219 ct 504 -185 506 -157 511 -134 ct 
515 -111 521 -93 529 -79 ct 537 -65 547 -55 559 -49 ct 571 -43 584 -40 599 -40 ct 
614 -40 627 -43 639 -49 ct 651 -55 661 -65 669 -79 ct 677 -93 684 -111 688 -134 ct 
692 -157 695 -185 695 -219 ct p ef
pom
0.996 c 8316 15120 m  8924 15120 l  9129 15374 l  8924 15629 l  8316 15629 l 
8112 15374 l  8316 15120 l  8316 15120 l  p
8112 15120 m  8112 15120 l  p
9129 15629 m  9129 15629 l  p ef
0.000 c 8315 15119 m  8923 15119 l  9128 15373 l  8923 15628 l  8315 15628 l 
8111 15373 l  8315 15119 l  8315 15119 l  pc
8111 15119 m  8111 15119 l  pc
9128 15628 m  9128 15628 l  pc
pum
8232 15595 t
362 0 m  312 -128 l  113 -128 l  63 0 l  1 0 l  180 -438 l  247 -438 l 
422 0 l  362 0 l  p
238 -319 m  235 -327 232 -335 229 -344 ct 226 -352 223 -360 221 -367 ct 218 -374 217 -380 215 -384 ct 
213 -389 213 -392 212 -393 ct 212 -392 211 -389 210 -384 ct 208 -379 206 -373 204 -366 ct 
201 -359 199 -352 196 -343 ct 193 -335 190 -326 187 -318 ct 131 -174 l  294 -174 l 
238 -319 l  p ef
471 0 m  471 -47 l  583 -47 l  583 -384 l  484 -314 l  484 -366 l  587 -438 l 
639 -438 l  639 -47 l  745 -47 l  745 0 l  471 0 l  p ef
pom
0.996 c 8316 16135 m  8924 16135 l  9129 16389 l  8924 16644 l  8316 16644 l 
8112 16389 l  8316 16135 l  8316 16135 l  p
8112 16135 m  8112 16135 l  p
9129 16644 m  9129 16644 l  p ef
0.000 c 8315 16135 m  8923 16135 l  9128 16389 l  8923 16644 l  8315 16644 l 
8111 16389 l  8315 16135 l  8315 16135 l  pc
8111 16135 m  8111 16135 l  pc
9128 16644 m  9128 16644 l  pc
pum
8232 16610 t
362 0 m  312 -128 l  113 -128 l  63 0 l  1 0 l  180 -438 l  247 -438 l 
422 0 l  362 0 l  p
238 -319 m  235 -327 232 -335 229 -344 ct 226 -352 223 -360 221 -367 ct 218 -374 217 -380 215 -384 ct 
213 -389 213 -392 212 -393 ct 212 -392 211 -389 210 -384 ct 208 -379 206 -373 204 -366 ct 
201 -359 199 -352 196 -343 ct 193 -335 190 -326 187 -318 ct 131 -174 l  294 -174 l 
238 -319 l  p ef
455 0 m  455 -39 l  465 -64 478 -85 494 -104 ct 509 -122 525 -139 541 -154 ct 
558 -169 575 -183 591 -196 ct 608 -208 622 -221 636 -234 ct 649 -247 660 -260 668 -274 ct 
676 -289 680 -304 680 -322 ct 680 -335 678 -346 674 -355 ct 671 -364 665 -372 658 -379 ct 
651 -385 643 -390 633 -393 ct 623 -396 612 -398 600 -398 ct 589 -398 579 -396 569 -393 ct 
559 -390 550 -386 543 -379 ct 535 -373 529 -365 524 -356 ct 519 -347 516 -336 514 -324 ct 
457 -329 l  459 -345 464 -360 470 -374 ct 477 -388 487 -400 499 -410 ct 511 -421 525 -429 542 -435 ct 
559 -441 578 -444 600 -444 ct 622 -444 641 -441 658 -436 ct 675 -431 690 -423 701 -413 ct 
713 -403 722 -391 728 -376 ct 734 -361 737 -344 737 -324 ct 737 -309 735 -295 730 -282 ct 
724 -269 717 -256 708 -244 ct 700 -232 689 -221 678 -210 ct 666 -198 654 -187 642 -177 ct 
629 -166 616 -156 603 -145 ct 591 -135 579 -124 567 -114 ct 556 -103 546 -92 537 -81 ct 
528 -71 521 -59 516 -47 ct 744 -47 l  744 0 l  455 0 l  p ef
pom
0.996 c 8316 17151 m  8924 17151 l  9129 17405 l  8924 17660 l  8316 17660 l 
8112 17405 l  8316 17151 l  8316 17151 l  p
8112 17151 m  8112 17151 l  p
9129 17660 m  9129 17660 l  p ef
0.000 c 8315 17151 m  8923 17151 l  9128 17405 l  8923 17659 l  8315 17659 l 
8111 17405 l  8315 17151 l  8315 17151 l  pc
8111 17151 m  8111 17151 l  pc
9128 17659 m  9128 17659 l  pc
pum
8232 17626 t
390 -123 m  390 -101 386 -82 377 -67 ct 368 -51 357 -38 342 -28 ct 327 -19 310 -11 291 -7 ct 
271 -2 251 0 229 0 ct 52 0 l  52 -437 l  211 -437 l  235 -437 257 -435 276 -431 ct 
295 -427 311 -421 324 -412 ct 337 -404 347 -393 354 -379 ct 361 -366 365 -350 365 -331 ct 
365 -319 363 -307 360 -297 ct 356 -286 351 -276 344 -267 ct 337 -258 328 -251 318 -245 ct 
308 -238 295 -234 282 -230 ct 299 -228 315 -224 328 -218 ct 342 -212 353 -205 362 -195 ct 
371 -186 378 -175 383 -163 ct 388 -151 390 -137 390 -123 ct p
305 -324 m  305 -348 297 -365 281 -375 ct 265 -385 241 -390 211 -390 ct 111 -390 l 
111 -251 l  211 -251 l  228 -251 243 -253 255 -256 ct 267 -260 277 -265 284 -271 ct 
291 -277 297 -285 300 -294 ct 303 -303 305 -313 305 -324 ct p
330 -128 m  330 -142 328 -153 323 -163 ct 318 -173 310 -181 301 -187 ct 291 -193 280 -198 267 -201 ct 
253 -204 238 -205 222 -205 ct 111 -205 l  111 -47 l  226 -47 l  241 -47 255 -49 268 -51 ct 
281 -54 292 -58 301 -64 ct 310 -70 317 -79 322 -89 ct 328 -99 330 -112 330 -128 ct 
p ef
748 -121 m  748 -101 745 -83 738 -67 ct 732 -52 722 -38 710 -27 ct 697 -17 682 -8 663 -3 ct 
645 3 624 6 600 6 ct 573 6 550 3 532 -4 ct 513 -11 498 -20 486 -31 ct 474 -42 465 -54 459 -69 ct 
453 -83 449 -97 447 -113 ct 505 -118 l  507 -106 510 -96 514 -86 ct 518 -77 525 -68 532 -62 ct 
540 -55 549 -50 560 -46 ct 572 -42 585 -40 600 -40 ct 628 -40 650 -47 666 -61 ct 
682 -75 690 -96 690 -123 ct 690 -139 687 -152 680 -162 ct 672 -172 664 -179 653 -185 ct 
642 -190 631 -194 618 -196 ct 606 -198 594 -199 584 -199 ct 552 -199 l  552 -247 l 
582 -247 l  593 -247 604 -248 615 -250 ct 627 -252 637 -256 646 -262 ct 656 -268 664 -275 670 -285 ct 
676 -295 679 -307 679 -322 ct 679 -346 672 -364 658 -378 ct 644 -391 624 -398 597 -398 ct 
572 -398 552 -392 537 -379 ct 522 -367 513 -349 511 -326 ct 455 -330 l  457 -349 462 -366 470 -380 ct 
479 -395 489 -407 502 -416 ct 515 -425 529 -432 545 -437 ct 562 -442 579 -444 598 -444 ct 
622 -444 643 -441 661 -435 ct 678 -429 692 -420 704 -410 ct 715 -400 723 -387 728 -373 ct 
734 -359 736 -344 736 -328 ct 736 -315 734 -303 731 -292 ct 727 -281 722 -271 714 -262 ct 
707 -253 698 -246 686 -239 ct 675 -233 661 -228 645 -225 ct 645 -223 l  662 -222 678 -218 691 -211 ct 
704 -205 714 -198 723 -189 ct 731 -180 738 -169 742 -158 ct 746 -146 748 -134 748 -121 ct 
p ef
pom
0.996 c 9636 14612 m  9128 14612 l  9128 14104 l  10143 14104 l  10143 14612 l 
9636 14612 l  p ef
0.000 c 9635 14611 m  9127 14611 l  9127 14103 l  10143 14103 l  10143 14611 l 
9635 14611 l  pc
pum
9248 14579 t
362 0 m  312 -128 l  113 -128 l  63 0 l  1 0 l  180 -438 l  247 -438 l 
422 0 l  362 0 l  p
238 -319 m  235 -327 232 -335 229 -344 ct 226 -352 223 -360 221 -367 ct 218 -374 217 -380 215 -384 ct 
213 -389 213 -392 212 -393 ct 212 -392 211 -389 210 -384 ct 208 -379 206 -373 204 -366 ct 
201 -359 199 -352 196 -343 ct 193 -335 190 -326 187 -318 ct 131 -174 l  294 -174 l 
238 -319 l  p ef
751 -219 m  751 -177 747 -142 739 -113 ct 731 -84 721 -61 707 -44 ct 693 -26 677 -13 658 -5 ct 
640 2 620 6 599 6 ct 578 6 558 2 539 -5 ct 521 -13 505 -26 491 -43 ct 478 -61 467 -84 459 -113 ct 
452 -141 448 -177 448 -219 ct 448 -263 452 -300 459 -328 ct 467 -357 478 -380 492 -397 ct 
505 -415 521 -427 540 -434 ct 559 -441 579 -444 601 -444 ct 622 -444 641 -441 659 -434 ct 
678 -427 694 -415 707 -397 ct 721 -380 732 -357 740 -328 ct 747 -300 751 -263 751 -219 ct 
p
695 -219 m  695 -254 693 -283 688 -306 ct 684 -329 678 -347 670 -361 ct 662 -375 652 -384 641 -390 ct 
629 -396 616 -399 601 -399 ct 585 -399 571 -396 559 -390 ct 547 -384 537 -374 529 -361 ct 
521 -347 515 -329 510 -305 ct 506 -282 504 -254 504 -219 ct 504 -185 506 -157 511 -134 ct 
515 -111 521 -93 529 -79 ct 537 -65 547 -55 559 -49 ct 571 -43 584 -40 599 -40 ct 
614 -40 627 -43 639 -49 ct 651 -55 661 -65 669 -79 ct 677 -93 684 -111 688 -134 ct 
692 -157 695 -185 695 -219 ct p ef
pom
0.996 c 9636 15628 m  9128 15628 l  9128 15120 l  10143 15120 l  10143 15628 l 
9636 15628 l  p ef
0.000 c 9635 15627 m  9127 15627 l  9127 15119 l  10143 15119 l  10143 15627 l 
9635 15627 l  pc
pum
9248 15595 t
362 0 m  312 -128 l  113 -128 l  63 0 l  1 0 l  180 -438 l  247 -438 l 
422 0 l  362 0 l  p
238 -319 m  235 -327 232 -335 229 -344 ct 226 -352 223 -360 221 -367 ct 218 -374 217 -380 215 -384 ct 
213 -389 213 -392 212 -393 ct 212 -392 211 -389 210 -384 ct 208 -379 206 -373 204 -366 ct 
201 -359 199 -352 196 -343 ct 193 -335 190 -326 187 -318 ct 131 -174 l  294 -174 l 
238 -319 l  p ef
471 0 m  471 -47 l  583 -47 l  583 -384 l  484 -314 l  484 -366 l  587 -438 l 
639 -438 l  639 -47 l  745 -47 l  745 0 l  471 0 l  p ef
pom
0.996 c 9636 16643 m  9128 16643 l  9128 16135 l  10143 16135 l  10143 16643 l 
9636 16643 l  p ef
0.000 c 9635 16643 m  9127 16643 l  9127 16135 l  10143 16135 l  10143 16643 l 
9635 16643 l  pc
pum
9248 16610 t
362 0 m  312 -128 l  113 -128 l  63 0 l  1 0 l  180 -438 l  247 -438 l 
422 0 l  362 0 l  p
238 -319 m  235 -327 232 -335 229 -344 ct 226 -352 223 -360 221 -367 ct 218 -374 217 -380 215 -384 ct 
213 -389 213 -392 212 -393 ct 212 -392 211 -389 210 -384 ct 208 -379 206 -373 204 -366 ct 
201 -359 199 -352 196 -343 ct 193 -335 190 -326 187 -318 ct 131 -174 l  294 -174 l 
238 -319 l  p ef
455 0 m  455 -39 l  465 -64 478 -85 494 -104 ct 509 -122 525 -139 541 -154 ct 
558 -169 575 -183 591 -196 ct 608 -208 622 -221 636 -234 ct 649 -247 660 -260 668 -274 ct 
676 -289 680 -304 680 -322 ct 680 -335 678 -346 674 -355 ct 671 -364 665 -372 658 -379 ct 
651 -385 643 -390 633 -393 ct 623 -396 612 -398 600 -398 ct 589 -398 579 -396 569 -393 ct 
559 -390 550 -386 543 -379 ct 535 -373 529 -365 524 -356 ct 519 -347 516 -336 514 -324 ct 
457 -329 l  459 -345 464 -360 470 -374 ct 477 -388 487 -400 499 -410 ct 511 -421 525 -429 542 -435 ct 
559 -441 578 -444 600 -444 ct 622 -444 641 -441 658 -436 ct 675 -431 690 -423 701 -413 ct 
713 -403 722 -391 728 -376 ct 734 -361 737 -344 737 -324 ct 737 -309 735 -295 730 -282 ct 
724 -269 717 -256 708 -244 ct 700 -232 689 -221 678 -210 ct 666 -198 654 -187 642 -177 ct 
629 -166 616 -156 603 -145 ct 591 -135 579 -124 567 -114 ct 556 -103 546 -92 537 -81 ct 
528 -71 521 -59 516 -47 ct 744 -47 l  744 0 l  455 0 l  p ef
pom
0.996 c 9636 17659 m  9128 17659 l  9128 17151 l  10143 17151 l  10143 17659 l 
9636 17659 l  p ef
0.000 c 9635 17658 m  9127 17658 l  9127 17151 l  10143 17151 l  10143 17658 l 
9635 17658 l  pc
pum
9248 17626 t
390 -123 m  390 -101 386 -82 377 -67 ct 368 -51 357 -38 342 -28 ct 327 -19 310 -11 291 -7 ct 
271 -2 251 0 229 0 ct 52 0 l  52 -437 l  211 -437 l  235 -437 257 -435 276 -431 ct 
295 -427 311 -421 324 -412 ct 337 -404 347 -393 354 -379 ct 361 -366 365 -350 365 -331 ct 
365 -319 363 -307 360 -297 ct 356 -286 351 -276 344 -267 ct 337 -258 328 -251 318 -245 ct 
308 -238 295 -234 282 -230 ct 299 -228 315 -224 328 -218 ct 342 -212 353 -205 362 -195 ct 
371 -186 378 -175 383 -163 ct 388 -151 390 -137 390 -123 ct p
305 -324 m  305 -348 297 -365 281 -375 ct 265 -385 241 -390 211 -390 ct 111 -390 l 
111 -251 l  211 -251 l  228 -251 243 -253 255 -256 ct 267 -260 277 -265 284 -271 ct 
291 -277 297 -285 300 -294 ct 303 -303 305 -313 305 -324 ct p
330 -128 m  330 -142 328 -153 323 -163 ct 318 -173 310 -181 301 -187 ct 291 -193 280 -198 267 -201 ct 
253 -204 238 -205 222 -205 ct 111 -205 l  111 -47 l  226 -47 l  241 -47 255 -49 268 -51 ct 
281 -54 292 -58 301 -64 ct 310 -70 317 -79 322 -89 ct 328 -99 330 -112 330 -128 ct 
p ef
748 -121 m  748 -101 745 -83 738 -67 ct 732 -52 722 -38 710 -27 ct 697 -17 682 -8 663 -3 ct 
645 3 624 6 600 6 ct 573 6 550 3 532 -4 ct 513 -11 498 -20 486 -31 ct 474 -42 465 -54 459 -69 ct 
453 -83 449 -97 447 -113 ct 505 -118 l  507 -106 510 -96 514 -86 ct 518 -77 525 -68 532 -62 ct 
540 -55 549 -50 560 -46 ct 572 -42 585 -40 600 -40 ct 628 -40 650 -47 666 -61 ct 
682 -75 690 -96 690 -123 ct 690 -139 687 -152 680 -162 ct 672 -172 664 -179 653 -185 ct 
642 -190 631 -194 618 -196 ct 606 -198 594 -199 584 -199 ct 552 -199 l  552 -247 l 
582 -247 l  593 -247 604 -248 615 -250 ct 627 -252 637 -256 646 -262 ct 656 -268 664 -275 670 -285 ct 
676 -295 679 -307 679 -322 ct 679 -346 672 -364 658 -378 ct 644 -391 624 -398 597 -398 ct 
572 -398 552 -392 537 -379 ct 522 -367 513 -349 511 -326 ct 455 -330 l  457 -349 462 -366 470 -380 ct 
479 -395 489 -407 502 -416 ct 515 -425 529 -432 545 -437 ct 562 -442 579 -444 598 -444 ct 
622 -444 643 -441 661 -435 ct 678 -429 692 -420 704 -410 ct 715 -400 723 -387 728 -373 ct 
734 -359 736 -344 736 -328 ct 736 -315 734 -303 731 -292 ct 727 -281 722 -271 714 -262 ct 
707 -253 698 -246 686 -239 ct 675 -233 661 -228 645 -225 ct 645 -223 l  662 -222 678 -218 691 -211 ct 
704 -205 714 -198 723 -189 ct 731 -180 738 -169 742 -158 ct 746 -146 748 -134 748 -121 ct 
p ef
pom
0.750 c 11794 15628 m  10143 15628 l  10143 15120 l  13445 15120 l  13445 15628 l 
11794 15628 l  p ef
0.000 c 11794 15627 m  10143 15627 l  10143 15119 l  13445 15119 l  13445 15627 l 
11794 15627 l  pc
0.750 c 11794 17659 m  10143 17659 l  10143 17151 l  13445 17151 l  13445 17659 l 
11794 17659 l  p ef
0.000 c 11794 17658 m  10143 17658 l  10143 17151 l  13445 17151 l  13445 17658 l 
11794 17658 l  pc
0.996 c 10347 16135 m  10955 16135 l  11160 16389 l  10955 16644 l  10347 16644 l 
10143 16389 l  10347 16135 l  10347 16135 l  p
10143 16135 m  10143 16135 l  p
11160 16644 m  11160 16644 l  p ef
0.000 c 10347 16135 m  10955 16135 l  11160 16389 l  10955 16644 l  10347 16644 l 
10143 16389 l  10347 16135 l  10347 16135 l  pc
10143 16135 m  10143 16135 l  pc
11160 16644 m  11160 16644 l  pc
pum
10263 16610 t
390 -123 m  390 -101 386 -82 377 -67 ct 368 -51 357 -38 342 -28 ct 327 -19 310 -11 291 -7 ct 
271 -2 251 0 229 0 ct 52 0 l  52 -437 l  211 -437 l  235 -437 257 -435 276 -431 ct 
295 -427 311 -421 324 -412 ct 337 -404 347 -393 354 -379 ct 361 -366 365 -350 365 -331 ct 
365 -319 363 -307 360 -297 ct 356 -286 351 -276 344 -267 ct 337 -258 328 -251 318 -245 ct 
308 -238 295 -234 282 -230 ct 299 -228 315 -224 328 -218 ct 342 -212 353 -205 362 -195 ct 
371 -186 378 -175 383 -163 ct 388 -151 390 -137 390 -123 ct p
305 -324 m  305 -348 297 -365 281 -375 ct 265 -385 241 -390 211 -390 ct 111 -390 l 
111 -251 l  211 -251 l  228 -251 243 -253 255 -256 ct 267 -260 277 -265 284 -271 ct 
291 -277 297 -285 300 -294 ct 303 -303 305 -313 305 -324 ct p
330 -128 m  330 -142 328 -153 323 -163 ct 318 -173 310 -181 301 -187 ct 291 -193 280 -198 267 -201 ct 
253 -204 238 -205 222 -205 ct 111 -205 l  111 -47 l  226 -47 l  241 -47 255 -49 268 -51 ct 
281 -54 292 -58 301 -64 ct 310 -70 317 -79 322 -89 ct 328 -99 330 -112 330 -128 ct 
p ef
455 0 m  455 -39 l  465 -64 478 -85 494 -104 ct 509 -122 525 -139 541 -154 ct 
558 -169 575 -183 591 -196 ct 608 -208 622 -221 636 -234 ct 649 -247 660 -260 668 -274 ct 
676 -289 680 -304 680 -322 ct 680 -335 678 -346 674 -355 ct 671 -364 665 -372 658 -379 ct 
651 -385 643 -390 633 -393 ct 623 -396 612 -398 600 -398 ct 589 -398 579 -396 569 -393 ct 
559 -390 550 -386 543 -379 ct 535 -373 529 -365 524 -356 ct 519 -347 516 -336 514 -324 ct 
457 -329 l  459 -345 464 -360 470 -374 ct 477 -388 487 -400 499 -410 ct 511 -421 525 -429 542 -435 ct 
559 -441 578 -444 600 -444 ct 622 -444 641 -441 658 -436 ct 675 -431 690 -423 701 -413 ct 
713 -403 722 -391 728 -376 ct 734 -361 737 -344 737 -324 ct 737 -309 735 -295 730 -282 ct 
724 -269 717 -256 708 -244 ct 700 -232 689 -221 678 -210 ct 666 -198 654 -187 642 -177 ct 
629 -166 616 -156 603 -145 ct 591 -135 579 -124 567 -114 ct 556 -103 546 -92 537 -81 ct 
528 -71 521 -59 516 -47 ct 744 -47 l  744 0 l  455 0 l  p ef
pom
0.996 c 11667 16643 m  11159 16643 l  11159 16135 l  12175 16135 l  12175 16643 l 
11667 16643 l  p ef
0.000 c 11667 16643 m  11159 16643 l  11159 16135 l  12175 16135 l  12175 16643 l 
11667 16643 l  pc
pum
11279 16610 t
390 -123 m  390 -101 386 -82 377 -67 ct 368 -51 357 -38 342 -28 ct 327 -19 310 -11 291 -7 ct 
271 -2 251 0 229 0 ct 52 0 l  52 -437 l  211 -437 l  235 -437 257 -435 276 -431 ct 
295 -427 311 -421 324 -412 ct 337 -404 347 -393 354 -379 ct 361 -366 365 -350 365 -331 ct 
365 -319 363 -307 360 -297 ct 356 -286 351 -276 344 -267 ct 337 -258 328 -251 318 -245 ct 
308 -238 295 -234 282 -230 ct 299 -228 315 -224 328 -218 ct 342 -212 353 -205 362 -195 ct 
371 -186 378 -175 383 -163 ct 388 -151 390 -137 390 -123 ct p
305 -324 m  305 -348 297 -365 281 -375 ct 265 -385 241 -390 211 -390 ct 111 -390 l 
111 -251 l  211 -251 l  228 -251 243 -253 255 -256 ct 267 -260 277 -265 284 -271 ct 
291 -277 297 -285 300 -294 ct 303 -303 305 -313 305 -324 ct p
330 -128 m  330 -142 328 -153 323 -163 ct 318 -173 310 -181 301 -187 ct 291 -193 280 -198 267 -201 ct 
253 -204 238 -205 222 -205 ct 111 -205 l  111 -47 l  226 -47 l  241 -47 255 -49 268 -51 ct 
281 -54 292 -58 301 -64 ct 310 -70 317 -79 322 -89 ct 328 -99 330 -112 330 -128 ct 
p ef
455 0 m  455 -39 l  465 -64 478 -85 494 -104 ct 509 -122 525 -139 541 -154 ct 
558 -169 575 -183 591 -196 ct 608 -208 622 -221 636 -234 ct 649 -247 660 -260 668 -274 ct 
676 -289 680 -304 680 -322 ct 680 -335 678 -346 674 -355 ct 671 -364 665 -372 658 -379 ct 
651 -385 643 -390 633 -393 ct 623 -396 612 -398 600 -398 ct 589 -398 579 -396 569 -393 ct 
559 -390 550 -386 543 -379 ct 535 -373 529 -365 524 -356 ct 519 -347 516 -336 514 -324 ct 
457 -329 l  459 -345 464 -360 470 -374 ct 477 -388 487 -400 499 -410 ct 511 -421 525 -429 542 -435 ct 
559 -441 578 -444 600 -444 ct 622 -444 641 -441 658 -436 ct 675 -431 690 -423 701 -413 ct 
713 -403 722 -391 728 -376 ct 734 -361 737 -344 737 -324 ct 737 -309 735 -295 730 -282 ct 
724 -269 717 -256 708 -244 ct 700 -232 689 -221 678 -210 ct 666 -198 654 -187 642 -177 ct 
629 -166 616 -156 603 -145 ct 591 -135 579 -124 567 -114 ct 556 -103 546 -92 537 -81 ct 
528 -71 521 -59 516 -47 ct 744 -47 l  744 0 l  455 0 l  p ef
pom
pum
12425 18868 t
345 0 m  214 -191 l  80 0 l  14 0 l  180 -227 l  27 -437 l  92 -437 l 
214 -266 l  332 -437 l  398 -437 l  248 -229 l  410 0 l  345 0 l  p ef
pom
1 lw 12683 18167 m  12683 15803 l  ps
12683 15374 m  12533 15823 l  12833 15823 l  12683 15374 l  p ef
12683 18167 m  12683 17835 l  ps
12683 17405 m  12533 17855 l  12833 17855 l  12683 17405 l  p ef
pum
17251 18868 t
241 -181 m  241 0 l  182 0 l  182 -181 l  14 -438 l  79 -438 l  212 -229 l 
344 -438 l  410 -438 l  241 -181 l  p ef
pom
17509 18167 m  17509 15803 l  ps
17509 15374 m  17359 15823 l  17659 15823 l  17509 15374 l  p ef
17509 18167 m  17509 17835 l  ps
17509 17405 m  17359 17855 l  17659 17855 l  17509 17405 l  p ef
17509 18167 m  17509 16819 l  ps
17509 16389 m  17359 16839 l  17659 16839 l  17509 16389 l  p ef
12683 18167 m  12683 16819 l  ps
12683 16389 m  12533 16839 l  12833 16839 l  12683 16389 l  p ef
0.996 c 8874 13188 m  8366 13188 l  8366 12680 l  9382 12680 l  9382 13188 l 
8874 13188 l  p ef
0 lw 0.000 c 8873 13188 m  8365 13188 l  8365 12680 l  9381 12680 l  9381 13188 l 
8873 13188 l  pc
pum
9632 13127 t
428 -223 m  428 -187 423 -155 412 -127 ct 401 -99 386 -76 367 -57 ct 348 -38 325 -24 299 -14 ct 
273 -5 245 0 215 0 ct 52 0 l  52 -437 l  197 -437 l  230 -437 261 -433 290 -425 ct 
318 -417 343 -404 363 -386 ct 384 -369 400 -346 411 -319 ct 422 -293 428 -261 428 -223 ct 
p
369 -223 m  369 -253 364 -278 356 -299 ct 347 -320 336 -337 320 -351 ct 305 -364 287 -374 265 -381 ct 
244 -387 221 -390 195 -390 ct 111 -390 l  111 -47 l  209 -47 l  232 -47 253 -51 272 -59 ct 
292 -66 309 -77 323 -92 ct 337 -107 349 -125 357 -147 ct 365 -169 369 -194 369 -223 ct 
p ef
543 -156 m  543 -139 544 -122 548 -108 ct 552 -93 557 -80 565 -70 ct 572 -59 582 -51 594 -45 ct 
606 -39 620 -36 636 -36 ct 660 -36 680 -41 694 -50 ct 709 -60 719 -72 724 -87 ct 
773 -73 l  769 -64 765 -55 758 -45 ct 752 -36 744 -27 733 -20 ct 722 -12 709 -6 693 -1 ct 
678 4 659 6 636 6 ct 587 6 549 -9 523 -38 ct 497 -68 484 -112 484 -170 ct 484 -202 488 -228 496 -250 ct 
504 -272 514 -290 528 -303 ct 542 -317 558 -327 576 -333 ct 594 -339 613 -342 634 -342 ct 
662 -342 686 -338 705 -329 ct 724 -320 739 -307 750 -291 ct 762 -275 770 -256 775 -234 ct 
780 -212 782 -189 782 -164 ct 782 -156 l  543 -156 l  p
724 -199 m  721 -234 712 -260 697 -277 ct 682 -293 661 -301 633 -301 ct 624 -301 614 -300 604 -296 ct 
594 -293 584 -288 575 -280 ct 567 -273 559 -262 553 -249 ct 547 -236 544 -219 543 -199 ct 
724 -199 l  p ef
1104 -93 m  1104 -77 1101 -63 1094 -51 ct 1088 -39 1079 -28 1068 -20 ct 1056 -12 1042 -5 1025 -1 ct 
1008 4 989 6 967 6 ct 948 6 930 4 915 2 ct 899 -2 886 -6 874 -13 ct 862 -20 852 -28 844 -39 ct 
836 -50 830 -63 827 -79 ct 876 -89 l  881 -71 891 -57 905 -49 ct 920 -41 941 -37 967 -37 ct 
979 -37 990 -37 1000 -39 ct 1010 -41 1019 -44 1026 -48 ct 1034 -52 1039 -57 1043 -64 ct 
1047 -70 1049 -79 1049 -89 ct 1049 -99 1047 -107 1042 -114 ct 1037 -120 1031 -126 1022 -130 ct 
1014 -134 1004 -138 991 -141 ct 979 -144 966 -148 952 -152 ct 938 -155 925 -159 912 -164 ct 
898 -168 886 -174 876 -181 ct 865 -188 857 -197 850 -207 ct 843 -218 840 -231 840 -247 ct 
840 -278 851 -301 873 -317 ct 895 -333 926 -341 968 -341 ct 1005 -341 1034 -335 1056 -322 ct 
1078 -309 1092 -288 1098 -259 ct 1047 -253 l  1046 -261 1042 -269 1037 -275 ct 
1032 -281 1026 -285 1019 -289 ct 1012 -293 1004 -295 996 -297 ct 987 -298 978 -299 968 -299 ct 
943 -299 924 -295 912 -288 ct 900 -280 894 -268 894 -253 ct 894 -244 896 -236 901 -230 ct 
905 -224 912 -219 920 -215 ct 927 -211 937 -208 948 -205 ct 959 -202 972 -199 985 -195 ct 
994 -193 1003 -191 1012 -188 ct 1022 -186 1031 -182 1040 -179 ct 1048 -175 1057 -171 1064 -166 ct 
1072 -161 1079 -155 1085 -149 ct 1090 -142 1095 -134 1098 -125 ct 1102 -116 1104 -105 1104 -93 ct 
p ef
1298 -2 m  1289 0 1281 2 1272 3 ct 1263 4 1253 5 1241 5 ct 1197 5 1174 -20 1174 -71 ct 
1174 -295 l  1136 -295 l  1136 -336 l  1177 -336 l  1193 -411 l  1230 -411 l 
1230 -336 l  1292 -336 l  1292 -295 l  1230 -295 l  1230 -83 l  1230 -67 1233 -56 1238 -49 ct 
1243 -43 1253 -39 1266 -39 ct 1271 -39 1276 -40 1281 -41 ct 1286 -41 1292 -42 1298 -44 ct 
1298 -2 l  p ef
1432 6 m  1399 6 1373 -3 1356 -21 ct 1339 -39 1331 -63 1331 -94 ct 1331 -117 1335 -135 1344 -149 ct 
1352 -163 1363 -174 1376 -183 ct 1390 -191 1405 -196 1423 -199 ct 1440 -203 1458 -204 1476 -204 ct 
1551 -204 l  1551 -223 l  1551 -237 1550 -248 1547 -258 ct 1544 -268 1539 -276 1533 -282 ct 
1527 -288 1520 -292 1511 -295 ct 1502 -298 1491 -299 1479 -299 ct 1468 -299 1459 -299 1450 -297 ct 
1441 -296 1434 -293 1427 -289 ct 1421 -285 1416 -279 1412 -272 ct 1408 -265 1405 -257 1404 -246 ct 
1346 -251 l  1348 -265 1352 -277 1358 -288 ct 1363 -299 1372 -309 1382 -317 ct 
1393 -325 1406 -331 1422 -335 ct 1438 -340 1458 -342 1480 -342 ct 1523 -342 1554 -332 1576 -313 ct 
1597 -294 1608 -266 1608 -229 ct 1608 -85 l  1608 -68 1610 -55 1614 -47 ct 1618 -39 1627 -35 1639 -35 ct 
1642 -35 1645 -35 1648 -35 ct 1651 -36 1654 -36 1657 -37 ct 1657 -2 l  1650 0 1643 1 1636 2 ct 
1629 3 1622 3 1614 3 ct 1604 3 1594 2 1587 -1 ct 1579 -4 1573 -8 1568 -14 ct 1564 -20 1560 -27 1558 -35 ct 
1555 -43 1554 -53 1553 -64 ct 1551 -64 l  1545 -54 1539 -44 1531 -35 ct 1524 -27 1516 -19 1506 -13 ct 
1497 -7 1486 -2 1474 1 ct 1462 4 1448 6 1432 6 ct p
1445 -36 m  1463 -36 1478 -39 1492 -46 ct 1505 -52 1516 -60 1525 -70 ct 1534 -80 1540 -91 1545 -103 ct 
1549 -115 1551 -127 1551 -138 ct 1551 -165 l  1490 -165 l  1476 -165 1463 -164 1451 -162 ct 
1439 -161 1428 -157 1419 -152 ct 1409 -147 1402 -139 1397 -130 ct 1391 -121 1388 -108 1388 -93 ct 
1388 -75 1393 -61 1403 -51 ct 1413 -41 1427 -36 1445 -36 ct p ef
1825 132 m  1806 132 1789 130 1774 126 ct 1759 122 1746 117 1736 109 ct 1725 102 1716 93 1710 83 ct 
1703 73 1699 61 1696 49 ct 1752 41 l  1755 56 1764 68 1776 77 ct 1789 85 1806 89 1826 89 ct 
1839 89 1851 88 1861 84 ct 1871 81 1880 75 1887 67 ct 1894 59 1900 49 1904 37 ct 
1908 25 1910 9 1910 -8 ct 1910 -63 l  1909 -63 l  1905 -54 1900 -46 1894 -38 ct 
1888 -30 1880 -24 1872 -18 ct 1863 -12 1853 -7 1841 -3 ct 1829 0 1816 2 1801 2 ct 
1780 2 1762 -1 1747 -8 ct 1731 -16 1719 -26 1709 -41 ct 1700 -55 1693 -73 1688 -94 ct 
1684 -115 1682 -139 1682 -167 ct 1682 -194 1684 -218 1688 -240 ct 1693 -261 1700 -280 1710 -295 ct 
1720 -310 1733 -321 1749 -329 ct 1765 -337 1785 -341 1808 -341 ct 1831 -341 1852 -336 1869 -325 ct 
1887 -314 1900 -298 1910 -278 ct 1910 -278 l  1910 -284 1911 -289 1911 -296 ct 
1911 -302 1912 -308 1912 -314 ct 1912 -320 1913 -324 1913 -329 ct 1913 -333 1914 -335 1914 -336 ct 
1967 -336 l  1967 -334 1967 -331 1967 -326 ct 1966 -322 1966 -316 1966 -310 ct 
1966 -304 1966 -297 1966 -290 ct 1965 -282 1965 -274 1965 -266 ct 1965 -10 l 
1965 37 1954 73 1931 96 ct 1908 120 1872 132 1825 132 ct p
1910 -168 m  1910 -191 1907 -211 1902 -228 ct 1897 -245 1891 -258 1882 -269 ct 
1874 -279 1865 -287 1854 -292 ct 1843 -297 1832 -299 1821 -299 ct 1807 -299 1795 -297 1784 -292 ct 
1774 -287 1766 -279 1759 -269 ct 1752 -258 1747 -244 1744 -228 ct 1741 -211 1739 -191 1739 -168 ct 
1739 -144 1741 -123 1744 -107 ct 1747 -91 1752 -77 1759 -67 ct 1765 -57 1774 -50 1784 -46 ct 
1794 -41 1806 -39 1820 -39 ct 1831 -39 1842 -41 1853 -46 ct 1864 -51 1873 -58 1882 -69 ct 
1890 -79 1897 -92 1902 -109 ct 1907 -125 1910 -145 1910 -168 ct p ef
2093 -156 m  2093 -139 2094 -122 2098 -108 ct 2102 -93 2107 -80 2115 -70 ct 
2122 -59 2132 -51 2144 -45 ct 2156 -39 2170 -36 2186 -36 ct 2210 -36 2230 -41 2244 -50 ct 
2259 -60 2269 -72 2274 -87 ct 2323 -73 l  2319 -64 2315 -55 2308 -45 ct 2302 -36 2294 -27 2283 -20 ct 
2272 -12 2259 -6 2243 -1 ct 2228 4 2209 6 2186 6 ct 2137 6 2099 -9 2073 -38 ct 
2047 -68 2034 -112 2034 -170 ct 2034 -202 2038 -228 2046 -250 ct 2054 -272 2064 -290 2078 -303 ct 
2092 -317 2108 -327 2126 -333 ct 2144 -339 2163 -342 2184 -342 ct 2212 -342 2236 -338 2255 -329 ct 
2274 -320 2289 -307 2300 -291 ct 2312 -275 2320 -256 2325 -234 ct 2330 -212 2332 -189 2332 -164 ct 
2332 -156 l  2093 -156 l  p
2274 -199 m  2271 -234 2262 -260 2247 -277 ct 2232 -293 2211 -301 2183 -301 ct 
2174 -301 2164 -300 2154 -296 ct 2144 -293 2134 -288 2125 -280 ct 2117 -273 2109 -262 2103 -249 ct 
2097 -236 2094 -219 2093 -199 ct 2274 -199 l  p ef
pom
0.750 c 13445 13188 m  12937 13188 l  12937 12680 l  13953 12680 l  13953 13188 l 
13445 13188 l  p ef
0.000 c 13445 13188 m  12937 13188 l  12937 12680 l  13953 12680 l  13953 13188 l 
13445 13188 l  pc
pum
14203 13127 t
32 -221 m  32 -255 37 -286 46 -313 ct 55 -341 69 -364 87 -384 ct 105 -403 128 -418 155 -428 ct 
182 -439 214 -444 249 -444 ct 276 -444 300 -442 320 -437 ct 340 -432 358 -425 373 -416 ct 
388 -407 400 -397 411 -384 ct 421 -371 430 -357 437 -341 ct 380 -324 l  375 -335 369 -345 361 -354 ct 
354 -362 344 -370 334 -376 ct 323 -382 310 -387 296 -390 ct 282 -394 266 -396 248 -396 ct 
221 -396 198 -391 179 -383 ct 159 -375 143 -363 130 -348 ct 117 -332 108 -314 102 -293 ct 
95 -271 92 -247 92 -221 ct 92 -195 96 -171 102 -149 ct 109 -127 119 -108 133 -92 ct 
146 -76 163 -64 183 -55 ct 203 -46 226 -42 252 -42 ct 269 -42 285 -44 300 -46 ct 
314 -49 327 -53 339 -58 ct 350 -62 361 -68 370 -73 ct 378 -79 386 -85 392 -91 ct 
392 -169 l  261 -169 l  261 -219 l  446 -219 l  446 -68 l  437 -58 425 -49 412 -40 ct 
399 -31 384 -23 368 -16 ct 352 -9 334 -4 314 0 ct 295 4 274 6 252 6 ct 215 6 183 0 156 -11 ct 
128 -22 105 -38 87 -58 ct 69 -78 55 -102 46 -130 ct 37 -158 32 -188 32 -221 ct 
p ef
623 6 m  590 6 564 -3 547 -21 ct 530 -39 522 -63 522 -94 ct 522 -117 526 -135 535 -149 ct 
543 -163 554 -174 567 -183 ct 581 -191 596 -196 614 -199 ct 631 -203 649 -204 667 -204 ct 
742 -204 l  742 -223 l  742 -237 741 -248 738 -258 ct 735 -268 730 -276 724 -282 ct 
718 -288 711 -292 702 -295 ct 693 -298 682 -299 670 -299 ct 659 -299 650 -299 641 -297 ct 
632 -296 625 -293 618 -289 ct 612 -285 607 -279 603 -272 ct 599 -265 596 -257 595 -246 ct 
537 -251 l  539 -265 543 -277 549 -288 ct 554 -299 563 -309 573 -317 ct 584 -325 597 -331 613 -335 ct 
629 -340 649 -342 671 -342 ct 714 -342 745 -332 767 -313 ct 788 -294 799 -266 799 -229 ct 
799 -85 l  799 -68 801 -55 805 -47 ct 809 -39 818 -35 830 -35 ct 833 -35 836 -35 839 -35 ct 
842 -36 845 -36 848 -37 ct 848 -2 l  841 0 834 1 827 2 ct 820 3 813 3 805 3 ct 
795 3 785 2 778 -1 ct 770 -4 764 -8 759 -14 ct 755 -20 751 -27 749 -35 ct 746 -43 745 -53 744 -64 ct 
742 -64 l  736 -54 730 -44 722 -35 ct 715 -27 707 -19 697 -13 ct 688 -7 677 -2 665 1 ct 
653 4 639 6 623 6 ct p
636 -36 m  654 -36 669 -39 683 -46 ct 696 -52 707 -60 716 -70 ct 725 -80 731 -91 736 -103 ct 
740 -115 742 -127 742 -138 ct 742 -165 l  681 -165 l  667 -165 654 -164 642 -162 ct 
630 -161 619 -157 610 -152 ct 600 -147 593 -139 588 -130 ct 582 -121 579 -108 579 -93 ct 
579 -75 584 -61 594 -51 ct 604 -41 618 -36 636 -36 ct p ef
891 0 m  891 -258 l  891 -265 891 -272 891 -279 ct 891 -287 891 -294 890 -300 ct 
890 -307 890 -314 890 -320 ct 890 -326 889 -331 889 -336 ct 942 -336 l  942 -331 942 -326 943 -320 ct 
943 -313 943 -307 944 -301 ct 944 -294 944 -288 944 -282 ct 944 -276 944 -271 944 -267 ct 
946 -267 l  950 -280 954 -291 958 -301 ct 963 -310 968 -318 974 -324 ct 980 -330 987 -335 995 -338 ct 
1003 -341 1014 -342 1025 -342 ct 1030 -342 1034 -342 1038 -341 ct 1042 -340 1046 -340 1048 -339 ct 
1048 -288 l  1044 -289 1040 -290 1035 -290 ct 1030 -291 1024 -291 1018 -291 ct 
1005 -291 994 -288 985 -282 ct 976 -276 969 -268 963 -258 ct 958 -248 954 -236 951 -221 ct 
948 -207 947 -192 947 -175 ct 947 0 l  891 0 l  p ef
1384 -169 m  1384 -52 1343 7 1261 7 ct 1236 7 1215 2 1198 -7 ct 1181 -16 1167 -31 1157 -51 ct 
1156 -51 l  1156 -46 1156 -40 1156 -35 ct 1155 -29 1155 -24 1155 -19 ct 1154 -14 1154 -9 1154 -6 ct 
1153 -2 1153 0 1153 1 ct 1099 1 l  1099 -1 1099 -4 1100 -9 ct 1100 -13 1100 -19 1100 -25 ct 
1100 -31 1101 -38 1101 -45 ct 1101 -53 1101 -61 1101 -69 ct 1101 -460 l  1157 -460 l 
1157 -328 l  1157 -322 1157 -316 1156 -311 ct 1156 -305 1156 -300 1156 -296 ct 
1156 -290 1156 -286 1155 -281 ct 1157 -281 l  1167 -302 1181 -318 1198 -327 ct 
1215 -336 1236 -341 1261 -341 ct 1303 -341 1335 -327 1355 -298 ct 1375 -270 1384 -227 1384 -169 ct 
p
1326 -167 m  1326 -190 1324 -210 1322 -226 ct 1319 -243 1314 -256 1308 -267 ct 
1301 -278 1293 -286 1283 -291 ct 1273 -296 1261 -298 1247 -298 ct 1232 -298 1219 -296 1208 -291 ct 
1197 -286 1187 -278 1180 -268 ct 1172 -257 1166 -243 1162 -226 ct 1159 -209 1157 -188 1157 -163 ct 
1157 -139 1159 -119 1162 -103 ct 1166 -87 1172 -73 1180 -63 ct 1187 -53 1197 -45 1208 -41 ct 
1219 -36 1232 -34 1246 -34 ct 1260 -34 1272 -37 1282 -41 ct 1291 -46 1300 -54 1306 -64 ct 
1313 -75 1318 -89 1321 -105 ct 1324 -122 1326 -143 1326 -167 ct p ef
1538 6 m  1505 6 1479 -3 1462 -21 ct 1445 -39 1437 -63 1437 -94 ct 1437 -117 1441 -135 1450 -149 ct 
1458 -163 1469 -174 1482 -183 ct 1496 -191 1511 -196 1529 -199 ct 1546 -203 1564 -204 1582 -204 ct 
1657 -204 l  1657 -223 l  1657 -237 1656 -248 1653 -258 ct 1650 -268 1645 -276 1639 -282 ct 
1633 -288 1626 -292 1617 -295 ct 1608 -298 1597 -299 1585 -299 ct 1574 -299 1565 -299 1556 -297 ct 
1547 -296 1540 -293 1533 -289 ct 1527 -285 1522 -279 1518 -272 ct 1514 -265 1511 -257 1510 -246 ct 
1452 -251 l  1454 -265 1458 -277 1464 -288 ct 1469 -299 1478 -309 1488 -317 ct 
1499 -325 1512 -331 1528 -335 ct 1544 -340 1564 -342 1586 -342 ct 1629 -342 1660 -332 1682 -313 ct 
1703 -294 1714 -266 1714 -229 ct 1714 -85 l  1714 -68 1716 -55 1720 -47 ct 1724 -39 1733 -35 1745 -35 ct 
1748 -35 1751 -35 1754 -35 ct 1757 -36 1760 -36 1763 -37 ct 1763 -2 l  1756 0 1749 1 1742 2 ct 
1735 3 1728 3 1720 3 ct 1710 3 1700 2 1693 -1 ct 1685 -4 1679 -8 1674 -14 ct 1670 -20 1666 -27 1664 -35 ct 
1661 -43 1660 -53 1659 -64 ct 1657 -64 l  1651 -54 1645 -44 1637 -35 ct 1630 -27 1622 -19 1612 -13 ct 
1603 -7 1592 -2 1580 1 ct 1568 4 1554 6 1538 6 ct p
1551 -36 m  1569 -36 1584 -39 1598 -46 ct 1611 -52 1622 -60 1631 -70 ct 1640 -80 1646 -91 1651 -103 ct 
1655 -115 1657 -127 1657 -138 ct 1657 -165 l  1596 -165 l  1582 -165 1569 -164 1557 -162 ct 
1545 -161 1534 -157 1525 -152 ct 1515 -147 1508 -139 1503 -130 ct 1497 -121 1494 -108 1494 -93 ct 
1494 -75 1499 -61 1509 -51 ct 1519 -41 1533 -36 1551 -36 ct p ef
1931 132 m  1912 132 1895 130 1880 126 ct 1865 122 1852 117 1842 109 ct 1831 102 1822 93 1816 83 ct 
1809 73 1805 61 1802 49 ct 1858 41 l  1861 56 1870 68 1882 77 ct 1895 85 1912 89 1932 89 ct 
1945 89 1957 88 1967 84 ct 1977 81 1986 75 1993 67 ct 2000 59 2006 49 2010 37 ct 
2014 25 2016 9 2016 -8 ct 2016 -63 l  2015 -63 l  2011 -54 2006 -46 2000 -38 ct 
1994 -30 1986 -24 1978 -18 ct 1969 -12 1959 -7 1947 -3 ct 1935 0 1922 2 1907 2 ct 
1886 2 1868 -1 1853 -8 ct 1837 -16 1825 -26 1815 -41 ct 1806 -55 1799 -73 1794 -94 ct 
1790 -115 1788 -139 1788 -167 ct 1788 -194 1790 -218 1794 -240 ct 1799 -261 1806 -280 1816 -295 ct 
1826 -310 1839 -321 1855 -329 ct 1871 -337 1891 -341 1914 -341 ct 1937 -341 1958 -336 1975 -325 ct 
1993 -314 2006 -298 2016 -278 ct 2016 -278 l  2016 -284 2017 -289 2017 -296 ct 
2017 -302 2018 -308 2018 -314 ct 2018 -320 2019 -324 2019 -329 ct 2019 -333 2020 -335 2020 -336 ct 
2073 -336 l  2073 -334 2073 -331 2073 -326 ct 2072 -322 2072 -316 2072 -310 ct 
2072 -304 2072 -297 2072 -290 ct 2071 -282 2071 -274 2071 -266 ct 2071 -10 l 
2071 37 2060 73 2037 96 ct 2014 120 1978 132 1931 132 ct p
2016 -168 m  2016 -191 2013 -211 2008 -228 ct 2003 -245 1997 -258 1988 -269 ct 
1980 -279 1971 -287 1960 -292 ct 1949 -297 1938 -299 1927 -299 ct 1913 -299 1901 -297 1890 -292 ct 
1880 -287 1872 -279 1865 -269 ct 1858 -258 1853 -244 1850 -228 ct 1847 -211 1845 -191 1845 -168 ct 
1845 -144 1847 -123 1850 -107 ct 1853 -91 1858 -77 1865 -67 ct 1871 -57 1880 -50 1890 -46 ct 
1900 -41 1912 -39 1926 -39 ct 1937 -39 1948 -41 1959 -46 ct 1970 -51 1979 -58 1988 -69 ct 
1996 -79 2003 -92 2008 -109 ct 2013 -125 2016 -145 2016 -168 ct p ef
2198 -156 m  2198 -139 2199 -122 2203 -108 ct 2207 -93 2212 -80 2220 -70 ct 
2227 -59 2237 -51 2249 -45 ct 2261 -39 2275 -36 2291 -36 ct 2315 -36 2335 -41 2349 -50 ct 
2364 -60 2374 -72 2379 -87 ct 2428 -73 l  2424 -64 2420 -55 2413 -45 ct 2407 -36 2399 -27 2388 -20 ct 
2377 -12 2364 -6 2348 -1 ct 2333 4 2314 6 2291 6 ct 2242 6 2204 -9 2178 -38 ct 
2152 -68 2139 -112 2139 -170 ct 2139 -202 2143 -228 2151 -250 ct 2159 -272 2169 -290 2183 -303 ct 
2197 -317 2213 -327 2231 -333 ct 2249 -339 2268 -342 2289 -342 ct 2317 -342 2341 -338 2360 -329 ct 
2379 -320 2394 -307 2405 -291 ct 2417 -275 2425 -256 2430 -234 ct 2435 -212 2437 -189 2437 -164 ct 
2437 -156 l  2198 -156 l  p
2379 -199 m  2376 -234 2367 -260 2352 -277 ct 2337 -293 2316 -301 2288 -301 ct 
2279 -301 2269 -300 2259 -296 ct 2249 -293 2239 -288 2230 -280 ct 2222 -273 2214 -262 2208 -249 ct 
2202 -236 2199 -219 2198 -199 ct 2379 -199 l  p ef
2888 -396 m  2863 -396 2841 -391 2822 -383 ct 2803 -375 2787 -363 2774 -348 ct 
2761 -332 2751 -314 2744 -293 ct 2738 -271 2734 -247 2734 -221 ct 2734 -195 2738 -171 2745 -149 ct 
2752 -127 2762 -108 2776 -92 ct 2789 -77 2805 -64 2825 -56 ct 2844 -47 2866 -43 2890 -43 ct 
2907 -43 2922 -45 2936 -49 ct 2950 -54 2963 -60 2974 -68 ct 2985 -76 2996 -86 3004 -97 ct 
3013 -108 3021 -120 3028 -134 ct 3076 -109 l  3069 -93 3059 -78 3047 -64 ct 
3036 -50 3022 -38 3006 -27 ct 2991 -17 2973 -9 2953 -3 ct 2934 3 2912 6 2887 6 ct 
2852 6 2821 0 2794 -11 ct 2768 -22 2746 -38 2728 -58 ct 2710 -78 2696 -102 2688 -130 ct 
2679 -158 2674 -188 2674 -221 ct 2674 -255 2679 -286 2688 -313 ct 2698 -341 2712 -364 2730 -384 ct 
2748 -403 2770 -418 2796 -428 ct 2823 -439 2853 -444 2887 -444 ct 2933 -444 2972 -435 3004 -417 ct 
3035 -398 3058 -371 3072 -336 ct 3016 -317 l  3012 -327 3007 -337 3000 -347 ct 
2992 -356 2984 -364 2973 -372 ct 2963 -379 2950 -385 2936 -389 ct 2922 -393 2906 -396 2888 -396 ct 
p ef
3425 -168 m  3425 -110 3413 -66 3387 -37 ct 3361 -8 3323 6 3274 6 ct 3251 6 3230 2 3212 -5 ct 
3193 -12 3178 -22 3165 -37 ct 3152 -51 3142 -69 3136 -91 ct 3129 -113 3126 -139 3126 -168 ct 
3126 -284 3176 -342 3276 -342 ct 3302 -342 3325 -339 3343 -331 ct 3362 -324 3378 -313 3390 -299 ct 
3402 -284 3411 -266 3417 -245 ct 3423 -223 3425 -197 3425 -168 ct p
3367 -168 m  3367 -195 3365 -216 3361 -233 ct 3357 -250 3351 -264 3343 -274 ct 
3335 -284 3326 -291 3315 -295 ct 3304 -299 3291 -301 3277 -301 ct 3263 -301 3250 -299 3238 -295 ct 
3227 -290 3217 -283 3209 -273 ct 3201 -263 3195 -249 3191 -232 ct 3186 -215 3184 -194 3184 -168 ct 
3184 -142 3187 -121 3191 -104 ct 3196 -87 3202 -73 3210 -63 ct 3218 -53 3227 -46 3238 -41 ct 
3249 -37 3261 -35 3274 -35 ct 3288 -35 3301 -37 3312 -41 ct 3324 -45 3334 -52 3342 -63 ct 
3350 -73 3356 -86 3360 -104 ct 3365 -121 3367 -142 3367 -168 ct p ef
3493 1 m  3493 -460 l  3549 -460 l  3549 1 l  3493 1 l  p ef
3633 1 m  3633 -460 l  3689 -460 l  3689 1 l  3633 1 l  p ef
3816 -156 m  3816 -139 3817 -122 3821 -108 ct 3825 -93 3830 -80 3838 -70 ct 
3845 -59 3855 -51 3867 -45 ct 3879 -39 3893 -36 3909 -36 ct 3933 -36 3953 -41 3967 -50 ct 
3982 -60 3992 -72 3997 -87 ct 4046 -73 l  4042 -64 4038 -55 4031 -45 ct 4025 -36 4017 -27 4006 -20 ct 
3995 -12 3982 -6 3966 -1 ct 3951 4 3932 6 3909 6 ct 3860 6 3822 -9 3796 -38 ct 
3770 -68 3757 -112 3757 -170 ct 3757 -202 3761 -228 3769 -250 ct 3777 -272 3787 -290 3801 -303 ct 
3815 -317 3831 -327 3849 -333 ct 3867 -339 3886 -342 3907 -342 ct 3935 -342 3959 -338 3978 -329 ct 
3997 -320 4012 -307 4023 -291 ct 4035 -275 4043 -256 4048 -234 ct 4053 -212 4055 -189 4055 -164 ct 
4055 -156 l  3816 -156 l  p
3997 -199 m  3994 -234 3985 -260 3970 -277 ct 3955 -293 3934 -301 3906 -301 ct 
3897 -301 3887 -300 3877 -296 ct 3867 -293 3857 -288 3848 -280 ct 3840 -273 3832 -262 3826 -249 ct 
3820 -236 3817 -219 3816 -199 ct 3997 -199 l  p ef
4166 -170 m  4166 -150 4168 -133 4170 -117 ct 4173 -100 4178 -86 4185 -75 ct 
4191 -63 4200 -54 4211 -48 ct 4222 -41 4235 -38 4251 -38 ct 4271 -38 4287 -43 4301 -54 ct 
4314 -64 4322 -80 4325 -102 ct 4382 -102 l  4380 -88 4376 -74 4370 -61 ct 4363 -48 4355 -37 4344 -27 ct 
4334 -17 4321 -9 4305 -3 ct 4290 3 4273 6 4252 6 ct 4226 6 4204 2 4185 -7 ct 4167 -16 4152 -28 4141 -44 ct 
4129 -60 4121 -78 4116 -99 ct 4111 -121 4108 -144 4108 -168 ct 4108 -191 4110 -211 4114 -228 ct 
4117 -245 4123 -260 4129 -273 ct 4136 -286 4144 -297 4153 -306 ct 4162 -315 4172 -322 4183 -327 ct 
4193 -332 4204 -336 4216 -338 ct 4228 -341 4240 -342 4252 -342 ct 4271 -342 4287 -339 4302 -334 ct 
4317 -329 4329 -322 4340 -313 ct 4351 -304 4359 -293 4366 -281 ct 4373 -269 4377 -256 4380 -242 ct 
4323 -237 l  4320 -256 4312 -271 4301 -282 ct 4289 -293 4272 -298 4250 -298 ct 
4234 -298 4221 -296 4210 -290 ct 4200 -285 4191 -277 4185 -266 ct 4178 -256 4173 -242 4170 -226 ct 
4168 -210 4166 -191 4166 -170 ct p ef
4570 -2 m  4561 0 4553 2 4544 3 ct 4535 4 4525 5 4513 5 ct 4469 5 4446 -20 4446 -71 ct 
4446 -295 l  4408 -295 l  4408 -336 l  4449 -336 l  4465 -411 l  4502 -411 l 
4502 -336 l  4564 -336 l  4564 -295 l  4502 -295 l  4502 -83 l  4502 -67 4505 -56 4510 -49 ct 
4515 -43 4525 -39 4538 -39 ct 4543 -39 4548 -40 4553 -41 ct 4558 -41 4564 -42 4570 -44 ct 
4570 -2 l  p ef
4618 -407 m  4618 -460 l  4674 -460 l  4674 -407 l  4618 -407 l  p
4618 1 m  4618 -335 l  4674 -335 l  4674 1 l  4618 1 l  p ef
5042 -168 m  5042 -110 5030 -66 5004 -37 ct 4978 -8 4940 6 4891 6 ct 4868 6 4847 2 4829 -5 ct 
4810 -12 4795 -22 4782 -37 ct 4769 -51 4759 -69 4753 -91 ct 4746 -113 4743 -139 4743 -168 ct 
4743 -284 4793 -342 4893 -342 ct 4919 -342 4942 -339 4960 -331 ct 4979 -324 4995 -313 5007 -299 ct 
5019 -284 5028 -266 5034 -245 ct 5040 -223 5042 -197 5042 -168 ct p
4984 -168 m  4984 -195 4982 -216 4978 -233 ct 4974 -250 4968 -264 4960 -274 ct 
4952 -284 4943 -291 4932 -295 ct 4921 -299 4908 -301 4894 -301 ct 4880 -301 4867 -299 4855 -295 ct 
4844 -290 4834 -283 4826 -273 ct 4818 -263 4812 -249 4808 -232 ct 4803 -215 4801 -194 4801 -168 ct 
4801 -142 4804 -121 4808 -104 ct 4813 -87 4819 -73 4827 -63 ct 4835 -53 4844 -46 4855 -41 ct 
4866 -37 4878 -35 4891 -35 ct 4905 -35 4918 -37 4929 -41 ct 4941 -45 4951 -52 4959 -63 ct 
4967 -73 4973 -86 4977 -104 ct 4982 -121 4984 -142 4984 -168 ct p ef
5323 0 m  5323 -213 l  5323 -229 5322 -243 5319 -254 ct 5317 -265 5313 -274 5308 -280 ct 
5302 -287 5295 -292 5286 -295 ct 5278 -297 5267 -299 5254 -299 ct 5240 -299 5228 -297 5218 -292 ct 
5207 -287 5198 -281 5191 -272 ct 5183 -263 5177 -252 5173 -239 ct 5169 -226 5167 -211 5167 -195 ct 
5167 0 l  5111 0 l  5111 -264 l  5111 -271 5111 -279 5111 -286 ct 5111 -294 5111 -301 5110 -308 ct 
5110 -315 5110 -321 5110 -326 ct 5110 -331 5109 -334 5109 -336 ct 5162 -336 l 
5162 -335 5162 -332 5163 -327 ct 5163 -323 5163 -318 5163 -312 ct 5164 -306 5164 -300 5164 -294 ct 
5164 -288 5164 -283 5164 -278 ct 5165 -278 l  5171 -288 5177 -297 5183 -305 ct 
5189 -313 5197 -319 5205 -325 ct 5214 -330 5223 -335 5234 -338 ct 5245 -341 5258 -342 5273 -342 ct 
5291 -342 5307 -340 5321 -335 ct 5334 -331 5345 -324 5354 -314 ct 5362 -305 5369 -292 5373 -277 ct 
5377 -262 5379 -244 5379 -224 ct 5379 0 l  5323 0 l  p ef
pom
10524 13442 m  999 13442 l  999 12426 l  20048 12426 l  20048 13442 l 
10524 13442 l  pc
0.996 c 1458 12680 m  2066 12680 l  2271 12934 l  2066 13189 l  1458 13189 l 
1254 12934 l  1458 12680 l  1458 12680 l  p
1254 12680 m  1254 12680 l  p
2271 13189 m  2271 13189 l  p ef
0.000 c 1457 12680 m  2065 12680 l  2270 12934 l  2065 13189 l  1457 13189 l 
1253 12934 l  1457 12680 l  1457 12680 l  pc
1253 12680 m  1253 12680 l  pc
2270 13189 m  2270 13189 l  pc
pum
2520 13127 t
246 -396 m  221 -396 199 -391 180 -383 ct 161 -375 145 -363 132 -348 ct 119 -332 109 -314 102 -293 ct 
96 -271 92 -247 92 -221 ct 92 -195 96 -171 103 -149 ct 110 -127 120 -108 134 -92 ct 
147 -77 163 -64 183 -56 ct 202 -47 224 -43 248 -43 ct 265 -43 280 -45 294 -49 ct 
308 -54 321 -60 332 -68 ct 343 -76 354 -86 362 -97 ct 371 -108 379 -120 386 -134 ct 
434 -109 l  427 -93 417 -78 405 -64 ct 394 -50 380 -38 364 -27 ct 349 -17 331 -9 311 -3 ct 
292 3 270 6 245 6 ct 210 6 179 0 152 -11 ct 126 -22 104 -38 86 -58 ct 68 -78 54 -102 46 -130 ct 
37 -158 32 -188 32 -221 ct 32 -255 37 -286 46 -313 ct 56 -341 70 -364 88 -384 ct 
106 -403 128 -418 154 -428 ct 181 -439 211 -444 245 -444 ct 291 -444 330 -435 362 -417 ct 
393 -398 416 -371 430 -336 ct 374 -317 l  370 -327 365 -337 358 -347 ct 350 -356 342 -364 331 -372 ct 
321 -379 308 -385 294 -389 ct 280 -393 264 -396 246 -396 ct p ef
585 6 m  552 6 526 -3 509 -21 ct 492 -39 484 -63 484 -94 ct 484 -117 488 -135 497 -149 ct 
505 -163 516 -174 529 -183 ct 543 -191 558 -196 576 -199 ct 593 -203 611 -204 629 -204 ct 
704 -204 l  704 -223 l  704 -237 703 -248 700 -258 ct 697 -268 692 -276 686 -282 ct 
680 -288 673 -292 664 -295 ct 655 -298 644 -299 632 -299 ct 621 -299 612 -299 603 -297 ct 
594 -296 587 -293 580 -289 ct 574 -285 569 -279 565 -272 ct 561 -265 558 -257 557 -246 ct 
499 -251 l  501 -265 505 -277 511 -288 ct 516 -299 525 -309 535 -317 ct 546 -325 559 -331 575 -335 ct 
591 -340 611 -342 633 -342 ct 676 -342 707 -332 729 -313 ct 750 -294 761 -266 761 -229 ct 
761 -85 l  761 -68 763 -55 767 -47 ct 771 -39 780 -35 792 -35 ct 795 -35 798 -35 801 -35 ct 
804 -36 807 -36 810 -37 ct 810 -2 l  803 0 796 1 789 2 ct 782 3 775 3 767 3 ct 
757 3 747 2 740 -1 ct 732 -4 726 -8 721 -14 ct 717 -20 713 -27 711 -35 ct 708 -43 707 -53 706 -64 ct 
704 -64 l  698 -54 692 -44 684 -35 ct 677 -27 669 -19 659 -13 ct 650 -7 639 -2 627 1 ct 
615 4 601 6 585 6 ct p
598 -36 m  616 -36 631 -39 645 -46 ct 658 -52 669 -60 678 -70 ct 687 -80 693 -91 698 -103 ct 
702 -115 704 -127 704 -138 ct 704 -165 l  643 -165 l  629 -165 616 -164 604 -162 ct 
592 -161 581 -157 572 -152 ct 562 -147 555 -139 550 -130 ct 544 -121 541 -108 541 -93 ct 
541 -75 546 -61 556 -51 ct 566 -41 580 -36 598 -36 ct p ef
894 -170 m  894 -150 896 -133 898 -117 ct 901 -100 906 -86 913 -75 ct 919 -63 928 -54 939 -48 ct 
950 -41 963 -38 979 -38 ct 999 -38 1015 -43 1029 -54 ct 1042 -64 1050 -80 1053 -102 ct 
1110 -102 l  1108 -88 1104 -74 1098 -61 ct 1091 -48 1083 -37 1072 -27 ct 1062 -17 1049 -9 1033 -3 ct 
1018 3 1001 6 980 6 ct 954 6 932 2 913 -7 ct 895 -16 880 -28 869 -44 ct 857 -60 849 -78 844 -99 ct 
839 -121 836 -144 836 -168 ct 836 -191 838 -211 842 -228 ct 845 -245 851 -260 857 -273 ct 
864 -286 872 -297 881 -306 ct 890 -315 900 -322 911 -327 ct 921 -332 932 -336 944 -338 ct 
956 -341 968 -342 980 -342 ct 999 -342 1015 -339 1030 -334 ct 1045 -329 1057 -322 1068 -313 ct 
1079 -304 1087 -293 1094 -281 ct 1101 -269 1105 -256 1108 -242 ct 1051 -237 l 
1048 -256 1040 -271 1029 -282 ct 1017 -293 1000 -298 978 -298 ct 962 -298 949 -296 938 -290 ct 
928 -285 919 -277 913 -266 ct 906 -256 901 -242 898 -226 ct 896 -210 894 -191 894 -170 ct 
p ef
1224 -278 m  1230 -289 1237 -299 1244 -307 ct 1252 -315 1260 -321 1268 -326 ct 
1277 -331 1287 -335 1297 -338 ct 1307 -340 1319 -341 1332 -341 ct 1353 -341 1371 -338 1384 -332 ct 
1398 -327 1409 -319 1417 -308 ct 1425 -298 1430 -285 1433 -271 ct 1436 -256 1438 -240 1438 -223 ct 
1438 1 l  1382 1 l  1382 -212 l  1382 -226 1381 -239 1379 -250 ct 1377 -260 1374 -269 1369 -276 ct 
1364 -284 1357 -289 1348 -293 ct 1339 -296 1327 -298 1313 -298 ct 1299 -298 1287 -296 1277 -291 ct 
1266 -286 1257 -279 1250 -271 ct 1242 -262 1236 -252 1232 -239 ct 1228 -227 1226 -213 1226 -197 ct 
1226 1 l  1170 1 l  1170 -460 l  1226 -460 l  1226 -340 l  1226 -333 1226 -326 1226 -319 ct 
1225 -313 1225 -306 1225 -301 ct 1224 -295 1224 -290 1224 -286 ct 1224 -282 1224 -279 1223 -278 ct 
1224 -278 l  p ef
1563 -156 m  1563 -139 1564 -122 1568 -108 ct 1572 -93 1577 -80 1585 -70 ct 
1592 -59 1602 -51 1614 -45 ct 1626 -39 1640 -36 1656 -36 ct 1680 -36 1700 -41 1714 -50 ct 
1729 -60 1739 -72 1744 -87 ct 1793 -73 l  1789 -64 1785 -55 1778 -45 ct 1772 -36 1764 -27 1753 -20 ct 
1742 -12 1729 -6 1713 -1 ct 1698 4 1679 6 1656 6 ct 1607 6 1569 -9 1543 -38 ct 
1517 -68 1504 -112 1504 -170 ct 1504 -202 1508 -228 1516 -250 ct 1524 -272 1534 -290 1548 -303 ct 
1562 -317 1578 -327 1596 -333 ct 1614 -339 1633 -342 1654 -342 ct 1682 -342 1706 -338 1725 -329 ct 
1744 -320 1759 -307 1770 -291 ct 1782 -275 1790 -256 1795 -234 ct 1800 -212 1802 -189 1802 -164 ct 
1802 -156 l  1563 -156 l  p
1744 -199 m  1741 -234 1732 -260 1717 -277 ct 1702 -293 1681 -301 1653 -301 ct 
1644 -301 1634 -300 1624 -296 ct 1614 -293 1604 -288 1595 -280 ct 1587 -273 1579 -262 1573 -249 ct 
1567 -236 1564 -219 1563 -199 ct 1744 -199 l  p ef
2368 -1 m  2254 -182 l  2118 -182 l  2118 -1 l  2059 -1 l  2059 -437 l 
2265 -437 l  2289 -437 2311 -435 2331 -429 ct 2350 -423 2366 -415 2379 -404 ct 
2392 -394 2402 -380 2409 -365 ct 2415 -349 2419 -332 2419 -313 ct 2419 -299 2417 -285 2413 -272 ct 
2409 -258 2402 -246 2394 -235 ct 2385 -224 2374 -214 2360 -206 ct 2347 -198 2331 -192 2312 -189 ct 
2436 -1 l  2368 -1 l  p
2359 -312 m  2359 -325 2357 -337 2352 -346 ct 2348 -356 2341 -364 2333 -371 ct 
2324 -377 2313 -382 2301 -385 ct 2289 -388 2274 -390 2259 -390 ct 2118 -390 l 
2118 -229 l  2261 -229 l  2278 -229 2293 -231 2305 -235 ct 2318 -239 2328 -245 2336 -253 ct 
2344 -260 2350 -269 2353 -279 ct 2357 -289 2359 -300 2359 -312 ct p ef
2550 -156 m  2550 -139 2551 -122 2555 -108 ct 2559 -93 2564 -80 2572 -70 ct 
2579 -59 2589 -51 2601 -45 ct 2613 -39 2627 -36 2643 -36 ct 2667 -36 2687 -41 2701 -50 ct 
2716 -60 2726 -72 2731 -87 ct 2780 -73 l  2776 -64 2772 -55 2765 -45 ct 2759 -36 2751 -27 2740 -20 ct 
2729 -12 2716 -6 2700 -1 ct 2685 4 2666 6 2643 6 ct 2594 6 2556 -9 2530 -38 ct 
2504 -68 2491 -112 2491 -170 ct 2491 -202 2495 -228 2503 -250 ct 2511 -272 2521 -290 2535 -303 ct 
2549 -317 2565 -327 2583 -333 ct 2601 -339 2620 -342 2641 -342 ct 2669 -342 2693 -338 2712 -329 ct 
2731 -320 2746 -307 2757 -291 ct 2769 -275 2777 -256 2782 -234 ct 2787 -212 2789 -189 2789 -164 ct 
2789 -156 l  2550 -156 l  p
2731 -199 m  2728 -234 2719 -260 2704 -277 ct 2689 -293 2668 -301 2640 -301 ct 
2631 -301 2621 -300 2611 -296 ct 2601 -293 2591 -288 2582 -280 ct 2574 -273 2566 -262 2560 -249 ct 
2554 -236 2551 -219 2550 -199 ct 2731 -199 l  p ef
2943 6 m  2910 6 2884 -3 2867 -21 ct 2850 -39 2842 -63 2842 -94 ct 2842 -117 2846 -135 2855 -149 ct 
2863 -163 2874 -174 2887 -183 ct 2901 -191 2916 -196 2934 -199 ct 2951 -203 2969 -204 2987 -204 ct 
3062 -204 l  3062 -223 l  3062 -237 3061 -248 3058 -258 ct 3055 -268 3050 -276 3044 -282 ct 
3038 -288 3031 -292 3022 -295 ct 3013 -298 3002 -299 2990 -299 ct 2979 -299 2970 -299 2961 -297 ct 
2952 -296 2945 -293 2938 -289 ct 2932 -285 2927 -279 2923 -272 ct 2919 -265 2916 -257 2915 -246 ct 
2857 -251 l  2859 -265 2863 -277 2869 -288 ct 2874 -299 2883 -309 2893 -317 ct 
2904 -325 2917 -331 2933 -335 ct 2949 -340 2969 -342 2991 -342 ct 3034 -342 3065 -332 3087 -313 ct 
3108 -294 3119 -266 3119 -229 ct 3119 -85 l  3119 -68 3121 -55 3125 -47 ct 3129 -39 3138 -35 3150 -35 ct 
3153 -35 3156 -35 3159 -35 ct 3162 -36 3165 -36 3168 -37 ct 3168 -2 l  3161 0 3154 1 3147 2 ct 
3140 3 3133 3 3125 3 ct 3115 3 3105 2 3098 -1 ct 3090 -4 3084 -8 3079 -14 ct 3075 -20 3071 -27 3069 -35 ct 
3066 -43 3065 -53 3064 -64 ct 3062 -64 l  3056 -54 3050 -44 3042 -35 ct 3035 -27 3027 -19 3017 -13 ct 
3008 -7 2997 -2 2985 1 ct 2973 4 2959 6 2943 6 ct p
2956 -36 m  2974 -36 2989 -39 3003 -46 ct 3016 -52 3027 -60 3036 -70 ct 3045 -80 3051 -91 3056 -103 ct 
3060 -115 3062 -127 3062 -138 ct 3062 -165 l  3001 -165 l  2987 -165 2974 -164 2962 -162 ct 
2950 -161 2939 -157 2930 -152 ct 2920 -147 2913 -139 2908 -130 ct 2902 -121 2899 -108 2899 -93 ct 
2899 -75 2904 -61 2914 -51 ct 2924 -41 2938 -36 2956 -36 ct p ef
3422 -53 m  3411 -32 3398 -16 3380 -7 ct 3363 2 3342 7 3317 7 ct 3275 7 3244 -7 3224 -36 ct 
3204 -64 3194 -108 3194 -166 ct 3194 -283 3235 -341 3317 -341 ct 3342 -341 3364 -337 3381 -327 ct 
3398 -318 3411 -303 3422 -283 ct 3422 -283 l  3422 -285 3422 -288 3422 -293 ct 
3422 -297 3422 -302 3422 -307 ct 3422 -312 3422 -316 3422 -321 ct 3422 -325 3422 -328 3422 -330 ct 
3422 -460 l  3477 -460 l  3477 -69 l  3477 -61 3477 -53 3478 -45 ct 3478 -38 3478 -31 3478 -25 ct 
3478 -19 3478 -13 3479 -9 ct 3479 -4 3479 -1 3479 1 ct 3426 1 l  3425 -2 3425 -4 3425 -8 ct 
3425 -12 3424 -16 3424 -21 ct 3424 -26 3423 -32 3423 -37 ct 3423 -42 3423 -48 3423 -53 ct 
3422 -53 l  p
3252 -167 m  3252 -144 3254 -124 3257 -108 ct 3260 -91 3264 -78 3271 -67 ct 
3277 -56 3285 -49 3295 -44 ct 3305 -39 3317 -36 3331 -36 ct 3346 -36 3359 -39 3370 -43 ct 
3382 -48 3391 -56 3398 -66 ct 3406 -77 3412 -91 3416 -108 ct 3420 -125 3422 -146 3422 -171 ct 
3422 -195 3420 -215 3416 -232 ct 3412 -248 3406 -261 3398 -271 ct 3391 -282 3381 -289 3370 -293 ct 
3359 -298 3346 -300 3332 -300 ct 3318 -300 3307 -298 3297 -293 ct 3287 -288 3278 -280 3272 -270 ct 
3265 -259 3260 -246 3257 -229 ct 3254 -212 3252 -191 3252 -167 ct p ef
3518 7 m  3645 -460 l  3694 -460 l  3568 7 l  3518 7 l  p ef
4165 0 m  4094 0 l  4018 -278 l  4016 -286 4013 -295 4011 -306 ct 4008 -317 4006 -327 4004 -337 ct 
4001 -348 3999 -360 3996 -371 ct 3994 -359 3991 -348 3989 -336 ct 3986 -326 3984 -316 3982 -306 ct 
3979 -295 3977 -286 3974 -278 ct 3898 0 l  3827 0 l  3699 -438 l  3761 -438 l 
3839 -159 l  3842 -146 3846 -133 3849 -121 ct 3852 -108 3855 -96 3857 -86 ct 
3860 -74 3862 -63 3865 -52 ct 3868 -66 3871 -80 3874 -94 ct 3876 -100 3877 -106 3879 -113 ct 
3880 -119 3882 -125 3883 -132 ct 3885 -138 3886 -144 3888 -149 ct 3889 -155 3891 -160 3892 -165 ct 
3968 -438 l  4025 -438 l  4101 -165 l  4102 -160 4103 -155 4105 -149 ct 4106 -144 4108 -138 4109 -132 ct 
4111 -126 4113 -119 4114 -113 ct 4115 -106 4117 -100 4118 -95 ct 4122 -81 4125 -66 4128 -52 ct 
4128 -52 4129 -56 4131 -63 ct 4132 -70 4134 -79 4137 -90 ct 4139 -100 4142 -112 4145 -125 ct 
4148 -137 4151 -149 4154 -159 ct 4231 -438 l  4293 -438 l  4165 0 l  p ef
4328 0 m  4328 -258 l  4328 -265 4328 -272 4328 -279 ct 4328 -287 4328 -294 4327 -300 ct 
4327 -307 4327 -314 4327 -320 ct 4327 -326 4326 -331 4326 -336 ct 4379 -336 l 
4379 -331 4379 -326 4380 -320 ct 4380 -313 4380 -307 4381 -301 ct 4381 -294 4381 -288 4381 -282 ct 
4381 -276 4381 -271 4381 -267 ct 4383 -267 l  4387 -280 4391 -291 4395 -301 ct 
4400 -310 4405 -318 4411 -324 ct 4417 -330 4424 -335 4432 -338 ct 4440 -341 4451 -342 4462 -342 ct 
4467 -342 4471 -342 4475 -341 ct 4479 -340 4483 -340 4485 -339 ct 4485 -288 l 
4481 -289 4477 -290 4472 -290 ct 4467 -291 4461 -291 4455 -291 ct 4442 -291 4431 -288 4422 -282 ct 
4413 -276 4406 -268 4400 -258 ct 4395 -248 4391 -236 4388 -221 ct 4385 -207 4384 -192 4384 -175 ct 
4384 0 l  4328 0 l  p ef
4538 -407 m  4538 -460 l  4594 -460 l  4594 -407 l  4538 -407 l  p
4538 1 m  4538 -335 l  4594 -335 l  4594 1 l  4538 1 l  p ef
4808 -2 m  4799 0 4791 2 4782 3 ct 4773 4 4763 5 4751 5 ct 4707 5 4684 -20 4684 -71 ct 
4684 -295 l  4646 -295 l  4646 -336 l  4687 -336 l  4703 -411 l  4740 -411 l 
4740 -336 l  4802 -336 l  4802 -295 l  4740 -295 l  4740 -83 l  4740 -67 4743 -56 4748 -49 ct 
4753 -43 4763 -39 4776 -39 ct 4781 -39 4786 -40 4791 -41 ct 4796 -41 4802 -42 4808 -44 ct 
4808 -2 l  p ef
4899 -156 m  4899 -139 4900 -122 4904 -108 ct 4908 -93 4913 -80 4921 -70 ct 
4928 -59 4938 -51 4950 -45 ct 4962 -39 4976 -36 4992 -36 ct 5016 -36 5036 -41 5050 -50 ct 
5065 -60 5075 -72 5080 -87 ct 5129 -73 l  5125 -64 5121 -55 5114 -45 ct 5108 -36 5100 -27 5089 -20 ct 
5078 -12 5065 -6 5049 -1 ct 5034 4 5015 6 4992 6 ct 4943 6 4905 -9 4879 -38 ct 
4853 -68 4840 -112 4840 -170 ct 4840 -202 4844 -228 4852 -250 ct 4860 -272 4870 -290 4884 -303 ct 
4898 -317 4914 -327 4932 -333 ct 4950 -339 4969 -342 4990 -342 ct 5018 -342 5042 -338 5061 -329 ct 
5080 -320 5095 -307 5106 -291 ct 5118 -275 5126 -256 5131 -234 ct 5136 -212 5138 -189 5138 -164 ct 
5138 -156 l  4899 -156 l  p
5080 -199 m  5077 -234 5068 -260 5053 -277 ct 5038 -293 5017 -301 4989 -301 ct 
4980 -301 4970 -300 4960 -296 ct 4950 -293 4940 -288 4931 -280 ct 4923 -273 4915 -262 4909 -249 ct 
4903 -236 4900 -219 4899 -199 ct 5080 -199 l  p ef
pom
0 7012 t 
pom
count op_count sub {pop} repeat countdictstack dict_count sub {end} repeat b4_inc_state restore
%%PageTrailer
%%Trailer
%%EOF
