%!PS-Adobe-2.0 EPSF-2.0
%%Title: cdf.eps
%%Creator: gnuplot 4.2 patchlevel 6 
%%CreationDate: Mon Jul  1 15:09:01 2013
%%DocumentFonts: (atend)
%%BoundingBox: 50 50 697 503
%%EndComments
%%BeginProlog
/gnudict 256 dict def
gnudict begin
%
% The following 6 true/false flags may be edited by hand if required
% The unit line width may also be changed
%
/Color false def
/Blacktext false def
/Solid false def
/Dashlength 1 def
/Landscape false def
/Level1 false def
/Rounded false def
/TransparentPatterns false def
/gnulinewidth 5.000 def
/userlinewidth gnulinewidth def
%
/vshift -166 def
/dl1 {
  10.0 Dashlength mul mul
  Rounded { currentlinewidth 0.75 mul sub dup 0 le { pop 0.01 } if } if
} def
/dl2 {
  10.0 Dashlength mul mul
  Rounded { currentlinewidth 0.75 mul add } if
} def
/hpt_ 31.5 def
/vpt_ 31.5 def
/hpt hpt_ def
/vpt vpt_ def
Level1 {} {
/SDict 10 dict def
systemdict /pdfmark known not {
  userdict /pdfmark systemdict /cleartomark get put
} if
SDict begin [
  /Title (cdf.eps)
  /Subject (gnuplot plot)
  /Creator (gnuplot 4.2 patchlevel 6 )
  /Author (Junghee Lee,,,)
%  /Producer (gnuplot)
%  /Keywords ()
  /CreationDate (Mon Jul  1 15:09:01 2013)
  /DOCINFO pdfmark
end
} ifelse
%
% Gnuplot Prolog Version 4.2 (August 2006)
%
/M {moveto} bind def
/L {lineto} bind def
/R {rmoveto} bind def
/V {rlineto} bind def
/N {newpath moveto} bind def
/Z {closepath} bind def
/C {setrgbcolor} bind def
/f {rlineto fill} bind def
/vpt2 vpt 2 mul def
/hpt2 hpt 2 mul def
/Lshow {currentpoint stroke M 0 vshift R 
	Blacktext {gsave 0 setgray show grestore} {show} ifelse} def
/Rshow {currentpoint stroke M dup stringwidth pop neg vshift R
	Blacktext {gsave 0 setgray show grestore} {show} ifelse} def
/Cshow {currentpoint stroke M dup stringwidth pop -2 div vshift R 
	Blacktext {gsave 0 setgray show grestore} {show} ifelse} def
/UP {dup vpt_ mul /vpt exch def hpt_ mul /hpt exch def
  /hpt2 hpt 2 mul def /vpt2 vpt 2 mul def} def
/DL {Color {setrgbcolor Solid {pop []} if 0 setdash}
 {pop pop pop 0 setgray Solid {pop []} if 0 setdash} ifelse} def
/BL {stroke userlinewidth 2 mul setlinewidth
	Rounded {1 setlinejoin 1 setlinecap} if} def
/AL {stroke userlinewidth 2 div setlinewidth
	Rounded {1 setlinejoin 1 setlinecap} if} def
/UL {dup gnulinewidth mul /userlinewidth exch def
	dup 1 lt {pop 1} if 10 mul /udl exch def} def
/PL {stroke userlinewidth setlinewidth
	Rounded {1 setlinejoin 1 setlinecap} if} def
% Default Line colors
/LCw {1 1 1} def
/LCb {0 0 0} def
/LCa {0 0 0} def
/LC0 {1 0 0} def
/LC1 {0 1 0} def
/LC2 {0 0 1} def
/LC3 {1 0 1} def
/LC4 {0 1 1} def
/LC5 {1 1 0} def
/LC6 {0 0 0} def
/LC7 {1 0.3 0} def
/LC8 {0.5 0.5 0.5} def
% Default Line Types
/LTw {PL [] 1 setgray} def
/LTb {BL [] LCb DL} def
/LTa {AL [1 udl mul 2 udl mul] 0 setdash LCa setrgbcolor} def
/LT0 {PL [] LC0 DL} def
/LT1 {PL [4 dl1 2 dl2] LC1 DL} def
/LT2 {PL [2 dl1 3 dl2] LC2 DL} def
/LT3 {PL [1 dl1 1.5 dl2] LC3 DL} def
/LT4 {PL [6 dl1 2 dl2 1 dl1 2 dl2] LC4 DL} def
/LT5 {PL [3 dl1 3 dl2 1 dl1 3 dl2] LC5 DL} def
/LT6 {PL [2 dl1 2 dl2 2 dl1 6 dl2] LC6 DL} def
/LT7 {PL [1 dl1 2 dl2 6 dl1 2 dl2 1 dl1 2 dl2] LC7 DL} def
/LT8 {PL [2 dl1 2 dl2 2 dl1 2 dl2 2 dl1 2 dl2 2 dl1 4 dl2] LC8 DL} def
/Pnt {stroke [] 0 setdash gsave 1 setlinecap M 0 0 V stroke grestore} def
/Dia {stroke [] 0 setdash 2 copy vpt add M
  hpt neg vpt neg V hpt vpt neg V
  hpt vpt V hpt neg vpt V closepath stroke
  Pnt} def
/Pls {stroke [] 0 setdash vpt sub M 0 vpt2 V
  currentpoint stroke M
  hpt neg vpt neg R hpt2 0 V stroke
 } def
/Box {stroke [] 0 setdash 2 copy exch hpt sub exch vpt add M
  0 vpt2 neg V hpt2 0 V 0 vpt2 V
  hpt2 neg 0 V closepath stroke
  Pnt} def
/Crs {stroke [] 0 setdash exch hpt sub exch vpt add M
  hpt2 vpt2 neg V currentpoint stroke M
  hpt2 neg 0 R hpt2 vpt2 V stroke} def
/TriU {stroke [] 0 setdash 2 copy vpt 1.12 mul add M
  hpt neg vpt -1.62 mul V
  hpt 2 mul 0 V
  hpt neg vpt 1.62 mul V closepath stroke
  Pnt} def
/Star {2 copy Pls Crs} def
/BoxF {stroke [] 0 setdash exch hpt sub exch vpt add M
  0 vpt2 neg V hpt2 0 V 0 vpt2 V
  hpt2 neg 0 V closepath fill} def
/TriUF {stroke [] 0 setdash vpt 1.12 mul add M
  hpt neg vpt -1.62 mul V
  hpt 2 mul 0 V
  hpt neg vpt 1.62 mul V closepath fill} def
/TriD {stroke [] 0 setdash 2 copy vpt 1.12 mul sub M
  hpt neg vpt 1.62 mul V
  hpt 2 mul 0 V
  hpt neg vpt -1.62 mul V closepath stroke
  Pnt} def
/TriDF {stroke [] 0 setdash vpt 1.12 mul sub M
  hpt neg vpt 1.62 mul V
  hpt 2 mul 0 V
  hpt neg vpt -1.62 mul V closepath fill} def
/DiaF {stroke [] 0 setdash vpt add M
  hpt neg vpt neg V hpt vpt neg V
  hpt vpt V hpt neg vpt V closepath fill} def
/Pent {stroke [] 0 setdash 2 copy gsave
  translate 0 hpt M 4 {72 rotate 0 hpt L} repeat
  closepath stroke grestore Pnt} def
/PentF {stroke [] 0 setdash gsave
  translate 0 hpt M 4 {72 rotate 0 hpt L} repeat
  closepath fill grestore} def
/Circle {stroke [] 0 setdash 2 copy
  hpt 0 360 arc stroke Pnt} def
/CircleF {stroke [] 0 setdash hpt 0 360 arc fill} def
/C0 {BL [] 0 setdash 2 copy moveto vpt 90 450 arc} bind def
/C1 {BL [] 0 setdash 2 copy moveto
	2 copy vpt 0 90 arc closepath fill
	vpt 0 360 arc closepath} bind def
/C2 {BL [] 0 setdash 2 copy moveto
	2 copy vpt 90 180 arc closepath fill
	vpt 0 360 arc closepath} bind def
/C3 {BL [] 0 setdash 2 copy moveto
	2 copy vpt 0 180 arc closepath fill
	vpt 0 360 arc closepath} bind def
/C4 {BL [] 0 setdash 2 copy moveto
	2 copy vpt 180 270 arc closepath fill
	vpt 0 360 arc closepath} bind def
/C5 {BL [] 0 setdash 2 copy moveto
	2 copy vpt 0 90 arc
	2 copy moveto
	2 copy vpt 180 270 arc closepath fill
	vpt 0 360 arc} bind def
/C6 {BL [] 0 setdash 2 copy moveto
	2 copy vpt 90 270 arc closepath fill
	vpt 0 360 arc closepath} bind def
/C7 {BL [] 0 setdash 2 copy moveto
	2 copy vpt 0 270 arc closepath fill
	vpt 0 360 arc closepath} bind def
/C8 {BL [] 0 setdash 2 copy moveto
	2 copy vpt 270 360 arc closepath fill
	vpt 0 360 arc closepath} bind def
/C9 {BL [] 0 setdash 2 copy moveto
	2 copy vpt 270 450 arc closepath fill
	vpt 0 360 arc closepath} bind def
/C10 {BL [] 0 setdash 2 copy 2 copy moveto vpt 270 360 arc closepath fill
	2 copy moveto
	2 copy vpt 90 180 arc closepath fill
	vpt 0 360 arc closepath} bind def
/C11 {BL [] 0 setdash 2 copy moveto
	2 copy vpt 0 180 arc closepath fill
	2 copy moveto
	2 copy vpt 270 360 arc closepath fill
	vpt 0 360 arc closepath} bind def
/C12 {BL [] 0 setdash 2 copy moveto
	2 copy vpt 180 360 arc closepath fill
	vpt 0 360 arc closepath} bind def
/C13 {BL [] 0 setdash 2 copy moveto
	2 copy vpt 0 90 arc closepath fill
	2 copy moveto
	2 copy vpt 180 360 arc closepath fill
	vpt 0 360 arc closepath} bind def
/C14 {BL [] 0 setdash 2 copy moveto
	2 copy vpt 90 360 arc closepath fill
	vpt 0 360 arc} bind def
/C15 {BL [] 0 setdash 2 copy vpt 0 360 arc closepath fill
	vpt 0 360 arc closepath} bind def
/Rec {newpath 4 2 roll moveto 1 index 0 rlineto 0 exch rlineto
	neg 0 rlineto closepath} bind def
/Square {dup Rec} bind def
/Bsquare {vpt sub exch vpt sub exch vpt2 Square} bind def
/S0 {BL [] 0 setdash 2 copy moveto 0 vpt rlineto BL Bsquare} bind def
/S1 {BL [] 0 setdash 2 copy vpt Square fill Bsquare} bind def
/S2 {BL [] 0 setdash 2 copy exch vpt sub exch vpt Square fill Bsquare} bind def
/S3 {BL [] 0 setdash 2 copy exch vpt sub exch vpt2 vpt Rec fill Bsquare} bind def
/S4 {BL [] 0 setdash 2 copy exch vpt sub exch vpt sub vpt Square fill Bsquare} bind def
/S5 {BL [] 0 setdash 2 copy 2 copy vpt Square fill
	exch vpt sub exch vpt sub vpt Square fill Bsquare} bind def
/S6 {BL [] 0 setdash 2 copy exch vpt sub exch vpt sub vpt vpt2 Rec fill Bsquare} bind def
/S7 {BL [] 0 setdash 2 copy exch vpt sub exch vpt sub vpt vpt2 Rec fill
	2 copy vpt Square fill Bsquare} bind def
/S8 {BL [] 0 setdash 2 copy vpt sub vpt Square fill Bsquare} bind def
/S9 {BL [] 0 setdash 2 copy vpt sub vpt vpt2 Rec fill Bsquare} bind def
/S10 {BL [] 0 setdash 2 copy vpt sub vpt Square fill 2 copy exch vpt sub exch vpt Square fill
	Bsquare} bind def
/S11 {BL [] 0 setdash 2 copy vpt sub vpt Square fill 2 copy exch vpt sub exch vpt2 vpt Rec fill
	Bsquare} bind def
/S12 {BL [] 0 setdash 2 copy exch vpt sub exch vpt sub vpt2 vpt Rec fill Bsquare} bind def
/S13 {BL [] 0 setdash 2 copy exch vpt sub exch vpt sub vpt2 vpt Rec fill
	2 copy vpt Square fill Bsquare} bind def
/S14 {BL [] 0 setdash 2 copy exch vpt sub exch vpt sub vpt2 vpt Rec fill
	2 copy exch vpt sub exch vpt Square fill Bsquare} bind def
/S15 {BL [] 0 setdash 2 copy Bsquare fill Bsquare} bind def
/D0 {gsave translate 45 rotate 0 0 S0 stroke grestore} bind def
/D1 {gsave translate 45 rotate 0 0 S1 stroke grestore} bind def
/D2 {gsave translate 45 rotate 0 0 S2 stroke grestore} bind def
/D3 {gsave translate 45 rotate 0 0 S3 stroke grestore} bind def
/D4 {gsave translate 45 rotate 0 0 S4 stroke grestore} bind def
/D5 {gsave translate 45 rotate 0 0 S5 stroke grestore} bind def
/D6 {gsave translate 45 rotate 0 0 S6 stroke grestore} bind def
/D7 {gsave translate 45 rotate 0 0 S7 stroke grestore} bind def
/D8 {gsave translate 45 rotate 0 0 S8 stroke grestore} bind def
/D9 {gsave translate 45 rotate 0 0 S9 stroke grestore} bind def
/D10 {gsave translate 45 rotate 0 0 S10 stroke grestore} bind def
/D11 {gsave translate 45 rotate 0 0 S11 stroke grestore} bind def
/D12 {gsave translate 45 rotate 0 0 S12 stroke grestore} bind def
/D13 {gsave translate 45 rotate 0 0 S13 stroke grestore} bind def
/D14 {gsave translate 45 rotate 0 0 S14 stroke grestore} bind def
/D15 {gsave translate 45 rotate 0 0 S15 stroke grestore} bind def
/DiaE {stroke [] 0 setdash vpt add M
  hpt neg vpt neg V hpt vpt neg V
  hpt vpt V hpt neg vpt V closepath stroke} def
/BoxE {stroke [] 0 setdash exch hpt sub exch vpt add M
  0 vpt2 neg V hpt2 0 V 0 vpt2 V
  hpt2 neg 0 V closepath stroke} def
/TriUE {stroke [] 0 setdash vpt 1.12 mul add M
  hpt neg vpt -1.62 mul V
  hpt 2 mul 0 V
  hpt neg vpt 1.62 mul V closepath stroke} def
/TriDE {stroke [] 0 setdash vpt 1.12 mul sub M
  hpt neg vpt 1.62 mul V
  hpt 2 mul 0 V
  hpt neg vpt -1.62 mul V closepath stroke} def
/PentE {stroke [] 0 setdash gsave
  translate 0 hpt M 4 {72 rotate 0 hpt L} repeat
  closepath stroke grestore} def
/CircE {stroke [] 0 setdash 
  hpt 0 360 arc stroke} def
/Opaque {gsave closepath 1 setgray fill grestore 0 setgray closepath} def
/DiaW {stroke [] 0 setdash vpt add M
  hpt neg vpt neg V hpt vpt neg V
  hpt vpt V hpt neg vpt V Opaque stroke} def
/BoxW {stroke [] 0 setdash exch hpt sub exch vpt add M
  0 vpt2 neg V hpt2 0 V 0 vpt2 V
  hpt2 neg 0 V Opaque stroke} def
/TriUW {stroke [] 0 setdash vpt 1.12 mul add M
  hpt neg vpt -1.62 mul V
  hpt 2 mul 0 V
  hpt neg vpt 1.62 mul V Opaque stroke} def
/TriDW {stroke [] 0 setdash vpt 1.12 mul sub M
  hpt neg vpt 1.62 mul V
  hpt 2 mul 0 V
  hpt neg vpt -1.62 mul V Opaque stroke} def
/PentW {stroke [] 0 setdash gsave
  translate 0 hpt M 4 {72 rotate 0 hpt L} repeat
  Opaque stroke grestore} def
/CircW {stroke [] 0 setdash 
  hpt 0 360 arc Opaque stroke} def
/BoxFill {gsave Rec 1 setgray fill grestore} def
/Density {
  /Fillden exch def
  currentrgbcolor
  /ColB exch def /ColG exch def /ColR exch def
  /ColR ColR Fillden mul Fillden sub 1 add def
  /ColG ColG Fillden mul Fillden sub 1 add def
  /ColB ColB Fillden mul Fillden sub 1 add def
  ColR ColG ColB setrgbcolor} def
/BoxColFill {gsave Rec PolyFill} def
/PolyFill {gsave Density fill grestore grestore} def
/h {rlineto rlineto rlineto gsave closepath fill grestore} bind def
%
% PostScript Level 1 Pattern Fill routine for rectangles
% Usage: x y w h s a XX PatternFill
%	x,y = lower left corner of box to be filled
%	w,h = width and height of box
%	  a = angle in degrees between lines and x-axis
%	 XX = 0/1 for no/yes cross-hatch
%
/PatternFill {gsave /PFa [ 9 2 roll ] def
  PFa 0 get PFa 2 get 2 div add PFa 1 get PFa 3 get 2 div add translate
  PFa 2 get -2 div PFa 3 get -2 div PFa 2 get PFa 3 get Rec
  gsave 1 setgray fill grestore clip
  currentlinewidth 0.5 mul setlinewidth
  /PFs PFa 2 get dup mul PFa 3 get dup mul add sqrt def
  0 0 M PFa 5 get rotate PFs -2 div dup translate
  0 1 PFs PFa 4 get div 1 add floor cvi
	{PFa 4 get mul 0 M 0 PFs V} for
  0 PFa 6 get ne {
	0 1 PFs PFa 4 get div 1 add floor cvi
	{PFa 4 get mul 0 2 1 roll M PFs 0 V} for
 } if
  stroke grestore} def
%
/languagelevel where
 {pop languagelevel} {1} ifelse
 2 lt
	{/InterpretLevel1 true def}
	{/InterpretLevel1 Level1 def}
 ifelse
%
% PostScript level 2 pattern fill definitions
%
/Level2PatternFill {
/Tile8x8 {/PaintType 2 /PatternType 1 /TilingType 1 /BBox [0 0 8 8] /XStep 8 /YStep 8}
	bind def
/KeepColor {currentrgbcolor [/Pattern /DeviceRGB] setcolorspace} bind def
<< Tile8x8
 /PaintProc {0.5 setlinewidth pop 0 0 M 8 8 L 0 8 M 8 0 L stroke} 
>> matrix makepattern
/Pat1 exch def
<< Tile8x8
 /PaintProc {0.5 setlinewidth pop 0 0 M 8 8 L 0 8 M 8 0 L stroke
	0 4 M 4 8 L 8 4 L 4 0 L 0 4 L stroke}
>> matrix makepattern
/Pat2 exch def
<< Tile8x8
 /PaintProc {0.5 setlinewidth pop 0 0 M 0 8 L
	8 8 L 8 0 L 0 0 L fill}
>> matrix makepattern
/Pat3 exch def
<< Tile8x8
 /PaintProc {0.5 setlinewidth pop -4 8 M 8 -4 L
	0 12 M 12 0 L stroke}
>> matrix makepattern
/Pat4 exch def
<< Tile8x8
 /PaintProc {0.5 setlinewidth pop -4 0 M 8 12 L
	0 -4 M 12 8 L stroke}
>> matrix makepattern
/Pat5 exch def
<< Tile8x8
 /PaintProc {0.5 setlinewidth pop -2 8 M 4 -4 L
	0 12 M 8 -4 L 4 12 M 10 0 L stroke}
>> matrix makepattern
/Pat6 exch def
<< Tile8x8
 /PaintProc {0.5 setlinewidth pop -2 0 M 4 12 L
	0 -4 M 8 12 L 4 -4 M 10 8 L stroke}
>> matrix makepattern
/Pat7 exch def
<< Tile8x8
 /PaintProc {0.5 setlinewidth pop 8 -2 M -4 4 L
	12 0 M -4 8 L 12 4 M 0 10 L stroke}
>> matrix makepattern
/Pat8 exch def
<< Tile8x8
 /PaintProc {0.5 setlinewidth pop 0 -2 M 12 4 L
	-4 0 M 12 8 L -4 4 M 8 10 L stroke}
>> matrix makepattern
/Pat9 exch def
/Pattern1 {PatternBgnd KeepColor Pat1 setpattern} bind def
/Pattern2 {PatternBgnd KeepColor Pat2 setpattern} bind def
/Pattern3 {PatternBgnd KeepColor Pat3 setpattern} bind def
/Pattern4 {PatternBgnd KeepColor Landscape {Pat5} {Pat4} ifelse setpattern} bind def
/Pattern5 {PatternBgnd KeepColor Landscape {Pat4} {Pat5} ifelse setpattern} bind def
/Pattern6 {PatternBgnd KeepColor Landscape {Pat9} {Pat6} ifelse setpattern} bind def
/Pattern7 {PatternBgnd KeepColor Landscape {Pat8} {Pat7} ifelse setpattern} bind def
} def
%
%
%End of PostScript Level 2 code
%
/PatternBgnd {
  TransparentPatterns {} {gsave 1 setgray fill grestore} ifelse
} def
%
% Substitute for Level 2 pattern fill codes with
% grayscale if Level 2 support is not selected.
%
/Level1PatternFill {
/Pattern1 {0.250 Density} bind def
/Pattern2 {0.500 Density} bind def
/Pattern3 {0.750 Density} bind def
/Pattern4 {0.125 Density} bind def
/Pattern5 {0.375 Density} bind def
/Pattern6 {0.625 Density} bind def
/Pattern7 {0.875 Density} bind def
} def
%
% Now test for support of Level 2 code
%
Level1 {Level1PatternFill} {Level2PatternFill} ifelse
%
/Symbol-Oblique /Symbol findfont [1 0 .167 1 0 0] makefont
dup length dict begin {1 index /FID eq {pop pop} {def} ifelse} forall
currentdict end definefont pop
/MFshow {
   { dup 5 get 3 ge
     { 5 get 3 eq {gsave} {grestore} ifelse }
     {dup dup 0 get findfont exch 1 get scalefont setfont
     [ currentpoint ] exch dup 2 get 0 exch R dup 5 get 2 ne {dup dup 6
     get exch 4 get {show} {stringwidth pop 0 R} ifelse }if dup 5 get 0 eq
     {dup 3 get {2 get neg 0 exch R pop} {pop aload pop M} ifelse} {dup 5
     get 1 eq {dup 2 get exch dup 3 get exch 6 get stringwidth pop -2 div
     dup 0 R} {dup 6 get stringwidth pop -2 div 0 R 6 get
     show 2 index {aload pop M neg 3 -1 roll neg R pop pop} {pop pop pop
     pop aload pop M} ifelse }ifelse }ifelse }
     ifelse }
   forall} bind def
/MFwidth {0 exch { dup 5 get 3 ge { 5 get 3 eq { 0 } { pop } ifelse }
 {dup 3 get{dup dup 0 get findfont exch 1 get scalefont setfont
     6 get stringwidth pop add} {pop} ifelse} ifelse} forall} bind def
/MLshow { currentpoint stroke M
  0 exch R
  Blacktext {gsave 0 setgray MFshow grestore} {MFshow} ifelse } bind def
/MRshow { currentpoint stroke M
  exch dup MFwidth neg 3 -1 roll R
  Blacktext {gsave 0 setgray MFshow grestore} {MFshow} ifelse } bind def
/MCshow { currentpoint stroke M
  exch dup MFwidth -2 div 3 -1 roll R
  Blacktext {gsave 0 setgray MFshow grestore} {MFshow} ifelse } bind def
/XYsave    { [( ) 1 2 true false 3 ()] } bind def
/XYrestore { [( ) 1 2 true false 4 ()] } bind def
end
%%EndProlog
gnudict begin
gsave
50 50 translate
0.050 0.050 scale
0 setgray
newpath
(Arial) findfont 500 scalefont setfont
1.000 UL
LTb
1200 1600 M
63 0 V
10946 0 R
-63 0 V
stroke
900 1600 M
[ [(Arial) 500.0 0.0 true true 0 ( 0)]
] -166.7 MRshow
1.000 UL
LTb
1200 2974 M
63 0 V
10946 0 R
-63 0 V
stroke
900 2974 M
[ [(Arial) 500.0 0.0 true true 0 ( 0.2)]
] -166.7 MRshow
1.000 UL
LTb
1200 4349 M
63 0 V
10946 0 R
-63 0 V
stroke
900 4349 M
[ [(Arial) 500.0 0.0 true true 0 ( 0.4)]
] -166.7 MRshow
1.000 UL
LTb
1200 5723 M
63 0 V
10946 0 R
-63 0 V
stroke
900 5723 M
[ [(Arial) 500.0 0.0 true true 0 ( 0.6)]
] -166.7 MRshow
1.000 UL
LTb
1200 7098 M
63 0 V
10946 0 R
-63 0 V
stroke
900 7098 M
[ [(Arial) 500.0 0.0 true true 0 ( 0.8)]
] -166.7 MRshow
1.000 UL
LTb
1200 8472 M
63 0 V
10946 0 R
-63 0 V
stroke
900 8472 M
[ [(Arial) 500.0 0.0 true true 0 ( 1)]
] -166.7 MRshow
1.000 UL
LTb
1200 1600 M
0 63 V
0 6809 R
0 -63 V
stroke
1200 1100 M
[ [(Arial) 500.0 0.0 true true 0 ( 0)]
] -166.7 MCshow
1.000 UL
LTb
2773 1600 M
0 63 V
0 6809 R
0 -63 V
stroke
2773 1100 M
[ [(Arial) 500.0 0.0 true true 0 ( 20)]
] -166.7 MCshow
1.000 UL
LTb
4345 1600 M
0 63 V
0 6809 R
0 -63 V
stroke
4345 1100 M
[ [(Arial) 500.0 0.0 true true 0 ( 40)]
] -166.7 MCshow
1.000 UL
LTb
5918 1600 M
0 63 V
0 6809 R
0 -63 V
stroke
5918 1100 M
[ [(Arial) 500.0 0.0 true true 0 ( 60)]
] -166.7 MCshow
1.000 UL
LTb
7491 1600 M
0 63 V
0 6809 R
0 -63 V
stroke
7491 1100 M
[ [(Arial) 500.0 0.0 true true 0 ( 80)]
] -166.7 MCshow
1.000 UL
LTb
9064 1600 M
0 63 V
0 6809 R
0 -63 V
stroke
9064 1100 M
[ [(Arial) 500.0 0.0 true true 0 ( 100)]
] -166.7 MCshow
1.000 UL
LTb
10636 1600 M
0 63 V
0 6809 R
0 -63 V
stroke
10636 1100 M
[ [(Arial) 500.0 0.0 true true 0 ( 120)]
] -166.7 MCshow
1.000 UL
LTb
12209 1600 M
0 63 V
0 6809 R
0 -63 V
stroke
12209 1100 M
[ [(Arial) 500.0 0.0 true true 0 ( 140)]
] -166.7 MCshow
1.000 UL
LTb
1.000 UL
LTb
1200 8472 N
0 -6872 V
11009 0 V
0 6872 V
-11009 0 V
Z stroke
LCb setrgbcolor
-550 5036 M
currentpoint gsave translate 90 rotate 0 0 moveto
[ [(Arial) 500.0 0.0 true true 0 (Cumulative distribution function)]
] -166.7 MCshow
grestore
LTb
LCb setrgbcolor
6704 350 M
[ [(Arial) 500.0 0.0 true true 0 (Response time \(msec\))]
] -166.7 MCshow
LTb
1.000 UP
1.000 UL
LTb
3.000 UP
3.000 UL
LT0
LTb
10046 8159 M
[ [(Arial) 500.0 0.0 true true 0 (WOW)]
] -166.7 MRshow
LT0
10346 8159 M
1263 0 V
1200 1600 M
1 7 V
1 1084 V
0 1652 V
1 0 V
1 0 V
1 0 V
1 0 V
1 0 V
1 0 V
1 0 V
2 839 V
2 0 V
1 0 V
2 0 V
2 0 V
2 0 V
3 332 V
3 0 V
3 0 V
3 2 V
4 121 V
4 0 V
5 53 V
5 0 V
5 9 V
6 0 V
7 16 V
8 3 V
8 4 V
9 259 V
11 21 V
11 18 V
12 7 V
14 9 V
15 14 V
17 25 V
19 227 V
20 25 V
23 12 V
25 11 V
27 174 V
31 30 V
34 128 V
37 21 V
41 30 V
45 78 V
50 68 V
56 12 V
61 80 V
67 55 V
75 57 V
82 49 V
91 146 V
101 103 V
111 115 V
122 133 V
136 128 V
150 110 V
165 101 V
182 121 V
202 90 V
223 48 V
246 48 V
272 48 V
300 37 V
332 27 V
367 25 V
404 16 V
448 14 V
494 12 V
545 4 V
603 7 V
666 2 V
735 3 V
812 0 V
898 2 V
991 0 V
547 0 V
1200 1600 Circle
1201 1607 Circle
1202 2691 Circle
1202 4343 Circle
1203 4343 Circle
1204 4343 Circle
1205 4343 Circle
1206 4343 Circle
1206 4343 Circle
1207 4343 Circle
1208 4343 Circle
1209 4343 Circle
1211 5182 Circle
1213 5182 Circle
1214 5182 Circle
1216 5182 Circle
1218 5182 Circle
1220 5182 Circle
1223 5514 Circle
1226 5514 Circle
1229 5514 Circle
1232 5516 Circle
1236 5637 Circle
1240 5637 Circle
1245 5690 Circle
1250 5690 Circle
1255 5699 Circle
1261 5699 Circle
1268 5715 Circle
1276 5718 Circle
1284 5722 Circle
1293 5981 Circle
1304 6002 Circle
1315 6020 Circle
1327 6027 Circle
1341 6036 Circle
1356 6050 Circle
1373 6075 Circle
1392 6302 Circle
1412 6327 Circle
1435 6339 Circle
1460 6350 Circle
1487 6524 Circle
1518 6554 Circle
1552 6682 Circle
1589 6703 Circle
1630 6733 Circle
1675 6811 Circle
1725 6879 Circle
1781 6891 Circle
1842 6971 Circle
1909 7026 Circle
1984 7083 Circle
2066 7132 Circle
2157 7278 Circle
2258 7381 Circle
2369 7496 Circle
2491 7629 Circle
2627 7757 Circle
2777 7867 Circle
2942 7968 Circle
3124 8089 Circle
3326 8179 Circle
3549 8227 Circle
3795 8275 Circle
4067 8323 Circle
4367 8360 Circle
4699 8387 Circle
5066 8412 Circle
5470 8428 Circle
5918 8442 Circle
6412 8454 Circle
6957 8458 Circle
7560 8465 Circle
8226 8467 Circle
8961 8470 Circle
9773 8470 Circle
10671 8472 Circle
11662 8472 Circle
10977 8159 Circle
3.000 UP
3.000 UL
LT1
LTb
10046 7659 M
[ [(Arial) 500.0 0.0 true true 0 (W/ Synchronization)]
] -166.7 MRshow
LT1
10346 7659 M
1263 0 V
1200 1600 M
1 0 V
1 0 V
1 0 V
1 0 V
1 0 V
1 0 V
1 0 V
1 0 V
1 0 V
2 813 V
2 649 V
1 550 V
2 0 V
2 9 V
2 2 V
3 330 V
3 266 V
3 179 V
3 2 V
4 128 V
4 175 V
5 57 V
5 9 V
5 76 V
6 11 V
7 62 V
8 23 V
8 21 V
9 249 V
11 23 V
11 193 V
12 183 V
14 48 V
15 41 V
17 78 V
19 257 V
20 174 V
23 64 V
25 58 V
27 231 V
31 71 V
34 147 V
37 68 V
41 78 V
45 129 V
50 160 V
56 73 V
61 126 V
67 87 V
75 94 V
82 81 V
91 94 V
101 71 V
111 96 V
122 71 V
136 69 V
150 71 V
165 52 V
182 53 V
202 44 V
223 22 V
246 21 V
272 23 V
300 14 V
332 18 V
367 7 V
404 21 V
448 11 V
494 7 V
545 5 V
603 4 V
666 9 V
735 9 V
812 0 V
898 3 V
991 2 V
547 0 V
1200 1600 Crs
1201 1600 Crs
1202 1600 Crs
1202 1600 Crs
1203 1600 Crs
1204 1600 Crs
1205 1600 Crs
1206 1600 Crs
1206 1600 Crs
1207 1600 Crs
1208 1600 Crs
1209 1600 Crs
1211 2413 Crs
1213 3062 Crs
1214 3612 Crs
1216 3612 Crs
1218 3621 Crs
1220 3623 Crs
1223 3953 Crs
1226 4219 Crs
1229 4398 Crs
1232 4400 Crs
1236 4528 Crs
1240 4703 Crs
1245 4760 Crs
1250 4769 Crs
1255 4845 Crs
1261 4856 Crs
1268 4918 Crs
1276 4941 Crs
1284 4962 Crs
1293 5211 Crs
1304 5234 Crs
1315 5427 Crs
1327 5610 Crs
1341 5658 Crs
1356 5699 Crs
1373 5777 Crs
1392 6034 Crs
1412 6208 Crs
1435 6272 Crs
1460 6330 Crs
1487 6561 Crs
1518 6632 Crs
1552 6779 Crs
1589 6847 Crs
1630 6925 Crs
1675 7054 Crs
1725 7214 Crs
1781 7287 Crs
1842 7413 Crs
1909 7500 Crs
1984 7594 Crs
2066 7675 Crs
2157 7769 Crs
2258 7840 Crs
2369 7936 Crs
2491 8007 Crs
2627 8076 Crs
2777 8147 Crs
2942 8199 Crs
3124 8252 Crs
3326 8296 Crs
3549 8318 Crs
3795 8339 Crs
4067 8362 Crs
4367 8376 Crs
4699 8394 Crs
5066 8401 Crs
5470 8422 Crs
5918 8433 Crs
6412 8440 Crs
6957 8445 Crs
7560 8449 Crs
8226 8458 Crs
8961 8467 Crs
9773 8467 Crs
10671 8470 Crs
11662 8472 Crs
10977 7659 Crs
1.000 UL
LTb
1200 8472 N
0 -6872 V
11009 0 V
0 6872 V
-11009 0 V
Z stroke
1.000 UP
1.000 UL
LTb
1.000 UL
LTb
4800 3016 M
63 0 V
6627 0 R
-63 0 V
stroke
4500 3016 M
[ [(Arial) 500.0 0.0 true true 0 ( 0.98)]
] -166.7 MRshow
1.000 UL
LTb
4800 3876 M
63 0 V
6627 0 R
-63 0 V
stroke
4500 3876 M
[ [(Arial) 500.0 0.0 true true 0 ( 0.985)]
] -166.7 MRshow
1.000 UL
LTb
4800 4736 M
63 0 V
6627 0 R
-63 0 V
stroke
4500 4736 M
[ [(Arial) 500.0 0.0 true true 0 ( 0.99)]
] -166.7 MRshow
1.000 UL
LTb
4800 5596 M
63 0 V
6627 0 R
-63 0 V
stroke
4500 5596 M
[ [(Arial) 500.0 0.0 true true 0 ( 0.995)]
] -166.7 MRshow
1.000 UL
LTb
4800 6456 M
63 0 V
6627 0 R
-63 0 V
stroke
4500 6456 M
[ [(Arial) 500.0 0.0 true true 0 ( 1)]
] -166.7 MRshow
1.000 UL
LTb
4800 3016 M
0 63 V
0 3377 R
0 -63 V
stroke
4800 2516 M
[ [(Arial) 500.0 0.0 true true 0 ( 0)]
] -166.7 MCshow
1.000 UL
LTb
5756 3016 M
0 63 V
0 3377 R
0 -63 V
stroke
5756 2516 M
[ [(Arial) 500.0 0.0 true true 0 ( 20)]
] -166.7 MCshow
1.000 UL
LTb
6711 3016 M
0 63 V
0 3377 R
0 -63 V
stroke
6711 2516 M
[ [(Arial) 500.0 0.0 true true 0 ( 40)]
] -166.7 MCshow
1.000 UL
LTb
7667 3016 M
0 63 V
0 3377 R
0 -63 V
stroke
7667 2516 M
[ [(Arial) 500.0 0.0 true true 0 ( 60)]
] -166.7 MCshow
1.000 UL
LTb
8623 3016 M
0 63 V
0 3377 R
0 -63 V
stroke
8623 2516 M
[ [(Arial) 500.0 0.0 true true 0 ( 80)]
] -166.7 MCshow
1.000 UL
LTb
9579 3016 M
0 63 V
0 3377 R
0 -63 V
stroke
9579 2516 M
[ [(Arial) 500.0 0.0 true true 0 ( 100)]
] -166.7 MCshow
1.000 UL
LTb
10534 3016 M
0 63 V
0 3377 R
0 -63 V
stroke
10534 2516 M
[ [(Arial) 500.0 0.0 true true 0 ( 120)]
] -166.7 MCshow
1.000 UL
LTb
11490 3016 M
0 63 V
0 3377 R
0 -63 V
stroke
11490 2516 M
[ [(Arial) 500.0 0.0 true true 0 ( 140)]
] -166.7 MCshow
1.000 UL
LTb
1.000 UL
LTb
4800 6456 N
0 -3440 V
6690 0 V
0 3440 V
-6690 0 V
Z stroke
LCb setrgbcolor
LTb
LCb setrgbcolor
LTb
1.000 UP
1.000 UL
LTb
3.000 UP
3.000 UL
LT0
6600 3016 M
125 630 V
201 688 V
223 631 V
246 401 V
272 344 V
300 287 V
331 115 V
367 172 V
404 57 V
447 58 V
494 0 V
545 57 V
603 0 V
332 0 V
6725 3646 Circle
6926 4334 Circle
7149 4965 Circle
7395 5366 Circle
7667 5710 Circle
7967 5997 Circle
8298 6112 Circle
8665 6284 Circle
9069 6341 Circle
9516 6399 Circle
10010 6399 Circle
10555 6456 Circle
11158 6456 Circle
3.000 UP
3.000 UL
LT1
6344 3016 M
33 114 V
165 573 V
183 344 V
201 459 V
223 172 V
246 516 V
272 287 V
300 172 V
331 115 V
367 115 V
404 229 V
447 229 V
494 0 V
545 58 V
603 57 V
332 0 V
6377 3130 Crs
6542 3703 Crs
6725 4047 Crs
6926 4506 Crs
7149 4678 Crs
7395 5194 Crs
7667 5481 Crs
7967 5653 Crs
8298 5768 Crs
8665 5883 Crs
9069 6112 Crs
9516 6341 Crs
10010 6341 Crs
10555 6399 Crs
11158 6456 Crs
1.000 UL
LTb
4800 6456 N
0 -3440 V
6690 0 V
0 3440 V
-6690 0 V
Z stroke
1.000 UP
1.000 UL
LTb
stroke
grestore
end
showpage
%%Trailer
%%DocumentFonts: Arial
