%!PS-Adobe-2.0 EPSF-2.0
%%Title: ts_wow.eps
%%Creator: gnuplot 4.2 patchlevel 6 
%%CreationDate: Wed May 15 12:00:18 2013
%%DocumentFonts: (atend)
%%BoundingBox: 50 50 770 302
%%EndComments
%%BeginProlog
/gnudict 256 dict def
gnudict begin
%
% The following 6 true/false flags may be edited by hand if required
% The unit line width may also be changed
%
/Color false def
/Blacktext false def
/Solid false def
/Dashlength 1 def
/Landscape false def
/Level1 false def
/Rounded false def
/TransparentPatterns false def
/gnulinewidth 5.000 def
/userlinewidth gnulinewidth def
%
/vshift -166 def
/dl1 {
  10.0 Dashlength mul mul
  Rounded { currentlinewidth 0.75 mul sub dup 0 le { pop 0.01 } if } if
} def
/dl2 {
  10.0 Dashlength mul mul
  Rounded { currentlinewidth 0.75 mul add } if
} def
/hpt_ 31.5 def
/vpt_ 31.5 def
/hpt hpt_ def
/vpt vpt_ def
Level1 {} {
/SDict 10 dict def
systemdict /pdfmark known not {
  userdict /pdfmark systemdict /cleartomark get put
} if
SDict begin [
  /Title (ts_wow.eps)
  /Subject (gnuplot plot)
  /Creator (gnuplot 4.2 patchlevel 6 )
  /Author (Junghee Lee,,,)
%  /Producer (gnuplot)
%  /Keywords ()
  /CreationDate (Wed May 15 12:00:18 2013)
  /DOCINFO pdfmark
end
} ifelse
%
% Gnuplot Prolog Version 4.2 (August 2006)
%
/M {moveto} bind def
/L {lineto} bind def
/R {rmoveto} bind def
/V {rlineto} bind def
/N {newpath moveto} bind def
/Z {closepath} bind def
/C {setrgbcolor} bind def
/f {rlineto fill} bind def
/vpt2 vpt 2 mul def
/hpt2 hpt 2 mul def
/Lshow {currentpoint stroke M 0 vshift R 
	Blacktext {gsave 0 setgray show grestore} {show} ifelse} def
/Rshow {currentpoint stroke M dup stringwidth pop neg vshift R
	Blacktext {gsave 0 setgray show grestore} {show} ifelse} def
/Cshow {currentpoint stroke M dup stringwidth pop -2 div vshift R 
	Blacktext {gsave 0 setgray show grestore} {show} ifelse} def
/UP {dup vpt_ mul /vpt exch def hpt_ mul /hpt exch def
  /hpt2 hpt 2 mul def /vpt2 vpt 2 mul def} def
/DL {Color {setrgbcolor Solid {pop []} if 0 setdash}
 {pop pop pop 0 setgray Solid {pop []} if 0 setdash} ifelse} def
/BL {stroke userlinewidth 2 mul setlinewidth
	Rounded {1 setlinejoin 1 setlinecap} if} def
/AL {stroke userlinewidth 2 div setlinewidth
	Rounded {1 setlinejoin 1 setlinecap} if} def
/UL {dup gnulinewidth mul /userlinewidth exch def
	dup 1 lt {pop 1} if 10 mul /udl exch def} def
/PL {stroke userlinewidth setlinewidth
	Rounded {1 setlinejoin 1 setlinecap} if} def
% Default Line colors
/LCw {1 1 1} def
/LCb {0 0 0} def
/LCa {0 0 0} def
/LC0 {1 0 0} def
/LC1 {0 1 0} def
/LC2 {0 0 1} def
/LC3 {1 0 1} def
/LC4 {0 1 1} def
/LC5 {1 1 0} def
/LC6 {0 0 0} def
/LC7 {1 0.3 0} def
/LC8 {0.5 0.5 0.5} def
% Default Line Types
/LTw {PL [] 1 setgray} def
/LTb {BL [] LCb DL} def
/LTa {AL [1 udl mul 2 udl mul] 0 setdash LCa setrgbcolor} def
/LT0 {PL [] LC0 DL} def
/LT1 {PL [4 dl1 2 dl2] LC1 DL} def
/LT2 {PL [2 dl1 3 dl2] LC2 DL} def
/LT3 {PL [1 dl1 1.5 dl2] LC3 DL} def
/LT4 {PL [6 dl1 2 dl2 1 dl1 2 dl2] LC4 DL} def
/LT5 {PL [3 dl1 3 dl2 1 dl1 3 dl2] LC5 DL} def
/LT6 {PL [2 dl1 2 dl2 2 dl1 6 dl2] LC6 DL} def
/LT7 {PL [1 dl1 2 dl2 6 dl1 2 dl2 1 dl1 2 dl2] LC7 DL} def
/LT8 {PL [2 dl1 2 dl2 2 dl1 2 dl2 2 dl1 2 dl2 2 dl1 4 dl2] LC8 DL} def
/Pnt {stroke [] 0 setdash gsave 1 setlinecap M 0 0 V stroke grestore} def
/Dia {stroke [] 0 setdash 2 copy vpt add M
  hpt neg vpt neg V hpt vpt neg V
  hpt vpt V hpt neg vpt V closepath stroke
  Pnt} def
/Pls {stroke [] 0 setdash vpt sub M 0 vpt2 V
  currentpoint stroke M
  hpt neg vpt neg R hpt2 0 V stroke
 } def
/Box {stroke [] 0 setdash 2 copy exch hpt sub exch vpt add M
  0 vpt2 neg V hpt2 0 V 0 vpt2 V
  hpt2 neg 0 V closepath stroke
  Pnt} def
/Crs {stroke [] 0 setdash exch hpt sub exch vpt add M
  hpt2 vpt2 neg V currentpoint stroke M
  hpt2 neg 0 R hpt2 vpt2 V stroke} def
/TriU {stroke [] 0 setdash 2 copy vpt 1.12 mul add M
  hpt neg vpt -1.62 mul V
  hpt 2 mul 0 V
  hpt neg vpt 1.62 mul V closepath stroke
  Pnt} def
/Star {2 copy Pls Crs} def
/BoxF {stroke [] 0 setdash exch hpt sub exch vpt add M
  0 vpt2 neg V hpt2 0 V 0 vpt2 V
  hpt2 neg 0 V closepath fill} def
/TriUF {stroke [] 0 setdash vpt 1.12 mul add M
  hpt neg vpt -1.62 mul V
  hpt 2 mul 0 V
  hpt neg vpt 1.62 mul V closepath fill} def
/TriD {stroke [] 0 setdash 2 copy vpt 1.12 mul sub M
  hpt neg vpt 1.62 mul V
  hpt 2 mul 0 V
  hpt neg vpt -1.62 mul V closepath stroke
  Pnt} def
/TriDF {stroke [] 0 setdash vpt 1.12 mul sub M
  hpt neg vpt 1.62 mul V
  hpt 2 mul 0 V
  hpt neg vpt -1.62 mul V closepath fill} def
/DiaF {stroke [] 0 setdash vpt add M
  hpt neg vpt neg V hpt vpt neg V
  hpt vpt V hpt neg vpt V closepath fill} def
/Pent {stroke [] 0 setdash 2 copy gsave
  translate 0 hpt M 4 {72 rotate 0 hpt L} repeat
  closepath stroke grestore Pnt} def
/PentF {stroke [] 0 setdash gsave
  translate 0 hpt M 4 {72 rotate 0 hpt L} repeat
  closepath fill grestore} def
/Circle {stroke [] 0 setdash 2 copy
  hpt 0 360 arc stroke Pnt} def
/CircleF {stroke [] 0 setdash hpt 0 360 arc fill} def
/C0 {BL [] 0 setdash 2 copy moveto vpt 90 450 arc} bind def
/C1 {BL [] 0 setdash 2 copy moveto
	2 copy vpt 0 90 arc closepath fill
	vpt 0 360 arc closepath} bind def
/C2 {BL [] 0 setdash 2 copy moveto
	2 copy vpt 90 180 arc closepath fill
	vpt 0 360 arc closepath} bind def
/C3 {BL [] 0 setdash 2 copy moveto
	2 copy vpt 0 180 arc closepath fill
	vpt 0 360 arc closepath} bind def
/C4 {BL [] 0 setdash 2 copy moveto
	2 copy vpt 180 270 arc closepath fill
	vpt 0 360 arc closepath} bind def
/C5 {BL [] 0 setdash 2 copy moveto
	2 copy vpt 0 90 arc
	2 copy moveto
	2 copy vpt 180 270 arc closepath fill
	vpt 0 360 arc} bind def
/C6 {BL [] 0 setdash 2 copy moveto
	2 copy vpt 90 270 arc closepath fill
	vpt 0 360 arc closepath} bind def
/C7 {BL [] 0 setdash 2 copy moveto
	2 copy vpt 0 270 arc closepath fill
	vpt 0 360 arc closepath} bind def
/C8 {BL [] 0 setdash 2 copy moveto
	2 copy vpt 270 360 arc closepath fill
	vpt 0 360 arc closepath} bind def
/C9 {BL [] 0 setdash 2 copy moveto
	2 copy vpt 270 450 arc closepath fill
	vpt 0 360 arc closepath} bind def
/C10 {BL [] 0 setdash 2 copy 2 copy moveto vpt 270 360 arc closepath fill
	2 copy moveto
	2 copy vpt 90 180 arc closepath fill
	vpt 0 360 arc closepath} bind def
/C11 {BL [] 0 setdash 2 copy moveto
	2 copy vpt 0 180 arc closepath fill
	2 copy moveto
	2 copy vpt 270 360 arc closepath fill
	vpt 0 360 arc closepath} bind def
/C12 {BL [] 0 setdash 2 copy moveto
	2 copy vpt 180 360 arc closepath fill
	vpt 0 360 arc closepath} bind def
/C13 {BL [] 0 setdash 2 copy moveto
	2 copy vpt 0 90 arc closepath fill
	2 copy moveto
	2 copy vpt 180 360 arc closepath fill
	vpt 0 360 arc closepath} bind def
/C14 {BL [] 0 setdash 2 copy moveto
	2 copy vpt 90 360 arc closepath fill
	vpt 0 360 arc} bind def
/C15 {BL [] 0 setdash 2 copy vpt 0 360 arc closepath fill
	vpt 0 360 arc closepath} bind def
/Rec {newpath 4 2 roll moveto 1 index 0 rlineto 0 exch rlineto
	neg 0 rlineto closepath} bind def
/Square {dup Rec} bind def
/Bsquare {vpt sub exch vpt sub exch vpt2 Square} bind def
/S0 {BL [] 0 setdash 2 copy moveto 0 vpt rlineto BL Bsquare} bind def
/S1 {BL [] 0 setdash 2 copy vpt Square fill Bsquare} bind def
/S2 {BL [] 0 setdash 2 copy exch vpt sub exch vpt Square fill Bsquare} bind def
/S3 {BL [] 0 setdash 2 copy exch vpt sub exch vpt2 vpt Rec fill Bsquare} bind def
/S4 {BL [] 0 setdash 2 copy exch vpt sub exch vpt sub vpt Square fill Bsquare} bind def
/S5 {BL [] 0 setdash 2 copy 2 copy vpt Square fill
	exch vpt sub exch vpt sub vpt Square fill Bsquare} bind def
/S6 {BL [] 0 setdash 2 copy exch vpt sub exch vpt sub vpt vpt2 Rec fill Bsquare} bind def
/S7 {BL [] 0 setdash 2 copy exch vpt sub exch vpt sub vpt vpt2 Rec fill
	2 copy vpt Square fill Bsquare} bind def
/S8 {BL [] 0 setdash 2 copy vpt sub vpt Square fill Bsquare} bind def
/S9 {BL [] 0 setdash 2 copy vpt sub vpt vpt2 Rec fill Bsquare} bind def
/S10 {BL [] 0 setdash 2 copy vpt sub vpt Square fill 2 copy exch vpt sub exch vpt Square fill
	Bsquare} bind def
/S11 {BL [] 0 setdash 2 copy vpt sub vpt Square fill 2 copy exch vpt sub exch vpt2 vpt Rec fill
	Bsquare} bind def
/S12 {BL [] 0 setdash 2 copy exch vpt sub exch vpt sub vpt2 vpt Rec fill Bsquare} bind def
/S13 {BL [] 0 setdash 2 copy exch vpt sub exch vpt sub vpt2 vpt Rec fill
	2 copy vpt Square fill Bsquare} bind def
/S14 {BL [] 0 setdash 2 copy exch vpt sub exch vpt sub vpt2 vpt Rec fill
	2 copy exch vpt sub exch vpt Square fill Bsquare} bind def
/S15 {BL [] 0 setdash 2 copy Bsquare fill Bsquare} bind def
/D0 {gsave translate 45 rotate 0 0 S0 stroke grestore} bind def
/D1 {gsave translate 45 rotate 0 0 S1 stroke grestore} bind def
/D2 {gsave translate 45 rotate 0 0 S2 stroke grestore} bind def
/D3 {gsave translate 45 rotate 0 0 S3 stroke grestore} bind def
/D4 {gsave translate 45 rotate 0 0 S4 stroke grestore} bind def
/D5 {gsave translate 45 rotate 0 0 S5 stroke grestore} bind def
/D6 {gsave translate 45 rotate 0 0 S6 stroke grestore} bind def
/D7 {gsave translate 45 rotate 0 0 S7 stroke grestore} bind def
/D8 {gsave translate 45 rotate 0 0 S8 stroke grestore} bind def
/D9 {gsave translate 45 rotate 0 0 S9 stroke grestore} bind def
/D10 {gsave translate 45 rotate 0 0 S10 stroke grestore} bind def
/D11 {gsave translate 45 rotate 0 0 S11 stroke grestore} bind def
/D12 {gsave translate 45 rotate 0 0 S12 stroke grestore} bind def
/D13 {gsave translate 45 rotate 0 0 S13 stroke grestore} bind def
/D14 {gsave translate 45 rotate 0 0 S14 stroke grestore} bind def
/D15 {gsave translate 45 rotate 0 0 S15 stroke grestore} bind def
/DiaE {stroke [] 0 setdash vpt add M
  hpt neg vpt neg V hpt vpt neg V
  hpt vpt V hpt neg vpt V closepath stroke} def
/BoxE {stroke [] 0 setdash exch hpt sub exch vpt add M
  0 vpt2 neg V hpt2 0 V 0 vpt2 V
  hpt2 neg 0 V closepath stroke} def
/TriUE {stroke [] 0 setdash vpt 1.12 mul add M
  hpt neg vpt -1.62 mul V
  hpt 2 mul 0 V
  hpt neg vpt 1.62 mul V closepath stroke} def
/TriDE {stroke [] 0 setdash vpt 1.12 mul sub M
  hpt neg vpt 1.62 mul V
  hpt 2 mul 0 V
  hpt neg vpt -1.62 mul V closepath stroke} def
/PentE {stroke [] 0 setdash gsave
  translate 0 hpt M 4 {72 rotate 0 hpt L} repeat
  closepath stroke grestore} def
/CircE {stroke [] 0 setdash 
  hpt 0 360 arc stroke} def
/Opaque {gsave closepath 1 setgray fill grestore 0 setgray closepath} def
/DiaW {stroke [] 0 setdash vpt add M
  hpt neg vpt neg V hpt vpt neg V
  hpt vpt V hpt neg vpt V Opaque stroke} def
/BoxW {stroke [] 0 setdash exch hpt sub exch vpt add M
  0 vpt2 neg V hpt2 0 V 0 vpt2 V
  hpt2 neg 0 V Opaque stroke} def
/TriUW {stroke [] 0 setdash vpt 1.12 mul add M
  hpt neg vpt -1.62 mul V
  hpt 2 mul 0 V
  hpt neg vpt 1.62 mul V Opaque stroke} def
/TriDW {stroke [] 0 setdash vpt 1.12 mul sub M
  hpt neg vpt 1.62 mul V
  hpt 2 mul 0 V
  hpt neg vpt -1.62 mul V Opaque stroke} def
/PentW {stroke [] 0 setdash gsave
  translate 0 hpt M 4 {72 rotate 0 hpt L} repeat
  Opaque stroke grestore} def
/CircW {stroke [] 0 setdash 
  hpt 0 360 arc Opaque stroke} def
/BoxFill {gsave Rec 1 setgray fill grestore} def
/Density {
  /Fillden exch def
  currentrgbcolor
  /ColB exch def /ColG exch def /ColR exch def
  /ColR ColR Fillden mul Fillden sub 1 add def
  /ColG ColG Fillden mul Fillden sub 1 add def
  /ColB ColB Fillden mul Fillden sub 1 add def
  ColR ColG ColB setrgbcolor} def
/BoxColFill {gsave Rec PolyFill} def
/PolyFill {gsave Density fill grestore grestore} def
/h {rlineto rlineto rlineto gsave closepath fill grestore} bind def
%
% PostScript Level 1 Pattern Fill routine for rectangles
% Usage: x y w h s a XX PatternFill
%	x,y = lower left corner of box to be filled
%	w,h = width and height of box
%	  a = angle in degrees between lines and x-axis
%	 XX = 0/1 for no/yes cross-hatch
%
/PatternFill {gsave /PFa [ 9 2 roll ] def
  PFa 0 get PFa 2 get 2 div add PFa 1 get PFa 3 get 2 div add translate
  PFa 2 get -2 div PFa 3 get -2 div PFa 2 get PFa 3 get Rec
  gsave 1 setgray fill grestore clip
  currentlinewidth 0.5 mul setlinewidth
  /PFs PFa 2 get dup mul PFa 3 get dup mul add sqrt def
  0 0 M PFa 5 get rotate PFs -2 div dup translate
  0 1 PFs PFa 4 get div 1 add floor cvi
	{PFa 4 get mul 0 M 0 PFs V} for
  0 PFa 6 get ne {
	0 1 PFs PFa 4 get div 1 add floor cvi
	{PFa 4 get mul 0 2 1 roll M PFs 0 V} for
 } if
  stroke grestore} def
%
/languagelevel where
 {pop languagelevel} {1} ifelse
 2 lt
	{/InterpretLevel1 true def}
	{/InterpretLevel1 Level1 def}
 ifelse
%
% PostScript level 2 pattern fill definitions
%
/Level2PatternFill {
/Tile8x8 {/PaintType 2 /PatternType 1 /TilingType 1 /BBox [0 0 8 8] /XStep 8 /YStep 8}
	bind def
/KeepColor {currentrgbcolor [/Pattern /DeviceRGB] setcolorspace} bind def
<< Tile8x8
 /PaintProc {0.5 setlinewidth pop 0 0 M 8 8 L 0 8 M 8 0 L stroke} 
>> matrix makepattern
/Pat1 exch def
<< Tile8x8
 /PaintProc {0.5 setlinewidth pop 0 0 M 8 8 L 0 8 M 8 0 L stroke
	0 4 M 4 8 L 8 4 L 4 0 L 0 4 L stroke}
>> matrix makepattern
/Pat2 exch def
<< Tile8x8
 /PaintProc {0.5 setlinewidth pop 0 0 M 0 8 L
	8 8 L 8 0 L 0 0 L fill}
>> matrix makepattern
/Pat3 exch def
<< Tile8x8
 /PaintProc {0.5 setlinewidth pop -4 8 M 8 -4 L
	0 12 M 12 0 L stroke}
>> matrix makepattern
/Pat4 exch def
<< Tile8x8
 /PaintProc {0.5 setlinewidth pop -4 0 M 8 12 L
	0 -4 M 12 8 L stroke}
>> matrix makepattern
/Pat5 exch def
<< Tile8x8
 /PaintProc {0.5 setlinewidth pop -2 8 M 4 -4 L
	0 12 M 8 -4 L 4 12 M 10 0 L stroke}
>> matrix makepattern
/Pat6 exch def
<< Tile8x8
 /PaintProc {0.5 setlinewidth pop -2 0 M 4 12 L
	0 -4 M 8 12 L 4 -4 M 10 8 L stroke}
>> matrix makepattern
/Pat7 exch def
<< Tile8x8
 /PaintProc {0.5 setlinewidth pop 8 -2 M -4 4 L
	12 0 M -4 8 L 12 4 M 0 10 L stroke}
>> matrix makepattern
/Pat8 exch def
<< Tile8x8
 /PaintProc {0.5 setlinewidth pop 0 -2 M 12 4 L
	-4 0 M 12 8 L -4 4 M 8 10 L stroke}
>> matrix makepattern
/Pat9 exch def
/Pattern1 {PatternBgnd KeepColor Pat1 setpattern} bind def
/Pattern2 {PatternBgnd KeepColor Pat2 setpattern} bind def
/Pattern3 {PatternBgnd KeepColor Pat3 setpattern} bind def
/Pattern4 {PatternBgnd KeepColor Landscape {Pat5} {Pat4} ifelse setpattern} bind def
/Pattern5 {PatternBgnd KeepColor Landscape {Pat4} {Pat5} ifelse setpattern} bind def
/Pattern6 {PatternBgnd KeepColor Landscape {Pat9} {Pat6} ifelse setpattern} bind def
/Pattern7 {PatternBgnd KeepColor Landscape {Pat8} {Pat7} ifelse setpattern} bind def
} def
%
%
%End of PostScript Level 2 code
%
/PatternBgnd {
  TransparentPatterns {} {gsave 1 setgray fill grestore} ifelse
} def
%
% Substitute for Level 2 pattern fill codes with
% grayscale if Level 2 support is not selected.
%
/Level1PatternFill {
/Pattern1 {0.250 Density} bind def
/Pattern2 {0.500 Density} bind def
/Pattern3 {0.750 Density} bind def
/Pattern4 {0.125 Density} bind def
/Pattern5 {0.375 Density} bind def
/Pattern6 {0.625 Density} bind def
/Pattern7 {0.875 Density} bind def
} def
%
% Now test for support of Level 2 code
%
Level1 {Level1PatternFill} {Level2PatternFill} ifelse
%
/Symbol-Oblique /Symbol findfont [1 0 .167 1 0 0] makefont
dup length dict begin {1 index /FID eq {pop pop} {def} ifelse} forall
currentdict end definefont pop
/MFshow {
   { dup 5 get 3 ge
     { 5 get 3 eq {gsave} {grestore} ifelse }
     {dup dup 0 get findfont exch 1 get scalefont setfont
     [ currentpoint ] exch dup 2 get 0 exch R dup 5 get 2 ne {dup dup 6
     get exch 4 get {show} {stringwidth pop 0 R} ifelse }if dup 5 get 0 eq
     {dup 3 get {2 get neg 0 exch R pop} {pop aload pop M} ifelse} {dup 5
     get 1 eq {dup 2 get exch dup 3 get exch 6 get stringwidth pop -2 div
     dup 0 R} {dup 6 get stringwidth pop -2 div 0 R 6 get
     show 2 index {aload pop M neg 3 -1 roll neg R pop pop} {pop pop pop
     pop aload pop M} ifelse }ifelse }ifelse }
     ifelse }
   forall} bind def
/MFwidth {0 exch { dup 5 get 3 ge { 5 get 3 eq { 0 } { pop } ifelse }
 {dup 3 get{dup dup 0 get findfont exch 1 get scalefont setfont
     6 get stringwidth pop add} {pop} ifelse} ifelse} forall} bind def
/MLshow { currentpoint stroke M
  0 exch R
  Blacktext {gsave 0 setgray MFshow grestore} {MFshow} ifelse } bind def
/MRshow { currentpoint stroke M
  exch dup MFwidth neg 3 -1 roll R
  Blacktext {gsave 0 setgray MFshow grestore} {MFshow} ifelse } bind def
/MCshow { currentpoint stroke M
  exch dup MFwidth -2 div 3 -1 roll R
  Blacktext {gsave 0 setgray MFshow grestore} {MFshow} ifelse } bind def
/XYsave    { [( ) 1 2 true false 3 ()] } bind def
/XYrestore { [( ) 1 2 true false 4 ()] } bind def
end
%%EndProlog
gnudict begin
gsave
50 50 translate
0.050 0.050 scale
0 setgray
newpath
(Arial) findfont 500 scalefont setfont
1.000 UL
LTb
1200 1600 M
63 0 V
12387 0 R
-63 0 V
stroke
900 1600 M
[ [(Arial) 500.0 0.0 true true 0 ( 0)]
] -166.7 MRshow
1.000 UL
LTb
1200 2073 M
63 0 V
12387 0 R
-63 0 V
stroke
900 2073 M
[ [(Arial) 500.0 0.0 true true 0 ( 20)]
] -166.7 MRshow
1.000 UL
LTb
1200 2547 M
63 0 V
12387 0 R
-63 0 V
stroke
900 2547 M
[ [(Arial) 500.0 0.0 true true 0 ( 40)]
] -166.7 MRshow
1.000 UL
LTb
1200 3020 M
63 0 V
12387 0 R
-63 0 V
stroke
900 3020 M
[ [(Arial) 500.0 0.0 true true 0 ( 60)]
] -166.7 MRshow
1.000 UL
LTb
1200 3493 M
63 0 V
12387 0 R
-63 0 V
stroke
900 3493 M
[ [(Arial) 500.0 0.0 true true 0 ( 80)]
] -166.7 MRshow
1.000 UL
LTb
1200 3967 M
63 0 V
12387 0 R
-63 0 V
stroke
900 3967 M
[ [(Arial) 500.0 0.0 true true 0 ( 100)]
] -166.7 MRshow
1.000 UL
LTb
1200 4440 M
63 0 V
12387 0 R
-63 0 V
stroke
900 4440 M
[ [(Arial) 500.0 0.0 true true 0 ( 120)]
] -166.7 MRshow
1.000 UL
LTb
1200 1600 M
0 63 V
0 2777 R
0 -63 V
stroke
1200 1100 M
[ [(Arial) 500.0 0.0 true true 0 ( 0)]
] -166.7 MCshow
1.000 UL
LTb
3690 1600 M
0 63 V
0 2777 R
0 -63 V
stroke
3690 1100 M
[ [(Arial) 500.0 0.0 true true 0 ( 10)]
] -166.7 MCshow
1.000 UL
LTb
6180 1600 M
0 63 V
0 2777 R
0 -63 V
stroke
6180 1100 M
[ [(Arial) 500.0 0.0 true true 0 ( 20)]
] -166.7 MCshow
1.000 UL
LTb
8670 1600 M
0 63 V
0 2777 R
0 -63 V
stroke
8670 1100 M
[ [(Arial) 500.0 0.0 true true 0 ( 30)]
] -166.7 MCshow
1.000 UL
LTb
11160 1600 M
0 63 V
0 2777 R
0 -63 V
stroke
11160 1100 M
[ [(Arial) 500.0 0.0 true true 0 ( 40)]
] -166.7 MCshow
1.000 UL
LTb
13650 1600 M
0 63 V
0 2777 R
0 -63 V
stroke
13650 1100 M
[ [(Arial) 500.0 0.0 true true 0 ( 50)]
] -166.7 MCshow
1.000 UL
LTb
1.000 UL
LTb
1200 4440 N
0 -2840 V
12450 0 V
0 2840 V
-12450 0 V
Z stroke
LCb setrgbcolor
-550 3020 M
currentpoint gsave translate 90 rotate 0 0 moveto
[ [(Arial) 500.0 0.0 true true 0 (Average response time)]
] -166.7 MCshow
grestore
LTb
LCb setrgbcolor
7425 350 M
[ [(Arial) 500.0 0.0 true true 0 (Elapsed time \(sec\))]
] -166.7 MCshow
LTb
1.000 UP
1.000 UL
LTb
1.000 UL
LT0
1202 1600 M
6 0 R
0 3 V
9 -3 R
0 3 V
9 -3 R
7 0 R
6 0 R
0 52 V
6 -52 R
9 0 R
0 26 V
8 -26 R
8 0 R
6 0 R
0 6 V
7 -6 R
0 386 V
8 -386 R
6 0 R
0 457 V
6 -457 R
0 105 V
6 -105 R
4 0 R
0 3 V
6 -3 R
7 0 R
7 0 R
0 7 V
7 -7 R
0 52 V
6 -52 R
0 504 V
8 -504 R
6 0 R
0 6 V
8 -6 R
7 0 R
0 204 V
8 -204 R
0 6 V
6 -6 R
0 183 V
8 -183 R
7 0 R
8 0 R
0 105 V
8 -105 R
0 289 V
7 -289 R
0 157 V
8 -157 R
0 313 V
8 -313 R
8 0 R
7 0 R
7 0 R
0 550 V
7 -550 R
0 554 V
8 -554 R
6 0 R
0 31 V
5 -31 R
7 0 R
0 558 V
6 -558 R
7 0 R
0 423 V
6 -423 R
7 0 R
0 52 V
7 -52 R
0 373 V
8 -373 R
0 233 V
5 -233 R
0 26 V
8 -26 R
0 259 V
7 -259 R
8 0 R
7 0 R
0 105 V
6 -105 R
0 3 V
6 -3 R
8 0 R
0 10 V
7 -10 R
0 3 V
7 -3 R
0 26 V
9 -26 R
0 52 V
6 -52 R
0 10 V
7 -10 R
0 6 V
8 -6 R
7 0 R
0 3 V
7 -3 R
0 3 V
stroke 1652 1603 M
7 -3 R
0 373 V
8 -373 R
9 0 R
0 333 V
7 -333 R
7 0 R
8 0 R
0 32 V
8 -32 R
0 230 V
9 -230 R
0 577 V
8 -577 R
0 313 V
10 -313 R
0 333 V
7 -333 R
0 318 V
8 -318 R
7 0 R
0 13 V
9 -13 R
7 0 R
8 0 R
0 7 V
9 -7 R
6 0 R
9 0 R
8 0 R
0 13 V
7 -13 R
0 26 V
8 -26 R
7 0 R
7 0 R
0 52 V
10 -52 R
0 79 V
7 -79 R
0 254 V
7 -254 R
0 79 V
8 -79 R
0 105 V
8 -105 R
0 26 V
10 -26 R
6 0 R
0 26 V
11 -26 R
7 0 R
0 358 V
7 -358 R
0 491 V
10 -491 R
7 0 R
0 3 V
8 -3 R
7 0 R
0 3 V
7 -3 R
0 432 V
7 -432 R
0 3 V
8 -3 R
9 0 R
0 3 V
7 -3 R
0 399 V
8 -399 R
0 3 V
8 -3 R
0 52 V
7 -52 R
0 610 V
8 -610 R
0 339 V
6 -339 R
0 131 V
7 -131 R
0 3 V
7 -3 R
0 3 V
7 -3 R
6 0 R
0 13 V
6 -13 R
0 231 V
7 -231 R
5 0 R
0 447 V
7 -447 R
7 0 R
7 0 R
8 0 R
0 509 V
6 -509 R
0 878 V
8 -878 R
0 176 V
8 -176 R
9 0 R
0 3 V
stroke 2133 1603 M
6 -3 R
0 131 V
7 -131 R
0 280 V
8 -280 R
7 0 R
6 0 R
0 79 V
7 -79 R
0 26 V
8 -26 R
0 458 V
7 -458 R
8 0 R
0 209 V
8 -209 R
0 6 V
6 -6 R
9 0 R
0 79 V
7 -79 R
8 0 R
7 0 R
0 509 V
10 -509 R
7 0 R
0 26 V
7 -26 R
7 0 R
9 0 R
0 3 V
7 -3 R
8 0 R
0 6 V
7 -6 R
8 0 R
0 3 V
10 -3 R
0 3 V
7 -3 R
0 649 V
6 -649 R
0 107 V
7 -107 R
0 52 V
9 -52 R
13 0 R
-7 0 R
0 1251 V
13 -1251 R
0 170 V
8 -170 R
0 176 V
9 -176 R
8 0 R
0 3 V
10 -3 R
0 263 V
7 -263 R
8 0 R
8 0 R
0 79 V
5 -79 R
0 56 V
8 -56 R
0 333 V
7 -333 R
0 82 V
6 -82 R
8 0 R
0 3 V
6 -3 R
7 0 R
0 3 V
5 -3 R
0 3 V
8 -3 R
8 0 R
0 577 V
7 -577 R
7 0 R
0 396 V
8 -396 R
8 0 R
8 0 R
0 3 V
8 -3 R
7 0 R
0 448 V
9 -448 R
9 0 R
0 7 V
8 -7 R
0 275 V
10 -275 R
6 0 R
0 3 V
7 -3 R
0 3 V
8 -3 R
8 0 R
0 13 V
6 -13 R
0 3 V
stroke 2620 1603 M
5 -3 R
7 0 R
0 357 V
7 -357 R
7 0 R
0 264 V
8 -264 R
0 79 V
8 -79 R
0 356 V
6 -356 R
7 0 R
6 0 R
0 339 V
10 -339 R
7 0 R
7 0 R
8 0 R
7 0 R
0 95 V
6 -95 R
7 0 R
0 16 V
8 -16 R
0 26 V
7 -26 R
7 0 R
6 0 R
6 0 R
10 0 R
9 0 R
0 3 V
9 -3 R
9 0 R
7 0 R
0 19 V
8 -19 R
0 3 V
9 -3 R
8 0 R
0 26 V
6 -26 R
8 0 R
0 3 V
8 -3 R
0 3 V
8 -3 R
0 3 V
8 -3 R
8 0 R
0 3 V
8 -3 R
7 0 R
0 7 V
9 -7 R
6 0 R
0 542 V
5 -542 R
0 59 V
8 -59 R
8 0 R
6 0 R
0 595 V
7 -595 R
7 0 R
0 3 V
8 -3 R
0 3 V
6 -3 R
6 0 R
5 0 R
0 3 V
8 -3 R
0 373 V
8 -373 R
0 78 V
7 -78 R
0 3 V
7 -3 R
0 26 V
7 -26 R
0 517 V
8 -517 R
0 3 V
5 -3 R
0 263 V
12 -263 R
0 52 V
8 -52 R
8 0 R
0 79 V
8 -79 R
0 29 V
7 -29 R
7 0 R
0 542 V
9 -542 R
0 517 V
7 -517 R
12 0 R
0 3 V
-6 -3 R
0 700 V
13 -700 R
7 0 R
0 52 V
stroke 3120 1652 M
6 -52 R
0 3 V
8 -3 R
0 10 V
8 -10 R
0 7 V
7 -7 R
0 3 V
9 -3 R
8 0 R
6 0 R
9 0 R
7 0 R
7 0 R
0 26 V
7 -26 R
0 183 V
7 -183 R
0 332 V
6 -332 R
0 79 V
9 -79 R
6 0 R
0 30 V
8 -30 R
7 0 R
0 3 V
9 -3 R
7 0 R
0 3 V
6 -3 R
0 339 V
6 -339 R
8 0 R
0 26 V
8 -26 R
7 0 R
0 577 V
9 -577 R
0 76 V
7 -76 R
0 3 V
8 -3 R
6 0 R
0 364 V
8 -364 R
0 453 V
9 -453 R
0 52 V
8 -52 R
6 0 R
7 0 R
0 687 V
8 -687 R
0 507 V
6 -507 R
9 0 R
7 0 R
0 105 V
9 -105 R
6 0 R
6 0 R
0 636 V
8 -636 R
0 458 V
6 -458 R
0 556 V
7 -556 R
7 0 R
7 0 R
0 6 V
5 -6 R
6 0 R
9 0 R
6 0 R
0 478 V
7 -478 R
7 0 R
0 307 V
8 -307 R
8 0 R
0 263 V
6 -263 R
6 0 R
0 26 V
8 -26 R
0 542 V
6 -542 R
0 483 V
7 -483 R
0 1013 V
7 -1013 R
0 504 V
9 -504 R
0 517 V
8 -517 R
9 0 R
9 0 R
8 0 R
0 577 V
9 -577 R
9 0 R
8 0 R
9 0 R
0 79 V
stroke 3624 1679 M
6 -79 R
0 3 V
8 -3 R
0 13 V
7 -13 R
6 0 R
6 0 R
7 0 R
0 6 V
8 -6 R
7 0 R
0 506 V
7 -506 R
7 0 R
8 0 R
9 0 R
5 0 R
0 208 V
7 -208 R
0 10 V
8 -10 R
0 6 V
7 -6 R
0 254 V
6 -254 R
6 0 R
10 0 R
0 6 V
5 -6 R
0 131 V
9 -131 R
0 458 V
8 -458 R
8 0 R
7 0 R
0 26 V
7 -26 R
8 0 R
0 10 V
6 -10 R
7 0 R
7 0 R
0 6 V
6 -6 R
9 0 R
0 3 V
8 -3 R
0 26 V
8 -26 R
0 3 V
8 -3 R
0 7 V
8 -7 R
0 3 V
6 -3 R
0 182 V
6 -182 R
0 6 V
9 -6 R
0 49 V
7 -49 R
0 154 V
6 -154 R
0 131 V
8 -131 R
0 388 V
13 -388 R
0 219 V
-6 -219 R
0 760 V
13 -760 R
8 0 R
0 204 V
7 -204 R
7 0 R
0 26 V
8 -26 R
0 52 V
5 -52 R
0 446 V
10 -446 R
0 7 V
6 -7 R
0 3 V
6 -3 R
7 0 R
0 39 V
7 -39 R
0 275 V
9 -275 R
0 49 V
7 -49 R
0 3 V
7 -3 R
10 0 R
0 481 V
8 -481 R
8 0 R
0 3 V
6 -3 R
8 0 R
0 26 V
9 -26 R
0 3 V
stroke 4083 1603 M
9 -3 R
0 458 V
8 -458 R
0 20 V
8 -20 R
0 1056 V
6 -1056 R
0 468 V
10 -468 R
0 79 V
7 -79 R
8 0 R
0 280 V
11 -280 R
6 0 R
0 458 V
7 -458 R
0 458 V
8 -458 R
9 0 R
0 280 V
9 -280 R
0 3 V
7 -3 R
8 0 R
8 0 R
9 0 R
7 0 R
14 0 R
-5 0 R
0 577 V
11 -577 R
7 0 R
7 0 R
9 0 R
0 92 V
6 -92 R
8 0 R
0 3 V
7 -3 R
9 0 R
0 26 V
10 -26 R
8 0 R
8 0 R
7 0 R
0 119 V
8 -119 R
8 0 R
0 28 V
7 -28 R
6 0 R
6 0 R
7 0 R
0 13 V
8 -13 R
0 6 V
7 -6 R
8 0 R
0 6 V
9 -6 R
0 3 V
8 -3 R
8 0 R
6 0 R
0 284 V
5 -284 R
0 180 V
6 -180 R
9 0 R
0 157 V
9 -157 R
8 0 R
0 46 V
8 -46 R
0 453 V
6 -453 R
0 819 V
9 -819 R
7 0 R
9 0 R
9 0 R
6 0 R
0 119 V
7 -119 R
7 0 R
7 0 R
0 339 V
7 -339 R
6 0 R
0 26 V
10 -26 R
0 373 V
8 -373 R
0 399 V
7 -399 R
0 373 V
9 -373 R
0 725 V
10 -725 R
-6 0 R
0 733 V
13 -733 R
0 26 V
stroke 4606 1626 M
6 -26 R
8 0 R
8 0 R
0 30 V
7 -30 R
8 0 R
8 0 R
0 3 V
9 -3 R
0 666 V
8 -666 R
7 0 R
6 0 R
7 0 R
0 168 V
8 -168 R
7 0 R
7 0 R
0 254 V
6 -254 R
7 0 R
0 554 V
8 -554 R
0 26 V
8 -26 R
0 307 V
8 -307 R
6 0 R
0 183 V
8 -183 R
0 157 V
8 -157 R
0 485 V
7 -485 R
8 0 R
0 13 V
9 -13 R
0 399 V
7 -399 R
0 512 V
8 -512 R
0 313 V
7 -313 R
0 79 V
8 -79 R
0 3 V
5 -3 R
0 279 V
7 -279 R
7 0 R
0 79 V
6 -79 R
9 0 R
0 399 V
8 -399 R
0 6 V
7 -6 R
8 0 R
0 353 V
7 -353 R
6 0 R
7 0 R
0 26 V
6 -26 R
8 0 R
0 432 V
7 -432 R
8 0 R
0 254 V
6 -254 R
0 62 V
9 -62 R
0 3 V
7 -3 R
0 117 V
6 -117 R
0 10 V
7 -10 R
0 3 V
7 -3 R
6 0 R
9 0 R
7 0 R
0 13 V
7 -13 R
0 458 V
7 -458 R
0 52 V
8 -52 R
0 3 V
9 -3 R
9 0 R
6 0 R
0 383 V
9 -383 R
0 26 V
8 -26 R
0 79 V
7 -79 R
8 0 R
8 0 R
0 55 V
7 -55 R
7 0 R
0 3 V
stroke 5093 1603 M
7 -3 R
0 6 V
5 -6 R
8 0 R
7 0 R
0 287 V
8 -287 R
0 439 V
9 -439 R
0 339 V
7 -339 R
7 0 R
7 0 R
0 3 V
6 -3 R
7 0 R
0 31 V
8 -31 R
0 513 V
7 -513 R
7 0 R
0 6 V
7 -6 R
8 0 R
0 177 V
9 -177 R
8 0 R
6 0 R
0 177 V
13 -177 R
0 128 V
-8 -128 R
0 860 V
17 -860 R
0 3 V
7 -3 R
9 0 R
8 0 R
0 52 V
8 -52 R
0 388 V
8 -388 R
0 39 V
8 -39 R
6 0 R
8 0 R
0 26 V
7 -26 R
0 105 V
6 -105 R
7 0 R
0 615 V
8 -615 R
0 131 V
7 -131 R
7 0 R
8 0 R
9 0 R
14 0 R
-7 0 R
0 997 V
13 -997 R
0 210 V
8 -210 R
8 0 R
6 0 R
7 0 R
0 415 V
6 -415 R
7 0 R
0 1612 V
7 -1612 R
0 994 V
7 -994 R
0 645 V
8 -645 R
8 0 R
0 79 V
7 -79 R
9 0 R
6 0 R
0 3 V
6 -3 R
0 7 V
8 -7 R
6 0 R
0 7 V
7 -7 R
0 308 V
5 -308 R
17 0 R
-10 0 R
0 1056 V
16 -1056 R
0 131 V
7 -131 R
0 3 V
9 -3 R
11 0 R
0 3 V
6 -3 R
0 3 V
8 -3 R
0 3 V
stroke 5584 1603 M
6 -3 R
8 0 R
9 0 R
0 3 V
9 -3 R
7 0 R
9 0 R
8 0 R
0 294 V
7 -294 R
0 7 V
5 -7 R
7 0 R
7 0 R
9 0 R
0 432 V
9 -432 R
0 26 V
10 -26 R
7 0 R
0 79 V
9 -79 R
0 228 V
10 -228 R
0 3 V
5 -3 R
6 0 R
0 69 V
7 -69 R
7 0 R
0 555 V
6 -555 R
0 3 V
8 -3 R
0 10 V
6 -10 R
8 0 R
0 6 V
7 -6 R
0 94 V
8 -94 R
0 700 V
8 -700 R
9 0 R
8 0 R
0 698 V
9 -698 R
0 196 V
16 -196 R
-8 0 R
0 828 V
16 -828 R
0 49 V
7 -49 R
6 0 R
0 127 V
10 -127 R
6 0 R
0 3 V
7 -3 R
9 0 R
0 3 V
7 -3 R
0 7 V
8 -7 R
0 3 V
8 -3 R
7 0 R
7 0 R
0 432 V
6 -432 R
7 0 R
7 0 R
0 3 V
9 -3 R
8 0 R
0 280 V
6 -280 R
8 0 R
0 296 V
7 -296 R
24 0 R
-18 0 R
0 1790 V
10 -1790 R
0 1040 V
15 -1040 R
0 10 V
7 -10 R
7 0 R
9 0 R
8 0 R
0 3 V
7 -3 R
0 6 V
7 -6 R
0 180 V
7 -180 R
5 0 R
7 0 R
9 0 R
16 0 R
-8 0 R
0 1129 V
stroke 6098 2729 M
14 -1129 R
6 0 R
9 0 R
5 0 R
0 234 V
8 -234 R
14 0 R
-5 0 R
0 577 V
12 -577 R
8 0 R
6 0 R
0 7 V
8 -7 R
10 0 R
0 10 V
6 -10 R
11 0 R
10 0 R
0 79 V
7 -79 R
7 0 R
7 0 R
8 0 R
0 3 V
7 -3 R
8 0 R
6 0 R
8 0 R
0 376 V
7 -376 R
0 284 V
10 -284 R
0 13 V
6 -13 R
0 6 V
7 -6 R
0 3 V
8 -3 R
8 0 R
0 16 V
9 -16 R
7 0 R
0 131 V
7 -131 R
0 3 V
9 -3 R
0 3 V
7 -3 R
0 79 V
8 -79 R
0 517 V
10 -517 R
6 0 R
0 407 V
8 -407 R
10 0 R
8 0 R
0 26 V
8 -26 R
0 79 V
8 -79 R
0 13 V
7 -13 R
0 1101 V
13 -1101 R
-6 0 R
0 1328 V
15 -1328 R
0 284 V
7 -284 R
0 3 V
8 -3 R
0 3 V
9 -3 R
9 0 R
0 778 V
6 -778 R
0 141 V
8 -141 R
0 79 V
7 -79 R
7 0 R
0 129 V
7 -129 R
0 6 V
8 -6 R
0 3 V
7 -3 R
0 49 V
8 -49 R
0 52 V
6 -52 R
0 542 V
8 -542 R
7 0 R
0 254 V
7 -254 R
0 280 V
8 -280 R
0 3 V
7 -3 R
0 52 V
9 -52 R
6 0 R
6 0 R
0 526 V
stroke 6613 2126 M
6 -526 R
0 254 V
8 -254 R
0 183 V
8 -183 R
0 458 V
6 -458 R
0 10 V
7 -10 R
6 0 R
0 3 V
5 -3 R
0 339 V
7 -339 R
8 0 R
0 458 V
14 -458 R
-8 0 R
0 878 V
15 -878 R
0 373 V
9 -373 R
0 7 V
6 -7 R
9 0 R
6 0 R
7 0 R
0 30 V
7 -30 R
0 49 V
8 -49 R
0 339 V
10 -339 R
12 0 R
-6 0 R
0 852 V
15 -852 R
0 373 V
6 -373 R
9 0 R
7 0 R
0 86 V
6 -86 R
0 280 V
7 -280 R
8 0 R
0 79 V
7 -79 R
0 180 V
9 -180 R
0 997 V
8 -997 R
0 581 V
8 -581 R
9 0 R
7 0 R
0 3 V
9 -3 R
0 79 V
10 -79 R
0 105 V
9 -105 R
0 426 V
9 -426 R
9 0 R
11 0 R
7 0 R
0 52 V
8 -52 R
7 0 R
9 0 R
0 93 V
9 -93 R
8 0 R
8 0 R
0 105 V
7 -105 R
0 399 V
6 -399 R
0 3 V
8 -3 R
0 7 V
9 -7 R
10 0 R
0 151 V
6 -151 R
0 26 V
8 -26 R
21 0 R
0 55 V
-6 -55 R
0 695 V
-7 -695 R
0 1380 V
22 -1380 R
0 209 V
9 -209 R
0 334 V
5 -334 R
8 0 R
0 399 V
7 -399 R
8 0 R
0 182 V
stroke 7103 1782 M
7 -182 R
5 0 R
0 183 V
8 -183 R
0 3 V
8 -3 R
0 606 V
8 -606 R
0 491 V
8 -491 R
0 542 V
7 -542 R
8 0 R
5 0 R
0 6 V
8 -6 R
0 79 V
8 -79 R
7 0 R
0 6 V
9 -6 R
0 550 V
8 -550 R
0 3 V
9 -3 R
0 79 V
6 -79 R
0 283 V
12 -283 R
-6 0 R
0 674 V
15 -674 R
0 10 V
7 -10 R
9 0 R
0 373 V
8 -373 R
5 0 R
8 0 R
0 7 V
6 -7 R
0 7 V
6 -7 R
7 0 R
8 0 R
7 0 R
0 399 V
7 -399 R
0 558 V
8 -558 R
0 3 V
8 -3 R
6 0 R
0 183 V
7 -183 R
0 3 V
7 -3 R
8 0 R
0 252 V
9 -252 R
9 0 R
8 0 R
8 0 R
8 0 R
0 172 V
8 -172 R
0 720 V
9 -720 R
0 79 V
7 -79 R
10 0 R
0 52 V
6 -52 R
0 333 V
6 -333 R
0 6 V
6 -6 R
0 10 V
7 -10 R
9 0 R
6 0 R
0 373 V
9 -373 R
6 0 R
0 62 V
7 -62 R
0 313 V
5 -313 R
8 0 R
12 0 R
0 46 V
-6 -46 R
0 595 V
14 -595 R
0 517 V
7 -517 R
0 313 V
8 -313 R
0 280 V
7 -280 R
0 542 V
9 -542 R
0 3 V
6 -3 R
0 52 V
stroke 7573 1652 M
6 -52 R
0 3 V
6 -3 R
0 615 V
14 -615 R
0 584 V
-6 -584 R
0 1220 V
16 -1220 R
7 0 R
5 0 R
0 577 V
10 -577 R
0 3 V
7 -3 R
0 154 V
7 -154 R
9 0 R
0 105 V
7 -105 R
9 0 R
7 0 R
0 339 V
8 -339 R
0 3 V
10 -3 R
9 0 R
0 26 V
6 -26 R
17 0 R
-9 0 R
0 938 V
17 -938 R
10 0 R
0 339 V
7 -339 R
0 3 V
8 -3 R
0 26 V
6 -26 R
7 0 R
8 0 R
0 208 V
7 -208 R
8 0 R
0 6 V
7 -6 R
0 3 V
9 -3 R
8 0 R
0 3 V
9 -3 R
8 0 R
0 636 V
7 -636 R
6 0 R
0 339 V
7 -339 R
0 615 V
6 -615 R
0 103 V
10 -103 R
7 0 R
0 280 V
7 -280 R
0 3 V
8 -3 R
0 257 V
8 -257 R
0 10 V
6 -10 R
7 0 R
8 0 R
8 0 R
9 0 R
0 52 V
8 -52 R
0 6 V
7 -6 R
9 0 R
8 0 R
0 3 V
6 -3 R
0 79 V
8 -79 R
0 3 V
8 -3 R
9 0 R
8 0 R
0 6 V
8 -6 R
8 0 R
0 3 V
8 -3 R
9 0 R
6 0 R
0 361 V
6 -361 R
0 288 V
7 -288 R
0 105 V
6 -105 R
8 0 R
8 0 R
0 760 V
stroke 8086 2360 M
8 -760 R
0 100 V
5 -100 R
0 342 V
8 -342 R
13 0 R
-6 0 R
0 892 V
15 -892 R
9 0 R
0 313 V
7 -313 R
0 485 V
6 -485 R
9 0 R
0 567 V
6 -567 R
7 0 R
0 268 V
8 -268 R
7 0 R
0 26 V
7 -26 R
0 3 V
7 -3 R
0 26 V
7 -26 R
0 3 V
6 -3 R
9 0 R
8 0 R
6 0 R
0 605 V
7 -605 R
9 0 R
0 419 V
8 -419 R
0 226 V
9 -226 R
6 0 R
7 0 R
5 0 R
7 0 R
0 26 V
7 -26 R
7 0 R
10 0 R
0 183 V
8 -183 R
0 306 V
8 -306 R
7 0 R
0 280 V
7 -280 R
8 0 R
7 0 R
5 0 R
8 0 R
0 399 V
7 -399 R
0 3 V
8 -3 R
7 0 R
0 10 V
7 -10 R
9 0 R
6 0 R
8 0 R
0 116 V
9 -116 R
5 0 R
0 26 V
9 -26 R
7 0 R
7 0 R
7 0 R
6 0 R
8 0 R
0 339 V
10 -339 R
9 0 R
7 0 R
0 537 V
7 -537 R
7 0 R
0 415 V
6 -415 R
6 0 R
0 151 V
9 -151 R
0 78 V
7 -78 R
0 26 V
7 -26 R
0 204 V
15 -204 R
-7 0 R
0 971 V
14 -971 R
7 0 R
0 458 V
10 -458 R
0 280 V
7 -280 R
0 328 V
stroke 8609 1928 M
6 -328 R
0 79 V
9 -79 R
15 0 R
-8 0 R
0 1154 V
16 -1154 R
0 280 V
6 -280 R
0 52 V
7 -52 R
0 147 V
8 -147 R
0 6 V
5 -6 R
0 3 V
9 -3 R
0 3 V
9 -3 R
0 601 V
7 -601 R
0 268 V
6 -268 R
0 179 V
10 -179 R
0 26 V
5 -26 R
0 62 V
9 -62 R
0 402 V
8 -402 R
0 428 V
7 -428 R
0 334 V
7 -334 R
7 0 R
0 268 V
10 -268 R
0 432 V
7 -432 R
0 3 V
7 -3 R
0 6 V
6 -6 R
0 379 V
10 -379 R
6 0 R
0 79 V
9 -79 R
6 0 R
0 339 V
9 -339 R
10 0 R
0 157 V
7 -157 R
7 0 R
0 128 V
8 -128 R
0 399 V
7 -399 R
0 263 V
8 -263 R
0 495 V
9 -495 R
0 3 V
9 -3 R
7 0 R
6 0 R
7 0 R
0 3 V
7 -3 R
0 105 V
9 -105 R
8 0 R
0 6 V
7 -6 R
0 3 V
7 -3 R
8 0 R
9 0 R
0 105 V
8 -105 R
0 110 V
7 -110 R
5 0 R
0 26 V
8 -26 R
0 6 V
9 -6 R
7 0 R
0 52 V
6 -52 R
0 254 V
7 -254 R
0 3 V
7 -3 R
0 376 V
7 -376 R
7 0 R
0 3 V
7 -3 R
8 0 R
0 555 V
9 -555 R
0 10 V
stroke 9069 1610 M
7 -10 R
0 52 V
6 -52 R
0 131 V
8 -131 R
7 0 R
0 214 V
8 -214 R
8 0 R
7 0 R
0 103 V
7 -103 R
0 290 V
10 -290 R
6 0 R
8 0 R
7 0 R
0 339 V
8 -339 R
0 3 V
7 -3 R
0 52 V
7 -52 R
8 0 R
0 6 V
9 -6 R
0 318 V
10 -318 R
0 52 V
7 -52 R
0 442 V
8 -442 R
0 446 V
7 -446 R
0 6 V
7 -6 R
8 0 R
6 0 R
0 610 V
8 -610 R
8 0 R
5 0 R
0 1061 V
15 -1061 R
-7 0 R
0 675 V
16 -675 R
9 0 R
0 131 V
9 -131 R
0 6 V
5 -6 R
9 0 R
0 426 V
6 -426 R
8 0 R
0 6 V
8 -6 R
0 6 V
6 -6 R
0 689 V
8 -689 R
0 79 V
7 -79 R
0 183 V
9 -183 R
8 0 R
0 3 V
7 -3 R
0 265 V
8 -265 R
8 0 R
0 280 V
7 -280 R
0 3 V
8 -3 R
10 0 R
0 52 V
6 -52 R
0 128 V
5 -128 R
8 0 R
9 0 R
0 3 V
7 -3 R
0 52 V
10 -52 R
8 0 R
0 399 V
6 -399 R
8 0 R
7 0 R
0 26 V
7 -26 R
0 3 V
8 -3 R
6 0 R
10 0 R
0 101 V
9 -101 R
0 6 V
6 -6 R
7 0 R
0 10 V
stroke 9562 1610 M
6 -10 R
0 6 V
8 -6 R
0 577 V
7 -577 R
7 0 R
9 0 R
0 3 V
7 -3 R
10 0 R
0 3 V
7 -3 R
7 0 R
7 0 R
0 105 V
9 -105 R
7 0 R
8 0 R
7 0 R
7 0 R
8 0 R
10 0 R
7 0 R
0 79 V
7 -79 R
0 26 V
7 -26 R
0 313 V
7 -313 R
0 6 V
6 -6 R
7 0 R
8 0 R
0 324 V
7 -324 R
0 108 V
8 -108 R
0 79 V
5 -79 R
0 3 V
8 -3 R
0 3 V
5 -3 R
0 286 V
8 -286 R
8 0 R
0 26 V
6 -26 R
8 0 R
0 26 V
8 -26 R
7 0 R
0 26 V
9 -26 R
8 0 R
0 3 V
9 -3 R
0 26 V
6 -26 R
0 6 V
8 -6 R
8 0 R
7 0 R
0 3 V
8 -3 R
0 3 V
7 -3 R
0 52 V
5 -52 R
0 339 V
8 -339 R
7 0 R
10 0 R
0 3 V
9 -3 R
0 105 V
6 -105 R
0 550 V
8 -550 R
0 79 V
5 -79 R
0 79 V
8 -79 R
7 0 R
7 0 R
7 0 R
0 3 V
8 -3 R
0 1101 V
7 -1101 R
0 441 V
8 -441 R
7 0 R
8 0 R
0 3 V
6 -3 R
0 52 V
8 -52 R
7 0 R
0 3 V
7 -3 R
0 3 V
7 -3 R
9 0 R
0 26 V
stroke 10059 1626 M
9 -26 R
8 0 R
0 6 V
7 -6 R
8 0 R
0 33 V
8 -33 R
0 26 V
8 -26 R
0 3 V
9 -3 R
8 0 R
0 26 V
7 -26 R
0 36 V
8 -36 R
7 0 R
7 0 R
0 3 V
8 -3 R
0 222 V
6 -222 R
0 3 V
10 -3 R
0 3 V
7 -3 R
0 305 V
8 -305 R
0 254 V
7 -254 R
0 3 V
6 -3 R
0 221 V
7 -221 R
8 0 R
6 0 R
0 330 V
10 -330 R
0 3 V
8 -3 R
7 0 R
0 3 V
6 -3 R
0 125 V
9 -125 R
7 0 R
0 3 V
6 -3 R
0 26 V
8 -26 R
0 204 V
14 -204 R
-8 0 R
0 819 V
14 -819 R
0 131 V
8 -131 R
7 0 R
0 26 V
7 -26 R
0 209 V
8 -209 R
8 0 R
0 26 V
7 -26 R
0 415 V
6 -415 R
0 3 V
6 -3 R
7 0 R
0 62 V
7 -62 R
8 0 R
0 3 V
7 -3 R
0 3 V
7 -3 R
0 3 V
6 -3 R
7 0 R
9 0 R
0 3 V
6 -3 R
10 0 R
0 3 V
7 -3 R
0 131 V
7 -131 R
10 0 R
0 399 V
9 -399 R
7 0 R
0 52 V
8 -52 R
0 328 V
9 -328 R
0 26 V
14 -26 R
-5 0 R
0 669 V
12 -669 R
8 0 R
7 0 R
8 0 R
0 254 V
stroke 10539 1854 M
7 -254 R
0 10 V
8 -10 R
0 6 V
8 -6 R
0 3 V
8 -3 R
8 0 R
7 0 R
0 318 V
5 -318 R
8 0 R
0 68 V
7 -68 R
0 6 V
6 -6 R
8 0 R
9 0 R
7 0 R
0 618 V
6 -618 R
0 117 V
8 -117 R
6 0 R
8 0 R
0 313 V
7 -313 R
0 3 V
9 -3 R
0 555 V
10 -555 R
7 0 R
0 52 V
6 -52 R
0 3 V
7 -3 R
8 0 R
0 234 V
7 -234 R
0 6 V
8 -6 R
8 0 R
0 3 V
14 -3 R
-6 0 R
0 784 V
24 -784 R
0 87 V
-11 -87 R
0 1225 V
20 -1225 R
8 0 R
8 0 R
0 105 V
6 -105 R
7 0 R
0 13 V
7 -13 R
8 0 R
0 33 V
7 -33 R
0 3 V
8 -3 R
8 0 R
8 0 R
9 0 R
0 418 V
8 -418 R
0 268 V
7 -268 R
7 0 R
9 0 R
6 0 R
0 234 V
8 -234 R
5 0 R
0 3 V
8 -3 R
6 0 R
0 10 V
7 -10 R
7 0 R
7 0 R
0 6 V
6 -6 R
0 51 V
8 -51 R
5 0 R
0 279 V
9 -279 R
9 0 R
0 313 V
6 -313 R
7 0 R
0 339 V
7 -339 R
0 297 V
9 -297 R
7 0 R
0 459 V
9 -459 R
0 52 V
6 -52 R
7 0 R
8 0 R
7 0 R
0 1165 V
stroke 11060 2765 M
8 -1165 R
0 1057 V
8 -1057 R
0 333 V
8 -333 R
6 0 R
0 3 V
10 -3 R
0 13 V
10 -13 R
9 0 R
0 79 V
8 -79 R
10 0 R
10 0 R
0 31 V
8 -31 R
6 0 R
0 105 V
5 -105 R
6 0 R
0 26 V
6 -26 R
0 234 V
7 -234 R
0 400 V
7 -400 R
7 0 R
0 13 V
8 -13 R
0 3 V
9 -3 R
6 0 R
0 52 V
10 -52 R
7 0 R
11 0 R
0 3 V
9 -3 R
7 0 R
0 205 V
7 -205 R
8 0 R
0 399 V
7 -399 R
0 52 V
6 -52 R
0 268 V
7 -268 R
7 0 R
0 6 V
8 -6 R
9 0 R
8 0 R
0 3 V
7 -3 R
0 7 V
7 -7 R
6 0 R
0 157 V
6 -157 R
7 0 R
0 234 V
6 -234 R
0 105 V
8 -105 R
0 234 V
7 -234 R
0 3 V
6 -3 R
0 6 V
7 -6 R
8 0 R
8 0 R
0 116 V
7 -116 R
0 3 V
8 -3 R
0 313 V
9 -313 R
7 0 R
0 264 V
5 -264 R
0 339 V
7 -339 R
8 0 R
0 105 V
9 -105 R
0 6 V
9 -6 R
0 52 V
7 -52 R
6 0 R
0 52 V
9 -52 R
0 10 V
7 -10 R
0 52 V
9 -52 R
0 6 V
6 -6 R
7 0 R
0 10 V
7 -10 R
0 97 V
stroke 11543 1697 M
8 -97 R
0 364 V
6 -364 R
0 234 V
8 -234 R
0 129 V
6 -129 R
0 52 V
8 -52 R
7 0 R
15 0 R
-7 0 R
0 720 V
14 -720 R
8 0 R
8 0 R
6 0 R
0 6 V
8 -6 R
9 0 R
0 6 V
7 -6 R
0 229 V
8 -229 R
0 3 V
14 -3 R
0 105 V
-7 -105 R
0 878 V
16 -878 R
0 577 V
8 -577 R
0 3 V
7 -3 R
0 209 V
10 -209 R
9 0 R
0 3 V
8 -3 R
7 0 R
8 0 R
0 257 V
8 -257 R
0 52 V
9 -52 R
0 10 V
9 -10 R
0 6 V
7 -6 R
0 3 V
9 -3 R
0 26 V
6 -26 R
5 0 R
8 0 R
8 0 R
6 0 R
0 26 V
7 -26 R
8 0 R
9 0 R
0 491 V
8 -491 R
6 0 R
6 0 R
0 26 V
8 -26 R
8 0 R
0 62 V
7 -62 R
0 10 V
9 -10 R
5 0 R
0 10 V
7 -10 R
0 3 V
7 -3 R
0 26 V
15 -26 R
0 3 V
-8 -3 R
0 814 V
15 -814 R
9 0 R
7 0 R
6 0 R
0 3 V
7 -3 R
7 0 R
0 234 V
7 -234 R
5 0 R
0 3 V
8 -3 R
7 0 R
0 10 V
8 -10 R
0 16 V
9 -16 R
0 432 V
6 -432 R
0 6 V
9 -6 R
7 0 R
8 0 R
0 6 V
stroke 12044 1606 M
9 -6 R
0 105 V
7 -105 R
0 3 V
7 -3 R
0 292 V
5 -292 R
7 0 R
7 0 R
0 131 V
9 -131 R
7 0 R
0 3 V
7 -3 R
0 79 V
8 -79 R
0 453 V
6 -453 R
0 3 V
8 -3 R
0 577 V
7 -577 R
0 3 V
9 -3 R
7 0 R
0 6 V
6 -6 R
0 6 V
6 -6 R
0 79 V
8 -79 R
0 26 V
7 -26 R
0 3 V
8 -3 R
0 79 V
8 -79 R
9 0 R
0 131 V
7 -131 R
7 0 R
0 3 V
8 -3 R
0 105 V
6 -105 R
8 0 R
0 26 V
7 -26 R
6 0 R
8 0 R
0 26 V
6 -26 R
7 0 R
0 313 V
8 -313 R
0 1547 V
7 -1547 R
0 1271 V
8 -1271 R
0 567 V
7 -567 R
8 0 R
8 0 R
9 0 R
0 566 V
7 -566 R
0 48 V
8 -48 R
0 387 V
7 -387 R
0 209 V
7 -209 R
8 0 R
0 399 V
9 -399 R
0 601 V
7 -601 R
4 0 R
0 204 V
7 -204 R
0 26 V
7 -26 R
7 0 R
0 105 V
7 -105 R
0 3 V
9 -3 R
0 105 V
8 -105 R
0 105 V
7 -105 R
0 6 V
7 -6 R
8 0 R
9 0 R
0 26 V
8 -26 R
0 6 V
6 -6 R
0 6 V
5 -6 R
9 0 R
9 0 R
6 0 R
15 0 R
-8 0 R
0 825 V
stroke 12514 2425 M
18 -825 R
8 0 R
0 263 V
8 -263 R
0 26 V
8 -26 R
0 183 V
8 -183 R
0 3 V
5 -3 R
8 0 R
0 273 V
7 -273 R
8 0 R
0 105 V
9 -105 R
0 610 V
7 -610 R
0 157 V
8 -157 R
9 0 R
7 0 R
5 0 R
5 0 R
0 79 V
8 -79 R
0 183 V
7 -183 R
7 0 R
0 3 V
6 -3 R
0 293 V
8 -293 R
0 7 V
7 -7 R
8 0 R
0 6 V
9 -6 R
8 0 R
6 0 R
6 0 R
0 131 V
5 -131 R
0 6 V
8 -6 R
0 52 V
14 -52 R
7 0 R
0 3 V
-13 -3 R
0 1251 V
21 -1251 R
0 52 V
5 -52 R
0 339 V
14 -339 R
0 790 V
-5 -790 R
0 1347 V
12 -1347 R
0 788 V
5 -788 R
0 341 V
7 -341 R
8 0 R
0 52 V
8 -52 R
0 517 V
6 -517 R
9 0 R
8 0 R
0 77 V
8 -77 R
0 157 V
7 -157 R
0 26 V
8 -26 R
6 0 R
0 629 V
8 -629 R
0 56 V
6 -56 R
0 3 V
9 -3 R
0 391 V
7 -391 R
8 0 R
0 334 V
7 -334 R
0 3 V
6 -3 R
0 26 V
6 -26 R
0 550 V
6 -550 R
9 0 R
8 0 R
6 0 R
0 97 V
9 -97 R
0 185 V
9 -185 R
0 404 V
7 -404 R
0 3 V
stroke 12981 1603 M
7 -3 R
0 3 V
8 -3 R
8 0 R
0 195 V
6 -195 R
0 3 V
6 -3 R
0 52 V
6 -52 R
0 6 V
9 -6 R
0 117 V
8 -117 R
10 0 R
0 3 V
7 -3 R
0 52 V
7 -52 R
0 52 V
8 -52 R
8 0 R
0 760 V
9 -760 R
0 367 V
9 -367 R
0 268 V
8 -268 R
0 209 V
6 -209 R
0 695 V
10 -695 R
9 0 R
7 0 R
0 49 V
6 -49 R
0 610 V
7 -610 R
0 279 V
5 -279 R
0 79 V
9 -79 R
6 0 R
0 532 V
7 -532 R
8 0 R
0 3 V
8 -3 R
6 0 R
8 0 R
7 0 R
0 10 V
7 -10 R
9 0 R
7 0 R
0 26 V
7 -26 R
0 105 V
7 -105 R
0 506 V
7 -506 R
0 26 V
6 -26 R
0 339 V
7 -339 R
0 3 V
8 -3 R
0 6 V
5 -6 R
6 0 R
0 3 V
7 -3 R
7 0 R
0 3 V
5 -3 R
0 79 V
7 -79 R
6 0 R
0 483 V
8 -483 R
9 0 R
5 0 R
0 388 V
8 -388 R
8 0 R
8 0 R
0 49 V
7 -49 R
0 105 V
7 -105 R
9 0 R
0 26 V
9 -26 R
0 52 V
9 -52 R
9 0 R
0 52 V
9 -52 R
7 0 R
0 52 V
9 -52 R
0 3 V
15 -3 R
-7 0 R
0 878 V
stroke 13451 2478 M
16 -878 R
0 10 V
6 -10 R
0 3 V
6 -3 R
15 0 R
-7 0 R
0 747 V
15 -747 R
0 234 V
9 -234 R
0 3 V
8 -3 R
0 26 V
7 -26 R
0 6 V
7 -6 R
6 0 R
0 157 V
8 -157 R
0 79 V
8 -79 R
0 458 V
9 -458 R
0 3 V
9 -3 R
7 0 R
7 0 R
7 0 R
0 3 V
8 -3 R
9 0 R
0 358 V
8 -358 R
0 383 V
9 -383 R
13 0 R
-5 0 R
0 625 V
13 -625 R
0 157 V
stroke
LTb
1200 4440 N
0 -2840 V
12450 0 V
0 2840 V
-12450 0 V
Z stroke
1.000 UP
1.000 UL
LTb
stroke
grestore
end
showpage
%%Trailer
%%DocumentFonts: Arial
