%!PS-Adobe-3.0 EPSF-3.0 
%%BoundingBox: 0 0 562 156
%%Pages: 0
%%Creator: Sun Microsystems, Inc.
%%Title: none
%%CreationDate: none
%%LanguageLevel: 2
%%EndComments
%%BeginProlog
%%BeginResource: procset SDRes-Prolog 1.0 0
/b4_inc_state save def
/dict_count countdictstack def
/op_count count 1 sub def
userdict begin
0 setgray 0 setlinecap 1 setlinewidth 0 setlinejoin 10 setmiterlimit[] 0 setdash newpath
/languagelevel where {pop languagelevel 1 ne {false setstrokeadjust false setoverprint} if} if
/bdef {bind def} bind def
/c {setrgbcolor} bdef
/l {neg lineto} bdef
/rl {neg rlineto} bdef
/lc {setlinecap} bdef
/lj {setlinejoin} bdef
/lw {setlinewidth} bdef
/ml {setmiterlimit} bdef
/ld {setdash} bdef
/m {neg moveto} bdef
/ct {6 2 roll neg 6 2 roll neg 6 2 roll neg curveto} bdef
/r {rotate} bdef
/t {neg translate} bdef
/s {scale} bdef
/sw {show} bdef
/gs {gsave} bdef
/gr {grestore} bdef
/f {findfont dup length dict begin
{1 index /FID ne {def} {pop pop} ifelse} forall /Encoding ISOLatin1Encoding def
currentdict end /NFont exch definefont pop /NFont findfont} bdef
/p {closepath} bdef
/sf {scalefont setfont} bdef
/ef {eofill}bdef
/pc {closepath stroke}bdef
/ps {stroke}bdef
/pum {matrix currentmatrix}bdef
/pom {setmatrix}bdef
/bs {/aString exch def /nXOfs exch def /nWidth exch def currentpoint nXOfs 0 rmoveto pum nWidth aString stringwidth pop div 1 scale aString show pom moveto} bdef
%%EndResource
%%EndProlog
%%BeginSetup
%%EndSetup
%%Page: 1 1
%%BeginPageSetup
%%EndPageSetup
pum
0.02836 0.02842 s 
0 -5488 t
/tm matrix currentmatrix def
tm setmatrix
-746 -12274 t 
1 1 s 
1 lj 0.003 0.003 0.003 c 3540 16491 m  19689 16491 l  ps
20048 16490 m  19599 16341 l  19599 16640 l  20048 16490 l  p ef

pum
18521 17446 t
0.230 0.226 0.210 c 223 -389 m  223 0 l  164 0 l  164 -389 l  14 -389 l 
14 -437 l  373 -437 l  373 -389 l  223 -389 l  p ef
406 -407 m  406 -460 l  462 -460 l  462 -407 l  406 -407 l  p
406 1 m  406 -335 l  462 -335 l  462 1 l  406 1 l  p ef
742 0 m  742 -213 l  742 -229 741 -243 739 -254 ct 737 -265 733 -274 729 -280 ct 
724 -287 717 -292 710 -295 ct 702 -297 692 -299 681 -299 ct 669 -299 658 -297 649 -292 ct 
639 -287 631 -281 624 -272 ct 618 -263 613 -252 609 -239 ct 605 -226 604 -211 604 -195 ct 
604 0 l  548 0 l  548 -264 l  548 -271 548 -279 548 -286 ct 548 -294 548 -301 547 -308 ct 
547 -315 547 -321 547 -326 ct 547 -331 546 -334 546 -336 ct 599 -336 l  599 -335 599 -332 600 -327 ct 
600 -323 600 -318 600 -312 ct 601 -306 601 -300 601 -294 ct 601 -288 601 -283 601 -278 ct 
602 -278 l  607 -288 613 -297 618 -305 ct 624 -313 631 -319 639 -325 ct 646 -330 655 -335 665 -338 ct 
675 -341 687 -342 700 -342 ct 726 -342 746 -337 761 -327 ct 775 -317 786 -301 791 -278 ct 
792 -278 l  797 -288 803 -297 809 -305 ct 815 -313 823 -319 831 -325 ct 839 -330 848 -335 859 -338 ct 
869 -341 881 -342 894 -342 ct 911 -342 926 -340 938 -335 ct 950 -331 960 -324 968 -314 ct 
976 -305 982 -292 986 -277 ct 989 -262 991 -244 991 -224 ct 991 0 l  936 0 l 
936 -213 l  936 -229 935 -243 933 -254 ct 931 -265 927 -274 922 -280 ct 918 -287 911 -292 903 -295 ct 
896 -297 886 -299 875 -299 ct 863 -299 852 -297 843 -292 ct 833 -288 825 -281 818 -272 ct 
812 -264 806 -253 803 -240 ct 799 -227 797 -212 797 -195 ct 797 0 l  742 0 l 
p ef
1119 -156 m  1119 -139 1120 -122 1124 -108 ct 1128 -93 1133 -80 1141 -70 ct 
1148 -59 1158 -51 1170 -45 ct 1182 -39 1196 -36 1212 -36 ct 1236 -36 1256 -41 1270 -50 ct 
1285 -60 1295 -72 1300 -87 ct 1349 -73 l  1345 -64 1341 -55 1334 -45 ct 1328 -36 1320 -27 1309 -20 ct 
1298 -12 1285 -6 1269 -1 ct 1254 4 1235 6 1212 6 ct 1163 6 1125 -9 1099 -38 ct 
1073 -68 1060 -112 1060 -170 ct 1060 -202 1064 -228 1072 -250 ct 1080 -272 1090 -290 1104 -303 ct 
1118 -317 1134 -327 1152 -333 ct 1170 -339 1189 -342 1210 -342 ct 1238 -342 1262 -338 1281 -329 ct 
1300 -320 1315 -307 1326 -291 ct 1338 -275 1346 -256 1351 -234 ct 1356 -212 1358 -189 1358 -164 ct 
1358 -156 l  1119 -156 l  p
1300 -199 m  1297 -234 1288 -260 1273 -277 ct 1258 -293 1237 -301 1209 -301 ct 
1200 -301 1190 -300 1180 -296 ct 1170 -293 1160 -288 1151 -280 ct 1143 -273 1135 -262 1129 -249 ct 
1123 -236 1120 -219 1119 -199 ct 1300 -199 l  p ef
pom

pum
996 16022 t
394 -121 m  394 -103 391 -86 384 -70 ct 377 -55 366 -41 351 -30 ct 336 -19 317 -10 294 -3 ct 
272 3 245 6 214 6 ct 160 6 117 -4 87 -23 ct 56 -42 37 -69 29 -105 ct 86 -117 l 
89 -105 94 -95 100 -86 ct 106 -76 114 -68 124 -61 ct 134 -55 147 -50 162 -46 ct 
177 -42 195 -40 216 -40 ct 234 -40 250 -42 264 -45 ct 279 -48 292 -52 302 -59 ct 
313 -65 321 -73 327 -83 ct 333 -92 336 -104 336 -118 ct 336 -132 333 -144 326 -153 ct 
320 -161 310 -169 299 -175 ct 287 -180 273 -185 256 -189 ct 240 -193 222 -197 202 -202 ct 
190 -205 178 -208 165 -211 ct 153 -214 141 -218 130 -222 ct 119 -227 108 -232 98 -238 ct 
88 -244 80 -251 73 -259 ct 65 -268 60 -278 56 -289 ct 51 -300 49 -313 49 -327 ct 
49 -348 53 -365 62 -380 ct 70 -395 82 -407 97 -417 ct 112 -426 129 -433 149 -437 ct 
170 -442 192 -444 215 -444 ct 242 -444 265 -442 285 -438 ct 304 -433 320 -427 333 -419 ct 
347 -410 357 -400 365 -387 ct 373 -375 379 -360 384 -343 ct 326 -333 l  323 -344 319 -353 313 -361 ct 
308 -370 301 -377 292 -382 ct 283 -388 272 -392 259 -395 ct 247 -398 232 -399 215 -399 ct 
194 -399 177 -397 164 -394 ct 150 -390 139 -385 130 -379 ct 122 -373 116 -366 112 -357 ct 
109 -349 107 -340 107 -330 ct 107 -317 110 -306 117 -298 ct 123 -290 132 -283 143 -277 ct 
154 -271 167 -267 182 -263 ct 197 -259 212 -256 229 -252 ct 242 -249 256 -246 269 -242 ct 
282 -239 295 -235 307 -231 ct 319 -226 331 -221 342 -215 ct 352 -209 361 -202 369 -193 ct 
377 -185 383 -174 388 -163 ct 392 -151 394 -137 394 -121 ct p ef
817 -121 m  817 -103 814 -86 807 -70 ct 800 -55 789 -41 774 -30 ct 759 -19 740 -10 717 -3 ct 
695 3 668 6 637 6 ct 583 6 540 -4 510 -23 ct 479 -42 460 -69 452 -105 ct 509 -117 l 
512 -105 517 -95 523 -86 ct 529 -76 537 -68 547 -61 ct 557 -55 570 -50 585 -46 ct 
600 -42 618 -40 639 -40 ct 657 -40 673 -42 687 -45 ct 702 -48 715 -52 725 -59 ct 
736 -65 744 -73 750 -83 ct 756 -92 759 -104 759 -118 ct 759 -132 756 -144 749 -153 ct 
743 -161 733 -169 722 -175 ct 710 -180 696 -185 679 -189 ct 663 -193 645 -197 625 -202 ct 
613 -205 601 -208 588 -211 ct 576 -214 564 -218 553 -222 ct 542 -227 531 -232 521 -238 ct 
511 -244 503 -251 496 -259 ct 488 -268 483 -278 479 -289 ct 474 -300 472 -313 472 -327 ct 
472 -348 476 -365 485 -380 ct 493 -395 505 -407 520 -417 ct 535 -426 552 -433 572 -437 ct 
593 -442 615 -444 638 -444 ct 665 -444 688 -442 708 -438 ct 727 -433 743 -427 756 -419 ct 
770 -410 780 -400 788 -387 ct 796 -375 802 -360 807 -343 ct 749 -333 l  746 -344 742 -353 736 -361 ct 
731 -370 724 -377 715 -382 ct 706 -388 695 -392 682 -395 ct 670 -398 655 -399 638 -399 ct 
617 -399 600 -397 587 -394 ct 573 -390 562 -385 553 -379 ct 545 -373 539 -366 535 -357 ct 
532 -349 530 -340 530 -330 ct 530 -317 533 -306 540 -298 ct 546 -290 555 -283 566 -277 ct 
577 -271 590 -267 605 -263 ct 620 -259 635 -256 652 -252 ct 665 -249 679 -246 692 -242 ct 
705 -239 718 -235 730 -231 ct 742 -226 754 -221 765 -215 ct 775 -209 784 -202 792 -193 ct 
800 -185 806 -174 811 -163 ct 815 -151 817 -137 817 -121 ct p ef
1275 -223 m  1275 -187 1270 -155 1259 -127 ct 1248 -99 1233 -76 1214 -57 ct 
1195 -38 1172 -24 1146 -14 ct 1120 -5 1092 0 1062 0 ct 899 0 l  899 -437 l  1044 -437 l 
1077 -437 1108 -433 1137 -425 ct 1165 -417 1190 -404 1210 -386 ct 1231 -369 1247 -346 1258 -319 ct 
1269 -293 1275 -261 1275 -223 ct p
1216 -223 m  1216 -253 1211 -278 1203 -299 ct 1194 -320 1183 -337 1167 -351 ct 
1152 -364 1134 -374 1112 -381 ct 1091 -387 1068 -390 1042 -390 ct 958 -390 l 
958 -47 l  1056 -47 l  1079 -47 1100 -51 1119 -59 ct 1139 -66 1156 -77 1170 -92 ct 
1184 -107 1196 -125 1204 -147 ct 1212 -169 1216 -194 1216 -223 ct p ef
1807 -121 m  1807 -101 1804 -83 1797 -67 ct 1791 -52 1781 -38 1769 -27 ct 1756 -17 1741 -8 1722 -3 ct 
1704 3 1683 6 1659 6 ct 1632 6 1609 3 1591 -4 ct 1572 -11 1557 -20 1545 -31 ct 
1533 -42 1524 -54 1518 -69 ct 1512 -83 1508 -97 1506 -113 ct 1564 -118 l  1566 -106 1569 -96 1573 -86 ct 
1577 -77 1584 -68 1591 -62 ct 1599 -55 1608 -50 1619 -46 ct 1631 -42 1644 -40 1659 -40 ct 
1687 -40 1709 -47 1725 -61 ct 1741 -75 1749 -96 1749 -123 ct 1749 -139 1746 -152 1739 -162 ct 
1731 -172 1723 -179 1712 -185 ct 1701 -190 1690 -194 1677 -196 ct 1665 -198 1653 -199 1643 -199 ct 
1611 -199 l  1611 -247 l  1641 -247 l  1652 -247 1663 -248 1674 -250 ct 1686 -252 1696 -256 1705 -262 ct 
1715 -268 1723 -275 1729 -285 ct 1735 -295 1738 -307 1738 -322 ct 1738 -346 1731 -364 1717 -378 ct 
1703 -391 1683 -398 1656 -398 ct 1631 -398 1611 -392 1596 -379 ct 1581 -367 1572 -349 1570 -326 ct 
1514 -330 l  1516 -349 1521 -366 1529 -380 ct 1538 -395 1548 -407 1561 -416 ct 
1574 -425 1588 -432 1604 -437 ct 1621 -442 1638 -444 1657 -444 ct 1681 -444 1702 -441 1720 -435 ct 
1737 -429 1751 -420 1763 -410 ct 1774 -400 1782 -387 1787 -373 ct 1793 -359 1795 -344 1795 -328 ct 
1795 -315 1793 -303 1790 -292 ct 1786 -281 1781 -271 1773 -262 ct 1766 -253 1757 -246 1745 -239 ct 
1734 -233 1720 -228 1704 -225 ct 1704 -223 l  1721 -222 1737 -218 1750 -211 ct 
1763 -205 1773 -198 1782 -189 ct 1790 -180 1797 -169 1801 -158 ct 1805 -146 1807 -134 1807 -121 ct 
p ef
pom

pum
996 15006 t
394 -121 m  394 -103 391 -86 384 -70 ct 377 -55 366 -41 351 -30 ct 336 -19 317 -10 294 -3 ct 
272 3 245 6 214 6 ct 160 6 117 -4 87 -23 ct 56 -42 37 -69 29 -105 ct 86 -117 l 
89 -105 94 -95 100 -86 ct 106 -76 114 -68 124 -61 ct 134 -55 147 -50 162 -46 ct 
177 -42 195 -40 216 -40 ct 234 -40 250 -42 264 -45 ct 279 -48 292 -52 302 -59 ct 
313 -65 321 -73 327 -83 ct 333 -92 336 -104 336 -118 ct 336 -132 333 -144 326 -153 ct 
320 -161 310 -169 299 -175 ct 287 -180 273 -185 256 -189 ct 240 -193 222 -197 202 -202 ct 
190 -205 178 -208 165 -211 ct 153 -214 141 -218 130 -222 ct 119 -227 108 -232 98 -238 ct 
88 -244 80 -251 73 -259 ct 65 -268 60 -278 56 -289 ct 51 -300 49 -313 49 -327 ct 
49 -348 53 -365 62 -380 ct 70 -395 82 -407 97 -417 ct 112 -426 129 -433 149 -437 ct 
170 -442 192 -444 215 -444 ct 242 -444 265 -442 285 -438 ct 304 -433 320 -427 333 -419 ct 
347 -410 357 -400 365 -387 ct 373 -375 379 -360 384 -343 ct 326 -333 l  323 -344 319 -353 313 -361 ct 
308 -370 301 -377 292 -382 ct 283 -388 272 -392 259 -395 ct 247 -398 232 -399 215 -399 ct 
194 -399 177 -397 164 -394 ct 150 -390 139 -385 130 -379 ct 122 -373 116 -366 112 -357 ct 
109 -349 107 -340 107 -330 ct 107 -317 110 -306 117 -298 ct 123 -290 132 -283 143 -277 ct 
154 -271 167 -267 182 -263 ct 197 -259 212 -256 229 -252 ct 242 -249 256 -246 269 -242 ct 
282 -239 295 -235 307 -231 ct 319 -226 331 -221 342 -215 ct 352 -209 361 -202 369 -193 ct 
377 -185 383 -174 388 -163 ct 392 -151 394 -137 394 -121 ct p ef
817 -121 m  817 -103 814 -86 807 -70 ct 800 -55 789 -41 774 -30 ct 759 -19 740 -10 717 -3 ct 
695 3 668 6 637 6 ct 583 6 540 -4 510 -23 ct 479 -42 460 -69 452 -105 ct 509 -117 l 
512 -105 517 -95 523 -86 ct 529 -76 537 -68 547 -61 ct 557 -55 570 -50 585 -46 ct 
600 -42 618 -40 639 -40 ct 657 -40 673 -42 687 -45 ct 702 -48 715 -52 725 -59 ct 
736 -65 744 -73 750 -83 ct 756 -92 759 -104 759 -118 ct 759 -132 756 -144 749 -153 ct 
743 -161 733 -169 722 -175 ct 710 -180 696 -185 679 -189 ct 663 -193 645 -197 625 -202 ct 
613 -205 601 -208 588 -211 ct 576 -214 564 -218 553 -222 ct 542 -227 531 -232 521 -238 ct 
511 -244 503 -251 496 -259 ct 488 -268 483 -278 479 -289 ct 474 -300 472 -313 472 -327 ct 
472 -348 476 -365 485 -380 ct 493 -395 505 -407 520 -417 ct 535 -426 552 -433 572 -437 ct 
593 -442 615 -444 638 -444 ct 665 -444 688 -442 708 -438 ct 727 -433 743 -427 756 -419 ct 
770 -410 780 -400 788 -387 ct 796 -375 802 -360 807 -343 ct 749 -333 l  746 -344 742 -353 736 -361 ct 
731 -370 724 -377 715 -382 ct 706 -388 695 -392 682 -395 ct 670 -398 655 -399 638 -399 ct 
617 -399 600 -397 587 -394 ct 573 -390 562 -385 553 -379 ct 545 -373 539 -366 535 -357 ct 
532 -349 530 -340 530 -330 ct 530 -317 533 -306 540 -298 ct 546 -290 555 -283 566 -277 ct 
577 -271 590 -267 605 -263 ct 620 -259 635 -256 652 -252 ct 665 -249 679 -246 692 -242 ct 
705 -239 718 -235 730 -231 ct 742 -226 754 -221 765 -215 ct 775 -209 784 -202 792 -193 ct 
800 -185 806 -174 811 -163 ct 815 -151 817 -137 817 -121 ct p ef
1275 -223 m  1275 -187 1270 -155 1259 -127 ct 1248 -99 1233 -76 1214 -57 ct 
1195 -38 1172 -24 1146 -14 ct 1120 -5 1092 0 1062 0 ct 899 0 l  899 -437 l  1044 -437 l 
1077 -437 1108 -433 1137 -425 ct 1165 -417 1190 -404 1210 -386 ct 1231 -369 1247 -346 1258 -319 ct 
1269 -293 1275 -261 1275 -223 ct p
1216 -223 m  1216 -253 1211 -278 1203 -299 ct 1194 -320 1183 -337 1167 -351 ct 
1152 -364 1134 -374 1112 -381 ct 1091 -387 1068 -390 1042 -390 ct 958 -390 l 
958 -47 l  1056 -47 l  1079 -47 1100 -51 1119 -59 ct 1139 -66 1156 -77 1170 -92 ct 
1184 -107 1196 -125 1204 -147 ct 1212 -169 1216 -194 1216 -223 ct p ef
1514 0 m  1514 -39 l  1524 -64 1537 -85 1553 -104 ct 1568 -122 1584 -139 1600 -154 ct 
1617 -169 1634 -183 1650 -196 ct 1667 -208 1681 -221 1695 -234 ct 1708 -247 1719 -260 1727 -274 ct 
1735 -289 1739 -304 1739 -322 ct 1739 -335 1737 -346 1733 -355 ct 1730 -364 1724 -372 1717 -379 ct 
1710 -385 1702 -390 1692 -393 ct 1682 -396 1671 -398 1659 -398 ct 1648 -398 1638 -396 1628 -393 ct 
1618 -390 1609 -386 1602 -379 ct 1594 -373 1588 -365 1583 -356 ct 1578 -347 1575 -336 1573 -324 ct 
1516 -329 l  1518 -345 1523 -360 1529 -374 ct 1536 -388 1546 -400 1558 -410 ct 
1570 -421 1584 -429 1601 -435 ct 1618 -441 1637 -444 1659 -444 ct 1681 -444 1700 -441 1717 -436 ct 
1734 -431 1749 -423 1760 -413 ct 1772 -403 1781 -391 1787 -376 ct 1793 -361 1796 -344 1796 -324 ct 
1796 -309 1794 -295 1789 -282 ct 1783 -269 1776 -256 1767 -244 ct 1759 -232 1748 -221 1737 -210 ct 
1725 -198 1713 -187 1701 -177 ct 1688 -166 1675 -156 1662 -145 ct 1650 -135 1638 -124 1626 -114 ct 
1615 -103 1605 -92 1596 -81 ct 1587 -71 1580 -59 1575 -47 ct 1803 -47 l  1803 0 l 
1514 0 l  p ef
pom

pum
996 13990 t
394 -121 m  394 -103 391 -86 384 -70 ct 377 -55 366 -41 351 -30 ct 336 -19 317 -10 294 -3 ct 
272 3 245 6 214 6 ct 160 6 117 -4 87 -23 ct 56 -42 37 -69 29 -105 ct 86 -117 l 
89 -105 94 -95 100 -86 ct 106 -76 114 -68 124 -61 ct 134 -55 147 -50 162 -46 ct 
177 -42 195 -40 216 -40 ct 234 -40 250 -42 264 -45 ct 279 -48 292 -52 302 -59 ct 
313 -65 321 -73 327 -83 ct 333 -92 336 -104 336 -118 ct 336 -132 333 -144 326 -153 ct 
320 -161 310 -169 299 -175 ct 287 -180 273 -185 256 -189 ct 240 -193 222 -197 202 -202 ct 
190 -205 178 -208 165 -211 ct 153 -214 141 -218 130 -222 ct 119 -227 108 -232 98 -238 ct 
88 -244 80 -251 73 -259 ct 65 -268 60 -278 56 -289 ct 51 -300 49 -313 49 -327 ct 
49 -348 53 -365 62 -380 ct 70 -395 82 -407 97 -417 ct 112 -426 129 -433 149 -437 ct 
170 -442 192 -444 215 -444 ct 242 -444 265 -442 285 -438 ct 304 -433 320 -427 333 -419 ct 
347 -410 357 -400 365 -387 ct 373 -375 379 -360 384 -343 ct 326 -333 l  323 -344 319 -353 313 -361 ct 
308 -370 301 -377 292 -382 ct 283 -388 272 -392 259 -395 ct 247 -398 232 -399 215 -399 ct 
194 -399 177 -397 164 -394 ct 150 -390 139 -385 130 -379 ct 122 -373 116 -366 112 -357 ct 
109 -349 107 -340 107 -330 ct 107 -317 110 -306 117 -298 ct 123 -290 132 -283 143 -277 ct 
154 -271 167 -267 182 -263 ct 197 -259 212 -256 229 -252 ct 242 -249 256 -246 269 -242 ct 
282 -239 295 -235 307 -231 ct 319 -226 331 -221 342 -215 ct 352 -209 361 -202 369 -193 ct 
377 -185 383 -174 388 -163 ct 392 -151 394 -137 394 -121 ct p ef
817 -121 m  817 -103 814 -86 807 -70 ct 800 -55 789 -41 774 -30 ct 759 -19 740 -10 717 -3 ct 
695 3 668 6 637 6 ct 583 6 540 -4 510 -23 ct 479 -42 460 -69 452 -105 ct 509 -117 l 
512 -105 517 -95 523 -86 ct 529 -76 537 -68 547 -61 ct 557 -55 570 -50 585 -46 ct 
600 -42 618 -40 639 -40 ct 657 -40 673 -42 687 -45 ct 702 -48 715 -52 725 -59 ct 
736 -65 744 -73 750 -83 ct 756 -92 759 -104 759 -118 ct 759 -132 756 -144 749 -153 ct 
743 -161 733 -169 722 -175 ct 710 -180 696 -185 679 -189 ct 663 -193 645 -197 625 -202 ct 
613 -205 601 -208 588 -211 ct 576 -214 564 -218 553 -222 ct 542 -227 531 -232 521 -238 ct 
511 -244 503 -251 496 -259 ct 488 -268 483 -278 479 -289 ct 474 -300 472 -313 472 -327 ct 
472 -348 476 -365 485 -380 ct 493 -395 505 -407 520 -417 ct 535 -426 552 -433 572 -437 ct 
593 -442 615 -444 638 -444 ct 665 -444 688 -442 708 -438 ct 727 -433 743 -427 756 -419 ct 
770 -410 780 -400 788 -387 ct 796 -375 802 -360 807 -343 ct 749 -333 l  746 -344 742 -353 736 -361 ct 
731 -370 724 -377 715 -382 ct 706 -388 695 -392 682 -395 ct 670 -398 655 -399 638 -399 ct 
617 -399 600 -397 587 -394 ct 573 -390 562 -385 553 -379 ct 545 -373 539 -366 535 -357 ct 
532 -349 530 -340 530 -330 ct 530 -317 533 -306 540 -298 ct 546 -290 555 -283 566 -277 ct 
577 -271 590 -267 605 -263 ct 620 -259 635 -256 652 -252 ct 665 -249 679 -246 692 -242 ct 
705 -239 718 -235 730 -231 ct 742 -226 754 -221 765 -215 ct 775 -209 784 -202 792 -193 ct 
800 -185 806 -174 811 -163 ct 815 -151 817 -137 817 -121 ct p ef
1275 -223 m  1275 -187 1270 -155 1259 -127 ct 1248 -99 1233 -76 1214 -57 ct 
1195 -38 1172 -24 1146 -14 ct 1120 -5 1092 0 1062 0 ct 899 0 l  899 -437 l  1044 -437 l 
1077 -437 1108 -433 1137 -425 ct 1165 -417 1190 -404 1210 -386 ct 1231 -369 1247 -346 1258 -319 ct 
1269 -293 1275 -261 1275 -223 ct p
1216 -223 m  1216 -253 1211 -278 1203 -299 ct 1194 -320 1183 -337 1167 -351 ct 
1152 -364 1134 -374 1112 -381 ct 1091 -387 1068 -390 1042 -390 ct 958 -390 l 
958 -47 l  1056 -47 l  1079 -47 1100 -51 1119 -59 ct 1139 -66 1156 -77 1170 -92 ct 
1184 -107 1196 -125 1204 -147 ct 1212 -169 1216 -194 1216 -223 ct p ef
1530 0 m  1530 -47 l  1642 -47 l  1642 -384 l  1543 -314 l  1543 -366 l 
1646 -438 l  1698 -438 l  1698 -47 l  1804 -47 l  1804 0 l  1530 0 l  p ef
pom

pum
996 12975 t
394 -121 m  394 -103 391 -86 384 -70 ct 377 -55 366 -41 351 -30 ct 336 -19 317 -10 294 -3 ct 
272 3 245 6 214 6 ct 160 6 117 -4 87 -23 ct 56 -42 37 -69 29 -105 ct 86 -117 l 
89 -105 94 -95 100 -86 ct 106 -76 114 -68 124 -61 ct 134 -55 147 -50 162 -46 ct 
177 -42 195 -40 216 -40 ct 234 -40 250 -42 264 -45 ct 279 -48 292 -52 302 -59 ct 
313 -65 321 -73 327 -83 ct 333 -92 336 -104 336 -118 ct 336 -132 333 -144 326 -153 ct 
320 -161 310 -169 299 -175 ct 287 -180 273 -185 256 -189 ct 240 -193 222 -197 202 -202 ct 
190 -205 178 -208 165 -211 ct 153 -214 141 -218 130 -222 ct 119 -227 108 -232 98 -238 ct 
88 -244 80 -251 73 -259 ct 65 -268 60 -278 56 -289 ct 51 -300 49 -313 49 -327 ct 
49 -348 53 -365 62 -380 ct 70 -395 82 -407 97 -417 ct 112 -426 129 -433 149 -437 ct 
170 -442 192 -444 215 -444 ct 242 -444 265 -442 285 -438 ct 304 -433 320 -427 333 -419 ct 
347 -410 357 -400 365 -387 ct 373 -375 379 -360 384 -343 ct 326 -333 l  323 -344 319 -353 313 -361 ct 
308 -370 301 -377 292 -382 ct 283 -388 272 -392 259 -395 ct 247 -398 232 -399 215 -399 ct 
194 -399 177 -397 164 -394 ct 150 -390 139 -385 130 -379 ct 122 -373 116 -366 112 -357 ct 
109 -349 107 -340 107 -330 ct 107 -317 110 -306 117 -298 ct 123 -290 132 -283 143 -277 ct 
154 -271 167 -267 182 -263 ct 197 -259 212 -256 229 -252 ct 242 -249 256 -246 269 -242 ct 
282 -239 295 -235 307 -231 ct 319 -226 331 -221 342 -215 ct 352 -209 361 -202 369 -193 ct 
377 -185 383 -174 388 -163 ct 392 -151 394 -137 394 -121 ct p ef
817 -121 m  817 -103 814 -86 807 -70 ct 800 -55 789 -41 774 -30 ct 759 -19 740 -10 717 -3 ct 
695 3 668 6 637 6 ct 583 6 540 -4 510 -23 ct 479 -42 460 -69 452 -105 ct 509 -117 l 
512 -105 517 -95 523 -86 ct 529 -76 537 -68 547 -61 ct 557 -55 570 -50 585 -46 ct 
600 -42 618 -40 639 -40 ct 657 -40 673 -42 687 -45 ct 702 -48 715 -52 725 -59 ct 
736 -65 744 -73 750 -83 ct 756 -92 759 -104 759 -118 ct 759 -132 756 -144 749 -153 ct 
743 -161 733 -169 722 -175 ct 710 -180 696 -185 679 -189 ct 663 -193 645 -197 625 -202 ct 
613 -205 601 -208 588 -211 ct 576 -214 564 -218 553 -222 ct 542 -227 531 -232 521 -238 ct 
511 -244 503 -251 496 -259 ct 488 -268 483 -278 479 -289 ct 474 -300 472 -313 472 -327 ct 
472 -348 476 -365 485 -380 ct 493 -395 505 -407 520 -417 ct 535 -426 552 -433 572 -437 ct 
593 -442 615 -444 638 -444 ct 665 -444 688 -442 708 -438 ct 727 -433 743 -427 756 -419 ct 
770 -410 780 -400 788 -387 ct 796 -375 802 -360 807 -343 ct 749 -333 l  746 -344 742 -353 736 -361 ct 
731 -370 724 -377 715 -382 ct 706 -388 695 -392 682 -395 ct 670 -398 655 -399 638 -399 ct 
617 -399 600 -397 587 -394 ct 573 -390 562 -385 553 -379 ct 545 -373 539 -366 535 -357 ct 
532 -349 530 -340 530 -330 ct 530 -317 533 -306 540 -298 ct 546 -290 555 -283 566 -277 ct 
577 -271 590 -267 605 -263 ct 620 -259 635 -256 652 -252 ct 665 -249 679 -246 692 -242 ct 
705 -239 718 -235 730 -231 ct 742 -226 754 -221 765 -215 ct 775 -209 784 -202 792 -193 ct 
800 -185 806 -174 811 -163 ct 815 -151 817 -137 817 -121 ct p ef
1275 -223 m  1275 -187 1270 -155 1259 -127 ct 1248 -99 1233 -76 1214 -57 ct 
1195 -38 1172 -24 1146 -14 ct 1120 -5 1092 0 1062 0 ct 899 0 l  899 -437 l  1044 -437 l 
1077 -437 1108 -433 1137 -425 ct 1165 -417 1190 -404 1210 -386 ct 1231 -369 1247 -346 1258 -319 ct 
1269 -293 1275 -261 1275 -223 ct p
1216 -223 m  1216 -253 1211 -278 1203 -299 ct 1194 -320 1183 -337 1167 -351 ct 
1152 -364 1134 -374 1112 -381 ct 1091 -387 1068 -390 1042 -390 ct 958 -390 l 
958 -47 l  1056 -47 l  1079 -47 1100 -51 1119 -59 ct 1139 -66 1156 -77 1170 -92 ct 
1184 -107 1196 -125 1204 -147 ct 1212 -169 1216 -194 1216 -223 ct p ef
1810 -219 m  1810 -177 1806 -142 1798 -113 ct 1790 -84 1780 -61 1766 -44 ct 
1752 -26 1736 -13 1717 -5 ct 1699 2 1679 6 1658 6 ct 1637 6 1617 2 1598 -5 ct 1580 -13 1564 -26 1550 -43 ct 
1537 -61 1526 -84 1518 -113 ct 1511 -141 1507 -177 1507 -219 ct 1507 -263 1511 -300 1518 -328 ct 
1526 -357 1537 -380 1551 -397 ct 1564 -415 1580 -427 1599 -434 ct 1618 -441 1638 -444 1660 -444 ct 
1681 -444 1700 -441 1718 -434 ct 1737 -427 1753 -415 1766 -397 ct 1780 -380 1791 -357 1799 -328 ct 
1806 -300 1810 -263 1810 -219 ct p
1754 -219 m  1754 -254 1752 -283 1747 -306 ct 1743 -329 1737 -347 1729 -361 ct 
1721 -375 1711 -384 1700 -390 ct 1688 -396 1675 -399 1660 -399 ct 1644 -399 1630 -396 1618 -390 ct 
1606 -384 1596 -374 1588 -361 ct 1580 -347 1574 -329 1569 -305 ct 1565 -282 1563 -254 1563 -219 ct 
1563 -185 1565 -157 1570 -134 ct 1574 -111 1580 -93 1588 -79 ct 1596 -65 1606 -55 1618 -49 ct 
1630 -43 1643 -40 1658 -40 ct 1673 -40 1686 -43 1698 -49 ct 1710 -55 1720 -65 1728 -79 ct 
1736 -93 1743 -111 1747 -134 ct 1751 -157 1754 -185 1754 -219 ct p ef
pom
0.003 0.003 0.003 c 4302 16491 m  4302 13042 l  ps
4301 12681 m  4151 13131 l  4451 13131 l  4301 12681 l  p ef

pum
4044 17192 t
0.230 0.226 0.210 c 362 0 m  312 -128 l  113 -128 l  63 0 l  1 0 l  180 -438 l 
247 -438 l  422 0 l  362 0 l  p
238 -319 m  235 -327 232 -335 229 -344 ct 226 -352 223 -360 221 -367 ct 218 -374 217 -380 215 -384 ct 
213 -389 213 -392 212 -393 ct 212 -392 211 -389 210 -384 ct 208 -379 206 -373 204 -366 ct 
201 -359 199 -352 196 -343 ct 193 -335 190 -326 187 -318 ct 131 -174 l  294 -174 l 
238 -319 l  p ef
pom

pum
5822 17192 t
390 -123 m  390 -101 386 -82 377 -67 ct 368 -51 357 -38 342 -28 ct 327 -19 310 -11 291 -7 ct 
271 -2 251 0 229 0 ct 52 0 l  52 -437 l  211 -437 l  235 -437 257 -435 276 -431 ct 
295 -427 311 -421 324 -412 ct 337 -404 347 -393 354 -379 ct 361 -366 365 -350 365 -331 ct 
365 -319 363 -307 360 -297 ct 356 -286 351 -276 344 -267 ct 337 -258 328 -251 318 -245 ct 
308 -238 295 -234 282 -230 ct 299 -228 315 -224 328 -218 ct 342 -212 353 -205 362 -195 ct 
371 -186 378 -175 383 -163 ct 388 -151 390 -137 390 -123 ct p
305 -324 m  305 -348 297 -365 281 -375 ct 265 -385 241 -390 211 -390 ct 111 -390 l 
111 -251 l  211 -251 l  228 -251 243 -253 255 -256 ct 267 -260 277 -265 284 -271 ct 
291 -277 297 -285 300 -294 ct 303 -303 305 -313 305 -324 ct p
330 -128 m  330 -142 328 -153 323 -163 ct 318 -173 310 -181 301 -187 ct 291 -193 280 -198 267 -201 ct 
253 -204 238 -205 222 -205 ct 111 -205 l  111 -47 l  226 -47 l  241 -47 255 -49 268 -51 ct 
281 -54 292 -58 301 -64 ct 310 -70 317 -79 322 -89 ct 328 -99 330 -112 330 -128 ct 
p ef
pom
1.000 1.000 1.000 c 4505 12427 m  5113 12427 l  5318 12681 l  5113 12936 l 
4505 12936 l  4301 12681 l  4505 12427 l  4505 12427 l  p ef
0 lw 0.003 0.003 0.003 c 4505 12427 m  5113 12427 l  5318 12681 l  5113 12936 l 
4505 12936 l  4301 12681 l  4505 12427 l  4505 12427 l  pc
pum
4422 12903 t
0.230 0.226 0.210 c 362 0 m  312 -128 l  113 -128 l  63 0 l  1 0 l  180 -438 l 
247 -438 l  422 0 l  362 0 l  p
238 -319 m  235 -327 232 -335 229 -344 ct 226 -352 223 -360 221 -367 ct 218 -374 217 -380 215 -384 ct 
213 -389 213 -392 212 -393 ct 212 -392 211 -389 210 -384 ct 208 -379 206 -373 204 -366 ct 
201 -359 199 -352 196 -343 ct 193 -335 190 -326 187 -318 ct 131 -174 l  294 -174 l 
238 -319 l  p ef
751 -219 m  751 -177 747 -142 739 -113 ct 731 -84 721 -61 707 -44 ct 693 -26 677 -13 658 -5 ct 
640 2 620 6 599 6 ct 578 6 558 2 539 -5 ct 521 -13 505 -26 491 -43 ct 478 -61 467 -84 459 -113 ct 
452 -141 448 -177 448 -219 ct 448 -263 452 -300 459 -328 ct 467 -357 478 -380 492 -397 ct 
505 -415 521 -427 540 -434 ct 559 -441 579 -444 601 -444 ct 622 -444 641 -441 659 -434 ct 
678 -427 694 -415 707 -397 ct 721 -380 732 -357 740 -328 ct 747 -300 751 -263 751 -219 ct 
p
695 -219 m  695 -254 693 -283 688 -306 ct 684 -329 678 -347 670 -361 ct 662 -375 652 -384 641 -390 ct 
629 -396 616 -399 601 -399 ct 585 -399 571 -396 559 -390 ct 547 -384 537 -374 529 -361 ct 
521 -347 515 -329 510 -305 ct 506 -282 504 -254 504 -219 ct 504 -185 506 -157 511 -134 ct 
515 -111 521 -93 529 -79 ct 537 -65 547 -55 559 -49 ct 571 -43 584 -40 599 -40 ct 
614 -40 627 -43 639 -49 ct 651 -55 661 -65 669 -79 ct 677 -93 684 -111 688 -134 ct 
692 -157 695 -185 695 -219 ct p ef
pom

1.000 1.000 1.000 c 4505 13443 m  5113 13443 l  5318 13697 l  5113 13952 l 
4505 13952 l  4301 13697 l  4505 13443 l  4505 13443 l  p ef
0.003 0.003 0.003 c 4505 13443 m  5113 13443 l  5318 13697 l  5113 13952 l 
4505 13952 l  4301 13697 l  4505 13443 l  4505 13443 l  pc
pum
4422 13918 t
0.230 0.226 0.210 c 362 0 m  312 -128 l  113 -128 l  63 0 l  1 0 l  180 -438 l 
247 -438 l  422 0 l  362 0 l  p
238 -319 m  235 -327 232 -335 229 -344 ct 226 -352 223 -360 221 -367 ct 218 -374 217 -380 215 -384 ct 
213 -389 213 -392 212 -393 ct 212 -392 211 -389 210 -384 ct 208 -379 206 -373 204 -366 ct 
201 -359 199 -352 196 -343 ct 193 -335 190 -326 187 -318 ct 131 -174 l  294 -174 l 
238 -319 l  p ef
471 0 m  471 -47 l  583 -47 l  583 -384 l  484 -314 l  484 -366 l  587 -438 l 
639 -438 l  639 -47 l  745 -47 l  745 0 l  471 0 l  p ef
pom

1.000 1.000 1.000 c 4505 14459 m  5113 14459 l  5318 14713 l  5113 14968 l 
4505 14968 l  4301 14713 l  4505 14459 l  4505 14459 l  p ef
0.003 0.003 0.003 c 4505 14459 m  5113 14459 l  5318 14713 l  5113 14968 l 
4505 14968 l  4301 14713 l  4505 14459 l  4505 14459 l  pc
pum
4422 14934 t
0.230 0.226 0.210 c 362 0 m  312 -128 l  113 -128 l  63 0 l  1 0 l  180 -438 l 
247 -438 l  422 0 l  362 0 l  p
238 -319 m  235 -327 232 -335 229 -344 ct 226 -352 223 -360 221 -367 ct 218 -374 217 -380 215 -384 ct 
213 -389 213 -392 212 -393 ct 212 -392 211 -389 210 -384 ct 208 -379 206 -373 204 -366 ct 
201 -359 199 -352 196 -343 ct 193 -335 190 -326 187 -318 ct 131 -174 l  294 -174 l 
238 -319 l  p ef
455 0 m  455 -39 l  465 -64 478 -85 494 -104 ct 509 -122 525 -139 541 -154 ct 
558 -169 575 -183 591 -196 ct 608 -208 622 -221 636 -234 ct 649 -247 660 -260 668 -274 ct 
676 -289 680 -304 680 -322 ct 680 -335 678 -346 674 -355 ct 671 -364 665 -372 658 -379 ct 
651 -385 643 -390 633 -393 ct 623 -396 612 -398 600 -398 ct 589 -398 579 -396 569 -393 ct 
559 -390 550 -386 543 -379 ct 535 -373 529 -365 524 -356 ct 519 -347 516 -336 514 -324 ct 
457 -329 l  459 -345 464 -360 470 -374 ct 477 -388 487 -400 499 -410 ct 511 -421 525 -429 542 -435 ct 
559 -441 578 -444 600 -444 ct 622 -444 641 -441 658 -436 ct 675 -431 690 -423 701 -413 ct 
713 -403 722 -391 728 -376 ct 734 -361 737 -344 737 -324 ct 737 -309 735 -295 730 -282 ct 
724 -269 717 -256 708 -244 ct 700 -232 689 -221 678 -210 ct 666 -198 654 -187 642 -177 ct 
629 -166 616 -156 603 -145 ct 591 -135 579 -124 567 -114 ct 556 -103 546 -92 537 -81 ct 
528 -71 521 -59 516 -47 ct 744 -47 l  744 0 l  455 0 l  p ef
pom

1 lw 0.003 0.003 0.003 c 4302 16491 m  4302 14057 l  ps
4301 13697 m  4151 14147 l  4451 14147 l  4301 13697 l  p ef
4302 16491 m  4302 15073 l  ps
4301 14713 m  4151 15163 l  4451 15163 l  4301 14713 l  p ef
1.000 1.000 1.000 c 6283 14459 m  6891 14459 l  7096 14713 l  6891 14968 l 
6283 14968 l  6079 14713 l  6283 14459 l  6283 14459 l  p ef
0 lw 0.003 0.003 0.003 c 6283 14459 m  6891 14459 l  7096 14713 l  6891 14968 l 
6283 14968 l  6079 14713 l  6283 14459 l  6283 14459 l  pc
pum
6200 14934 t
0.230 0.226 0.210 c 390 -123 m  390 -101 386 -82 377 -67 ct 368 -51 357 -38 342 -28 ct 
327 -19 310 -11 291 -7 ct 271 -2 251 0 229 0 ct 52 0 l  52 -437 l  211 -437 l 
235 -437 257 -435 276 -431 ct 295 -427 311 -421 324 -412 ct 337 -404 347 -393 354 -379 ct 
361 -366 365 -350 365 -331 ct 365 -319 363 -307 360 -297 ct 356 -286 351 -276 344 -267 ct 
337 -258 328 -251 318 -245 ct 308 -238 295 -234 282 -230 ct 299 -228 315 -224 328 -218 ct 
342 -212 353 -205 362 -195 ct 371 -186 378 -175 383 -163 ct 388 -151 390 -137 390 -123 ct 
p
305 -324 m  305 -348 297 -365 281 -375 ct 265 -385 241 -390 211 -390 ct 111 -390 l 
111 -251 l  211 -251 l  228 -251 243 -253 255 -256 ct 267 -260 277 -265 284 -271 ct 
291 -277 297 -285 300 -294 ct 303 -303 305 -313 305 -324 ct p
330 -128 m  330 -142 328 -153 323 -163 ct 318 -173 310 -181 301 -187 ct 291 -193 280 -198 267 -201 ct 
253 -204 238 -205 222 -205 ct 111 -205 l  111 -47 l  226 -47 l  241 -47 255 -49 268 -51 ct 
281 -54 292 -58 301 -64 ct 310 -70 317 -79 322 -89 ct 328 -99 330 -112 330 -128 ct 
p ef
455 0 m  455 -39 l  465 -64 478 -85 494 -104 ct 509 -122 525 -139 541 -154 ct 
558 -169 575 -183 591 -196 ct 608 -208 622 -221 636 -234 ct 649 -247 660 -260 668 -274 ct 
676 -289 680 -304 680 -322 ct 680 -335 678 -346 674 -355 ct 671 -364 665 -372 658 -379 ct 
651 -385 643 -390 633 -393 ct 623 -396 612 -398 600 -398 ct 589 -398 579 -396 569 -393 ct 
559 -390 550 -386 543 -379 ct 535 -373 529 -365 524 -356 ct 519 -347 516 -336 514 -324 ct 
457 -329 l  459 -345 464 -360 470 -374 ct 477 -388 487 -400 499 -410 ct 511 -421 525 -429 542 -435 ct 
559 -441 578 -444 600 -444 ct 622 -444 641 -441 658 -436 ct 675 -431 690 -423 701 -413 ct 
713 -403 722 -391 728 -376 ct 734 -361 737 -344 737 -324 ct 737 -309 735 -295 730 -282 ct 
724 -269 717 -256 708 -244 ct 700 -232 689 -221 678 -210 ct 666 -198 654 -187 642 -177 ct 
629 -166 616 -156 603 -145 ct 591 -135 579 -124 567 -114 ct 556 -103 546 -92 537 -81 ct 
528 -71 521 -59 516 -47 ct 744 -47 l  744 0 l  455 0 l  p ef
pom

1 lw 0.003 0.003 0.003 c 6080 16491 m  6080 15073 l  ps
6079 14713 m  5929 15163 l  6229 15163 l  6079 14713 l  p ef
1.000 1.000 1.000 c 6283 15475 m  6891 15475 l  7096 15729 l  6891 15984 l 
6283 15984 l  6079 15729 l  6283 15475 l  6283 15475 l  p ef
0 lw 0.003 0.003 0.003 c 6283 15475 m  6891 15475 l  7096 15729 l  6891 15984 l 
6283 15984 l  6079 15729 l  6283 15475 l  6283 15475 l  pc
pum
6200 15950 t
0.230 0.226 0.210 c 390 -123 m  390 -101 386 -82 377 -67 ct 368 -51 357 -38 342 -28 ct 
327 -19 310 -11 291 -7 ct 271 -2 251 0 229 0 ct 52 0 l  52 -437 l  211 -437 l 
235 -437 257 -435 276 -431 ct 295 -427 311 -421 324 -412 ct 337 -404 347 -393 354 -379 ct 
361 -366 365 -350 365 -331 ct 365 -319 363 -307 360 -297 ct 356 -286 351 -276 344 -267 ct 
337 -258 328 -251 318 -245 ct 308 -238 295 -234 282 -230 ct 299 -228 315 -224 328 -218 ct 
342 -212 353 -205 362 -195 ct 371 -186 378 -175 383 -163 ct 388 -151 390 -137 390 -123 ct 
p
305 -324 m  305 -348 297 -365 281 -375 ct 265 -385 241 -390 211 -390 ct 111 -390 l 
111 -251 l  211 -251 l  228 -251 243 -253 255 -256 ct 267 -260 277 -265 284 -271 ct 
291 -277 297 -285 300 -294 ct 303 -303 305 -313 305 -324 ct p
330 -128 m  330 -142 328 -153 323 -163 ct 318 -173 310 -181 301 -187 ct 291 -193 280 -198 267 -201 ct 
253 -204 238 -205 222 -205 ct 111 -205 l  111 -47 l  226 -47 l  241 -47 255 -49 268 -51 ct 
281 -54 292 -58 301 -64 ct 310 -70 317 -79 322 -89 ct 328 -99 330 -112 330 -128 ct 
p ef
748 -121 m  748 -101 745 -83 738 -67 ct 732 -52 722 -38 710 -27 ct 697 -17 682 -8 663 -3 ct 
645 3 624 6 600 6 ct 573 6 550 3 532 -4 ct 513 -11 498 -20 486 -31 ct 474 -42 465 -54 459 -69 ct 
453 -83 449 -97 447 -113 ct 505 -118 l  507 -106 510 -96 514 -86 ct 518 -77 525 -68 532 -62 ct 
540 -55 549 -50 560 -46 ct 572 -42 585 -40 600 -40 ct 628 -40 650 -47 666 -61 ct 
682 -75 690 -96 690 -123 ct 690 -139 687 -152 680 -162 ct 672 -172 664 -179 653 -185 ct 
642 -190 631 -194 618 -196 ct 606 -198 594 -199 584 -199 ct 552 -199 l  552 -247 l 
582 -247 l  593 -247 604 -248 615 -250 ct 627 -252 637 -256 646 -262 ct 656 -268 664 -275 670 -285 ct 
676 -295 679 -307 679 -322 ct 679 -346 672 -364 658 -378 ct 644 -391 624 -398 597 -398 ct 
572 -398 552 -392 537 -379 ct 522 -367 513 -349 511 -326 ct 455 -330 l  457 -349 462 -366 470 -380 ct 
479 -395 489 -407 502 -416 ct 515 -425 529 -432 545 -437 ct 562 -442 579 -444 598 -444 ct 
622 -444 643 -441 661 -435 ct 678 -429 692 -420 704 -410 ct 715 -400 723 -387 728 -373 ct 
734 -359 736 -344 736 -328 ct 736 -315 734 -303 731 -292 ct 727 -281 722 -271 714 -262 ct 
707 -253 698 -246 686 -239 ct 675 -233 661 -228 645 -225 ct 645 -223 l  662 -222 678 -218 691 -211 ct 
704 -205 714 -198 723 -189 ct 731 -180 738 -169 742 -158 ct 746 -146 748 -134 748 -121 ct 
p ef
pom

1 lw 0.003 0.003 0.003 c 6080 16491 m  6080 16089 l  ps
6079 15729 m  5929 16179 l  6229 16179 l  6079 15729 l  p ef
1.000 1.000 1.000 c 8315 12427 m  8923 12427 l  9128 12681 l  8923 12936 l 
8315 12936 l  8111 12681 l  8315 12427 l  8315 12427 l  p ef
0 lw 0.003 0.003 0.003 c 8315 12427 m  8923 12427 l  9128 12681 l  8923 12936 l 
8315 12936 l  8111 12681 l  8315 12427 l  8315 12427 l  pc
pum
8232 12903 t
0.230 0.226 0.210 c 362 0 m  312 -128 l  113 -128 l  63 0 l  1 0 l  180 -438 l 
247 -438 l  422 0 l  362 0 l  p
238 -319 m  235 -327 232 -335 229 -344 ct 226 -352 223 -360 221 -367 ct 218 -374 217 -380 215 -384 ct 
213 -389 213 -392 212 -393 ct 212 -392 211 -389 210 -384 ct 208 -379 206 -373 204 -366 ct 
201 -359 199 -352 196 -343 ct 193 -335 190 -326 187 -318 ct 131 -174 l  294 -174 l 
238 -319 l  p ef
751 -219 m  751 -177 747 -142 739 -113 ct 731 -84 721 -61 707 -44 ct 693 -26 677 -13 658 -5 ct 
640 2 620 6 599 6 ct 578 6 558 2 539 -5 ct 521 -13 505 -26 491 -43 ct 478 -61 467 -84 459 -113 ct 
452 -141 448 -177 448 -219 ct 448 -263 452 -300 459 -328 ct 467 -357 478 -380 492 -397 ct 
505 -415 521 -427 540 -434 ct 559 -441 579 -444 601 -444 ct 622 -444 641 -441 659 -434 ct 
678 -427 694 -415 707 -397 ct 721 -380 732 -357 740 -328 ct 747 -300 751 -263 751 -219 ct 
p
695 -219 m  695 -254 693 -283 688 -306 ct 684 -329 678 -347 670 -361 ct 662 -375 652 -384 641 -390 ct 
629 -396 616 -399 601 -399 ct 585 -399 571 -396 559 -390 ct 547 -384 537 -374 529 -361 ct 
521 -347 515 -329 510 -305 ct 506 -282 504 -254 504 -219 ct 504 -185 506 -157 511 -134 ct 
515 -111 521 -93 529 -79 ct 537 -65 547 -55 559 -49 ct 571 -43 584 -40 599 -40 ct 
614 -40 627 -43 639 -49 ct 651 -55 661 -65 669 -79 ct 677 -93 684 -111 688 -134 ct 
692 -157 695 -185 695 -219 ct p ef
pom

1.000 1.000 1.000 c 8315 13443 m  8923 13443 l  9128 13697 l  8923 13952 l 
8315 13952 l  8111 13697 l  8315 13443 l  8315 13443 l  p ef
0.003 0.003 0.003 c 8315 13443 m  8923 13443 l  9128 13697 l  8923 13952 l 
8315 13952 l  8111 13697 l  8315 13443 l  8315 13443 l  pc
pum
8232 13918 t
0.230 0.226 0.210 c 362 0 m  312 -128 l  113 -128 l  63 0 l  1 0 l  180 -438 l 
247 -438 l  422 0 l  362 0 l  p
238 -319 m  235 -327 232 -335 229 -344 ct 226 -352 223 -360 221 -367 ct 218 -374 217 -380 215 -384 ct 
213 -389 213 -392 212 -393 ct 212 -392 211 -389 210 -384 ct 208 -379 206 -373 204 -366 ct 
201 -359 199 -352 196 -343 ct 193 -335 190 -326 187 -318 ct 131 -174 l  294 -174 l 
238 -319 l  p ef
471 0 m  471 -47 l  583 -47 l  583 -384 l  484 -314 l  484 -366 l  587 -438 l 
639 -438 l  639 -47 l  745 -47 l  745 0 l  471 0 l  p ef
pom

1.000 1.000 1.000 c 8315 14459 m  8923 14459 l  9128 14713 l  8923 14968 l 
8315 14968 l  8111 14713 l  8315 14459 l  8315 14459 l  p ef
0.003 0.003 0.003 c 8315 14459 m  8923 14459 l  9128 14713 l  8923 14968 l 
8315 14968 l  8111 14713 l  8315 14459 l  8315 14459 l  pc
pum
8232 14934 t
0.230 0.226 0.210 c 362 0 m  312 -128 l  113 -128 l  63 0 l  1 0 l  180 -438 l 
247 -438 l  422 0 l  362 0 l  p
238 -319 m  235 -327 232 -335 229 -344 ct 226 -352 223 -360 221 -367 ct 218 -374 217 -380 215 -384 ct 
213 -389 213 -392 212 -393 ct 212 -392 211 -389 210 -384 ct 208 -379 206 -373 204 -366 ct 
201 -359 199 -352 196 -343 ct 193 -335 190 -326 187 -318 ct 131 -174 l  294 -174 l 
238 -319 l  p ef
455 0 m  455 -39 l  465 -64 478 -85 494 -104 ct 509 -122 525 -139 541 -154 ct 
558 -169 575 -183 591 -196 ct 608 -208 622 -221 636 -234 ct 649 -247 660 -260 668 -274 ct 
676 -289 680 -304 680 -322 ct 680 -335 678 -346 674 -355 ct 671 -364 665 -372 658 -379 ct 
651 -385 643 -390 633 -393 ct 623 -396 612 -398 600 -398 ct 589 -398 579 -396 569 -393 ct 
559 -390 550 -386 543 -379 ct 535 -373 529 -365 524 -356 ct 519 -347 516 -336 514 -324 ct 
457 -329 l  459 -345 464 -360 470 -374 ct 477 -388 487 -400 499 -410 ct 511 -421 525 -429 542 -435 ct 
559 -441 578 -444 600 -444 ct 622 -444 641 -441 658 -436 ct 675 -431 690 -423 701 -413 ct 
713 -403 722 -391 728 -376 ct 734 -361 737 -344 737 -324 ct 737 -309 735 -295 730 -282 ct 
724 -269 717 -256 708 -244 ct 700 -232 689 -221 678 -210 ct 666 -198 654 -187 642 -177 ct 
629 -166 616 -156 603 -145 ct 591 -135 579 -124 567 -114 ct 556 -103 546 -92 537 -81 ct 
528 -71 521 -59 516 -47 ct 744 -47 l  744 0 l  455 0 l  p ef
pom

1.000 1.000 1.000 c 8315 15475 m  8923 15475 l  9128 15729 l  8923 15984 l 
8315 15984 l  8111 15729 l  8315 15475 l  8315 15475 l  p ef
0.003 0.003 0.003 c 8315 15475 m  8923 15475 l  9128 15729 l  8923 15984 l 
8315 15984 l  8111 15729 l  8315 15475 l  8315 15475 l  pc
pum
8232 15950 t
0.230 0.226 0.210 c 390 -123 m  390 -101 386 -82 377 -67 ct 368 -51 357 -38 342 -28 ct 
327 -19 310 -11 291 -7 ct 271 -2 251 0 229 0 ct 52 0 l  52 -437 l  211 -437 l 
235 -437 257 -435 276 -431 ct 295 -427 311 -421 324 -412 ct 337 -404 347 -393 354 -379 ct 
361 -366 365 -350 365 -331 ct 365 -319 363 -307 360 -297 ct 356 -286 351 -276 344 -267 ct 
337 -258 328 -251 318 -245 ct 308 -238 295 -234 282 -230 ct 299 -228 315 -224 328 -218 ct 
342 -212 353 -205 362 -195 ct 371 -186 378 -175 383 -163 ct 388 -151 390 -137 390 -123 ct 
p
305 -324 m  305 -348 297 -365 281 -375 ct 265 -385 241 -390 211 -390 ct 111 -390 l 
111 -251 l  211 -251 l  228 -251 243 -253 255 -256 ct 267 -260 277 -265 284 -271 ct 
291 -277 297 -285 300 -294 ct 303 -303 305 -313 305 -324 ct p
330 -128 m  330 -142 328 -153 323 -163 ct 318 -173 310 -181 301 -187 ct 291 -193 280 -198 267 -201 ct 
253 -204 238 -205 222 -205 ct 111 -205 l  111 -47 l  226 -47 l  241 -47 255 -49 268 -51 ct 
281 -54 292 -58 301 -64 ct 310 -70 317 -79 322 -89 ct 328 -99 330 -112 330 -128 ct 
p ef
748 -121 m  748 -101 745 -83 738 -67 ct 732 -52 722 -38 710 -27 ct 697 -17 682 -8 663 -3 ct 
645 3 624 6 600 6 ct 573 6 550 3 532 -4 ct 513 -11 498 -20 486 -31 ct 474 -42 465 -54 459 -69 ct 
453 -83 449 -97 447 -113 ct 505 -118 l  507 -106 510 -96 514 -86 ct 518 -77 525 -68 532 -62 ct 
540 -55 549 -50 560 -46 ct 572 -42 585 -40 600 -40 ct 628 -40 650 -47 666 -61 ct 
682 -75 690 -96 690 -123 ct 690 -139 687 -152 680 -162 ct 672 -172 664 -179 653 -185 ct 
642 -190 631 -194 618 -196 ct 606 -198 594 -199 584 -199 ct 552 -199 l  552 -247 l 
582 -247 l  593 -247 604 -248 615 -250 ct 627 -252 637 -256 646 -262 ct 656 -268 664 -275 670 -285 ct 
676 -295 679 -307 679 -322 ct 679 -346 672 -364 658 -378 ct 644 -391 624 -398 597 -398 ct 
572 -398 552 -392 537 -379 ct 522 -367 513 -349 511 -326 ct 455 -330 l  457 -349 462 -366 470 -380 ct 
479 -395 489 -407 502 -416 ct 515 -425 529 -432 545 -437 ct 562 -442 579 -444 598 -444 ct 
622 -444 643 -441 661 -435 ct 678 -429 692 -420 704 -410 ct 715 -400 723 -387 728 -373 ct 
734 -359 736 -344 736 -328 ct 736 -315 734 -303 731 -292 ct 727 -281 722 -271 714 -262 ct 
707 -253 698 -246 686 -239 ct 675 -233 661 -228 645 -225 ct 645 -223 l  662 -222 678 -218 691 -211 ct 
704 -205 714 -198 723 -189 ct 731 -180 738 -169 742 -158 ct 746 -146 748 -134 748 -121 ct 
p ef
pom

1.000 1.000 1.000 c 9635 12935 m  9127 12935 l  9127 12427 l  10143 12427 l 
10143 12935 l  9635 12935 l  p ef
0.003 0.003 0.003 c 9635 12935 m  9127 12935 l  9127 12427 l  10143 12427 l 
10143 12935 l  9635 12935 l  pc
pum
9248 12903 t
0.230 0.226 0.210 c 362 0 m  312 -128 l  113 -128 l  63 0 l  1 0 l  180 -438 l 
247 -438 l  422 0 l  362 0 l  p
238 -319 m  235 -327 232 -335 229 -344 ct 226 -352 223 -360 221 -367 ct 218 -374 217 -380 215 -384 ct 
213 -389 213 -392 212 -393 ct 212 -392 211 -389 210 -384 ct 208 -379 206 -373 204 -366 ct 
201 -359 199 -352 196 -343 ct 193 -335 190 -326 187 -318 ct 131 -174 l  294 -174 l 
238 -319 l  p ef
751 -219 m  751 -177 747 -142 739 -113 ct 731 -84 721 -61 707 -44 ct 693 -26 677 -13 658 -5 ct 
640 2 620 6 599 6 ct 578 6 558 2 539 -5 ct 521 -13 505 -26 491 -43 ct 478 -61 467 -84 459 -113 ct 
452 -141 448 -177 448 -219 ct 448 -263 452 -300 459 -328 ct 467 -357 478 -380 492 -397 ct 
505 -415 521 -427 540 -434 ct 559 -441 579 -444 601 -444 ct 622 -444 641 -441 659 -434 ct 
678 -427 694 -415 707 -397 ct 721 -380 732 -357 740 -328 ct 747 -300 751 -263 751 -219 ct 
p
695 -219 m  695 -254 693 -283 688 -306 ct 684 -329 678 -347 670 -361 ct 662 -375 652 -384 641 -390 ct 
629 -396 616 -399 601 -399 ct 585 -399 571 -396 559 -390 ct 547 -384 537 -374 529 -361 ct 
521 -347 515 -329 510 -305 ct 506 -282 504 -254 504 -219 ct 504 -185 506 -157 511 -134 ct 
515 -111 521 -93 529 -79 ct 537 -65 547 -55 559 -49 ct 571 -43 584 -40 599 -40 ct 
614 -40 627 -43 639 -49 ct 651 -55 661 -65 669 -79 ct 677 -93 684 -111 688 -134 ct 
692 -157 695 -185 695 -219 ct p ef
pom

1.000 1.000 1.000 c 9635 13951 m  9127 13951 l  9127 13443 l  10143 13443 l 
10143 13951 l  9635 13951 l  p ef
0.003 0.003 0.003 c 9635 13951 m  9127 13951 l  9127 13443 l  10143 13443 l 
10143 13951 l  9635 13951 l  pc
pum
9248 13918 t
0.230 0.226 0.210 c 362 0 m  312 -128 l  113 -128 l  63 0 l  1 0 l  180 -438 l 
247 -438 l  422 0 l  362 0 l  p
238 -319 m  235 -327 232 -335 229 -344 ct 226 -352 223 -360 221 -367 ct 218 -374 217 -380 215 -384 ct 
213 -389 213 -392 212 -393 ct 212 -392 211 -389 210 -384 ct 208 -379 206 -373 204 -366 ct 
201 -359 199 -352 196 -343 ct 193 -335 190 -326 187 -318 ct 131 -174 l  294 -174 l 
238 -319 l  p ef
471 0 m  471 -47 l  583 -47 l  583 -384 l  484 -314 l  484 -366 l  587 -438 l 
639 -438 l  639 -47 l  745 -47 l  745 0 l  471 0 l  p ef
pom

1.000 1.000 1.000 c 9635 14967 m  9127 14967 l  9127 14459 l  10143 14459 l 
10143 14967 l  9635 14967 l  p ef
0.003 0.003 0.003 c 9635 14967 m  9127 14967 l  9127 14459 l  10143 14459 l 
10143 14967 l  9635 14967 l  pc
pum
9248 14934 t
0.230 0.226 0.210 c 362 0 m  312 -128 l  113 -128 l  63 0 l  1 0 l  180 -438 l 
247 -438 l  422 0 l  362 0 l  p
238 -319 m  235 -327 232 -335 229 -344 ct 226 -352 223 -360 221 -367 ct 218 -374 217 -380 215 -384 ct 
213 -389 213 -392 212 -393 ct 212 -392 211 -389 210 -384 ct 208 -379 206 -373 204 -366 ct 
201 -359 199 -352 196 -343 ct 193 -335 190 -326 187 -318 ct 131 -174 l  294 -174 l 
238 -319 l  p ef
455 0 m  455 -39 l  465 -64 478 -85 494 -104 ct 509 -122 525 -139 541 -154 ct 
558 -169 575 -183 591 -196 ct 608 -208 622 -221 636 -234 ct 649 -247 660 -260 668 -274 ct 
676 -289 680 -304 680 -322 ct 680 -335 678 -346 674 -355 ct 671 -364 665 -372 658 -379 ct 
651 -385 643 -390 633 -393 ct 623 -396 612 -398 600 -398 ct 589 -398 579 -396 569 -393 ct 
559 -390 550 -386 543 -379 ct 535 -373 529 -365 524 -356 ct 519 -347 516 -336 514 -324 ct 
457 -329 l  459 -345 464 -360 470 -374 ct 477 -388 487 -400 499 -410 ct 511 -421 525 -429 542 -435 ct 
559 -441 578 -444 600 -444 ct 622 -444 641 -441 658 -436 ct 675 -431 690 -423 701 -413 ct 
713 -403 722 -391 728 -376 ct 734 -361 737 -344 737 -324 ct 737 -309 735 -295 730 -282 ct 
724 -269 717 -256 708 -244 ct 700 -232 689 -221 678 -210 ct 666 -198 654 -187 642 -177 ct 
629 -166 616 -156 603 -145 ct 591 -135 579 -124 567 -114 ct 556 -103 546 -92 537 -81 ct 
528 -71 521 -59 516 -47 ct 744 -47 l  744 0 l  455 0 l  p ef
pom

1.000 1.000 1.000 c 9635 15983 m  9127 15983 l  9127 15475 l  10143 15475 l 
10143 15983 l  9635 15983 l  p ef
0.003 0.003 0.003 c 9635 15983 m  9127 15983 l  9127 15475 l  10143 15475 l 
10143 15983 l  9635 15983 l  pc
pum
9248 15950 t
0.230 0.226 0.210 c 390 -123 m  390 -101 386 -82 377 -67 ct 368 -51 357 -38 342 -28 ct 
327 -19 310 -11 291 -7 ct 271 -2 251 0 229 0 ct 52 0 l  52 -437 l  211 -437 l 
235 -437 257 -435 276 -431 ct 295 -427 311 -421 324 -412 ct 337 -404 347 -393 354 -379 ct 
361 -366 365 -350 365 -331 ct 365 -319 363 -307 360 -297 ct 356 -286 351 -276 344 -267 ct 
337 -258 328 -251 318 -245 ct 308 -238 295 -234 282 -230 ct 299 -228 315 -224 328 -218 ct 
342 -212 353 -205 362 -195 ct 371 -186 378 -175 383 -163 ct 388 -151 390 -137 390 -123 ct 
p
305 -324 m  305 -348 297 -365 281 -375 ct 265 -385 241 -390 211 -390 ct 111 -390 l 
111 -251 l  211 -251 l  228 -251 243 -253 255 -256 ct 267 -260 277 -265 284 -271 ct 
291 -277 297 -285 300 -294 ct 303 -303 305 -313 305 -324 ct p
330 -128 m  330 -142 328 -153 323 -163 ct 318 -173 310 -181 301 -187 ct 291 -193 280 -198 267 -201 ct 
253 -204 238 -205 222 -205 ct 111 -205 l  111 -47 l  226 -47 l  241 -47 255 -49 268 -51 ct 
281 -54 292 -58 301 -64 ct 310 -70 317 -79 322 -89 ct 328 -99 330 -112 330 -128 ct 
p ef
748 -121 m  748 -101 745 -83 738 -67 ct 732 -52 722 -38 710 -27 ct 697 -17 682 -8 663 -3 ct 
645 3 624 6 600 6 ct 573 6 550 3 532 -4 ct 513 -11 498 -20 486 -31 ct 474 -42 465 -54 459 -69 ct 
453 -83 449 -97 447 -113 ct 505 -118 l  507 -106 510 -96 514 -86 ct 518 -77 525 -68 532 -62 ct 
540 -55 549 -50 560 -46 ct 572 -42 585 -40 600 -40 ct 628 -40 650 -47 666 -61 ct 
682 -75 690 -96 690 -123 ct 690 -139 687 -152 680 -162 ct 672 -172 664 -179 653 -185 ct 
642 -190 631 -194 618 -196 ct 606 -198 594 -199 584 -199 ct 552 -199 l  552 -247 l 
582 -247 l  593 -247 604 -248 615 -250 ct 627 -252 637 -256 646 -262 ct 656 -268 664 -275 670 -285 ct 
676 -295 679 -307 679 -322 ct 679 -346 672 -364 658 -378 ct 644 -391 624 -398 597 -398 ct 
572 -398 552 -392 537 -379 ct 522 -367 513 -349 511 -326 ct 455 -330 l  457 -349 462 -366 470 -380 ct 
479 -395 489 -407 502 -416 ct 515 -425 529 -432 545 -437 ct 562 -442 579 -444 598 -444 ct 
622 -444 643 -441 661 -435 ct 678 -429 692 -420 704 -410 ct 715 -400 723 -387 728 -373 ct 
734 -359 736 -344 736 -328 ct 736 -315 734 -303 731 -292 ct 727 -281 722 -271 714 -262 ct 
707 -253 698 -246 686 -239 ct 675 -233 661 -228 645 -225 ct 645 -223 l  662 -222 678 -218 691 -211 ct 
704 -205 714 -198 723 -189 ct 731 -180 738 -169 742 -158 ct 746 -146 748 -134 748 -121 ct 
p ef
pom

0.753 0.753 0.753 c 11794 13951 m  10143 13951 l  10143 13443 l  13445 13443 l 
13445 13951 l  11794 13951 l  p ef
0.003 0.003 0.003 c 11794 13951 m  10143 13951 l  10143 13443 l  13445 13443 l 
13445 13951 l  11794 13951 l  pc

0.753 0.753 0.753 c 11794 15983 m  10143 15983 l  10143 15475 l  13445 15475 l 
13445 15983 l  11794 15983 l  p ef
0.003 0.003 0.003 c 11794 15983 m  10143 15983 l  10143 15475 l  13445 15475 l 
13445 15983 l  11794 15983 l  pc

1.000 1.000 1.000 c 10347 14459 m  10955 14459 l  11160 14713 l  10955 14968 l 
10347 14968 l  10143 14713 l  10347 14459 l  10347 14459 l  p ef
0.003 0.003 0.003 c 10347 14459 m  10955 14459 l  11160 14713 l  10955 14968 l 
10347 14968 l  10143 14713 l  10347 14459 l  10347 14459 l  pc
pum
10263 14934 t
0.230 0.226 0.210 c 390 -123 m  390 -101 386 -82 377 -67 ct 368 -51 357 -38 342 -28 ct 
327 -19 310 -11 291 -7 ct 271 -2 251 0 229 0 ct 52 0 l  52 -437 l  211 -437 l 
235 -437 257 -435 276 -431 ct 295 -427 311 -421 324 -412 ct 337 -404 347 -393 354 -379 ct 
361 -366 365 -350 365 -331 ct 365 -319 363 -307 360 -297 ct 356 -286 351 -276 344 -267 ct 
337 -258 328 -251 318 -245 ct 308 -238 295 -234 282 -230 ct 299 -228 315 -224 328 -218 ct 
342 -212 353 -205 362 -195 ct 371 -186 378 -175 383 -163 ct 388 -151 390 -137 390 -123 ct 
p
305 -324 m  305 -348 297 -365 281 -375 ct 265 -385 241 -390 211 -390 ct 111 -390 l 
111 -251 l  211 -251 l  228 -251 243 -253 255 -256 ct 267 -260 277 -265 284 -271 ct 
291 -277 297 -285 300 -294 ct 303 -303 305 -313 305 -324 ct p
330 -128 m  330 -142 328 -153 323 -163 ct 318 -173 310 -181 301 -187 ct 291 -193 280 -198 267 -201 ct 
253 -204 238 -205 222 -205 ct 111 -205 l  111 -47 l  226 -47 l  241 -47 255 -49 268 -51 ct 
281 -54 292 -58 301 -64 ct 310 -70 317 -79 322 -89 ct 328 -99 330 -112 330 -128 ct 
p ef
455 0 m  455 -39 l  465 -64 478 -85 494 -104 ct 509 -122 525 -139 541 -154 ct 
558 -169 575 -183 591 -196 ct 608 -208 622 -221 636 -234 ct 649 -247 660 -260 668 -274 ct 
676 -289 680 -304 680 -322 ct 680 -335 678 -346 674 -355 ct 671 -364 665 -372 658 -379 ct 
651 -385 643 -390 633 -393 ct 623 -396 612 -398 600 -398 ct 589 -398 579 -396 569 -393 ct 
559 -390 550 -386 543 -379 ct 535 -373 529 -365 524 -356 ct 519 -347 516 -336 514 -324 ct 
457 -329 l  459 -345 464 -360 470 -374 ct 477 -388 487 -400 499 -410 ct 511 -421 525 -429 542 -435 ct 
559 -441 578 -444 600 -444 ct 622 -444 641 -441 658 -436 ct 675 -431 690 -423 701 -413 ct 
713 -403 722 -391 728 -376 ct 734 -361 737 -344 737 -324 ct 737 -309 735 -295 730 -282 ct 
724 -269 717 -256 708 -244 ct 700 -232 689 -221 678 -210 ct 666 -198 654 -187 642 -177 ct 
629 -166 616 -156 603 -145 ct 591 -135 579 -124 567 -114 ct 556 -103 546 -92 537 -81 ct 
528 -71 521 -59 516 -47 ct 744 -47 l  744 0 l  455 0 l  p ef
pom

1.000 1.000 1.000 c 11667 14967 m  11159 14967 l  11159 14459 l  12175 14459 l 
12175 14967 l  11667 14967 l  p ef
0.003 0.003 0.003 c 11667 14967 m  11159 14967 l  11159 14459 l  12175 14459 l 
12175 14967 l  11667 14967 l  pc
pum
11279 14934 t
0.230 0.226 0.210 c 390 -123 m  390 -101 386 -82 377 -67 ct 368 -51 357 -38 342 -28 ct 
327 -19 310 -11 291 -7 ct 271 -2 251 0 229 0 ct 52 0 l  52 -437 l  211 -437 l 
235 -437 257 -435 276 -431 ct 295 -427 311 -421 324 -412 ct 337 -404 347 -393 354 -379 ct 
361 -366 365 -350 365 -331 ct 365 -319 363 -307 360 -297 ct 356 -286 351 -276 344 -267 ct 
337 -258 328 -251 318 -245 ct 308 -238 295 -234 282 -230 ct 299 -228 315 -224 328 -218 ct 
342 -212 353 -205 362 -195 ct 371 -186 378 -175 383 -163 ct 388 -151 390 -137 390 -123 ct 
p
305 -324 m  305 -348 297 -365 281 -375 ct 265 -385 241 -390 211 -390 ct 111 -390 l 
111 -251 l  211 -251 l  228 -251 243 -253 255 -256 ct 267 -260 277 -265 284 -271 ct 
291 -277 297 -285 300 -294 ct 303 -303 305 -313 305 -324 ct p
330 -128 m  330 -142 328 -153 323 -163 ct 318 -173 310 -181 301 -187 ct 291 -193 280 -198 267 -201 ct 
253 -204 238 -205 222 -205 ct 111 -205 l  111 -47 l  226 -47 l  241 -47 255 -49 268 -51 ct 
281 -54 292 -58 301 -64 ct 310 -70 317 -79 322 -89 ct 328 -99 330 -112 330 -128 ct 
p ef
455 0 m  455 -39 l  465 -64 478 -85 494 -104 ct 509 -122 525 -139 541 -154 ct 
558 -169 575 -183 591 -196 ct 608 -208 622 -221 636 -234 ct 649 -247 660 -260 668 -274 ct 
676 -289 680 -304 680 -322 ct 680 -335 678 -346 674 -355 ct 671 -364 665 -372 658 -379 ct 
651 -385 643 -390 633 -393 ct 623 -396 612 -398 600 -398 ct 589 -398 579 -396 569 -393 ct 
559 -390 550 -386 543 -379 ct 535 -373 529 -365 524 -356 ct 519 -347 516 -336 514 -324 ct 
457 -329 l  459 -345 464 -360 470 -374 ct 477 -388 487 -400 499 -410 ct 511 -421 525 -429 542 -435 ct 
559 -441 578 -444 600 -444 ct 622 -444 641 -441 658 -436 ct 675 -431 690 -423 701 -413 ct 
713 -403 722 -391 728 -376 ct 734 -361 737 -344 737 -324 ct 737 -309 735 -295 730 -282 ct 
724 -269 717 -256 708 -244 ct 700 -232 689 -221 678 -210 ct 666 -198 654 -187 642 -177 ct 
629 -166 616 -156 603 -145 ct 591 -135 579 -124 567 -114 ct 556 -103 546 -92 537 -81 ct 
528 -71 521 -59 516 -47 ct 744 -47 l  744 0 l  455 0 l  p ef
pom


pum
12425 17192 t
345 0 m  214 -191 l  80 0 l  14 0 l  180 -227 l  27 -437 l  92 -437 l 
214 -266 l  332 -437 l  398 -437 l  248 -229 l  410 0 l  345 0 l  p ef
pom
1 lw 0.003 0.003 0.003 c 12683 16491 m  12683 14057 l  ps
12683 13697 m  12533 14147 l  12833 14147 l  12683 13697 l  p ef
12683 16491 m  12683 16089 l  ps
12683 15729 m  12533 16179 l  12833 16179 l  12683 15729 l  p ef

pum
17251 17192 t
0.230 0.226 0.210 c 241 -181 m  241 0 l  182 0 l  182 -181 l  14 -438 l 
79 -438 l  212 -229 l  344 -438 l  410 -438 l  241 -181 l  p ef
pom
0.003 0.003 0.003 c 17509 16491 m  17509 14057 l  ps
17509 13697 m  17359 14147 l  17659 14147 l  17509 13697 l  p ef
17509 16491 m  17509 16089 l  ps
17509 15729 m  17359 16179 l  17659 16179 l  17509 15729 l  p ef
17509 16491 m  17509 15073 l  ps
17509 14713 m  17359 15163 l  17659 15163 l  17509 14713 l  p ef
12683 16491 m  12683 15073 l  ps
12683 14713 m  12533 15163 l  12833 15163 l  12683 14713 l  p ef
0 5488 t 
pom
count op_count sub {pop} repeat countdictstack dict_count sub {end} repeat b4_inc_state restore
%%PageTrailer
%%Trailer
%%EOF
