%!PS-Adobe-2.0 EPSF-2.0
%%Title: cdf.eps
%%Creator: gnuplot 4.6 patchlevel 4
%%CreationDate: Fri Sep 19 11:49:26 2014
%%DocumentFonts: (atend)
%%BoundingBox: 50 50 662 503
%%EndComments
%%BeginProlog
/gnudict 256 dict def
gnudict begin
%
% The following true/false flags may be edited by hand if desired.
% The unit line width and grayscale image gamma correction may also be changed.
%
/Color false def
/Blacktext false def
/Solid false def
/Dashlength 1 def
/Landscape false def
/Level1 false def
/Rounded false def
/ClipToBoundingBox false def
/SuppressPDFMark false def
/TransparentPatterns false def
/gnulinewidth 5.000 def
/userlinewidth gnulinewidth def
/Gamma 1.0 def
/BackgroundColor {-1.000 -1.000 -1.000} def
%
/vshift -166 def
/dl1 {
  10.0 Dashlength mul mul
  Rounded { currentlinewidth 0.75 mul sub dup 0 le { pop 0.01 } if } if
} def
/dl2 {
  10.0 Dashlength mul mul
  Rounded { currentlinewidth 0.75 mul add } if
} def
/hpt_ 31.5 def
/vpt_ 31.5 def
/hpt hpt_ def
/vpt vpt_ def
/doclip {
  ClipToBoundingBox {
    newpath 50 50 moveto 662 50 lineto 662 503 lineto 50 503 lineto closepath
    clip
  } if
} def
%
% Gnuplot Prolog Version 4.6 (September 2012)
%
%/SuppressPDFMark true def
%
/M {moveto} bind def
/L {lineto} bind def
/R {rmoveto} bind def
/V {rlineto} bind def
/N {newpath moveto} bind def
/Z {closepath} bind def
/C {setrgbcolor} bind def
/f {rlineto fill} bind def
/g {setgray} bind def
/Gshow {show} def   % May be redefined later in the file to support UTF-8
/vpt2 vpt 2 mul def
/hpt2 hpt 2 mul def
/Lshow {currentpoint stroke M 0 vshift R 
	Blacktext {gsave 0 setgray show grestore} {show} ifelse} def
/Rshow {currentpoint stroke M dup stringwidth pop neg vshift R
	Blacktext {gsave 0 setgray show grestore} {show} ifelse} def
/Cshow {currentpoint stroke M dup stringwidth pop -2 div vshift R 
	Blacktext {gsave 0 setgray show grestore} {show} ifelse} def
/UP {dup vpt_ mul /vpt exch def hpt_ mul /hpt exch def
  /hpt2 hpt 2 mul def /vpt2 vpt 2 mul def} def
/DL {Color {setrgbcolor Solid {pop []} if 0 setdash}
 {pop pop pop 0 setgray Solid {pop []} if 0 setdash} ifelse} def
/BL {stroke userlinewidth 2 mul setlinewidth
	Rounded {1 setlinejoin 1 setlinecap} if} def
/AL {stroke userlinewidth 2 div setlinewidth
	Rounded {1 setlinejoin 1 setlinecap} if} def
/UL {dup gnulinewidth mul /userlinewidth exch def
	dup 1 lt {pop 1} if 10 mul /udl exch def} def
/PL {stroke userlinewidth setlinewidth
	Rounded {1 setlinejoin 1 setlinecap} if} def
3.8 setmiterlimit
% Default Line colors
/LCw {1 1 1} def
/LCb {0 0 0} def
/LCa {0 0 0} def
/LC0 {1 0 0} def
/LC1 {0 1 0} def
/LC2 {0 0 1} def
/LC3 {1 0 1} def
/LC4 {0 1 1} def
/LC5 {1 1 0} def
/LC6 {0 0 0} def
/LC7 {1 0.3 0} def
/LC8 {0.5 0.5 0.5} def
% Default Line Types
/LTw {PL [] 1 setgray} def
/LTb {BL [] LCb DL} def
/LTa {AL [1 udl mul 2 udl mul] 0 setdash LCa setrgbcolor} def
/LT0 {PL [] LC0 DL} def
/LT1 {PL [4 dl1 2 dl2] LC1 DL} def
/LT2 {PL [2 dl1 3 dl2] LC2 DL} def
/LT3 {PL [1 dl1 1.5 dl2] LC3 DL} def
/LT4 {PL [6 dl1 2 dl2 1 dl1 2 dl2] LC4 DL} def
/LT5 {PL [3 dl1 3 dl2 1 dl1 3 dl2] LC5 DL} def
/LT6 {PL [2 dl1 2 dl2 2 dl1 6 dl2] LC6 DL} def
/LT7 {PL [1 dl1 2 dl2 6 dl1 2 dl2 1 dl1 2 dl2] LC7 DL} def
/LT8 {PL [2 dl1 2 dl2 2 dl1 2 dl2 2 dl1 2 dl2 2 dl1 4 dl2] LC8 DL} def
/Pnt {stroke [] 0 setdash gsave 1 setlinecap M 0 0 V stroke grestore} def
/Dia {stroke [] 0 setdash 2 copy vpt add M
  hpt neg vpt neg V hpt vpt neg V
  hpt vpt V hpt neg vpt V closepath stroke
  Pnt} def
/Pls {stroke [] 0 setdash vpt sub M 0 vpt2 V
  currentpoint stroke M
  hpt neg vpt neg R hpt2 0 V stroke
 } def
/Box {stroke [] 0 setdash 2 copy exch hpt sub exch vpt add M
  0 vpt2 neg V hpt2 0 V 0 vpt2 V
  hpt2 neg 0 V closepath stroke
  Pnt} def
/Crs {stroke [] 0 setdash exch hpt sub exch vpt add M
  hpt2 vpt2 neg V currentpoint stroke M
  hpt2 neg 0 R hpt2 vpt2 V stroke} def
/TriU {stroke [] 0 setdash 2 copy vpt 1.12 mul add M
  hpt neg vpt -1.62 mul V
  hpt 2 mul 0 V
  hpt neg vpt 1.62 mul V closepath stroke
  Pnt} def
/Star {2 copy Pls Crs} def
/BoxF {stroke [] 0 setdash exch hpt sub exch vpt add M
  0 vpt2 neg V hpt2 0 V 0 vpt2 V
  hpt2 neg 0 V closepath fill} def
/TriUF {stroke [] 0 setdash vpt 1.12 mul add M
  hpt neg vpt -1.62 mul V
  hpt 2 mul 0 V
  hpt neg vpt 1.62 mul V closepath fill} def
/TriD {stroke [] 0 setdash 2 copy vpt 1.12 mul sub M
  hpt neg vpt 1.62 mul V
  hpt 2 mul 0 V
  hpt neg vpt -1.62 mul V closepath stroke
  Pnt} def
/TriDF {stroke [] 0 setdash vpt 1.12 mul sub M
  hpt neg vpt 1.62 mul V
  hpt 2 mul 0 V
  hpt neg vpt -1.62 mul V closepath fill} def
/DiaF {stroke [] 0 setdash vpt add M
  hpt neg vpt neg V hpt vpt neg V
  hpt vpt V hpt neg vpt V closepath fill} def
/Pent {stroke [] 0 setdash 2 copy gsave
  translate 0 hpt M 4 {72 rotate 0 hpt L} repeat
  closepath stroke grestore Pnt} def
/PentF {stroke [] 0 setdash gsave
  translate 0 hpt M 4 {72 rotate 0 hpt L} repeat
  closepath fill grestore} def
/Circle {stroke [] 0 setdash 2 copy
  hpt 0 360 arc stroke Pnt} def
/CircleF {stroke [] 0 setdash hpt 0 360 arc fill} def
/C0 {BL [] 0 setdash 2 copy moveto vpt 90 450 arc} bind def
/C1 {BL [] 0 setdash 2 copy moveto
	2 copy vpt 0 90 arc closepath fill
	vpt 0 360 arc closepath} bind def
/C2 {BL [] 0 setdash 2 copy moveto
	2 copy vpt 90 180 arc closepath fill
	vpt 0 360 arc closepath} bind def
/C3 {BL [] 0 setdash 2 copy moveto
	2 copy vpt 0 180 arc closepath fill
	vpt 0 360 arc closepath} bind def
/C4 {BL [] 0 setdash 2 copy moveto
	2 copy vpt 180 270 arc closepath fill
	vpt 0 360 arc closepath} bind def
/C5 {BL [] 0 setdash 2 copy moveto
	2 copy vpt 0 90 arc
	2 copy moveto
	2 copy vpt 180 270 arc closepath fill
	vpt 0 360 arc} bind def
/C6 {BL [] 0 setdash 2 copy moveto
	2 copy vpt 90 270 arc closepath fill
	vpt 0 360 arc closepath} bind def
/C7 {BL [] 0 setdash 2 copy moveto
	2 copy vpt 0 270 arc closepath fill
	vpt 0 360 arc closepath} bind def
/C8 {BL [] 0 setdash 2 copy moveto
	2 copy vpt 270 360 arc closepath fill
	vpt 0 360 arc closepath} bind def
/C9 {BL [] 0 setdash 2 copy moveto
	2 copy vpt 270 450 arc closepath fill
	vpt 0 360 arc closepath} bind def
/C10 {BL [] 0 setdash 2 copy 2 copy moveto vpt 270 360 arc closepath fill
	2 copy moveto
	2 copy vpt 90 180 arc closepath fill
	vpt 0 360 arc closepath} bind def
/C11 {BL [] 0 setdash 2 copy moveto
	2 copy vpt 0 180 arc closepath fill
	2 copy moveto
	2 copy vpt 270 360 arc closepath fill
	vpt 0 360 arc closepath} bind def
/C12 {BL [] 0 setdash 2 copy moveto
	2 copy vpt 180 360 arc closepath fill
	vpt 0 360 arc closepath} bind def
/C13 {BL [] 0 setdash 2 copy moveto
	2 copy vpt 0 90 arc closepath fill
	2 copy moveto
	2 copy vpt 180 360 arc closepath fill
	vpt 0 360 arc closepath} bind def
/C14 {BL [] 0 setdash 2 copy moveto
	2 copy vpt 90 360 arc closepath fill
	vpt 0 360 arc} bind def
/C15 {BL [] 0 setdash 2 copy vpt 0 360 arc closepath fill
	vpt 0 360 arc closepath} bind def
/Rec {newpath 4 2 roll moveto 1 index 0 rlineto 0 exch rlineto
	neg 0 rlineto closepath} bind def
/Square {dup Rec} bind def
/Bsquare {vpt sub exch vpt sub exch vpt2 Square} bind def
/S0 {BL [] 0 setdash 2 copy moveto 0 vpt rlineto BL Bsquare} bind def
/S1 {BL [] 0 setdash 2 copy vpt Square fill Bsquare} bind def
/S2 {BL [] 0 setdash 2 copy exch vpt sub exch vpt Square fill Bsquare} bind def
/S3 {BL [] 0 setdash 2 copy exch vpt sub exch vpt2 vpt Rec fill Bsquare} bind def
/S4 {BL [] 0 setdash 2 copy exch vpt sub exch vpt sub vpt Square fill Bsquare} bind def
/S5 {BL [] 0 setdash 2 copy 2 copy vpt Square fill
	exch vpt sub exch vpt sub vpt Square fill Bsquare} bind def
/S6 {BL [] 0 setdash 2 copy exch vpt sub exch vpt sub vpt vpt2 Rec fill Bsquare} bind def
/S7 {BL [] 0 setdash 2 copy exch vpt sub exch vpt sub vpt vpt2 Rec fill
	2 copy vpt Square fill Bsquare} bind def
/S8 {BL [] 0 setdash 2 copy vpt sub vpt Square fill Bsquare} bind def
/S9 {BL [] 0 setdash 2 copy vpt sub vpt vpt2 Rec fill Bsquare} bind def
/S10 {BL [] 0 setdash 2 copy vpt sub vpt Square fill 2 copy exch vpt sub exch vpt Square fill
	Bsquare} bind def
/S11 {BL [] 0 setdash 2 copy vpt sub vpt Square fill 2 copy exch vpt sub exch vpt2 vpt Rec fill
	Bsquare} bind def
/S12 {BL [] 0 setdash 2 copy exch vpt sub exch vpt sub vpt2 vpt Rec fill Bsquare} bind def
/S13 {BL [] 0 setdash 2 copy exch vpt sub exch vpt sub vpt2 vpt Rec fill
	2 copy vpt Square fill Bsquare} bind def
/S14 {BL [] 0 setdash 2 copy exch vpt sub exch vpt sub vpt2 vpt Rec fill
	2 copy exch vpt sub exch vpt Square fill Bsquare} bind def
/S15 {BL [] 0 setdash 2 copy Bsquare fill Bsquare} bind def
/D0 {gsave translate 45 rotate 0 0 S0 stroke grestore} bind def
/D1 {gsave translate 45 rotate 0 0 S1 stroke grestore} bind def
/D2 {gsave translate 45 rotate 0 0 S2 stroke grestore} bind def
/D3 {gsave translate 45 rotate 0 0 S3 stroke grestore} bind def
/D4 {gsave translate 45 rotate 0 0 S4 stroke grestore} bind def
/D5 {gsave translate 45 rotate 0 0 S5 stroke grestore} bind def
/D6 {gsave translate 45 rotate 0 0 S6 stroke grestore} bind def
/D7 {gsave translate 45 rotate 0 0 S7 stroke grestore} bind def
/D8 {gsave translate 45 rotate 0 0 S8 stroke grestore} bind def
/D9 {gsave translate 45 rotate 0 0 S9 stroke grestore} bind def
/D10 {gsave translate 45 rotate 0 0 S10 stroke grestore} bind def
/D11 {gsave translate 45 rotate 0 0 S11 stroke grestore} bind def
/D12 {gsave translate 45 rotate 0 0 S12 stroke grestore} bind def
/D13 {gsave translate 45 rotate 0 0 S13 stroke grestore} bind def
/D14 {gsave translate 45 rotate 0 0 S14 stroke grestore} bind def
/D15 {gsave translate 45 rotate 0 0 S15 stroke grestore} bind def
/DiaE {stroke [] 0 setdash vpt add M
  hpt neg vpt neg V hpt vpt neg V
  hpt vpt V hpt neg vpt V closepath stroke} def
/BoxE {stroke [] 0 setdash exch hpt sub exch vpt add M
  0 vpt2 neg V hpt2 0 V 0 vpt2 V
  hpt2 neg 0 V closepath stroke} def
/TriUE {stroke [] 0 setdash vpt 1.12 mul add M
  hpt neg vpt -1.62 mul V
  hpt 2 mul 0 V
  hpt neg vpt 1.62 mul V closepath stroke} def
/TriDE {stroke [] 0 setdash vpt 1.12 mul sub M
  hpt neg vpt 1.62 mul V
  hpt 2 mul 0 V
  hpt neg vpt -1.62 mul V closepath stroke} def
/PentE {stroke [] 0 setdash gsave
  translate 0 hpt M 4 {72 rotate 0 hpt L} repeat
  closepath stroke grestore} def
/CircE {stroke [] 0 setdash 
  hpt 0 360 arc stroke} def
/Opaque {gsave closepath 1 setgray fill grestore 0 setgray closepath} def
/DiaW {stroke [] 0 setdash vpt add M
  hpt neg vpt neg V hpt vpt neg V
  hpt vpt V hpt neg vpt V Opaque stroke} def
/BoxW {stroke [] 0 setdash exch hpt sub exch vpt add M
  0 vpt2 neg V hpt2 0 V 0 vpt2 V
  hpt2 neg 0 V Opaque stroke} def
/TriUW {stroke [] 0 setdash vpt 1.12 mul add M
  hpt neg vpt -1.62 mul V
  hpt 2 mul 0 V
  hpt neg vpt 1.62 mul V Opaque stroke} def
/TriDW {stroke [] 0 setdash vpt 1.12 mul sub M
  hpt neg vpt 1.62 mul V
  hpt 2 mul 0 V
  hpt neg vpt -1.62 mul V Opaque stroke} def
/PentW {stroke [] 0 setdash gsave
  translate 0 hpt M 4 {72 rotate 0 hpt L} repeat
  Opaque stroke grestore} def
/CircW {stroke [] 0 setdash 
  hpt 0 360 arc Opaque stroke} def
/BoxFill {gsave Rec 1 setgray fill grestore} def
/Density {
  /Fillden exch def
  currentrgbcolor
  /ColB exch def /ColG exch def /ColR exch def
  /ColR ColR Fillden mul Fillden sub 1 add def
  /ColG ColG Fillden mul Fillden sub 1 add def
  /ColB ColB Fillden mul Fillden sub 1 add def
  ColR ColG ColB setrgbcolor} def
/BoxColFill {gsave Rec PolyFill} def
/PolyFill {gsave Density fill grestore grestore} def
/h {rlineto rlineto rlineto gsave closepath fill grestore} bind def
%
% PostScript Level 1 Pattern Fill routine for rectangles
% Usage: x y w h s a XX PatternFill
%	x,y = lower left corner of box to be filled
%	w,h = width and height of box
%	  a = angle in degrees between lines and x-axis
%	 XX = 0/1 for no/yes cross-hatch
%
/PatternFill {gsave /PFa [ 9 2 roll ] def
  PFa 0 get PFa 2 get 2 div add PFa 1 get PFa 3 get 2 div add translate
  PFa 2 get -2 div PFa 3 get -2 div PFa 2 get PFa 3 get Rec
  TransparentPatterns {} {gsave 1 setgray fill grestore} ifelse
  clip
  currentlinewidth 0.5 mul setlinewidth
  /PFs PFa 2 get dup mul PFa 3 get dup mul add sqrt def
  0 0 M PFa 5 get rotate PFs -2 div dup translate
  0 1 PFs PFa 4 get div 1 add floor cvi
	{PFa 4 get mul 0 M 0 PFs V} for
  0 PFa 6 get ne {
	0 1 PFs PFa 4 get div 1 add floor cvi
	{PFa 4 get mul 0 2 1 roll M PFs 0 V} for
 } if
  stroke grestore} def
%
/languagelevel where
 {pop languagelevel} {1} ifelse
 2 lt
	{/InterpretLevel1 true def}
	{/InterpretLevel1 Level1 def}
 ifelse
%
% PostScript level 2 pattern fill definitions
%
/Level2PatternFill {
/Tile8x8 {/PaintType 2 /PatternType 1 /TilingType 1 /BBox [0 0 8 8] /XStep 8 /YStep 8}
	bind def
/KeepColor {currentrgbcolor [/Pattern /DeviceRGB] setcolorspace} bind def
<< Tile8x8
 /PaintProc {0.5 setlinewidth pop 0 0 M 8 8 L 0 8 M 8 0 L stroke} 
>> matrix makepattern
/Pat1 exch def
<< Tile8x8
 /PaintProc {0.5 setlinewidth pop 0 0 M 8 8 L 0 8 M 8 0 L stroke
	0 4 M 4 8 L 8 4 L 4 0 L 0 4 L stroke}
>> matrix makepattern
/Pat2 exch def
<< Tile8x8
 /PaintProc {0.5 setlinewidth pop 0 0 M 0 8 L
	8 8 L 8 0 L 0 0 L fill}
>> matrix makepattern
/Pat3 exch def
<< Tile8x8
 /PaintProc {0.5 setlinewidth pop -4 8 M 8 -4 L
	0 12 M 12 0 L stroke}
>> matrix makepattern
/Pat4 exch def
<< Tile8x8
 /PaintProc {0.5 setlinewidth pop -4 0 M 8 12 L
	0 -4 M 12 8 L stroke}
>> matrix makepattern
/Pat5 exch def
<< Tile8x8
 /PaintProc {0.5 setlinewidth pop -2 8 M 4 -4 L
	0 12 M 8 -4 L 4 12 M 10 0 L stroke}
>> matrix makepattern
/Pat6 exch def
<< Tile8x8
 /PaintProc {0.5 setlinewidth pop -2 0 M 4 12 L
	0 -4 M 8 12 L 4 -4 M 10 8 L stroke}
>> matrix makepattern
/Pat7 exch def
<< Tile8x8
 /PaintProc {0.5 setlinewidth pop 8 -2 M -4 4 L
	12 0 M -4 8 L 12 4 M 0 10 L stroke}
>> matrix makepattern
/Pat8 exch def
<< Tile8x8
 /PaintProc {0.5 setlinewidth pop 0 -2 M 12 4 L
	-4 0 M 12 8 L -4 4 M 8 10 L stroke}
>> matrix makepattern
/Pat9 exch def
/Pattern1 {PatternBgnd KeepColor Pat1 setpattern} bind def
/Pattern2 {PatternBgnd KeepColor Pat2 setpattern} bind def
/Pattern3 {PatternBgnd KeepColor Pat3 setpattern} bind def
/Pattern4 {PatternBgnd KeepColor Landscape {Pat5} {Pat4} ifelse setpattern} bind def
/Pattern5 {PatternBgnd KeepColor Landscape {Pat4} {Pat5} ifelse setpattern} bind def
/Pattern6 {PatternBgnd KeepColor Landscape {Pat9} {Pat6} ifelse setpattern} bind def
/Pattern7 {PatternBgnd KeepColor Landscape {Pat8} {Pat7} ifelse setpattern} bind def
} def
%
%
%End of PostScript Level 2 code
%
/PatternBgnd {
  TransparentPatterns {} {gsave 1 setgray fill grestore} ifelse
} def
%
% Substitute for Level 2 pattern fill codes with
% grayscale if Level 2 support is not selected.
%
/Level1PatternFill {
/Pattern1 {0.250 Density} bind def
/Pattern2 {0.500 Density} bind def
/Pattern3 {0.750 Density} bind def
/Pattern4 {0.125 Density} bind def
/Pattern5 {0.375 Density} bind def
/Pattern6 {0.625 Density} bind def
/Pattern7 {0.875 Density} bind def
} def
%
% Now test for support of Level 2 code
%
Level1 {Level1PatternFill} {Level2PatternFill} ifelse
%
/Symbol-Oblique /Symbol findfont [1 0 .167 1 0 0] makefont
dup length dict begin {1 index /FID eq {pop pop} {def} ifelse} forall
currentdict end definefont pop
/MFshow {
   { dup 5 get 3 ge
     { 5 get 3 eq {gsave} {grestore} ifelse }
     {dup dup 0 get findfont exch 1 get scalefont setfont
     [ currentpoint ] exch dup 2 get 0 exch R dup 5 get 2 ne {dup dup 6
     get exch 4 get {Gshow} {stringwidth pop 0 R} ifelse }if dup 5 get 0 eq
     {dup 3 get {2 get neg 0 exch R pop} {pop aload pop M} ifelse} {dup 5
     get 1 eq {dup 2 get exch dup 3 get exch 6 get stringwidth pop -2 div
     dup 0 R} {dup 6 get stringwidth pop -2 div 0 R 6 get
     show 2 index {aload pop M neg 3 -1 roll neg R pop pop} {pop pop pop
     pop aload pop M} ifelse }ifelse }ifelse }
     ifelse }
   forall} def
/Gswidth {dup type /stringtype eq {stringwidth} {pop (n) stringwidth} ifelse} def
/MFwidth {0 exch { dup 5 get 3 ge { 5 get 3 eq { 0 } { pop } ifelse }
 {dup 3 get{dup dup 0 get findfont exch 1 get scalefont setfont
     6 get Gswidth pop add} {pop} ifelse} ifelse} forall} def
/MLshow { currentpoint stroke M
  0 exch R
  Blacktext {gsave 0 setgray MFshow grestore} {MFshow} ifelse } bind def
/MRshow { currentpoint stroke M
  exch dup MFwidth neg 3 -1 roll R
  Blacktext {gsave 0 setgray MFshow grestore} {MFshow} ifelse } bind def
/MCshow { currentpoint stroke M
  exch dup MFwidth -2 div 3 -1 roll R
  Blacktext {gsave 0 setgray MFshow grestore} {MFshow} ifelse } bind def
/XYsave    { [( ) 1 2 true false 3 ()] } bind def
/XYrestore { [( ) 1 2 true false 4 ()] } bind def
Level1 SuppressPDFMark or 
{} {
/SDict 10 dict def
systemdict /pdfmark known not {
  userdict /pdfmark systemdict /cleartomark get put
} if
SDict begin [
  /Title (cdf.eps)
  /Subject (gnuplot plot)
  /Creator (gnuplot 4.6 patchlevel 4)
  /Author (jlee)
%  /Producer (gnuplot)
%  /Keywords ()
  /CreationDate (Fri Sep 19 11:49:26 2014)
  /DOCINFO pdfmark
end
} ifelse
end
%%EndProlog
%%Page: 1 1
gnudict begin
gsave
doclip
50 50 translate
0.050 0.050 scale
0 setgray
newpath
(Arial) findfont 500 scalefont setfont
BackgroundColor 0 lt 3 1 roll 0 lt exch 0 lt or or not {BackgroundColor C 1.000 0 0 12240.00 9072.00 BoxColFill} if
1.000 UL
LTb
1200 1600 M
63 0 V
10075 0 R
-63 0 V
stroke
900 1600 M
[ [(Arial) 500.0 0.0 true true 0 ( 0)]
] -166.7 MRshow
1.000 UL
LTb
1200 2974 M
63 0 V
10075 0 R
-63 0 V
stroke
900 2974 M
[ [(Arial) 500.0 0.0 true true 0 ( 0.2)]
] -166.7 MRshow
1.000 UL
LTb
1200 4348 M
63 0 V
10075 0 R
-63 0 V
stroke
900 4348 M
[ [(Arial) 500.0 0.0 true true 0 ( 0.4)]
] -166.7 MRshow
1.000 UL
LTb
1200 5722 M
63 0 V
10075 0 R
-63 0 V
stroke
900 5722 M
[ [(Arial) 500.0 0.0 true true 0 ( 0.6)]
] -166.7 MRshow
1.000 UL
LTb
1200 7096 M
63 0 V
10075 0 R
-63 0 V
stroke
900 7096 M
[ [(Arial) 500.0 0.0 true true 0 ( 0.8)]
] -166.7 MRshow
1.000 UL
LTb
1200 8470 M
63 0 V
10075 0 R
-63 0 V
stroke
900 8470 M
[ [(Arial) 500.0 0.0 true true 0 ( 1)]
] -166.7 MRshow
1.000 UL
LTb
1200 1600 M
0 63 V
0 6807 R
0 -63 V
stroke
1200 1100 M
[ [(Arial) 500.0 0.0 true true 0 ( 0)]
] -166.7 MCshow
1.000 UL
LTb
2648 1600 M
0 63 V
0 6807 R
0 -63 V
stroke
2648 1100 M
[ [(Arial) 500.0 0.0 true true 0 ( 20)]
] -166.7 MCshow
1.000 UL
LTb
4097 1600 M
0 63 V
0 6807 R
0 -63 V
stroke
4097 1100 M
[ [(Arial) 500.0 0.0 true true 0 ( 40)]
] -166.7 MCshow
1.000 UL
LTb
5545 1600 M
0 63 V
0 6807 R
0 -63 V
stroke
5545 1100 M
[ [(Arial) 500.0 0.0 true true 0 ( 60)]
] -166.7 MCshow
1.000 UL
LTb
6993 1600 M
0 63 V
0 6807 R
0 -63 V
stroke
6993 1100 M
[ [(Arial) 500.0 0.0 true true 0 ( 80)]
] -166.7 MCshow
1.000 UL
LTb
8441 1600 M
0 63 V
0 6807 R
0 -63 V
stroke
8441 1100 M
[ [(Arial) 500.0 0.0 true true 0 ( 100)]
] -166.7 MCshow
1.000 UL
LTb
9890 1600 M
0 63 V
0 6807 R
0 -63 V
stroke
9890 1100 M
[ [(Arial) 500.0 0.0 true true 0 ( 120)]
] -166.7 MCshow
1.000 UL
LTb
11338 1600 M
0 63 V
0 6807 R
0 -63 V
stroke
11338 1100 M
[ [(Arial) 500.0 0.0 true true 0 ( 140)]
] -166.7 MCshow
1.000 UL
LTb
1.000 UL
LTb
1200 8470 N
0 -6870 V
10138 0 V
0 6870 V
-10138 0 V
Z stroke
LCb setrgbcolor
-550 5035 M
currentpoint gsave translate -270 rotate 0 0 moveto
[ [(Arial) 500.0 0.0 true true 0 (Cumulative distribution function)]
] -166.7 MCshow
grestore
LTb
LCb setrgbcolor
6269 350 M
[ [(Arial) 500.0 0.0 true true 0 (Response time \(msec\))]
] -166.7 MCshow
LTb
1.000 UP
1.000 UL
LTb
% Begin plot #1
3.000 UP
3.000 UL
LT0
LCb setrgbcolor
9175 8157 M
[ [(Arial) 500.0 0.0 true true 0 (WOW)]
] -166.7 MRshow
LT0
9475 8157 M
1263 0 V
1200 1600 M
1 7 V
0 1083 V
1 1652 V
1 0 V
1 0 V
1 0 V
1 0 V
1 0 V
2 0 V
1 838 V
2 0 V
1 0 V
1 0 V
3 0 V
2 0 V
2 333 V
3 0 V
3 0 V
2 2 V
4 121 V
4 0 V
4 53 V
5 0 V
5 9 V
6 0 V
6 16 V
7 3 V
8 4 V
8 259 V
9 21 V
11 18 V
11 7 V
13 9 V
14 14 V
15 25 V
17 227 V
19 25 V
21 11 V
23 12 V
26 174 V
28 30 V
31 128 V
34 21 V
38 29 V
42 78 V
46 69 V
51 11 V
56 81 V
62 55 V
69 57 V
76 48 V
83 147 V
93 103 V
102 114 V
113 133 V
125 128 V
138 110 V
152 101 V
168 121 V
186 90 V
205 48 V
227 48 V
250 48 V
277 37 V
305 27 V
338 25 V
373 16 V
411 14 V
455 12 V
503 4 V
555 7 V
613 2 V
677 3 V
748 0 V
826 2 V
913 0 V
504 0 V
1200 1600 Circle
1201 1607 Circle
1201 2690 Circle
1202 4342 Circle
1203 4342 Circle
1204 4342 Circle
1204 4342 Circle
1205 4342 Circle
1206 4342 Circle
1207 4342 Circle
1207 4342 Circle
1209 4342 Circle
1210 5180 Circle
1212 5180 Circle
1213 5180 Circle
1214 5180 Circle
1217 5180 Circle
1219 5180 Circle
1221 5513 Circle
1224 5513 Circle
1227 5513 Circle
1229 5515 Circle
1233 5636 Circle
1237 5636 Circle
1241 5689 Circle
1246 5689 Circle
1251 5698 Circle
1257 5698 Circle
1263 5714 Circle
1270 5717 Circle
1278 5721 Circle
1286 5980 Circle
1295 6001 Circle
1306 6019 Circle
1317 6026 Circle
1330 6035 Circle
1344 6049 Circle
1359 6074 Circle
1376 6301 Circle
1395 6326 Circle
1416 6337 Circle
1439 6349 Circle
1465 6523 Circle
1493 6553 Circle
1524 6681 Circle
1558 6702 Circle
1596 6731 Circle
1638 6809 Circle
1684 6878 Circle
1735 6889 Circle
1791 6970 Circle
1853 7025 Circle
1922 7082 Circle
1998 7130 Circle
2081 7277 Circle
2174 7380 Circle
2276 7494 Circle
2389 7627 Circle
2514 7755 Circle
2652 7865 Circle
2804 7966 Circle
2972 8087 Circle
3158 8177 Circle
3363 8225 Circle
3590 8273 Circle
3840 8321 Circle
4117 8358 Circle
4422 8385 Circle
4760 8410 Circle
5133 8426 Circle
5544 8440 Circle
5999 8452 Circle
6502 8456 Circle
7057 8463 Circle
7670 8465 Circle
8347 8468 Circle
9095 8468 Circle
9921 8470 Circle
10834 8470 Circle
10106 8157 Circle
% End plot #1
% Begin plot #2
3.000 UP
3.000 UL
LT1
LCb setrgbcolor
9175 7657 M
[ [(Arial) 500.0 0.0 true true 0 (SIW)]
] -166.7 MRshow
LT1
9475 7657 M
1263 0 V
1200 1600 M
1 0 V
1 0 V
1 0 V
1 0 V
1 0 V
1 0 V
1 0 V
2 0 V
1 813 V
2 649 V
1 549 V
1 0 V
3 9 V
2 3 V
2 330 V
3 265 V
3 179 V
2 2 V
4 129 V
4 174 V
4 57 V
5 9 V
5 76 V
6 11 V
6 62 V
7 23 V
8 21 V
8 249 V
9 23 V
11 193 V
11 183 V
13 48 V
14 41 V
15 78 V
17 257 V
19 174 V
21 64 V
23 57 V
26 232 V
28 71 V
31 146 V
34 69 V
38 78 V
42 128 V
46 160 V
51 74 V
56 126 V
62 87 V
69 94 V
76 80 V
83 94 V
93 71 V
102 96 V
113 71 V
125 69 V
138 71 V
152 52 V
168 53 V
186 44 V
205 23 V
227 20 V
250 23 V
277 14 V
305 18 V
338 7 V
373 21 V
411 11 V
455 7 V
503 5 V
555 4 V
613 9 V
677 9 V
748 0 V
826 3 V
913 2 V
504 0 V
1200 1600 Crs
1201 1600 Crs
1201 1600 Crs
1202 1600 Crs
1203 1600 Crs
1204 1600 Crs
1204 1600 Crs
1205 1600 Crs
1206 1600 Crs
1207 1600 Crs
1207 1600 Crs
1209 1600 Crs
1210 2413 Crs
1212 3062 Crs
1213 3611 Crs
1214 3611 Crs
1217 3620 Crs
1219 3623 Crs
1221 3953 Crs
1224 4218 Crs
1227 4397 Crs
1229 4399 Crs
1233 4528 Crs
1237 4702 Crs
1241 4759 Crs
1246 4768 Crs
1251 4844 Crs
1257 4855 Crs
1263 4917 Crs
1270 4940 Crs
1278 4961 Crs
1286 5210 Crs
1295 5233 Crs
1306 5426 Crs
1317 5609 Crs
1330 5657 Crs
1344 5698 Crs
1359 5776 Crs
1376 6033 Crs
1395 6207 Crs
1416 6271 Crs
1439 6328 Crs
1465 6560 Crs
1493 6631 Crs
1524 6777 Crs
1558 6846 Crs
1596 6924 Crs
1638 7052 Crs
1684 7212 Crs
1735 7286 Crs
1791 7412 Crs
1853 7499 Crs
1922 7593 Crs
1998 7673 Crs
2081 7767 Crs
2174 7838 Crs
2276 7934 Crs
2389 8005 Crs
2514 8074 Crs
2652 8145 Crs
2804 8197 Crs
2972 8250 Crs
3158 8294 Crs
3363 8317 Crs
3590 8337 Crs
3840 8360 Crs
4117 8374 Crs
4422 8392 Crs
4760 8399 Crs
5133 8420 Crs
5544 8431 Crs
5999 8438 Crs
6502 8443 Crs
7057 8447 Crs
7670 8456 Crs
8347 8465 Crs
9095 8465 Crs
9921 8468 Crs
10834 8470 Crs
10106 7657 Crs
% End plot #2
1.000 UL
LTb
1200 8470 N
0 -6870 V
10138 0 V
0 6870 V
-10138 0 V
Z stroke
1.000 UP
1.000 UL
LTb
1.000 UL
LTb
4800 3016 M
63 0 V
6475 0 R
-63 0 V
stroke
4500 3016 M
[ [(Arial) 500.0 0.0 true true 0 ( 0.98)]
] -166.7 MRshow
1.000 UL
LTb
4800 3876 M
63 0 V
6475 0 R
-63 0 V
stroke
4500 3876 M
[ [(Arial) 500.0 0.0 true true 0 ( 0.985)]
] -166.7 MRshow
1.000 UL
LTb
4800 4736 M
63 0 V
6475 0 R
-63 0 V
stroke
4500 4736 M
[ [(Arial) 500.0 0.0 true true 0 ( 0.99)]
] -166.7 MRshow
1.000 UL
LTb
4800 5595 M
63 0 V
6475 0 R
-63 0 V
stroke
4500 5595 M
[ [(Arial) 500.0 0.0 true true 0 ( 0.995)]
] -166.7 MRshow
1.000 UL
LTb
4800 6455 M
63 0 V
6475 0 R
-63 0 V
stroke
4500 6455 M
[ [(Arial) 500.0 0.0 true true 0 ( 1)]
] -166.7 MRshow
1.000 UL
LTb
4800 3016 M
0 63 V
0 3376 R
0 -63 V
stroke
4800 2516 M
[ [(Arial) 500.0 0.0 true true 0 ( 0)]
] -166.7 MCshow
1.000 UL
LTb
5734 3016 M
0 63 V
0 3376 R
0 -63 V
stroke
5734 2516 M
[ [(Arial) 500.0 0.0 true true 0 ( 20)]
] -166.7 MCshow
1.000 UL
LTb
6668 3016 M
0 63 V
0 3376 R
0 -63 V
stroke
6668 2516 M
[ [(Arial) 500.0 0.0 true true 0 ( 40)]
] -166.7 MCshow
1.000 UL
LTb
7602 3016 M
0 63 V
0 3376 R
0 -63 V
stroke
7602 2516 M
[ [(Arial) 500.0 0.0 true true 0 ( 60)]
] -166.7 MCshow
1.000 UL
LTb
8536 3016 M
0 63 V
0 3376 R
0 -63 V
stroke
8536 2516 M
[ [(Arial) 500.0 0.0 true true 0 ( 80)]
] -166.7 MCshow
1.000 UL
LTb
9470 3016 M
0 63 V
0 3376 R
0 -63 V
stroke
9470 2516 M
[ [(Arial) 500.0 0.0 true true 0 ( 100)]
] -166.7 MCshow
1.000 UL
LTb
10404 3016 M
0 63 V
0 3376 R
0 -63 V
stroke
10404 2516 M
[ [(Arial) 500.0 0.0 true true 0 ( 120)]
] -166.7 MCshow
1.000 UL
LTb
11338 3016 M
0 63 V
0 3376 R
0 -63 V
stroke
11338 2516 M
[ [(Arial) 500.0 0.0 true true 0 ( 140)]
] -166.7 MCshow
1.000 UL
LTb
1.000 UL
LTb
4800 6455 N
0 -3439 V
6538 0 V
0 3439 V
-6538 0 V
Z stroke
LCb setrgbcolor
LTb
LCb setrgbcolor
LTb
1.000 UP
1.000 UL
LTb
% Begin plot #1
3.000 UP
3.000 UL
LT0
6559 3016 M
122 630 V
197 688 V
218 630 V
240 402 V
266 344 V
293 286 V
324 115 V
358 172 V
395 57 V
437 58 V
483 0 V
532 57 V
589 0 V
325 0 V
6681 3646 Circle
6878 4334 Circle
7096 4964 Circle
7336 5366 Circle
7602 5710 Circle
7895 5996 Circle
8219 6111 Circle
8577 6283 Circle
8972 6340 Circle
9409 6398 Circle
9892 6398 Circle
10424 6455 Circle
11013 6455 Circle
% End plot #1
% Begin plot #2
3.000 UP
3.000 UL
LT1
6309 3016 M
32 113 V
162 574 V
178 344 V
197 459 V
218 172 V
240 516 V
266 286 V
293 172 V
324 115 V
358 115 V
395 229 V
437 229 V
483 0 V
532 58 V
589 57 V
325 0 V
6341 3129 Crs
6503 3703 Crs
6681 4047 Crs
6878 4506 Crs
7096 4678 Crs
7336 5194 Crs
7602 5480 Crs
7895 5652 Crs
8219 5767 Crs
8577 5882 Crs
8972 6111 Crs
9409 6340 Crs
9892 6340 Crs
10424 6398 Crs
11013 6455 Crs
% End plot #2
1.000 UL
LTb
4800 6455 N
0 -3439 V
6538 0 V
0 3439 V
-6538 0 V
Z stroke
1.000 UP
1.000 UL
LTb
stroke
grestore
end
showpage
%%Trailer
%%DocumentFonts: Arial
