\relax 
\citation{wow,stow}
\citation{wow,stow}
\citation{haining:2000}
\citation{wow}
\citation{wow}
\@writefile{toc}{\contentsline {section}{\numberline {1}Introduction}{1}}
\newlabel{sec:intro}{{1}{1}}
\@writefile{toc}{\contentsline {section}{\numberline {2}Background}{1}}
\newlabel{sec:back}{{2}{1}}
\citation{wow}
\citation{stow}
\citation{wow}
\citation{stow}
\citation{wow}
\citation{destage_algorithms_for_disk}
\citation{wow}
\citation{stow}
\citation{msr_ssd}
\@writefile{lof}{\contentsline {figure}{\numberline {1}{\ignorespaces \relax \fontsize  {8.5}{10pt}\selectfont  A typical RAID controller architecture employing a write cache in WOW\nobreakspace  {}\cite  {wow}. }}{2}}
\newlabel{fig:write_cache}{{1}{2}}
\@writefile{toc}{\contentsline {section}{\numberline {3}SSD-aware Write Cache Design}{2}}
\newlabel{sec:wb}{{3}{2}}
\@writefile{lof}{\contentsline {figure}{\numberline {2}{\ignorespaces \relax \fontsize  {8.5}{10pt}\selectfont  Timing diagram of processing write requests A and B and read requests X and Y in an array of 4 SSDs.}}{2}}
\newlabel{fig:example}{{2}{2}}
\citation{msr_ssd}
\citation{6416101}
\citation{youngjae:pdsw10}
\citation{youngjae:pdsw10}
\citation{Narayanan:2009:MSS:1519065.1519081}
\citation{6416101}
\@writefile{lof}{\contentsline {figure}{\numberline {3}{\ignorespaces  \relax \fontsize  {8.5}{10pt}\selectfont  An architectural overview of SIW. }}{3}}
\newlabel{fig:proposed}{{3}{3}}
\@writefile{toc}{\contentsline {section}{\numberline {4}Evaluation}{3}}
\newlabel{sec:expr}{{4}{3}}
\@writefile{lot}{\contentsline {table}{\numberline {1}{\ignorespaces  {\relax \fontsize  {8.5}{10pt}\selectfont  Varying workload parameters. {W(R, I, W) denotes request size R (KB), inter-arrival time I (ms), and write percentage W (\%).}}}}{3}}
\newlabel{tab:workload_param}{{1}{3}}
\bibstyle{IEEEtran}
\bibdata{IEEEabrv,flash-ref}
\bibcite{wow}{1}
\bibcite{stow}{2}
\bibcite{haining:2000}{3}
\bibcite{destage_algorithms_for_disk}{4}
\bibcite{msr_ssd}{5}
\bibcite{6416101}{6}
\bibcite{youngjae:pdsw10}{7}
\bibcite{Narayanan:2009:MSS:1519065.1519081}{8}
\@writefile{lof}{\contentsline {figure}{\numberline {4}{\ignorespaces  \relax \fontsize  {8.5}{10pt}\selectfont  (a) compares the performance of WOW and SIW for HPC and Exchange workloads. (b) compares the placement of write caches. (c) and (d) show the probability of GC synchronization for and RAID-0 and RAID-5 respectively. For (b),(c) and (d) we used HPC workloads.}}{4}}
\newlabel{fig:hpc}{{4}{4}}
\@writefile{lof}{\contentsline {figure}{\numberline {5}{\ignorespaces \relax \fontsize  {8.5}{10pt}\selectfont  Performance comparison for synthetic workloads.}}{4}}
\newlabel{fig:response}{{5}{4}}
\@writefile{toc}{\contentsline {section}{\numberline {5}Conclusion}{4}}
\newlabel{sec:conc}{{5}{4}}
\@writefile{toc}{\contentsline {section}{References}{4}}
