This is BibTeX, Version 0.99d (TeX Live 2012)
Capacity: max_strings=35307, hash_size=35307, hash_prime=30011
The top-level auxiliary file: paper.aux
The style file: IEEEtran.bst
Reallocated singl_function (elt_size=4) to 100 items from 50.
Reallocated singl_function (elt_size=4) to 100 items from 50.
Reallocated singl_function (elt_size=4) to 100 items from 50.
Reallocated wiz_functions (elt_size=4) to 6000 items from 3000.
Reallocated singl_function (elt_size=4) to 100 items from 50.
Database file #1: IEEEabrv.bib
Database file #2: flash-ref.bib
-- IEEEtran.bst version 1.13 (2008/09/30) by Michael Shell.
-- http://www.michaelshell.org/tex/ieeetran/bibtex/
-- See the "IEEEtran_bst_HOWTO.pdf" manual for usage information.
Warning--empty booktitle in wow
Warning--empty year in wow
Warning--empty booktitle in stow
Warning--empty year in stow
Warning--empty booktitle in msr_ssd
Warning--empty year in msr_ssd
Warning--empty booktitle in youngjae:pdsw10
Warning--empty year in youngjae:pdsw10
Warning--empty booktitle in Narayanan:2009:MSS:1519065.1519081
Warning--empty year in Narayanan:2009:MSS:1519065.1519081

Done.
You've used 8 entries,
            4039 wiz_defined-function locations,
            1245 strings with 16345 characters,
and the built_in function-call counts, 4749 in all, are:
= -- 339
> -- 146
< -- 21
+ -- 74
- -- 31
* -- 240
:= -- 740
add.period$ -- 16
call.type$ -- 8
change.case$ -- 8
chr.to.int$ -- 45
cite$ -- 18
duplicate$ -- 365
empty$ -- 412
format.name$ -- 38
if$ -- 1057
int.to.chr$ -- 0
int.to.str$ -- 8
missing$ -- 70
newline$ -- 47
num.names$ -- 8
pop$ -- 197
preamble$ -- 1
purify$ -- 0
quote$ -- 2
skip$ -- 360
stack$ -- 0
substring$ -- 114
swap$ -- 244
text.length$ -- 6
text.prefix$ -- 0
top$ -- 5
type$ -- 8
warning$ -- 10
while$ -- 14
width$ -- 9
write$ -- 88
(There were 10 warnings)
