%!PS-Adobe-3.0 EPSF-3.0 
%%BoundingBox: 0 0 334 334
%%Pages: 0
%%Creator: Sun Microsystems, Inc.
%%Title: none
%%CreationDate: none
%%LanguageLevel: 2
%%EndComments
%%BeginProlog
%%BeginResource: procset SDRes-Prolog 1.0 0
/b4_inc_state save def
/dict_count countdictstack def
/op_count count 1 sub def
userdict begin
0 setgray 0 setlinecap 1 setlinewidth 0 setlinejoin 10 setmiterlimit[] 0 setdash newpath
/languagelevel where {pop languagelevel 1 ne {false setstrokeadjust false setoverprint} if} if
/bdef {bind def} bind def
/c {setrgbcolor} bdef
/l {neg lineto} bdef
/rl {neg rlineto} bdef
/lc {setlinecap} bdef
/lj {setlinejoin} bdef
/lw {setlinewidth} bdef
/ml {setmiterlimit} bdef
/ld {setdash} bdef
/m {neg moveto} bdef
/ct {6 2 roll neg 6 2 roll neg 6 2 roll neg curveto} bdef
/r {rotate} bdef
/t {neg translate} bdef
/s {scale} bdef
/sw {show} bdef
/gs {gsave} bdef
/gr {grestore} bdef
/f {findfont dup length dict begin
{1 index /FID ne {def} {pop pop} ifelse} forall /Encoding ISOLatin1Encoding def
currentdict end /NFont exch definefont pop /NFont findfont} bdef
/p {closepath} bdef
/sf {scalefont setfont} bdef
/ef {eofill}bdef
/pc {closepath stroke}bdef
/ps {stroke}bdef
/pum {matrix currentmatrix}bdef
/pom {setmatrix}bdef
/bs {/aString exch def /nXOfs exch def /nWidth exch def currentpoint nXOfs 0 rmoveto pum nWidth aString stringwidth pop div 1 scale aString show pom moveto} bdef
%%EndResource
%%EndProlog
%%BeginSetup
%%EndSetup
%%Page: 1 1
%%BeginPageSetup
%%EndPageSetup
pum
0.02833 0.02833 s 
0 -11788 t
/tm matrix currentmatrix def
tm setmatrix
-4504 -3743 t 
1 1 s 
102 lw 1 lj 0.003 0.003 0.003 c 10397 3794 m  13709 3794 16239 6323 16239 9635 ct 
16239 12947 13709 15477 10397 15477 ct 7085 15477 4556 12947 4556 9635 ct 4556 6323 7085 3794 10397 3794 ct 
pc
4556 3794 m  4556 3794 l  pc
16241 15479 m  16241 15479 l  pc
0 lw 10398 3794 m  10398 15478 l  ps
4556 9636 m  16240 9636 l  ps
6080 5572 m  14716 13700 l  ps
6080 13700 m  14716 5572 l  ps
5064 7604 m  15732 11668 l  ps
5064 11668 m  15732 7604 l  ps
12684 4302 m  8112 14970 l  ps
8112 4302 m  12684 14970 l  ps
102 lw 10398 6080 m  12414 6080 13954 7620 13954 9636 ct 13954 11652 12414 13192 10398 13192 ct 
8382 13192 6842 11652 6842 9636 ct 6842 7620 8382 6080 10398 6080 ct pc
6842 6080 m  6842 6080 l  pc
13955 13193 m  13955 13193 l  pc
1.000 1.000 1.000 c 10397 6842 m  11981 6842 13191 8051 13191 9635 ct 13191 11219 11981 12429 10397 12429 ct 
8813 12429 7604 11219 7604 9635 ct 7604 8051 8813 6842 10397 6842 ct p
7604 6842 m  7604 6842 l  p
13193 12431 m  13193 12431 l  p ef
0.003 0.003 0.003 c 10397 6842 m  11981 6842 13191 8051 13191 9635 ct 13191 11219 11981 12429 10397 12429 ct 
8813 12429 7604 11219 7604 9635 ct 7604 8051 8813 6842 10397 6842 ct pc
7604 6842 m  7604 6842 l  pc
13193 12431 m  13193 12431 l  pc
10398 9484 m  12286 9484 l  12286 9636 l  12286 9789 l  10398 9789 l  10398 9636 l 
10398 9484 l  p ef
13192 9636 m  12060 9259 l  12060 10014 l  13192 9636 l  p ef

pum
10802 6781 t
0.230 0.226 0.210 c 48 0 m  48 -47 l  160 -47 l  160 -384 l  61 -314 l 
61 -366 l  164 -438 l  216 -438 l  216 -47 l  322 -47 l  322 0 l  48 0 l 
p ef
pom

pum
12018 7189 t
328 -219 m  328 -177 324 -142 316 -113 ct 308 -84 298 -61 284 -44 ct 270 -26 254 -13 235 -5 ct 
217 2 197 6 176 6 ct 155 6 135 2 116 -5 ct 98 -13 82 -26 68 -43 ct 55 -61 44 -84 36 -113 ct 
29 -141 25 -177 25 -219 ct 25 -263 29 -300 36 -328 ct 44 -357 55 -380 69 -397 ct 
82 -415 98 -427 117 -434 ct 136 -441 156 -444 178 -444 ct 199 -444 218 -441 236 -434 ct 
255 -427 271 -415 284 -397 ct 298 -380 309 -357 317 -328 ct 324 -300 328 -263 328 -219 ct 
p
272 -219 m  272 -254 270 -283 265 -306 ct 261 -329 255 -347 247 -361 ct 239 -375 229 -384 218 -390 ct 
206 -396 193 -399 178 -399 ct 162 -399 148 -396 136 -390 ct 124 -384 114 -374 106 -361 ct 
98 -347 92 -329 87 -305 ct 83 -282 81 -254 81 -219 ct 81 -185 83 -157 88 -134 ct 
92 -111 98 -93 106 -79 ct 114 -65 124 -55 136 -49 ct 148 -43 161 -40 176 -40 ct 
191 -40 204 -43 216 -49 ct 228 -55 238 -65 246 -79 ct 254 -93 261 -111 265 -134 ct 
269 -157 272 -185 272 -219 ct p ef
pom

pum
12934 8105 t
48 0 m  48 -47 l  160 -47 l  160 -384 l  61 -314 l  61 -366 l  164 -438 l 
216 -438 l  216 -47 l  322 -47 l  322 0 l  48 0 l  p ef
pom

pum
13342 9325 t
328 -219 m  328 -177 324 -142 316 -113 ct 308 -84 298 -61 284 -44 ct 270 -26 254 -13 235 -5 ct 
217 2 197 6 176 6 ct 155 6 135 2 116 -5 ct 98 -13 82 -26 68 -43 ct 55 -61 44 -84 36 -113 ct 
29 -141 25 -177 25 -219 ct 25 -263 29 -300 36 -328 ct 44 -357 55 -380 69 -397 ct 
82 -415 98 -427 117 -434 ct 136 -441 156 -444 178 -444 ct 199 -444 218 -441 236 -434 ct 
255 -427 271 -415 284 -397 ct 298 -380 309 -357 317 -328 ct 324 -300 328 -263 328 -219 ct 
p
272 -219 m  272 -254 270 -283 265 -306 ct 261 -329 255 -347 247 -361 ct 239 -375 229 -384 218 -390 ct 
206 -396 193 -399 178 -399 ct 162 -399 148 -396 136 -390 ct 124 -384 114 -374 106 -361 ct 
98 -347 92 -329 87 -305 ct 83 -282 81 -254 81 -219 ct 81 -185 83 -157 88 -134 ct 
92 -111 98 -93 106 -79 ct 114 -65 124 -55 136 -49 ct 148 -43 161 -40 176 -40 ct 
191 -40 204 -43 216 -49 ct 228 -55 238 -65 246 -79 ct 254 -93 261 -111 265 -134 ct 
269 -157 272 -185 272 -219 ct p ef
pom

pum
13342 10441 t
328 -219 m  328 -177 324 -142 316 -113 ct 308 -84 298 -61 284 -44 ct 270 -26 254 -13 235 -5 ct 
217 2 197 6 176 6 ct 155 6 135 2 116 -5 ct 98 -13 82 -26 68 -43 ct 55 -61 44 -84 36 -113 ct 
29 -141 25 -177 25 -219 ct 25 -263 29 -300 36 -328 ct 44 -357 55 -380 69 -397 ct 
82 -415 98 -427 117 -434 ct 136 -441 156 -444 178 -444 ct 199 -444 218 -441 236 -434 ct 
255 -427 271 -415 284 -397 ct 298 -380 309 -357 317 -328 ct 324 -300 328 -263 328 -219 ct 
p
272 -219 m  272 -254 270 -283 265 -306 ct 261 -329 255 -347 247 -361 ct 239 -375 229 -384 218 -390 ct 
206 -396 193 -399 178 -399 ct 162 -399 148 -396 136 -390 ct 124 -384 114 -374 106 -361 ct 
98 -347 92 -329 87 -305 ct 83 -282 81 -254 81 -219 ct 81 -185 83 -157 88 -134 ct 
92 -111 98 -93 106 -79 ct 114 -65 124 -55 136 -49 ct 148 -43 161 -40 176 -40 ct 
191 -40 204 -43 216 -49 ct 228 -55 238 -65 246 -79 ct 254 -93 261 -111 265 -134 ct 
269 -157 272 -185 272 -219 ct p ef
pom

pum
12934 11607 t
328 -219 m  328 -177 324 -142 316 -113 ct 308 -84 298 -61 284 -44 ct 270 -26 254 -13 235 -5 ct 
217 2 197 6 176 6 ct 155 6 135 2 116 -5 ct 98 -13 82 -26 68 -43 ct 55 -61 44 -84 36 -113 ct 
29 -141 25 -177 25 -219 ct 25 -263 29 -300 36 -328 ct 44 -357 55 -380 69 -397 ct 
82 -415 98 -427 117 -434 ct 136 -441 156 -444 178 -444 ct 199 -444 218 -441 236 -434 ct 
255 -427 271 -415 284 -397 ct 298 -380 309 -357 317 -328 ct 324 -300 328 -263 328 -219 ct 
p
272 -219 m  272 -254 270 -283 265 -306 ct 261 -329 255 -347 247 -361 ct 239 -375 229 -384 218 -390 ct 
206 -396 193 -399 178 -399 ct 162 -399 148 -396 136 -390 ct 124 -384 114 -374 106 -361 ct 
98 -347 92 -329 87 -305 ct 83 -282 81 -254 81 -219 ct 81 -185 83 -157 88 -134 ct 
92 -111 98 -93 106 -79 ct 114 -65 124 -55 136 -49 ct 148 -43 161 -40 176 -40 ct 
191 -40 204 -43 216 -49 ct 228 -55 238 -65 246 -79 ct 254 -93 261 -111 265 -134 ct 
269 -157 272 -185 272 -219 ct p ef
pom

pum
12134 12405 t
48 0 m  48 -47 l  160 -47 l  160 -384 l  61 -314 l  61 -366 l  164 -438 l 
216 -438 l  216 -47 l  322 -47 l  322 0 l  48 0 l  p ef
pom

pum
10902 12981 t
48 0 m  48 -47 l  160 -47 l  160 -384 l  61 -314 l  61 -366 l  164 -438 l 
216 -438 l  216 -47 l  322 -47 l  322 0 l  48 0 l  p ef
pom

pum
9532 12981 t
328 -219 m  328 -177 324 -142 316 -113 ct 308 -84 298 -61 284 -44 ct 270 -26 254 -13 235 -5 ct 
217 2 197 6 176 6 ct 155 6 135 2 116 -5 ct 98 -13 82 -26 68 -43 ct 55 -61 44 -84 36 -113 ct 
29 -141 25 -177 25 -219 ct 25 -263 29 -300 36 -328 ct 44 -357 55 -380 69 -397 ct 
82 -415 98 -427 117 -434 ct 136 -441 156 -444 178 -444 ct 199 -444 218 -441 236 -434 ct 
255 -427 271 -415 284 -397 ct 298 -380 309 -357 317 -328 ct 324 -300 328 -263 328 -219 ct 
p
272 -219 m  272 -254 270 -283 265 -306 ct 261 -329 255 -347 247 -361 ct 239 -375 229 -384 218 -390 ct 
206 -396 193 -399 178 -399 ct 162 -399 148 -396 136 -390 ct 124 -384 114 -374 106 -361 ct 
98 -347 92 -329 87 -305 ct 83 -282 81 -254 81 -219 ct 81 -185 83 -157 88 -134 ct 
92 -111 98 -93 106 -79 ct 114 -65 124 -55 136 -49 ct 148 -43 161 -40 176 -40 ct 
191 -40 204 -43 216 -49 ct 228 -55 238 -65 246 -79 ct 254 -93 261 -111 265 -134 ct 
269 -157 272 -185 272 -219 ct p ef
pom

pum
8362 12373 t
48 0 m  48 -47 l  160 -47 l  160 -384 l  61 -314 l  61 -366 l  164 -438 l 
216 -438 l  216 -47 l  322 -47 l  322 0 l  48 0 l  p ef
pom

pum
7092 9321 t
48 0 m  48 -47 l  160 -47 l  160 -384 l  61 -314 l  61 -366 l  164 -438 l 
216 -438 l  216 -47 l  322 -47 l  322 0 l  48 0 l  p ef
pom

pum
7500 11507 t
328 -219 m  328 -177 324 -142 316 -113 ct 308 -84 298 -61 284 -44 ct 270 -26 254 -13 235 -5 ct 
217 2 197 6 176 6 ct 155 6 135 2 116 -5 ct 98 -13 82 -26 68 -43 ct 55 -61 44 -84 36 -113 ct 
29 -141 25 -177 25 -219 ct 25 -263 29 -300 36 -328 ct 44 -357 55 -380 69 -397 ct 
82 -415 98 -427 117 -434 ct 136 -441 156 -444 178 -444 ct 199 -444 218 -441 236 -434 ct 
255 -427 271 -415 284 -397 ct 298 -380 309 -357 317 -328 ct 324 -300 328 -263 328 -219 ct 
p
272 -219 m  272 -254 270 -283 265 -306 ct 261 -329 255 -347 247 -361 ct 239 -375 229 -384 218 -390 ct 
206 -396 193 -399 178 -399 ct 162 -399 148 -396 136 -390 ct 124 -384 114 -374 106 -361 ct 
98 -347 92 -329 87 -305 ct 83 -282 81 -254 81 -219 ct 81 -185 83 -157 88 -134 ct 
92 -111 98 -93 106 -79 ct 114 -65 124 -55 136 -49 ct 148 -43 161 -40 176 -40 ct 
191 -40 204 -43 216 -49 ct 228 -55 238 -65 246 -79 ct 254 -93 261 -111 265 -134 ct 
269 -157 272 -185 272 -219 ct p ef
pom

pum
7092 10441 t
328 -219 m  328 -177 324 -142 316 -113 ct 308 -84 298 -61 284 -44 ct 270 -26 254 -13 235 -5 ct 
217 2 197 6 176 6 ct 155 6 135 2 116 -5 ct 98 -13 82 -26 68 -43 ct 55 -61 44 -84 36 -113 ct 
29 -141 25 -177 25 -219 ct 25 -263 29 -300 36 -328 ct 44 -357 55 -380 69 -397 ct 
82 -415 98 -427 117 -434 ct 136 -441 156 -444 178 -444 ct 199 -444 218 -441 236 -434 ct 
255 -427 271 -415 284 -397 ct 298 -380 309 -357 317 -328 ct 324 -300 328 -263 328 -219 ct 
p
272 -219 m  272 -254 270 -283 265 -306 ct 261 -329 255 -347 247 -361 ct 239 -375 229 -384 218 -390 ct 
206 -396 193 -399 178 -399 ct 162 -399 148 -396 136 -390 ct 124 -384 114 -374 106 -361 ct 
98 -347 92 -329 87 -305 ct 83 -282 81 -254 81 -219 ct 81 -185 83 -157 88 -134 ct 
92 -111 98 -93 106 -79 ct 114 -65 124 -55 136 -49 ct 148 -43 161 -40 176 -40 ct 
191 -40 204 -43 216 -49 ct 228 -55 238 -65 246 -79 ct 254 -93 261 -111 265 -134 ct 
269 -157 272 -185 272 -219 ct p ef
pom

pum
7500 8155 t
328 -219 m  328 -177 324 -142 316 -113 ct 308 -84 298 -61 284 -44 ct 270 -26 254 -13 235 -5 ct 
217 2 197 6 176 6 ct 155 6 135 2 116 -5 ct 98 -13 82 -26 68 -43 ct 55 -61 44 -84 36 -113 ct 
29 -141 25 -177 25 -219 ct 25 -263 29 -300 36 -328 ct 44 -357 55 -380 69 -397 ct 
82 -415 98 -427 117 -434 ct 136 -441 156 -444 178 -444 ct 199 -444 218 -441 236 -434 ct 
255 -427 271 -415 284 -397 ct 298 -380 309 -357 317 -328 ct 324 -300 328 -263 328 -219 ct 
p
272 -219 m  272 -254 270 -283 265 -306 ct 261 -329 255 -347 247 -361 ct 239 -375 229 -384 218 -390 ct 
206 -396 193 -399 178 -399 ct 162 -399 148 -396 136 -390 ct 124 -384 114 -374 106 -361 ct 
98 -347 92 -329 87 -305 ct 83 -282 81 -254 81 -219 ct 81 -185 83 -157 88 -134 ct 
92 -111 98 -93 106 -79 ct 114 -65 124 -55 136 -49 ct 148 -43 161 -40 176 -40 ct 
191 -40 204 -43 216 -49 ct 228 -55 238 -65 246 -79 ct 254 -93 261 -111 265 -134 ct 
269 -157 272 -185 272 -219 ct p ef
pom

pum
8416 7239 t
328 -219 m  328 -177 324 -142 316 -113 ct 308 -84 298 -61 284 -44 ct 270 -26 254 -13 235 -5 ct 
217 2 197 6 176 6 ct 155 6 135 2 116 -5 ct 98 -13 82 -26 68 -43 ct 55 -61 44 -84 36 -113 ct 
29 -141 25 -177 25 -219 ct 25 -263 29 -300 36 -328 ct 44 -357 55 -380 69 -397 ct 
82 -415 98 -427 117 -434 ct 136 -441 156 -444 178 -444 ct 199 -444 218 -441 236 -434 ct 
255 -427 271 -415 284 -397 ct 298 -380 309 -357 317 -328 ct 324 -300 328 -263 328 -219 ct 
p
272 -219 m  272 -254 270 -283 265 -306 ct 261 -329 255 -347 247 -361 ct 239 -375 229 -384 218 -390 ct 
206 -396 193 -399 178 -399 ct 162 -399 148 -396 136 -390 ct 124 -384 114 -374 106 -361 ct 
98 -347 92 -329 87 -305 ct 83 -282 81 -254 81 -219 ct 81 -185 83 -157 88 -134 ct 
92 -111 98 -93 106 -79 ct 114 -65 124 -55 136 -49 ct 148 -43 161 -40 176 -40 ct 
191 -40 204 -43 216 -49 ct 228 -55 238 -65 246 -79 ct 254 -93 261 -111 265 -134 ct 
269 -157 272 -185 272 -219 ct p ef
pom

pum
9632 6781 t
328 -219 m  328 -177 324 -142 316 -113 ct 308 -84 298 -61 284 -44 ct 270 -26 254 -13 235 -5 ct 
217 2 197 6 176 6 ct 155 6 135 2 116 -5 ct 98 -13 82 -26 68 -43 ct 55 -61 44 -84 36 -113 ct 
29 -141 25 -177 25 -219 ct 25 -263 29 -300 36 -328 ct 44 -357 55 -380 69 -397 ct 
82 -415 98 -427 117 -434 ct 136 -441 156 -444 178 -444 ct 199 -444 218 -441 236 -434 ct 
255 -427 271 -415 284 -397 ct 298 -380 309 -357 317 -328 ct 324 -300 328 -263 328 -219 ct 
p
272 -219 m  272 -254 270 -283 265 -306 ct 261 -329 255 -347 247 -361 ct 239 -375 229 -384 218 -390 ct 
206 -396 193 -399 178 -399 ct 162 -399 148 -396 136 -390 ct 124 -384 114 -374 106 -361 ct 
98 -347 92 -329 87 -305 ct 83 -282 81 -254 81 -219 ct 81 -185 83 -157 88 -134 ct 
92 -111 98 -93 106 -79 ct 114 -65 124 -55 136 -49 ct 148 -43 161 -40 176 -40 ct 
191 -40 204 -43 216 -49 ct 228 -55 238 -65 246 -79 ct 254 -93 261 -111 265 -134 ct 
269 -157 272 -185 272 -219 ct p ef
pom

pum
11002 5261 t
325 -121 m  325 -101 322 -83 315 -67 ct 309 -52 299 -38 287 -27 ct 274 -17 259 -8 240 -3 ct 
222 3 201 6 177 6 ct 150 6 127 3 109 -4 ct 90 -11 75 -20 63 -31 ct 51 -42 42 -54 36 -69 ct 
30 -83 26 -97 24 -113 ct 82 -118 l  84 -106 87 -96 91 -86 ct 95 -77 102 -68 109 -62 ct 
117 -55 126 -50 137 -46 ct 149 -42 162 -40 177 -40 ct 205 -40 227 -47 243 -61 ct 
259 -75 267 -96 267 -123 ct 267 -139 264 -152 257 -162 ct 249 -172 241 -179 230 -185 ct 
219 -190 208 -194 195 -196 ct 183 -198 171 -199 161 -199 ct 129 -199 l  129 -247 l 
159 -247 l  170 -247 181 -248 192 -250 ct 204 -252 214 -256 223 -262 ct 233 -268 241 -275 247 -285 ct 
253 -295 256 -307 256 -322 ct 256 -346 249 -364 235 -378 ct 221 -391 201 -398 174 -398 ct 
149 -398 129 -392 114 -379 ct 99 -367 90 -349 88 -326 ct 32 -330 l  34 -349 39 -366 47 -380 ct 
56 -395 66 -407 79 -416 ct 92 -425 106 -432 122 -437 ct 139 -442 156 -444 175 -444 ct 
199 -444 220 -441 238 -435 ct 255 -429 269 -420 281 -410 ct 292 -400 300 -387 305 -373 ct 
311 -359 313 -344 313 -328 ct 313 -315 311 -303 308 -292 ct 304 -281 299 -271 291 -262 ct 
284 -253 275 -246 263 -239 ct 252 -233 238 -228 222 -225 ct 222 -223 l  239 -222 255 -218 268 -211 ct 
281 -205 291 -198 300 -189 ct 308 -180 315 -169 319 -158 ct 323 -146 325 -134 325 -121 ct 
p ef
677 -143 m  677 -121 674 -101 668 -82 ct 661 -64 651 -49 638 -35 ct 625 -22 609 -12 590 -5 ct 
570 2 548 6 522 6 ct 500 6 480 3 462 -2 ct 445 -7 431 -15 419 -24 ct 407 -34 398 -45 391 -57 ct 
384 -70 379 -83 376 -98 ct 433 -104 l  435 -96 438 -88 442 -80 ct 447 -73 452 -66 459 -60 ct 
467 -54 475 -49 486 -45 ct 496 -41 509 -40 524 -40 ct 538 -40 551 -42 563 -46 ct 
575 -51 585 -57 593 -66 ct 602 -75 608 -85 613 -98 ct 617 -111 620 -125 620 -141 ct 
620 -155 617 -167 613 -178 ct 609 -190 602 -199 594 -207 ct 586 -216 576 -222 565 -227 ct 
553 -231 540 -233 525 -233 ct 516 -233 507 -233 499 -231 ct 491 -229 484 -227 477 -224 ct 
471 -221 465 -218 459 -214 ct 454 -210 448 -206 444 -202 ct 389 -202 l  404 -437 l 
652 -437 l  652 -390 l  455 -390 l  446 -251 l  456 -259 469 -265 483 -271 ct 
498 -276 516 -279 536 -279 ct 558 -279 578 -276 595 -269 ct 612 -262 627 -253 639 -241 ct 
652 -229 661 -215 668 -198 ct 674 -181 677 -163 677 -143 ct p ef
pom

pum
12680 6019 t
273 -99 m  273 0 l  220 0 l  220 -99 l  15 -99 l  15 -142 l  215 -438 l 
273 -438 l  273 -143 l  335 -143 l  335 -99 l  273 -99 l  p
220 -374 m  220 -373 219 -371 217 -368 ct 216 -365 214 -362 212 -358 ct 210 -355 208 -351 205 -347 ct 
203 -343 201 -340 200 -338 ct 88 -172 l  87 -171 85 -168 83 -166 ct 81 -163 79 -160 77 -158 ct 
75 -155 73 -152 71 -149 ct 69 -147 67 -145 66 -143 ct 220 -143 l  220 -374 l 
p ef
399 0 m  399 -47 l  511 -47 l  511 -384 l  412 -314 l  412 -366 l  515 -438 l 
567 -438 l  567 -47 l  673 -47 l  673 0 l  399 0 l  p ef
pom

pum
13950 7293 t
273 -99 m  273 0 l  220 0 l  220 -99 l  15 -99 l  15 -142 l  215 -438 l 
273 -438 l  273 -143 l  335 -143 l  335 -99 l  273 -99 l  p
220 -374 m  220 -373 219 -371 217 -368 ct 216 -365 214 -362 212 -358 ct 210 -355 208 -351 205 -347 ct 
203 -343 201 -340 200 -338 ct 88 -172 l  87 -171 85 -168 83 -166 ct 81 -163 79 -160 77 -158 ct 
75 -155 73 -152 71 -149 ct 69 -147 67 -145 66 -143 ct 220 -143 l  220 -374 l 
p ef
383 0 m  383 -39 l  393 -64 406 -85 422 -104 ct 437 -122 453 -139 469 -154 ct 
486 -169 503 -183 519 -196 ct 536 -208 550 -221 564 -234 ct 577 -247 588 -260 596 -274 ct 
604 -289 608 -304 608 -322 ct 608 -335 606 -346 602 -355 ct 599 -364 593 -372 586 -379 ct 
579 -385 571 -390 561 -393 ct 551 -396 540 -398 528 -398 ct 517 -398 507 -396 497 -393 ct 
487 -390 478 -386 471 -379 ct 463 -373 457 -365 452 -356 ct 447 -347 444 -336 442 -324 ct 
385 -329 l  387 -345 392 -360 398 -374 ct 405 -388 415 -400 427 -410 ct 439 -421 453 -429 470 -435 ct 
487 -441 506 -444 528 -444 ct 550 -444 569 -441 586 -436 ct 603 -431 618 -423 629 -413 ct 
641 -403 650 -391 656 -376 ct 662 -361 665 -344 665 -324 ct 665 -309 663 -295 658 -282 ct 
652 -269 645 -256 636 -244 ct 628 -232 617 -221 606 -210 ct 594 -198 582 -187 570 -177 ct 
557 -166 544 -156 531 -145 ct 519 -135 507 -124 495 -114 ct 484 -103 474 -92 465 -81 ct 
456 -71 449 -59 444 -47 ct 672 -47 l  672 0 l  383 0 l  p ef
pom

pum
14558 9067 t
273 -99 m  273 0 l  220 0 l  220 -99 l  15 -99 l  15 -142 l  215 -438 l 
273 -438 l  273 -143 l  335 -143 l  335 -99 l  273 -99 l  p
220 -374 m  220 -373 219 -371 217 -368 ct 216 -365 214 -362 212 -358 ct 210 -355 208 -351 205 -347 ct 
203 -343 201 -340 200 -338 ct 88 -172 l  87 -171 85 -168 83 -166 ct 81 -163 79 -160 77 -158 ct 
75 -155 73 -152 71 -149 ct 69 -147 67 -145 66 -143 ct 220 -143 l  220 -374 l 
p ef
676 -121 m  676 -101 673 -83 666 -67 ct 660 -52 650 -38 638 -27 ct 625 -17 610 -8 591 -3 ct 
573 3 552 6 528 6 ct 501 6 478 3 460 -4 ct 441 -11 426 -20 414 -31 ct 402 -42 393 -54 387 -69 ct 
381 -83 377 -97 375 -113 ct 433 -118 l  435 -106 438 -96 442 -86 ct 446 -77 453 -68 460 -62 ct 
468 -55 477 -50 488 -46 ct 500 -42 513 -40 528 -40 ct 556 -40 578 -47 594 -61 ct 
610 -75 618 -96 618 -123 ct 618 -139 615 -152 608 -162 ct 600 -172 592 -179 581 -185 ct 
570 -190 559 -194 546 -196 ct 534 -198 522 -199 512 -199 ct 480 -199 l  480 -247 l 
510 -247 l  521 -247 532 -248 543 -250 ct 555 -252 565 -256 574 -262 ct 584 -268 592 -275 598 -285 ct 
604 -295 607 -307 607 -322 ct 607 -346 600 -364 586 -378 ct 572 -391 552 -398 525 -398 ct 
500 -398 480 -392 465 -379 ct 450 -367 441 -349 439 -326 ct 383 -330 l  385 -349 390 -366 398 -380 ct 
407 -395 417 -407 430 -416 ct 443 -425 457 -432 473 -437 ct 490 -442 507 -444 526 -444 ct 
550 -444 571 -441 589 -435 ct 606 -429 620 -420 632 -410 ct 643 -400 651 -387 656 -373 ct 
662 -359 664 -344 664 -328 ct 664 -315 662 -303 659 -292 ct 655 -281 650 -271 642 -262 ct 
635 -253 626 -246 614 -239 ct 603 -233 589 -228 573 -225 ct 573 -223 l  590 -222 606 -218 619 -211 ct 
632 -205 642 -198 651 -189 ct 659 -180 666 -169 670 -158 ct 674 -146 676 -134 676 -121 ct 
p ef
pom

pum
14558 10695 t
273 -99 m  273 0 l  220 0 l  220 -99 l  15 -99 l  15 -142 l  215 -438 l 
273 -438 l  273 -143 l  335 -143 l  335 -99 l  273 -99 l  p
220 -374 m  220 -373 219 -371 217 -368 ct 216 -365 214 -362 212 -358 ct 210 -355 208 -351 205 -347 ct 
203 -343 201 -340 200 -338 ct 88 -172 l  87 -171 85 -168 83 -166 ct 81 -163 79 -160 77 -158 ct 
75 -155 73 -152 71 -149 ct 69 -147 67 -145 66 -143 ct 220 -143 l  220 -374 l 
p ef
624 -99 m  624 0 l  571 0 l  571 -99 l  366 -99 l  366 -142 l  566 -438 l 
624 -438 l  624 -143 l  686 -143 l  686 -99 l  624 -99 l  p
571 -374 m  571 -373 570 -371 568 -368 ct 567 -365 565 -362 563 -358 ct 561 -355 559 -351 556 -347 ct 
554 -343 552 -340 551 -338 ct 439 -172 l  438 -171 436 -168 434 -166 ct 432 -163 430 -160 428 -158 ct 
426 -155 424 -152 422 -149 ct 420 -147 418 -145 417 -143 ct 571 -143 l  571 -374 l 
p ef
pom

pum
14050 12369 t
273 -99 m  273 0 l  220 0 l  220 -99 l  15 -99 l  15 -142 l  215 -438 l 
273 -438 l  273 -143 l  335 -143 l  335 -99 l  273 -99 l  p
220 -374 m  220 -373 219 -371 217 -368 ct 216 -365 214 -362 212 -358 ct 210 -355 208 -351 205 -347 ct 
203 -343 201 -340 200 -338 ct 88 -172 l  87 -171 85 -168 83 -166 ct 81 -163 79 -160 77 -158 ct 
75 -155 73 -152 71 -149 ct 69 -147 67 -145 66 -143 ct 220 -143 l  220 -374 l 
p ef
677 -143 m  677 -121 674 -101 668 -82 ct 661 -64 651 -49 638 -35 ct 625 -22 609 -12 590 -5 ct 
570 2 548 6 522 6 ct 500 6 480 3 462 -2 ct 445 -7 431 -15 419 -24 ct 407 -34 398 -45 391 -57 ct 
384 -70 379 -83 376 -98 ct 433 -104 l  435 -96 438 -88 442 -80 ct 447 -73 452 -66 459 -60 ct 
467 -54 475 -49 486 -45 ct 496 -41 509 -40 524 -40 ct 538 -40 551 -42 563 -46 ct 
575 -51 585 -57 593 -66 ct 602 -75 608 -85 613 -98 ct 617 -111 620 -125 620 -141 ct 
620 -155 617 -167 613 -178 ct 609 -190 602 -199 594 -207 ct 586 -216 576 -222 565 -227 ct 
553 -231 540 -233 525 -233 ct 516 -233 507 -233 499 -231 ct 491 -229 484 -227 477 -224 ct 
471 -221 465 -218 459 -214 ct 454 -210 448 -206 444 -202 ct 389 -202 l  404 -437 l 
652 -437 l  652 -390 l  455 -390 l  446 -251 l  456 -259 469 -265 483 -271 ct 
498 -276 516 -279 536 -279 ct 558 -279 578 -276 595 -269 ct 612 -262 627 -253 639 -241 ct 
652 -229 661 -215 668 -198 ct 674 -181 677 -163 677 -143 ct p ef
pom

pum
12834 13793 t
273 -99 m  273 0 l  220 0 l  220 -99 l  15 -99 l  15 -142 l  215 -438 l 
273 -438 l  273 -143 l  335 -143 l  335 -99 l  273 -99 l  p
220 -374 m  220 -373 219 -371 217 -368 ct 216 -365 214 -362 212 -358 ct 210 -355 208 -351 205 -347 ct 
203 -343 201 -340 200 -338 ct 88 -172 l  87 -171 85 -168 83 -166 ct 81 -163 79 -160 77 -158 ct 
75 -155 73 -152 71 -149 ct 69 -147 67 -145 66 -143 ct 220 -143 l  220 -374 l 
p ef
676 -143 m  676 -121 673 -101 667 -83 ct 661 -65 652 -49 640 -36 ct 628 -23 614 -12 596 -5 ct 
578 2 558 6 535 6 ct 510 6 488 1 469 -9 ct 449 -18 434 -32 421 -51 ct 408 -69 399 -91 393 -118 ct 
386 -145 383 -175 383 -209 ct 383 -248 387 -282 394 -311 ct 401 -341 411 -365 425 -385 ct 
438 -404 455 -419 474 -429 ct 493 -439 515 -444 540 -444 ct 554 -444 568 -442 581 -439 ct 
594 -436 606 -431 617 -424 ct 628 -417 637 -408 645 -397 ct 653 -385 659 -372 664 -355 ct 
611 -345 l  605 -364 596 -378 583 -386 ct 570 -395 556 -399 539 -399 ct 524 -399 510 -395 497 -388 ct 
485 -381 474 -370 466 -355 ct 457 -341 450 -323 446 -301 ct 441 -280 439 -254 439 -225 ct 
449 -244 463 -258 482 -268 ct 500 -278 521 -283 545 -283 ct 565 -283 583 -280 599 -273 ct 
615 -267 629 -258 640 -246 ct 652 -233 661 -219 667 -202 ct 673 -184 676 -165 676 -143 ct 
p
620 -141 m  620 -156 618 -170 614 -182 ct 610 -194 605 -204 597 -213 ct 590 -222 581 -228 570 -233 ct 
559 -238 546 -240 531 -240 ct 521 -240 511 -238 501 -235 ct 490 -232 481 -228 473 -221 ct 
464 -214 458 -205 452 -194 ct 447 -183 444 -170 444 -154 ct 444 -138 446 -123 451 -109 ct 
455 -95 461 -83 468 -73 ct 476 -62 485 -54 496 -48 ct 507 -42 520 -39 533 -39 ct 
547 -39 559 -41 569 -46 ct 580 -51 589 -57 597 -66 ct 604 -75 610 -86 614 -98 ct 
618 -111 620 -125 620 -141 ct p ef
pom

pum
11056 14505 t
273 -99 m  273 0 l  220 0 l  220 -99 l  15 -99 l  15 -142 l  215 -438 l 
273 -438 l  273 -143 l  335 -143 l  335 -99 l  273 -99 l  p
220 -374 m  220 -373 219 -371 217 -368 ct 216 -365 214 -362 212 -358 ct 210 -355 208 -351 205 -347 ct 
203 -343 201 -340 200 -338 ct 88 -172 l  87 -171 85 -168 83 -166 ct 81 -163 79 -160 77 -158 ct 
75 -155 73 -152 71 -149 ct 69 -147 67 -145 66 -143 ct 220 -143 l  220 -374 l 
p ef
674 -228 m  674 -189 670 -155 663 -125 ct 656 -96 645 -72 632 -52 ct 618 -33 601 -18 582 -9 ct 
562 1 540 6 516 6 ct 499 6 484 4 471 1 ct 457 -3 445 -8 435 -15 ct 424 -22 415 -32 408 -43 ct 
400 -55 394 -69 390 -85 ct 443 -94 l  449 -75 458 -61 470 -52 ct 483 -43 498 -39 517 -39 ct 
532 -39 546 -43 558 -50 ct 571 -57 581 -68 590 -82 ct 599 -96 606 -114 611 -136 ct 
616 -157 618 -183 619 -212 ct 615 -202 609 -193 601 -186 ct 594 -178 585 -171 575 -166 ct 
566 -161 555 -157 544 -154 ct 533 -151 522 -150 510 -150 ct 491 -150 473 -154 457 -161 ct 
441 -168 427 -178 416 -191 ct 405 -203 396 -219 390 -237 ct 384 -255 381 -275 381 -297 ct 
381 -320 384 -340 391 -358 ct 397 -376 407 -392 419 -404 ct 431 -417 447 -427 465 -434 ct 
483 -441 503 -444 526 -444 ct 575 -444 612 -426 637 -390 ct 662 -354 674 -300 674 -228 ct 
p
613 -282 m  613 -298 611 -313 608 -327 ct 604 -342 598 -354 591 -365 ct 583 -375 574 -383 563 -390 ct 
552 -396 539 -399 524 -399 ct 511 -399 499 -396 488 -392 ct 477 -387 468 -380 461 -371 ct 
453 -363 448 -352 444 -339 ct 440 -327 438 -313 438 -297 ct 438 -282 439 -269 443 -256 ct 
447 -244 452 -233 459 -224 ct 466 -214 475 -207 486 -202 ct 497 -197 509 -194 524 -194 ct 
534 -194 545 -196 555 -199 ct 566 -203 575 -208 584 -215 ct 593 -223 600 -232 605 -243 ct 
611 -254 613 -267 613 -282 ct p ef
pom

pum
9124 14505 t
48 0 m  48 -47 l  160 -47 l  160 -384 l  61 -314 l  61 -366 l  164 -438 l 
216 -438 l  216 -47 l  322 -47 l  322 0 l  48 0 l  p ef
679 -219 m  679 -177 675 -142 667 -113 ct 659 -84 649 -61 635 -44 ct 621 -26 605 -13 586 -5 ct 
568 2 548 6 527 6 ct 506 6 486 2 467 -5 ct 449 -13 433 -26 419 -43 ct 406 -61 395 -84 387 -113 ct 
380 -141 376 -177 376 -219 ct 376 -263 380 -300 387 -328 ct 395 -357 406 -380 420 -397 ct 
433 -415 449 -427 468 -434 ct 487 -441 507 -444 529 -444 ct 550 -444 569 -441 587 -434 ct 
606 -427 622 -415 635 -397 ct 649 -380 660 -357 668 -328 ct 675 -300 679 -263 679 -219 ct 
p
623 -219 m  623 -254 621 -283 616 -306 ct 612 -329 606 -347 598 -361 ct 590 -375 580 -384 569 -390 ct 
557 -396 544 -399 529 -399 ct 513 -399 499 -396 487 -390 ct 475 -384 465 -374 457 -361 ct 
449 -347 443 -329 438 -305 ct 434 -282 432 -254 432 -219 ct 432 -185 434 -157 439 -134 ct 
443 -111 449 -93 457 -79 ct 465 -65 475 -55 487 -49 ct 499 -43 512 -40 527 -40 ct 
542 -40 555 -43 567 -49 ct 579 -55 589 -65 597 -79 ct 605 -93 612 -111 616 -134 ct 
620 -157 623 -185 623 -219 ct p ef
pom

pum
7246 13893 t
48 0 m  48 -47 l  160 -47 l  160 -384 l  61 -314 l  61 -366 l  164 -438 l 
216 -438 l  216 -47 l  322 -47 l  322 0 l  48 0 l  p ef
353 0 m  353 -47 l  465 -47 l  465 -384 l  366 -314 l  366 -366 l  469 -438 l 
521 -438 l  521 -47 l  627 -47 l  627 0 l  353 0 l  p ef
pom

pum
6076 12373 t
48 0 m  48 -47 l  160 -47 l  160 -384 l  61 -314 l  61 -366 l  164 -438 l 
216 -438 l  216 -47 l  322 -47 l  322 0 l  48 0 l  p ef
383 0 m  383 -39 l  393 -64 406 -85 422 -104 ct 437 -122 453 -139 469 -154 ct 
486 -169 503 -183 519 -196 ct 536 -208 550 -221 564 -234 ct 577 -247 588 -260 596 -274 ct 
604 -289 608 -304 608 -322 ct 608 -335 606 -346 602 -355 ct 599 -364 593 -372 586 -379 ct 
579 -385 571 -390 561 -393 ct 551 -396 540 -398 528 -398 ct 517 -398 507 -396 497 -393 ct 
487 -390 478 -386 471 -379 ct 463 -373 457 -365 452 -356 ct 447 -347 444 -336 442 -324 ct 
385 -329 l  387 -345 392 -360 398 -374 ct 405 -388 415 -400 427 -410 ct 439 -421 453 -429 470 -435 ct 
487 -441 506 -444 528 -444 ct 550 -444 569 -441 586 -436 ct 603 -431 618 -423 629 -413 ct 
641 -403 650 -391 656 -376 ct 662 -361 665 -344 665 -324 ct 665 -309 663 -295 658 -282 ct 
652 -269 645 -256 636 -244 ct 628 -232 617 -221 606 -210 ct 594 -198 582 -187 570 -177 ct 
557 -166 544 -156 531 -145 ct 519 -135 507 -124 495 -114 ct 484 -103 474 -92 465 -81 ct 
456 -71 449 -59 444 -47 ct 672 -47 l  672 0 l  383 0 l  p ef
pom

pum
5414 10695 t
48 0 m  48 -47 l  160 -47 l  160 -384 l  61 -314 l  61 -366 l  164 -438 l 
216 -438 l  216 -47 l  322 -47 l  322 0 l  48 0 l  p ef
676 -121 m  676 -101 673 -83 666 -67 ct 660 -52 650 -38 638 -27 ct 625 -17 610 -8 591 -3 ct 
573 3 552 6 528 6 ct 501 6 478 3 460 -4 ct 441 -11 426 -20 414 -31 ct 402 -42 393 -54 387 -69 ct 
381 -83 377 -97 375 -113 ct 433 -118 l  435 -106 438 -96 442 -86 ct 446 -77 453 -68 460 -62 ct 
468 -55 477 -50 488 -46 ct 500 -42 513 -40 528 -40 ct 556 -40 578 -47 594 -61 ct 
610 -75 618 -96 618 -123 ct 618 -139 615 -152 608 -162 ct 600 -172 592 -179 581 -185 ct 
570 -190 559 -194 546 -196 ct 534 -198 522 -199 512 -199 ct 480 -199 l  480 -247 l 
510 -247 l  521 -247 532 -248 543 -250 ct 555 -252 565 -256 574 -262 ct 584 -268 592 -275 598 -285 ct 
604 -295 607 -307 607 -322 ct 607 -346 600 -364 586 -378 ct 572 -391 552 -398 525 -398 ct 
500 -398 480 -392 465 -379 ct 450 -367 441 -349 439 -326 ct 383 -330 l  385 -349 390 -366 398 -380 ct 
407 -395 417 -407 430 -416 ct 443 -425 457 -432 473 -437 ct 490 -442 507 -444 526 -444 ct 
550 -444 571 -441 589 -435 ct 606 -429 620 -420 632 -410 ct 643 -400 651 -387 656 -373 ct 
662 -359 664 -344 664 -328 ct 664 -315 662 -303 659 -292 ct 655 -281 650 -271 642 -262 ct 
635 -253 626 -246 614 -239 ct 603 -233 589 -228 573 -225 ct 573 -223 l  590 -222 606 -218 619 -211 ct 
632 -205 642 -198 651 -189 ct 659 -180 666 -169 670 -158 ct 674 -146 676 -134 676 -121 ct 
p ef
pom

pum
5314 9067 t
48 0 m  48 -47 l  160 -47 l  160 -384 l  61 -314 l  61 -366 l  164 -438 l 
216 -438 l  216 -47 l  322 -47 l  322 0 l  48 0 l  p ef
677 -122 m  677 -103 674 -86 668 -71 ct 662 -55 653 -42 641 -30 ct 629 -19 613 -10 594 -4 ct 
576 3 553 6 528 6 ct 502 6 480 3 461 -4 ct 443 -10 427 -19 415 -30 ct 402 -41 393 -55 387 -70 ct 
382 -86 379 -103 379 -121 ct 379 -137 381 -151 386 -164 ct 391 -176 397 -187 405 -196 ct 
414 -205 423 -212 433 -218 ct 444 -223 455 -227 466 -229 ct 466 -230 l  454 -233 443 -237 433 -244 ct 
423 -250 415 -258 409 -267 ct 402 -276 397 -286 394 -297 ct 391 -308 389 -320 389 -332 ct 
389 -347 392 -362 398 -375 ct 404 -389 412 -401 424 -411 ct 435 -421 450 -429 467 -435 ct 
484 -441 504 -444 527 -444 ct 550 -444 571 -441 588 -435 ct 606 -429 620 -421 632 -411 ct 
643 -400 652 -388 657 -375 ct 663 -361 666 -347 666 -331 ct 666 -319 664 -308 661 -297 ct 
657 -286 652 -276 646 -267 ct 639 -258 631 -250 622 -244 ct 612 -237 601 -233 588 -231 ct 
588 -229 l  601 -227 612 -223 623 -218 ct 634 -212 643 -205 651 -196 ct 659 -187 665 -177 670 -164 ct 
674 -152 677 -138 677 -122 ct p
608 -328 m  608 -339 606 -349 604 -358 ct 601 -367 596 -375 590 -382 ct 583 -388 575 -393 565 -397 ct 
554 -401 542 -402 527 -402 ct 512 -402 499 -401 489 -397 ct 479 -393 471 -388 464 -382 ct 
458 -375 453 -367 450 -358 ct 447 -349 446 -339 446 -328 ct 446 -319 447 -310 449 -301 ct 
452 -292 456 -284 462 -277 ct 468 -269 476 -263 487 -258 ct 497 -253 511 -251 527 -251 ct 
545 -251 559 -253 569 -258 ct 580 -263 588 -269 594 -277 ct 600 -284 603 -292 605 -301 ct 
607 -310 608 -319 608 -328 ct p
619 -127 m  619 -138 617 -148 614 -158 ct 611 -168 606 -176 599 -184 ct 592 -191 583 -197 571 -202 ct 
559 -207 544 -209 527 -209 ct 510 -209 496 -207 485 -202 ct 473 -197 464 -191 457 -184 ct 
450 -176 445 -167 441 -157 ct 438 -147 436 -137 436 -126 ct 436 -113 438 -100 441 -89 ct 
445 -78 450 -69 457 -61 ct 464 -53 474 -47 486 -42 ct 497 -38 512 -36 528 -36 ct 
545 -36 560 -38 571 -42 ct 583 -47 592 -53 599 -61 ct 606 -69 611 -78 614 -90 ct 
617 -101 619 -113 619 -127 ct p ef
pom

pum
6022 7293 t
32 0 m  32 -39 l  42 -64 55 -85 71 -104 ct 86 -122 102 -139 118 -154 ct 135 -169 152 -183 168 -196 ct 
185 -208 199 -221 213 -234 ct 226 -247 237 -260 245 -274 ct 253 -289 257 -304 257 -322 ct 
257 -335 255 -346 251 -355 ct 248 -364 242 -372 235 -379 ct 228 -385 220 -390 210 -393 ct 
200 -396 189 -398 177 -398 ct 166 -398 156 -396 146 -393 ct 136 -390 127 -386 120 -379 ct 
112 -373 106 -365 101 -356 ct 96 -347 93 -336 91 -324 ct 34 -329 l  36 -345 41 -360 47 -374 ct 
54 -388 64 -400 76 -410 ct 88 -421 102 -429 119 -435 ct 136 -441 155 -444 177 -444 ct 
199 -444 218 -441 235 -436 ct 252 -431 267 -423 278 -413 ct 290 -403 299 -391 305 -376 ct 
311 -361 314 -344 314 -324 ct 314 -309 312 -295 307 -282 ct 301 -269 294 -256 285 -244 ct 
277 -232 266 -221 255 -210 ct 243 -198 231 -187 219 -177 ct 206 -166 193 -156 180 -145 ct 
168 -135 156 -124 144 -114 ct 133 -103 123 -92 114 -81 ct 105 -71 98 -59 93 -47 ct 
321 -47 l  321 0 l  32 0 l  p ef
679 -219 m  679 -177 675 -142 667 -113 ct 659 -84 649 -61 635 -44 ct 621 -26 605 -13 586 -5 ct 
568 2 548 6 527 6 ct 506 6 486 2 467 -5 ct 449 -13 433 -26 419 -43 ct 406 -61 395 -84 387 -113 ct 
380 -141 376 -177 376 -219 ct 376 -263 380 -300 387 -328 ct 395 -357 406 -380 420 -397 ct 
433 -415 449 -427 468 -434 ct 487 -441 507 -444 529 -444 ct 550 -444 569 -441 587 -434 ct 
606 -427 622 -415 635 -397 ct 649 -380 660 -357 668 -328 ct 675 -300 679 -263 679 -219 ct 
p
623 -219 m  623 -254 621 -283 616 -306 ct 612 -329 606 -347 598 -361 ct 590 -375 580 -384 569 -390 ct 
557 -396 544 -399 529 -399 ct 513 -399 499 -396 487 -390 ct 475 -384 465 -374 457 -361 ct 
449 -347 443 -329 438 -305 ct 434 -282 432 -254 432 -219 ct 432 -185 434 -157 439 -134 ct 
443 -111 449 -93 457 -79 ct 465 -65 475 -55 487 -49 ct 499 -43 512 -40 527 -40 ct 
542 -40 555 -43 567 -49 ct 579 -55 589 -65 597 -79 ct 605 -93 612 -111 616 -134 ct 
620 -157 623 -185 623 -219 ct p ef
pom

pum
7192 5969 t
32 0 m  32 -39 l  42 -64 55 -85 71 -104 ct 86 -122 102 -139 118 -154 ct 135 -169 152 -183 168 -196 ct 
185 -208 199 -221 213 -234 ct 226 -247 237 -260 245 -274 ct 253 -289 257 -304 257 -322 ct 
257 -335 255 -346 251 -355 ct 248 -364 242 -372 235 -379 ct 228 -385 220 -390 210 -393 ct 
200 -396 189 -398 177 -398 ct 166 -398 156 -396 146 -393 ct 136 -390 127 -386 120 -379 ct 
112 -373 106 -365 101 -356 ct 96 -347 93 -336 91 -324 ct 34 -329 l  36 -345 41 -360 47 -374 ct 
54 -388 64 -400 76 -410 ct 88 -421 102 -429 119 -435 ct 136 -441 155 -444 177 -444 ct 
199 -444 218 -441 235 -436 ct 252 -431 267 -423 278 -413 ct 290 -403 299 -391 305 -376 ct 
311 -361 314 -344 314 -324 ct 314 -309 312 -295 307 -282 ct 301 -269 294 -256 285 -244 ct 
277 -232 266 -221 255 -210 ct 243 -198 231 -187 219 -177 ct 206 -166 193 -156 180 -145 ct 
168 -135 156 -124 144 -114 ct 133 -103 123 -92 114 -81 ct 105 -71 98 -59 93 -47 ct 
321 -47 l  321 0 l  32 0 l  p ef
399 0 m  399 -47 l  511 -47 l  511 -384 l  412 -314 l  412 -366 l  515 -438 l 
567 -438 l  567 -47 l  673 -47 l  673 0 l  399 0 l  p ef
pom

pum
9124 5257 t
325 -121 m  325 -101 322 -83 315 -67 ct 309 -52 299 -38 287 -27 ct 274 -17 259 -8 240 -3 ct 
222 3 201 6 177 6 ct 150 6 127 3 109 -4 ct 90 -11 75 -20 63 -31 ct 51 -42 42 -54 36 -69 ct 
30 -83 26 -97 24 -113 ct 82 -118 l  84 -106 87 -96 91 -86 ct 95 -77 102 -68 109 -62 ct 
117 -55 126 -50 137 -46 ct 149 -42 162 -40 177 -40 ct 205 -40 227 -47 243 -61 ct 
259 -75 267 -96 267 -123 ct 267 -139 264 -152 257 -162 ct 249 -172 241 -179 230 -185 ct 
219 -190 208 -194 195 -196 ct 183 -198 171 -199 161 -199 ct 129 -199 l  129 -247 l 
159 -247 l  170 -247 181 -248 192 -250 ct 204 -252 214 -256 223 -262 ct 233 -268 241 -275 247 -285 ct 
253 -295 256 -307 256 -322 ct 256 -346 249 -364 235 -378 ct 221 -391 201 -398 174 -398 ct 
149 -398 129 -392 114 -379 ct 99 -367 90 -349 88 -326 ct 32 -330 l  34 -349 39 -366 47 -380 ct 
56 -395 66 -407 79 -416 ct 92 -425 106 -432 122 -437 ct 139 -442 156 -444 175 -444 ct 
199 -444 220 -441 238 -435 ct 255 -429 269 -420 281 -410 ct 292 -400 300 -387 305 -373 ct 
311 -359 313 -344 313 -328 ct 313 -315 311 -303 308 -292 ct 304 -281 299 -271 291 -262 ct 
284 -253 275 -246 263 -239 ct 252 -233 238 -228 222 -225 ct 222 -223 l  239 -222 255 -218 268 -211 ct 
281 -205 291 -198 300 -189 ct 308 -180 315 -169 319 -158 ct 323 -146 325 -134 325 -121 ct 
p ef
679 -219 m  679 -177 675 -142 667 -113 ct 659 -84 649 -61 635 -44 ct 621 -26 605 -13 586 -5 ct 
568 2 548 6 527 6 ct 506 6 486 2 467 -5 ct 449 -13 433 -26 419 -43 ct 406 -61 395 -84 387 -113 ct 
380 -141 376 -177 376 -219 ct 376 -263 380 -300 387 -328 ct 395 -357 406 -380 420 -397 ct 
433 -415 449 -427 468 -434 ct 487 -441 507 -444 529 -444 ct 550 -444 569 -441 587 -434 ct 
606 -427 622 -415 635 -397 ct 649 -380 660 -357 668 -328 ct 675 -300 679 -263 679 -219 ct 
p
623 -219 m  623 -254 621 -283 616 -306 ct 612 -329 606 -347 598 -361 ct 590 -375 580 -384 569 -390 ct 
557 -396 544 -399 529 -399 ct 513 -399 499 -396 487 -390 ct 475 -384 465 -374 457 -361 ct 
449 -347 443 -329 438 -305 ct 434 -282 432 -254 432 -219 ct 432 -185 434 -157 439 -134 ct 
443 -111 449 -93 457 -79 ct 465 -65 475 -55 487 -49 ct 499 -43 512 -40 527 -40 ct 
542 -40 555 -43 567 -49 ct 579 -55 589 -65 597 -79 ct 605 -93 612 -111 616 -134 ct 
620 -157 623 -185 623 -219 ct p ef
pom

pum
9552 7648 t
394 -121 m  394 -103 391 -86 384 -70 ct 377 -55 366 -41 351 -30 ct 336 -19 317 -10 294 -3 ct 
272 3 245 6 214 6 ct 160 6 117 -4 87 -23 ct 56 -42 37 -69 29 -105 ct 86 -117 l 
89 -105 94 -95 100 -86 ct 106 -76 114 -68 124 -61 ct 134 -55 147 -50 162 -46 ct 
177 -42 195 -40 216 -40 ct 234 -40 250 -42 264 -45 ct 279 -48 292 -52 302 -59 ct 
313 -65 321 -73 327 -83 ct 333 -92 336 -104 336 -118 ct 336 -132 333 -144 326 -153 ct 
320 -161 310 -169 299 -175 ct 287 -180 273 -185 256 -189 ct 240 -193 222 -197 202 -202 ct 
190 -205 178 -208 165 -211 ct 153 -214 141 -218 130 -222 ct 119 -227 108 -232 98 -238 ct 
88 -244 80 -251 73 -259 ct 65 -268 60 -278 56 -289 ct 51 -300 49 -313 49 -327 ct 
49 -348 53 -365 62 -380 ct 70 -395 82 -407 97 -417 ct 112 -426 129 -433 149 -437 ct 
170 -442 192 -444 215 -444 ct 242 -444 265 -442 285 -438 ct 304 -433 320 -427 333 -419 ct 
347 -410 357 -400 365 -387 ct 373 -375 379 -360 384 -343 ct 326 -333 l  323 -344 319 -353 313 -361 ct 
308 -370 301 -377 292 -382 ct 283 -388 272 -392 259 -395 ct 247 -398 232 -399 215 -399 ct 
194 -399 177 -397 164 -394 ct 150 -390 139 -385 130 -379 ct 122 -373 116 -366 112 -357 ct 
109 -349 107 -340 107 -330 ct 107 -317 110 -306 117 -298 ct 123 -290 132 -283 143 -277 ct 
154 -271 167 -267 182 -263 ct 197 -259 212 -256 229 -252 ct 242 -249 256 -246 269 -242 ct 
282 -239 295 -235 307 -231 ct 319 -226 331 -221 342 -215 ct 352 -209 361 -202 369 -193 ct 
377 -185 383 -174 388 -163 ct 392 -151 394 -137 394 -121 ct p ef
749 -168 m  749 -110 737 -66 711 -37 ct 685 -8 647 6 598 6 ct 575 6 554 2 536 -5 ct 
517 -12 502 -22 489 -37 ct 476 -51 466 -69 460 -91 ct 453 -113 450 -139 450 -168 ct 
450 -284 500 -342 600 -342 ct 626 -342 649 -339 667 -331 ct 686 -324 702 -313 714 -299 ct 
726 -284 735 -266 741 -245 ct 747 -223 749 -197 749 -168 ct p
691 -168 m  691 -195 689 -216 685 -233 ct 681 -250 675 -264 667 -274 ct 659 -284 650 -291 639 -295 ct 
628 -299 615 -301 601 -301 ct 587 -301 574 -299 562 -295 ct 551 -290 541 -283 533 -273 ct 
525 -263 519 -249 515 -232 ct 510 -215 508 -194 508 -168 ct 508 -142 511 -121 515 -104 ct 
520 -87 526 -73 534 -63 ct 542 -53 551 -46 562 -41 ct 573 -37 585 -35 598 -35 ct 
612 -35 625 -37 636 -41 ct 648 -45 658 -52 666 -63 ct 674 -73 680 -86 684 -104 ct 
689 -121 691 -142 691 -168 ct p ef
819 0 m  819 -258 l  819 -265 819 -272 819 -279 ct 819 -287 819 -294 818 -300 ct 
818 -307 818 -314 818 -320 ct 818 -326 817 -331 817 -336 ct 870 -336 l  870 -331 870 -326 871 -320 ct 
871 -313 871 -307 872 -301 ct 872 -294 872 -288 872 -282 ct 872 -276 872 -271 872 -267 ct 
874 -267 l  878 -280 882 -291 886 -301 ct 891 -310 896 -318 902 -324 ct 908 -330 915 -335 923 -338 ct 
931 -341 942 -342 953 -342 ct 958 -342 962 -342 966 -341 ct 970 -340 974 -340 976 -339 ct 
976 -288 l  972 -289 968 -290 963 -290 ct 958 -291 952 -291 946 -291 ct 933 -291 922 -288 913 -282 ct 
904 -276 897 -268 891 -258 ct 886 -248 882 -236 879 -221 ct 876 -207 875 -192 875 -175 ct 
875 0 l  819 0 l  p ef
1158 -2 m  1149 0 1141 2 1132 3 ct 1123 4 1113 5 1101 5 ct 1057 5 1034 -20 1034 -71 ct 
1034 -295 l  996 -295 l  996 -336 l  1037 -336 l  1053 -411 l  1090 -411 l 
1090 -336 l  1152 -336 l  1152 -295 l  1090 -295 l  1090 -83 l  1090 -67 1093 -56 1098 -49 ct 
1103 -43 1113 -39 1126 -39 ct 1131 -39 1136 -40 1141 -41 ct 1146 -41 1152 -42 1158 -44 ct 
1158 -2 l  p ef
1250 -156 m  1250 -139 1251 -122 1255 -108 ct 1259 -93 1264 -80 1272 -70 ct 
1279 -59 1289 -51 1301 -45 ct 1313 -39 1327 -36 1343 -36 ct 1367 -36 1387 -41 1401 -50 ct 
1416 -60 1426 -72 1431 -87 ct 1480 -73 l  1476 -64 1472 -55 1465 -45 ct 1459 -36 1451 -27 1440 -20 ct 
1429 -12 1416 -6 1400 -1 ct 1385 4 1366 6 1343 6 ct 1294 6 1256 -9 1230 -38 ct 
1204 -68 1191 -112 1191 -170 ct 1191 -202 1195 -228 1203 -250 ct 1211 -272 1221 -290 1235 -303 ct 
1249 -317 1265 -327 1283 -333 ct 1301 -339 1320 -342 1341 -342 ct 1369 -342 1393 -338 1412 -329 ct 
1431 -320 1446 -307 1457 -291 ct 1469 -275 1477 -256 1482 -234 ct 1487 -212 1489 -189 1489 -164 ct 
1489 -156 l  1250 -156 l  p
1431 -199 m  1428 -234 1419 -260 1404 -277 ct 1389 -293 1368 -301 1340 -301 ct 
1331 -301 1321 -300 1311 -296 ct 1301 -293 1291 -288 1282 -280 ct 1274 -273 1266 -262 1260 -249 ct 
1254 -236 1251 -219 1250 -199 ct 1431 -199 l  p ef
1771 -53 m  1760 -32 1747 -16 1729 -7 ct 1712 2 1691 7 1666 7 ct 1624 7 1593 -7 1573 -36 ct 
1553 -64 1543 -108 1543 -166 ct 1543 -283 1584 -341 1666 -341 ct 1691 -341 1713 -337 1730 -327 ct 
1747 -318 1760 -303 1771 -283 ct 1771 -283 l  1771 -285 1771 -288 1771 -293 ct 
1771 -297 1771 -302 1771 -307 ct 1771 -312 1771 -316 1771 -321 ct 1771 -325 1771 -328 1771 -330 ct 
1771 -460 l  1826 -460 l  1826 -69 l  1826 -61 1826 -53 1827 -45 ct 1827 -38 1827 -31 1827 -25 ct 
1827 -19 1827 -13 1828 -9 ct 1828 -4 1828 -1 1828 1 ct 1775 1 l  1774 -2 1774 -4 1774 -8 ct 
1774 -12 1773 -16 1773 -21 ct 1773 -26 1772 -32 1772 -37 ct 1772 -42 1772 -48 1772 -53 ct 
1771 -53 l  p
1601 -167 m  1601 -144 1603 -124 1606 -108 ct 1609 -91 1613 -78 1620 -67 ct 
1626 -56 1634 -49 1644 -44 ct 1654 -39 1666 -36 1680 -36 ct 1695 -36 1708 -39 1719 -43 ct 
1731 -48 1740 -56 1747 -66 ct 1755 -77 1761 -91 1765 -108 ct 1769 -125 1771 -146 1771 -171 ct 
1771 -195 1769 -215 1765 -232 ct 1761 -248 1755 -261 1747 -271 ct 1740 -282 1730 -289 1719 -293 ct 
1708 -298 1695 -300 1681 -300 ct 1667 -300 1656 -298 1646 -293 ct 1636 -288 1627 -280 1621 -270 ct 
1614 -259 1609 -246 1606 -229 ct 1603 -212 1601 -191 1601 -167 ct p ef
pom
pum
8870 8359 t
469 0 m  398 0 l  322 -278 l  320 -286 317 -295 315 -306 ct 312 -317 310 -327 308 -337 ct 
305 -348 303 -360 300 -371 ct 298 -359 295 -348 293 -336 ct 290 -326 288 -316 286 -306 ct 
283 -295 281 -286 278 -278 ct 202 0 l  131 0 l  3 -438 l  65 -438 l  143 -159 l 
146 -146 150 -133 153 -121 ct 156 -108 159 -96 161 -86 ct 164 -74 166 -63 169 -52 ct 
172 -66 175 -80 178 -94 ct 180 -100 181 -106 183 -113 ct 184 -119 186 -125 187 -132 ct 
189 -138 190 -144 192 -149 ct 193 -155 195 -160 196 -165 ct 272 -438 l  329 -438 l 
405 -165 l  406 -160 407 -155 409 -149 ct 410 -144 412 -138 413 -132 ct 415 -126 417 -119 418 -113 ct 
419 -106 421 -100 422 -95 ct 426 -81 429 -66 432 -52 ct 432 -52 433 -56 435 -63 ct 
436 -70 438 -79 441 -90 ct 443 -100 446 -112 449 -125 ct 452 -137 455 -149 458 -159 ct 
535 -438 l  597 -438 l  469 0 l  p ef
632 0 m  632 -258 l  632 -265 632 -272 632 -279 ct 632 -287 632 -294 631 -300 ct 
631 -307 631 -314 631 -320 ct 631 -326 630 -331 630 -336 ct 683 -336 l  683 -331 683 -326 684 -320 ct 
684 -313 684 -307 685 -301 ct 685 -294 685 -288 685 -282 ct 685 -276 685 -271 685 -267 ct 
687 -267 l  691 -280 695 -291 699 -301 ct 704 -310 709 -318 715 -324 ct 721 -330 728 -335 736 -338 ct 
744 -341 755 -342 766 -342 ct 771 -342 775 -342 779 -341 ct 783 -340 787 -340 789 -339 ct 
789 -288 l  785 -289 781 -290 776 -290 ct 771 -291 765 -291 759 -291 ct 746 -291 735 -288 726 -282 ct 
717 -276 710 -268 704 -258 ct 699 -248 695 -236 692 -221 ct 689 -207 688 -192 688 -175 ct 
688 0 l  632 0 l  p ef
842 -407 m  842 -460 l  898 -460 l  898 -407 l  842 -407 l  p
842 1 m  842 -335 l  898 -335 l  898 1 l  842 1 l  p ef
1112 -2 m  1103 0 1095 2 1086 3 ct 1077 4 1067 5 1055 5 ct 1011 5 988 -20 988 -71 ct 
988 -295 l  950 -295 l  950 -336 l  991 -336 l  1007 -411 l  1044 -411 l 
1044 -336 l  1106 -336 l  1106 -295 l  1044 -295 l  1044 -83 l  1044 -67 1047 -56 1052 -49 ct 
1057 -43 1067 -39 1080 -39 ct 1085 -39 1090 -40 1095 -41 ct 1100 -41 1106 -42 1112 -44 ct 
1112 -2 l  p ef
1204 -156 m  1204 -139 1205 -122 1209 -108 ct 1213 -93 1218 -80 1226 -70 ct 
1233 -59 1243 -51 1255 -45 ct 1267 -39 1281 -36 1297 -36 ct 1321 -36 1341 -41 1355 -50 ct 
1370 -60 1380 -72 1385 -87 ct 1434 -73 l  1430 -64 1426 -55 1419 -45 ct 1413 -36 1405 -27 1394 -20 ct 
1383 -12 1370 -6 1354 -1 ct 1339 4 1320 6 1297 6 ct 1248 6 1210 -9 1184 -38 ct 
1158 -68 1145 -112 1145 -170 ct 1145 -202 1149 -228 1157 -250 ct 1165 -272 1175 -290 1189 -303 ct 
1203 -317 1219 -327 1237 -333 ct 1255 -339 1274 -342 1295 -342 ct 1323 -342 1347 -338 1366 -329 ct 
1385 -320 1400 -307 1411 -291 ct 1423 -275 1431 -256 1436 -234 ct 1441 -212 1443 -189 1443 -164 ct 
1443 -156 l  1204 -156 l  p
1385 -199 m  1382 -234 1373 -260 1358 -277 ct 1343 -293 1322 -301 1294 -301 ct 
1285 -301 1275 -300 1265 -296 ct 1255 -293 1245 -288 1236 -280 ct 1228 -273 1220 -262 1214 -249 ct 
1208 -236 1205 -219 1204 -199 ct 1385 -199 l  p ef
1679 -221 m  1679 -255 1684 -286 1693 -313 ct 1702 -341 1716 -364 1734 -384 ct 
1752 -403 1775 -418 1802 -428 ct 1829 -439 1861 -444 1896 -444 ct 1923 -444 1947 -442 1967 -437 ct 
1987 -432 2005 -425 2020 -416 ct 2035 -407 2047 -397 2058 -384 ct 2068 -371 2077 -357 2084 -341 ct 
2027 -324 l  2022 -335 2016 -345 2008 -354 ct 2001 -362 1991 -370 1981 -376 ct 
1970 -382 1957 -387 1943 -390 ct 1929 -394 1913 -396 1895 -396 ct 1868 -396 1845 -391 1826 -383 ct 
1806 -375 1790 -363 1777 -348 ct 1764 -332 1755 -314 1749 -293 ct 1742 -271 1739 -247 1739 -221 ct 
1739 -195 1743 -171 1749 -149 ct 1756 -127 1766 -108 1780 -92 ct 1793 -76 1810 -64 1830 -55 ct 
1850 -46 1873 -42 1899 -42 ct 1916 -42 1932 -44 1947 -46 ct 1961 -49 1974 -53 1986 -58 ct 
1997 -62 2008 -68 2017 -73 ct 2025 -79 2033 -85 2039 -91 ct 2039 -169 l  1908 -169 l 
1908 -219 l  2093 -219 l  2093 -68 l  2084 -58 2072 -49 2059 -40 ct 2046 -31 2031 -23 2015 -16 ct 
1999 -9 1981 -4 1961 0 ct 1942 4 1921 6 1899 6 ct 1862 6 1830 0 1803 -11 ct 1775 -22 1752 -38 1734 -58 ct 
1716 -78 1702 -102 1693 -130 ct 1684 -158 1679 -188 1679 -221 ct p ef
2186 0 m  2186 -258 l  2186 -265 2186 -272 2186 -279 ct 2186 -287 2186 -294 2185 -300 ct 
2185 -307 2185 -314 2185 -320 ct 2185 -326 2184 -331 2184 -336 ct 2237 -336 l 
2237 -331 2237 -326 2238 -320 ct 2238 -313 2238 -307 2239 -301 ct 2239 -294 2239 -288 2239 -282 ct 
2239 -276 2239 -271 2239 -267 ct 2241 -267 l  2245 -280 2249 -291 2253 -301 ct 
2258 -310 2263 -318 2269 -324 ct 2275 -330 2282 -335 2290 -338 ct 2298 -341 2309 -342 2320 -342 ct 
2325 -342 2329 -342 2333 -341 ct 2337 -340 2341 -340 2343 -339 ct 2343 -288 l 
2339 -289 2335 -290 2330 -290 ct 2325 -291 2319 -291 2313 -291 ct 2300 -291 2289 -288 2280 -282 ct 
2271 -276 2264 -268 2258 -258 ct 2253 -248 2249 -236 2246 -221 ct 2243 -207 2242 -192 2242 -175 ct 
2242 0 l  2186 0 l  p ef
2680 -168 m  2680 -110 2668 -66 2642 -37 ct 2616 -8 2578 6 2529 6 ct 2506 6 2485 2 2467 -5 ct 
2448 -12 2433 -22 2420 -37 ct 2407 -51 2397 -69 2391 -91 ct 2384 -113 2381 -139 2381 -168 ct 
2381 -284 2431 -342 2531 -342 ct 2557 -342 2580 -339 2598 -331 ct 2617 -324 2633 -313 2645 -299 ct 
2657 -284 2666 -266 2672 -245 ct 2678 -223 2680 -197 2680 -168 ct p
2622 -168 m  2622 -195 2620 -216 2616 -233 ct 2612 -250 2606 -264 2598 -274 ct 
2590 -284 2581 -291 2570 -295 ct 2559 -299 2546 -301 2532 -301 ct 2518 -301 2505 -299 2493 -295 ct 
2482 -290 2472 -283 2464 -273 ct 2456 -263 2450 -249 2446 -232 ct 2441 -215 2439 -194 2439 -168 ct 
2439 -142 2442 -121 2446 -104 ct 2451 -87 2457 -73 2465 -63 ct 2473 -53 2482 -46 2493 -41 ct 
2504 -37 2516 -35 2529 -35 ct 2543 -35 2556 -37 2567 -41 ct 2579 -45 2589 -52 2597 -63 ct 
2605 -73 2611 -86 2615 -104 ct 2620 -121 2622 -142 2622 -168 ct p ef
2802 -336 m  2802 -123 l  2802 -107 2804 -93 2806 -82 ct 2808 -71 2812 -62 2818 -56 ct 
2823 -49 2830 -44 2839 -41 ct 2848 -39 2858 -37 2872 -37 ct 2885 -37 2897 -39 2907 -44 ct 
2918 -49 2927 -55 2935 -64 ct 2942 -73 2948 -84 2952 -97 ct 2956 -110 2958 -125 2958 -141 ct 
2958 -336 l  3014 -336 l  3014 -72 l  3014 -65 3014 -57 3014 -50 ct 3014 -42 3015 -35 3015 -28 ct 
3015 -21 3015 -15 3015 -10 ct 3016 -5 3016 -2 3016 0 ct 2963 0 l  2963 -1 2963 -4 2963 -9 ct 
2962 -13 2962 -18 2962 -24 ct 2962 -30 2961 -36 2961 -42 ct 2961 -48 2961 -53 2961 -58 ct 
2960 -58 l  2955 -48 2949 -39 2942 -31 ct 2936 -23 2928 -17 2920 -11 ct 2911 -6 2902 -2 2891 2 ct 
2880 4 2867 6 2853 6 ct 2834 6 2818 4 2805 -1 ct 2791 -5 2780 -12 2771 -22 ct 2763 -31 2756 -44 2752 -59 ct 
2748 -73 2746 -91 2746 -112 ct 2746 -336 l  2802 -336 l  p ef
3382 -170 m  3382 -144 3380 -121 3376 -99 ct 3372 -78 3365 -59 3356 -43 ct 3346 -28 3333 -16 3318 -7 ct 
3302 2 3282 6 3259 6 ct 3235 6 3214 2 3196 -7 ct 3178 -17 3164 -31 3155 -52 ct 
3153 -52 l  3154 -52 3154 -50 3154 -47 ct 3154 -43 3154 -39 3154 -34 ct 3154 -29 3154 -24 3154 -17 ct 
3155 -11 3155 -5 3155 1 ct 3155 132 l  3099 132 l  3099 -267 l  3099 -275 3099 -283 3099 -290 ct 
3099 -298 3098 -305 3098 -311 ct 3098 -317 3098 -322 3098 -326 ct 3097 -331 3097 -334 3097 -336 ct 
3151 -336 l  3151 -335 3151 -333 3152 -329 ct 3152 -326 3152 -321 3153 -316 ct 
3153 -311 3153 -305 3154 -299 ct 3154 -293 3154 -287 3154 -282 ct 3155 -282 l 
3160 -293 3166 -302 3173 -310 ct 3180 -317 3187 -323 3196 -328 ct 3204 -333 3213 -337 3224 -339 ct 
3234 -341 3246 -342 3259 -342 ct 3282 -342 3302 -338 3318 -330 ct 3333 -321 3346 -310 3356 -295 ct 
3365 -280 3372 -261 3376 -240 ct 3380 -219 3382 -195 3382 -170 ct p
3324 -168 m  3324 -189 3323 -207 3320 -224 ct 3318 -240 3313 -253 3307 -265 ct 
3301 -276 3293 -284 3283 -290 ct 3273 -296 3260 -299 3245 -299 ct 3232 -299 3221 -297 3210 -294 ct 
3199 -290 3189 -283 3181 -273 ct 3173 -263 3166 -250 3162 -232 ct 3157 -215 3155 -192 3155 -164 ct 
3155 -140 3157 -120 3160 -104 ct 3164 -87 3170 -74 3178 -64 ct 3185 -53 3195 -46 3206 -42 ct 
3217 -37 3230 -35 3244 -35 ct 3260 -35 3273 -38 3283 -44 ct 3293 -50 3301 -59 3307 -70 ct 
3313 -82 3318 -95 3320 -112 ct 3323 -128 3324 -147 3324 -168 ct p ef
pom

pum
8616 11407 t
361 -1 m  247 -182 l  111 -182 l  111 -1 l  52 -1 l  52 -437 l  258 -437 l 
282 -437 304 -435 324 -429 ct 343 -423 359 -415 372 -404 ct 385 -394 395 -380 402 -365 ct 
408 -349 412 -332 412 -313 ct 412 -299 410 -285 406 -272 ct 402 -258 395 -246 387 -235 ct 
378 -224 367 -214 353 -206 ct 340 -198 324 -192 305 -189 ct 429 -1 l  361 -1 l 
p
352 -312 m  352 -325 350 -337 345 -346 ct 341 -356 334 -364 326 -371 ct 317 -377 306 -382 294 -385 ct 
282 -388 267 -390 252 -390 ct 111 -390 l  111 -229 l  254 -229 l  271 -229 286 -231 298 -235 ct 
311 -239 321 -245 329 -253 ct 337 -260 343 -269 346 -279 ct 350 -289 352 -300 352 -312 ct 
p ef
543 -156 m  543 -139 544 -122 548 -108 ct 552 -93 557 -80 565 -70 ct 572 -59 582 -51 594 -45 ct 
606 -39 620 -36 636 -36 ct 660 -36 680 -41 694 -50 ct 709 -60 719 -72 724 -87 ct 
773 -73 l  769 -64 765 -55 758 -45 ct 752 -36 744 -27 733 -20 ct 722 -12 709 -6 693 -1 ct 
678 4 659 6 636 6 ct 587 6 549 -9 523 -38 ct 497 -68 484 -112 484 -170 ct 484 -202 488 -228 496 -250 ct 
504 -272 514 -290 528 -303 ct 542 -317 558 -327 576 -333 ct 594 -339 613 -342 634 -342 ct 
662 -342 686 -338 705 -329 ct 724 -320 739 -307 750 -291 ct 762 -275 770 -256 775 -234 ct 
780 -212 782 -189 782 -164 ct 782 -156 l  543 -156 l  p
724 -199 m  721 -234 712 -260 697 -277 ct 682 -293 661 -301 633 -301 ct 624 -301 614 -300 604 -296 ct 
594 -293 584 -288 575 -280 ct 567 -273 559 -262 553 -249 ct 547 -236 544 -219 543 -199 ct 
724 -199 l  p ef
894 -170 m  894 -150 896 -133 898 -117 ct 901 -100 906 -86 913 -75 ct 919 -63 928 -54 939 -48 ct 
950 -41 963 -38 979 -38 ct 999 -38 1015 -43 1029 -54 ct 1042 -64 1050 -80 1053 -102 ct 
1110 -102 l  1108 -88 1104 -74 1098 -61 ct 1091 -48 1083 -37 1072 -27 ct 1062 -17 1049 -9 1033 -3 ct 
1018 3 1001 6 980 6 ct 954 6 932 2 913 -7 ct 895 -16 880 -28 869 -44 ct 857 -60 849 -78 844 -99 ct 
839 -121 836 -144 836 -168 ct 836 -191 838 -211 842 -228 ct 845 -245 851 -260 857 -273 ct 
864 -286 872 -297 881 -306 ct 890 -315 900 -322 911 -327 ct 921 -332 932 -336 944 -338 ct 
956 -341 968 -342 980 -342 ct 999 -342 1015 -339 1030 -334 ct 1045 -329 1057 -322 1068 -313 ct 
1079 -304 1087 -293 1094 -281 ct 1101 -269 1105 -256 1108 -242 ct 1051 -237 l 
1048 -256 1040 -271 1029 -282 ct 1017 -293 1000 -298 978 -298 ct 962 -298 949 -296 938 -290 ct 
928 -285 919 -277 913 -266 ct 906 -256 901 -242 898 -226 ct 896 -210 894 -191 894 -170 ct 
p ef
1212 -156 m  1212 -139 1213 -122 1217 -108 ct 1221 -93 1226 -80 1234 -70 ct 
1241 -59 1251 -51 1263 -45 ct 1275 -39 1289 -36 1305 -36 ct 1329 -36 1349 -41 1363 -50 ct 
1378 -60 1388 -72 1393 -87 ct 1442 -73 l  1438 -64 1434 -55 1427 -45 ct 1421 -36 1413 -27 1402 -20 ct 
1391 -12 1378 -6 1362 -1 ct 1347 4 1328 6 1305 6 ct 1256 6 1218 -9 1192 -38 ct 
1166 -68 1153 -112 1153 -170 ct 1153 -202 1157 -228 1165 -250 ct 1173 -272 1183 -290 1197 -303 ct 
1211 -317 1227 -327 1245 -333 ct 1263 -339 1282 -342 1303 -342 ct 1331 -342 1355 -338 1374 -329 ct 
1393 -320 1408 -307 1419 -291 ct 1431 -275 1439 -256 1444 -234 ct 1449 -212 1451 -189 1451 -164 ct 
1451 -156 l  1212 -156 l  p
1393 -199 m  1390 -234 1381 -260 1366 -277 ct 1351 -293 1330 -301 1302 -301 ct 
1293 -301 1283 -300 1273 -296 ct 1263 -293 1253 -288 1244 -280 ct 1236 -273 1228 -262 1222 -249 ct 
1216 -236 1213 -219 1212 -199 ct 1393 -199 l  p ef
1733 0 m  1733 -213 l  1733 -229 1732 -243 1729 -254 ct 1727 -265 1723 -274 1718 -280 ct 
1712 -287 1705 -292 1696 -295 ct 1688 -297 1677 -299 1664 -299 ct 1650 -299 1638 -297 1628 -292 ct 
1617 -287 1608 -281 1601 -272 ct 1593 -263 1587 -252 1583 -239 ct 1579 -226 1577 -211 1577 -195 ct 
1577 0 l  1521 0 l  1521 -264 l  1521 -271 1521 -279 1521 -286 ct 1521 -294 1521 -301 1520 -308 ct 
1520 -315 1520 -321 1520 -326 ct 1520 -331 1519 -334 1519 -336 ct 1572 -336 l 
1572 -335 1572 -332 1573 -327 ct 1573 -323 1573 -318 1573 -312 ct 1574 -306 1574 -300 1574 -294 ct 
1574 -288 1574 -283 1574 -278 ct 1575 -278 l  1581 -288 1587 -297 1593 -305 ct 
1599 -313 1607 -319 1615 -325 ct 1624 -330 1633 -335 1644 -338 ct 1655 -341 1668 -342 1683 -342 ct 
1701 -342 1717 -340 1731 -335 ct 1744 -331 1755 -324 1764 -314 ct 1772 -305 1779 -292 1783 -277 ct 
1787 -262 1789 -244 1789 -224 ct 1789 0 l  1733 0 l  p ef
1914 -170 m  1914 -150 1916 -133 1918 -117 ct 1921 -100 1926 -86 1933 -75 ct 
1939 -63 1948 -54 1959 -48 ct 1970 -41 1983 -38 1999 -38 ct 2019 -38 2035 -43 2049 -54 ct 
2062 -64 2070 -80 2073 -102 ct 2130 -102 l  2128 -88 2124 -74 2118 -61 ct 2111 -48 2103 -37 2092 -27 ct 
2082 -17 2069 -9 2053 -3 ct 2038 3 2021 6 2000 6 ct 1974 6 1952 2 1933 -7 ct 1915 -16 1900 -28 1889 -44 ct 
1877 -60 1869 -78 1864 -99 ct 1859 -121 1856 -144 1856 -168 ct 1856 -191 1858 -211 1862 -228 ct 
1865 -245 1871 -260 1877 -273 ct 1884 -286 1892 -297 1901 -306 ct 1910 -315 1920 -322 1931 -327 ct 
1941 -332 1952 -336 1964 -338 ct 1976 -341 1988 -342 2000 -342 ct 2019 -342 2035 -339 2050 -334 ct 
2065 -329 2077 -322 2088 -313 ct 2099 -304 2107 -293 2114 -281 ct 2121 -269 2125 -256 2128 -242 ct 
2071 -237 l  2068 -256 2060 -271 2049 -282 ct 2037 -293 2020 -298 1998 -298 ct 
1982 -298 1969 -296 1958 -290 ct 1948 -285 1939 -277 1933 -266 ct 1926 -256 1921 -242 1918 -226 ct 
1916 -210 1914 -191 1914 -170 ct p ef
2333 -1 m  2325 20 2317 38 2309 54 ct 2301 70 2292 84 2282 96 ct 2272 107 2260 116 2248 122 ct 
2236 128 2221 131 2205 131 ct 2198 131 2192 131 2186 131 ct 2180 131 2173 130 2167 128 ct 
2167 86 l  2171 87 2175 88 2180 88 ct 2185 88 2189 88 2193 88 ct 2209 88 2224 82 2238 70 ct 
2252 57 2265 38 2275 11 ct 2281 -2 l  2148 -336 l  2207 -336 l  2278 -150 l 
2280 -145 2282 -137 2286 -128 ct 2289 -119 2292 -109 2295 -100 ct 2298 -91 2301 -83 2304 -75 ct 
2306 -68 2308 -63 2308 -61 ct 2309 -63 2310 -68 2313 -75 ct 2315 -81 2318 -89 2321 -97 ct 
2324 -105 2327 -114 2330 -122 ct 2333 -131 2336 -138 2338 -144 ct 2403 -336 l 
2462 -336 l  2333 -1 l  p ef
3032 -123 m  3032 -101 3028 -82 3019 -67 ct 3010 -51 2999 -38 2984 -28 ct 2969 -19 2952 -11 2933 -7 ct 
2913 -2 2893 0 2871 0 ct 2694 0 l  2694 -437 l  2853 -437 l  2877 -437 2899 -435 2918 -431 ct 
2937 -427 2953 -421 2966 -412 ct 2979 -404 2989 -393 2996 -379 ct 3003 -366 3007 -350 3007 -331 ct 
3007 -319 3005 -307 3002 -297 ct 2998 -286 2993 -276 2986 -267 ct 2979 -258 2970 -251 2960 -245 ct 
2950 -238 2937 -234 2924 -230 ct 2941 -228 2957 -224 2970 -218 ct 2984 -212 2995 -205 3004 -195 ct 
3013 -186 3020 -175 3025 -163 ct 3030 -151 3032 -137 3032 -123 ct p
2947 -324 m  2947 -348 2939 -365 2923 -375 ct 2907 -385 2883 -390 2853 -390 ct 
2753 -390 l  2753 -251 l  2853 -251 l  2870 -251 2885 -253 2897 -256 ct 2909 -260 2919 -265 2926 -271 ct 
2933 -277 2939 -285 2942 -294 ct 2945 -303 2947 -313 2947 -324 ct p
2972 -128 m  2972 -142 2970 -153 2965 -163 ct 2960 -173 2952 -181 2943 -187 ct 
2933 -193 2922 -198 2909 -201 ct 2895 -204 2880 -205 2864 -205 ct 2753 -205 l 
2753 -47 l  2868 -47 l  2883 -47 2897 -49 2910 -51 ct 2923 -54 2934 -58 2943 -64 ct 
2952 -70 2959 -79 2964 -89 ct 2970 -99 2972 -112 2972 -128 ct p ef
3107 -407 m  3107 -460 l  3163 -460 l  3163 -407 l  3107 -407 l  p
3107 1 m  3107 -335 l  3163 -335 l  3163 1 l  3107 1 l  p ef
3377 -2 m  3368 0 3360 2 3351 3 ct 3342 4 3332 5 3320 5 ct 3276 5 3253 -20 3253 -71 ct 
3253 -295 l  3215 -295 l  3215 -336 l  3256 -336 l  3272 -411 l  3309 -411 l 
3309 -336 l  3371 -336 l  3371 -295 l  3309 -295 l  3309 -83 l  3309 -67 3312 -56 3317 -49 ct 
3322 -43 3332 -39 3345 -39 ct 3350 -39 3355 -40 3360 -41 ct 3365 -41 3371 -42 3377 -44 ct 
3377 -2 l  p ef
pom
1 lw 0 lj 0.003 0.003 0.003 c 9382 7350 m  8135 6310 l  ps
7858 6080 m  8108 6483 l  8300 6253 l  7858 6080 l  p ef
10144 11668 m  10491 12362 l  ps
10652 12684 m  10585 12214 l  10317 12349 l  10652 12684 l  p ef

pum
7854 9426 t
0.230 0.226 0.210 c 428 -223 m  428 -187 423 -155 412 -127 ct 401 -99 386 -76 367 -57 ct 
348 -38 325 -24 299 -14 ct 273 -5 245 0 215 0 ct 52 0 l  52 -437 l  197 -437 l 
230 -437 261 -433 290 -425 ct 318 -417 343 -404 363 -386 ct 384 -369 400 -346 411 -319 ct 
422 -293 428 -261 428 -223 ct p
369 -223 m  369 -253 364 -278 356 -299 ct 347 -320 336 -337 320 -351 ct 305 -364 287 -374 265 -381 ct 
244 -387 221 -390 195 -390 ct 111 -390 l  111 -47 l  209 -47 l  232 -47 253 -51 272 -59 ct 
292 -66 309 -77 323 -92 ct 337 -107 349 -125 357 -147 ct 365 -169 369 -194 369 -223 ct 
p ef
543 -156 m  543 -139 544 -122 548 -108 ct 552 -93 557 -80 565 -70 ct 572 -59 582 -51 594 -45 ct 
606 -39 620 -36 636 -36 ct 660 -36 680 -41 694 -50 ct 709 -60 719 -72 724 -87 ct 
773 -73 l  769 -64 765 -55 758 -45 ct 752 -36 744 -27 733 -20 ct 722 -12 709 -6 693 -1 ct 
678 4 659 6 636 6 ct 587 6 549 -9 523 -38 ct 497 -68 484 -112 484 -170 ct 484 -202 488 -228 496 -250 ct 
504 -272 514 -290 528 -303 ct 542 -317 558 -327 576 -333 ct 594 -339 613 -342 634 -342 ct 
662 -342 686 -338 705 -329 ct 724 -320 739 -307 750 -291 ct 762 -275 770 -256 775 -234 ct 
780 -212 782 -189 782 -164 ct 782 -156 l  543 -156 l  p
724 -199 m  721 -234 712 -260 697 -277 ct 682 -293 661 -301 633 -301 ct 624 -301 614 -300 604 -296 ct 
594 -293 584 -288 575 -280 ct 567 -273 559 -262 553 -249 ct 547 -236 544 -219 543 -199 ct 
724 -199 l  p ef
1104 -93 m  1104 -77 1101 -63 1094 -51 ct 1088 -39 1079 -28 1068 -20 ct 1056 -12 1042 -5 1025 -1 ct 
1008 4 989 6 967 6 ct 948 6 930 4 915 2 ct 899 -2 886 -6 874 -13 ct 862 -20 852 -28 844 -39 ct 
836 -50 830 -63 827 -79 ct 876 -89 l  881 -71 891 -57 905 -49 ct 920 -41 941 -37 967 -37 ct 
979 -37 990 -37 1000 -39 ct 1010 -41 1019 -44 1026 -48 ct 1034 -52 1039 -57 1043 -64 ct 
1047 -70 1049 -79 1049 -89 ct 1049 -99 1047 -107 1042 -114 ct 1037 -120 1031 -126 1022 -130 ct 
1014 -134 1004 -138 991 -141 ct 979 -144 966 -148 952 -152 ct 938 -155 925 -159 912 -164 ct 
898 -168 886 -174 876 -181 ct 865 -188 857 -197 850 -207 ct 843 -218 840 -231 840 -247 ct 
840 -278 851 -301 873 -317 ct 895 -333 926 -341 968 -341 ct 1005 -341 1034 -335 1056 -322 ct 
1078 -309 1092 -288 1098 -259 ct 1047 -253 l  1046 -261 1042 -269 1037 -275 ct 
1032 -281 1026 -285 1019 -289 ct 1012 -293 1004 -295 996 -297 ct 987 -298 978 -299 968 -299 ct 
943 -299 924 -295 912 -288 ct 900 -280 894 -268 894 -253 ct 894 -244 896 -236 901 -230 ct 
905 -224 912 -219 920 -215 ct 927 -211 937 -208 948 -205 ct 959 -202 972 -199 985 -195 ct 
994 -193 1003 -191 1012 -188 ct 1022 -186 1031 -182 1040 -179 ct 1048 -175 1057 -171 1064 -166 ct 
1072 -161 1079 -155 1085 -149 ct 1090 -142 1095 -134 1098 -125 ct 1102 -116 1104 -105 1104 -93 ct 
p ef
1298 -2 m  1289 0 1281 2 1272 3 ct 1263 4 1253 5 1241 5 ct 1197 5 1174 -20 1174 -71 ct 
1174 -295 l  1136 -295 l  1136 -336 l  1177 -336 l  1193 -411 l  1230 -411 l 
1230 -336 l  1292 -336 l  1292 -295 l  1230 -295 l  1230 -83 l  1230 -67 1233 -56 1238 -49 ct 
1243 -43 1253 -39 1266 -39 ct 1271 -39 1276 -40 1281 -41 ct 1286 -41 1292 -42 1298 -44 ct 
1298 -2 l  p ef
1432 6 m  1399 6 1373 -3 1356 -21 ct 1339 -39 1331 -63 1331 -94 ct 1331 -117 1335 -135 1344 -149 ct 
1352 -163 1363 -174 1376 -183 ct 1390 -191 1405 -196 1423 -199 ct 1440 -203 1458 -204 1476 -204 ct 
1551 -204 l  1551 -223 l  1551 -237 1550 -248 1547 -258 ct 1544 -268 1539 -276 1533 -282 ct 
1527 -288 1520 -292 1511 -295 ct 1502 -298 1491 -299 1479 -299 ct 1468 -299 1459 -299 1450 -297 ct 
1441 -296 1434 -293 1427 -289 ct 1421 -285 1416 -279 1412 -272 ct 1408 -265 1405 -257 1404 -246 ct 
1346 -251 l  1348 -265 1352 -277 1358 -288 ct 1363 -299 1372 -309 1382 -317 ct 
1393 -325 1406 -331 1422 -335 ct 1438 -340 1458 -342 1480 -342 ct 1523 -342 1554 -332 1576 -313 ct 
1597 -294 1608 -266 1608 -229 ct 1608 -85 l  1608 -68 1610 -55 1614 -47 ct 1618 -39 1627 -35 1639 -35 ct 
1642 -35 1645 -35 1648 -35 ct 1651 -36 1654 -36 1657 -37 ct 1657 -2 l  1650 0 1643 1 1636 2 ct 
1629 3 1622 3 1614 3 ct 1604 3 1594 2 1587 -1 ct 1579 -4 1573 -8 1568 -14 ct 1564 -20 1560 -27 1558 -35 ct 
1555 -43 1554 -53 1553 -64 ct 1551 -64 l  1545 -54 1539 -44 1531 -35 ct 1524 -27 1516 -19 1506 -13 ct 
1497 -7 1486 -2 1474 1 ct 1462 4 1448 6 1432 6 ct p
1445 -36 m  1463 -36 1478 -39 1492 -46 ct 1505 -52 1516 -60 1525 -70 ct 1534 -80 1540 -91 1545 -103 ct 
1549 -115 1551 -127 1551 -138 ct 1551 -165 l  1490 -165 l  1476 -165 1463 -164 1451 -162 ct 
1439 -161 1428 -157 1419 -152 ct 1409 -147 1402 -139 1397 -130 ct 1391 -121 1388 -108 1388 -93 ct 
1388 -75 1393 -61 1403 -51 ct 1413 -41 1427 -36 1445 -36 ct p ef
1825 132 m  1806 132 1789 130 1774 126 ct 1759 122 1746 117 1736 109 ct 1725 102 1716 93 1710 83 ct 
1703 73 1699 61 1696 49 ct 1752 41 l  1755 56 1764 68 1776 77 ct 1789 85 1806 89 1826 89 ct 
1839 89 1851 88 1861 84 ct 1871 81 1880 75 1887 67 ct 1894 59 1900 49 1904 37 ct 
1908 25 1910 9 1910 -8 ct 1910 -63 l  1909 -63 l  1905 -54 1900 -46 1894 -38 ct 
1888 -30 1880 -24 1872 -18 ct 1863 -12 1853 -7 1841 -3 ct 1829 0 1816 2 1801 2 ct 
1780 2 1762 -1 1747 -8 ct 1731 -16 1719 -26 1709 -41 ct 1700 -55 1693 -73 1688 -94 ct 
1684 -115 1682 -139 1682 -167 ct 1682 -194 1684 -218 1688 -240 ct 1693 -261 1700 -280 1710 -295 ct 
1720 -310 1733 -321 1749 -329 ct 1765 -337 1785 -341 1808 -341 ct 1831 -341 1852 -336 1869 -325 ct 
1887 -314 1900 -298 1910 -278 ct 1910 -278 l  1910 -284 1911 -289 1911 -296 ct 
1911 -302 1912 -308 1912 -314 ct 1912 -320 1913 -324 1913 -329 ct 1913 -333 1914 -335 1914 -336 ct 
1967 -336 l  1967 -334 1967 -331 1967 -326 ct 1966 -322 1966 -316 1966 -310 ct 
1966 -304 1966 -297 1966 -290 ct 1965 -282 1965 -274 1965 -266 ct 1965 -10 l 
1965 37 1954 73 1931 96 ct 1908 120 1872 132 1825 132 ct p
1910 -168 m  1910 -191 1907 -211 1902 -228 ct 1897 -245 1891 -258 1882 -269 ct 
1874 -279 1865 -287 1854 -292 ct 1843 -297 1832 -299 1821 -299 ct 1807 -299 1795 -297 1784 -292 ct 
1774 -287 1766 -279 1759 -269 ct 1752 -258 1747 -244 1744 -228 ct 1741 -211 1739 -191 1739 -168 ct 
1739 -144 1741 -123 1744 -107 ct 1747 -91 1752 -77 1759 -67 ct 1765 -57 1774 -50 1784 -46 ct 
1794 -41 1806 -39 1820 -39 ct 1831 -39 1842 -41 1853 -46 ct 1864 -51 1873 -58 1882 -69 ct 
1890 -79 1897 -92 1902 -109 ct 1907 -125 1910 -145 1910 -168 ct p ef
2093 -156 m  2093 -139 2094 -122 2098 -108 ct 2102 -93 2107 -80 2115 -70 ct 
2122 -59 2132 -51 2144 -45 ct 2156 -39 2170 -36 2186 -36 ct 2210 -36 2230 -41 2244 -50 ct 
2259 -60 2269 -72 2274 -87 ct 2323 -73 l  2319 -64 2315 -55 2308 -45 ct 2302 -36 2294 -27 2283 -20 ct 
2272 -12 2259 -6 2243 -1 ct 2228 4 2209 6 2186 6 ct 2137 6 2099 -9 2073 -38 ct 
2047 -68 2034 -112 2034 -170 ct 2034 -202 2038 -228 2046 -250 ct 2054 -272 2064 -290 2078 -303 ct 
2092 -317 2108 -327 2126 -333 ct 2144 -339 2163 -342 2184 -342 ct 2212 -342 2236 -338 2255 -329 ct 
2274 -320 2289 -307 2300 -291 ct 2312 -275 2320 -256 2325 -234 ct 2330 -212 2332 -189 2332 -164 ct 
2332 -156 l  2093 -156 l  p
2274 -199 m  2271 -234 2262 -260 2247 -277 ct 2232 -293 2211 -301 2183 -301 ct 
2174 -301 2164 -300 2154 -296 ct 2144 -293 2134 -288 2125 -280 ct 2117 -273 2109 -262 2103 -249 ct 
2097 -236 2094 -219 2093 -199 ct 2274 -199 l  p ef
pom
pum
8030 10137 t
390 -305 m  390 -286 387 -269 381 -252 ct 374 -236 365 -221 352 -209 ct 340 -197 324 -188 305 -181 ct 
287 -174 265 -170 240 -170 ct 111 -170 l  111 1 l  52 1 l  52 -437 l  236 -437 l 
262 -437 284 -434 304 -428 ct 323 -421 339 -412 352 -401 ct 364 -389 374 -375 380 -359 ct 
387 -343 390 -325 390 -305 ct p
331 -305 m  331 -332 322 -354 305 -368 ct 288 -382 263 -390 229 -390 ct 111 -390 l 
111 -217 l  231 -217 l  265 -217 290 -224 306 -240 ct 323 -255 331 -276 331 -305 ct 
p ef
749 -168 m  749 -110 737 -66 711 -37 ct 685 -8 647 6 598 6 ct 575 6 554 2 536 -5 ct 
517 -12 502 -22 489 -37 ct 476 -51 466 -69 460 -91 ct 453 -113 450 -139 450 -168 ct 
450 -284 500 -342 600 -342 ct 626 -342 649 -339 667 -331 ct 686 -324 702 -313 714 -299 ct 
726 -284 735 -266 741 -245 ct 747 -223 749 -197 749 -168 ct p
691 -168 m  691 -195 689 -216 685 -233 ct 681 -250 675 -264 667 -274 ct 659 -284 650 -291 639 -295 ct 
628 -299 615 -301 601 -301 ct 587 -301 574 -299 562 -295 ct 551 -290 541 -283 533 -273 ct 
525 -263 519 -249 515 -232 ct 510 -215 508 -194 508 -168 ct 508 -142 511 -121 515 -104 ct 
520 -87 526 -73 534 -63 ct 542 -53 551 -46 562 -41 ct 573 -37 585 -35 598 -35 ct 
612 -35 625 -37 636 -41 ct 648 -45 658 -52 666 -63 ct 674 -73 680 -86 684 -104 ct 
689 -121 691 -142 691 -168 ct p ef
817 -407 m  817 -460 l  873 -460 l  873 -407 l  817 -407 l  p
817 1 m  817 -335 l  873 -335 l  873 1 l  817 1 l  p ef
1170 0 m  1170 -213 l  1170 -229 1169 -243 1166 -254 ct 1164 -265 1160 -274 1155 -280 ct 
1149 -287 1142 -292 1133 -295 ct 1125 -297 1114 -299 1101 -299 ct 1087 -299 1075 -297 1065 -292 ct 
1054 -287 1045 -281 1038 -272 ct 1030 -263 1024 -252 1020 -239 ct 1016 -226 1014 -211 1014 -195 ct 
1014 0 l  958 0 l  958 -264 l  958 -271 958 -279 958 -286 ct 958 -294 958 -301 957 -308 ct 
957 -315 957 -321 957 -326 ct 957 -331 956 -334 956 -336 ct 1009 -336 l  1009 -335 1009 -332 1010 -327 ct 
1010 -323 1010 -318 1010 -312 ct 1011 -306 1011 -300 1011 -294 ct 1011 -288 1011 -283 1011 -278 ct 
1012 -278 l  1018 -288 1024 -297 1030 -305 ct 1036 -313 1044 -319 1052 -325 ct 
1061 -330 1070 -335 1081 -338 ct 1092 -341 1105 -342 1120 -342 ct 1138 -342 1154 -340 1168 -335 ct 
1181 -331 1192 -324 1201 -314 ct 1209 -305 1216 -292 1220 -277 ct 1224 -262 1226 -244 1226 -224 ct 
1226 0 l  1170 0 l  p ef
1438 -2 m  1429 0 1421 2 1412 3 ct 1403 4 1393 5 1381 5 ct 1337 5 1314 -20 1314 -71 ct 
1314 -295 l  1276 -295 l  1276 -336 l  1317 -336 l  1333 -411 l  1370 -411 l 
1370 -336 l  1432 -336 l  1432 -295 l  1370 -295 l  1370 -83 l  1370 -67 1373 -56 1378 -49 ct 
1383 -43 1393 -39 1406 -39 ct 1411 -39 1416 -40 1421 -41 ct 1426 -41 1432 -42 1438 -44 ct 
1438 -2 l  p ef
1530 -156 m  1530 -139 1531 -122 1535 -108 ct 1539 -93 1544 -80 1552 -70 ct 
1559 -59 1569 -51 1581 -45 ct 1593 -39 1607 -36 1623 -36 ct 1647 -36 1667 -41 1681 -50 ct 
1696 -60 1706 -72 1711 -87 ct 1760 -73 l  1756 -64 1752 -55 1745 -45 ct 1739 -36 1731 -27 1720 -20 ct 
1709 -12 1696 -6 1680 -1 ct 1665 4 1646 6 1623 6 ct 1574 6 1536 -9 1510 -38 ct 
1484 -68 1471 -112 1471 -170 ct 1471 -202 1475 -228 1483 -250 ct 1491 -272 1501 -290 1515 -303 ct 
1529 -317 1545 -327 1563 -333 ct 1581 -339 1600 -342 1621 -342 ct 1649 -342 1673 -338 1692 -329 ct 
1711 -320 1726 -307 1737 -291 ct 1749 -275 1757 -256 1762 -234 ct 1767 -212 1769 -189 1769 -164 ct 
1769 -156 l  1530 -156 l  p
1711 -199 m  1708 -234 1699 -260 1684 -277 ct 1669 -293 1648 -301 1620 -301 ct 
1611 -301 1601 -300 1591 -296 ct 1581 -293 1571 -288 1562 -280 ct 1554 -273 1546 -262 1540 -249 ct 
1534 -236 1531 -219 1530 -199 ct 1711 -199 l  p ef
1839 0 m  1839 -258 l  1839 -265 1839 -272 1839 -279 ct 1839 -287 1839 -294 1838 -300 ct 
1838 -307 1838 -314 1838 -320 ct 1838 -326 1837 -331 1837 -336 ct 1890 -336 l 
1890 -331 1890 -326 1891 -320 ct 1891 -313 1891 -307 1892 -301 ct 1892 -294 1892 -288 1892 -282 ct 
1892 -276 1892 -271 1892 -267 ct 1894 -267 l  1898 -280 1902 -291 1906 -301 ct 
1911 -310 1916 -318 1922 -324 ct 1928 -330 1935 -335 1943 -338 ct 1951 -341 1962 -342 1973 -342 ct 
1978 -342 1982 -342 1986 -341 ct 1990 -340 1994 -340 1996 -339 ct 1996 -288 l 
1992 -289 1988 -290 1983 -290 ct 1978 -291 1972 -291 1966 -291 ct 1953 -291 1942 -288 1933 -282 ct 
1924 -276 1917 -268 1911 -258 ct 1906 -248 1902 -236 1899 -221 ct 1896 -207 1895 -192 1895 -175 ct 
1895 0 l  1839 0 l  p ef
pom
0 11788 t 
pom
count op_count sub {pop} repeat countdictstack dict_count sub {end} repeat b4_inc_state restore
%%PageTrailer
%%Trailer
%%EOF
