\relax 
\citation{wow}
\citation{wow,stow}
\citation{wow,stow}
\@writefile{toc}{\contentsline {section}{\numberline {I}Introduction}{1}}
\newlabel{sec:intro}{{I}{1}}
\@writefile{toc}{\contentsline {section}{\numberline {II}Background}{1}}
\newlabel{sec:back}{{II}{1}}
\citation{wow,stow}
\citation{haining:2000}
\citation{wow}
\citation{wow}
\citation{the_architecture_of_a}
\citation{stow}
\citation{destage_algorithms_for_disk}
\citation{haining:2000}
\citation{wow}
\citation{stow}
\citation{wow}
\citation{stow}
\citation{gftl,rftl,Han:2006:IGC,jlee:ispass11,ykim:msst11}
\citation{ykim:msst11}
\citation{wow}
\citation{wow}
\citation{destage_algorithms_for_disk}
\@writefile{lof}{\contentsline {figure}{\numberline {1}{\ignorespaces A typical RAID controller architecture employing a write cache in WOW\nobreakspace  {}\cite  {wow}. }}{2}}
\newlabel{fig:write_cache}{{1}{2}}
\@writefile{toc}{\contentsline {section}{\numberline {III}SSD-aware Write Cache Design}{2}}
\newlabel{sec:wb}{{III}{2}}
\@writefile{toc}{\contentsline {subsection}{\numberline {\unhbox \voidb@x \hbox {III-A}}Wise ordering for Writes (WOW)\nobreakspace  {}\cite  {wow} }{2}}
\citation{wow}
\citation{stow}
\citation{msr_ssd}
\@writefile{lof}{\contentsline {figure}{\numberline {2}{\ignorespaces Timing diagram of processing write requests A and B and read requests X and Y in an array of 4 SSDs.}}{3}}
\newlabel{fig:example}{{2}{3}}
\@writefile{toc}{\contentsline {subsection}{\numberline {\unhbox \voidb@x \hbox {III-B}}Motivating Example}{3}}
\newlabel{sec:moti}{{\unhbox \voidb@x \hbox {III-B}}{3}}
\@writefile{lof}{\contentsline {figure}{\numberline {3}{\ignorespaces  An architectural overview of synchronous independent write caches (SIW). }}{3}}
\newlabel{fig:proposed}{{3}{3}}
\@writefile{toc}{\contentsline {subsection}{\numberline {\unhbox \voidb@x \hbox {III-C}}Synchronous Independent Write Cache (SIW)}{3}}
\newlabel{sec:siw}{{\unhbox \voidb@x \hbox {III-C}}{3}}
\citation{msr_ssd}
\citation{6416101}
\citation{youngjae:pdsw10}
\citation{youngjae:pdsw10}
\citation{Narayanan:2009:MSS:1519065.1519081}
\@writefile{toc}{\contentsline {subsection}{\numberline {\unhbox \voidb@x \hbox {III-D}}Overhead of Pre-parity-computation}{4}}
\newlabel{sec:overhead}{{\unhbox \voidb@x \hbox {III-D}}{4}}
\@writefile{toc}{\contentsline {section}{\numberline {IV}Evaluation}{4}}
\newlabel{sec:expr}{{IV}{4}}
\@writefile{toc}{\contentsline {subsection}{\numberline {\unhbox \voidb@x \hbox {IV-A}}Environment}{4}}
\newlabel{sec:env}{{\unhbox \voidb@x \hbox {IV-A}}{4}}
\citation{6416101}
\@writefile{lot}{\contentsline {table}{\numberline {I}{\ignorespaces \relax \fontsize  {9}{10pt}\selectfont  SSD model parameters.}}{5}}
\newlabel{tab:ssd_param}{{I}{5}}
\@writefile{lot}{\contentsline {table}{\numberline {II}{\ignorespaces  {\relax \fontsize  {9}{10pt}\selectfont  Varying workload parameters. {W(R, I, W) denotes request size R (KB), inter-arrival time I (ms), and write percentage W (\%).}}}}{5}}
\newlabel{tab:workload_param}{{II}{5}}
\@writefile{toc}{\contentsline {subsection}{\numberline {\unhbox \voidb@x \hbox {IV-B}}Results}{5}}
\newlabel{sec:results}{{\unhbox \voidb@x \hbox {IV-B}}{5}}
\@writefile{lof}{\contentsline {figure}{\numberline {4}{\ignorespaces Performance comparison of WOW and SIW for HPC and Exchange workloads.}}{5}}
\newlabel{fig:response}{{4}{5}}
\@writefile{lof}{\contentsline {figure}{\numberline {5}{\ignorespaces Placement of write caches. The HPC workload is used.}}{5}}
\newlabel{fig:placement}{{5}{5}}
\@writefile{lof}{\contentsline {figure}{\numberline {6}{\ignorespaces Cumulative distribution function of response time. The HPC workload is used.}}{5}}
\newlabel{fig:cdf}{{6}{5}}
\@writefile{lof}{\contentsline {figure}{\numberline {7}{\ignorespaces Probability of GC synchronization. The HPC workload is used.}}{6}}
\newlabel{fig:sync_gc}{{7}{6}}
\@writefile{lof}{\contentsline {figure}{\numberline {8}{\ignorespaces Performance comparison for synthetic workloads.}}{6}}
\newlabel{fig:synth}{{8}{6}}
\bibstyle{IEEEtran}
\bibdata{IEEEabrv,flash-ref}
\bibcite{wow}{1}
\bibcite{stow}{2}
\bibcite{haining:2000}{3}
\bibcite{the_architecture_of_a}{4}
\bibcite{destage_algorithms_for_disk}{5}
\bibcite{gftl}{6}
\bibcite{rftl}{7}
\bibcite{Han:2006:IGC}{8}
\bibcite{jlee:ispass11}{9}
\bibcite{ykim:msst11}{10}
\bibcite{msr_ssd}{11}
\bibcite{6416101}{12}
\bibcite{youngjae:pdsw10}{13}
\bibcite{Narayanan:2009:MSS:1519065.1519081}{14}
\@writefile{toc}{\contentsline {section}{\numberline {V}Conclusion}{7}}
\newlabel{sec:conc}{{V}{7}}
\@writefile{toc}{\contentsline {section}{References}{7}}
